%TF.GenerationSoftware,KiCad,Pcbnew,(5.1.10)-1*%
%TF.CreationDate,2021-12-23T16:00:15+03:00*%
%TF.ProjectId,tutorial1,7475746f-7269-4616-9c31-2e6b69636164,rev?*%
%TF.SameCoordinates,Original*%
%TF.FileFunction,Copper,L3,Inr*%
%TF.FilePolarity,Positive*%
%FSLAX46Y46*%
G04 Gerber Fmt 4.6, Leading zero omitted, Abs format (unit mm)*
G04 Created by KiCad (PCBNEW (5.1.10)-1) date 2021-12-23 16:00:15*
%MOMM*%
%LPD*%
G01*
G04 APERTURE LIST*
%TA.AperFunction,ComponentPad*%
%ADD10C,1.700000*%
%TD*%
%TA.AperFunction,ComponentPad*%
%ADD11C,2.200000*%
%TD*%
%TA.AperFunction,ComponentPad*%
%ADD12R,1.600000X1.600000*%
%TD*%
%TA.AperFunction,ComponentPad*%
%ADD13O,1.600000X1.600000*%
%TD*%
%TA.AperFunction,ComponentPad*%
%ADD14O,1.500000X3.000000*%
%TD*%
%TA.AperFunction,ComponentPad*%
%ADD15R,1.500000X3.000000*%
%TD*%
%TA.AperFunction,ComponentPad*%
%ADD16C,6.500000*%
%TD*%
%TA.AperFunction,ComponentPad*%
%ADD17R,2.000000X2.000000*%
%TD*%
%TA.AperFunction,ComponentPad*%
%ADD18C,1.600000*%
%TD*%
%TA.AperFunction,ComponentPad*%
%ADD19C,10.160000*%
%TD*%
%TA.AperFunction,ViaPad*%
%ADD20C,0.600000*%
%TD*%
G04 APERTURE END LIST*
D10*
%TO.N,/a0*%
%TO.C,SW1*%
X354710000Y-116250000D03*
%TO.N,GND*%
X354710000Y-120750000D03*
D11*
%TO.N,*%
X352210000Y-115000000D03*
X352210000Y-122000000D03*
%TD*%
%TO.N,*%
%TO.C,SW2*%
X352210000Y-135970000D03*
X352210000Y-128970000D03*
D10*
%TO.N,GND*%
X354710000Y-134720000D03*
%TO.N,/a1*%
X354710000Y-130220000D03*
%TD*%
%TO.N,/a2*%
%TO.C,SW3*%
X354710000Y-142920000D03*
%TO.N,GND*%
X354710000Y-147420000D03*
D11*
%TO.N,*%
X352210000Y-141670000D03*
X352210000Y-148670000D03*
%TD*%
%TO.N,*%
%TO.C,SW4*%
X352210000Y-161370000D03*
X352210000Y-154370000D03*
D10*
%TO.N,GND*%
X354710000Y-160120000D03*
%TO.N,/a3*%
X354710000Y-155620000D03*
%TD*%
%TO.N,/a4*%
%TO.C,SW5*%
X354710000Y-168320000D03*
%TO.N,GND*%
X354710000Y-172820000D03*
D11*
%TO.N,*%
X352210000Y-167070000D03*
X352210000Y-174070000D03*
%TD*%
%TO.N,*%
%TO.C,SW6*%
X352210000Y-186770000D03*
X352210000Y-179770000D03*
D10*
%TO.N,GND*%
X354710000Y-185520000D03*
%TO.N,/a5*%
X354710000Y-181020000D03*
%TD*%
D11*
%TO.N,*%
%TO.C,SW7*%
X352210000Y-199470000D03*
X352210000Y-192470000D03*
D10*
%TO.N,GND*%
X354710000Y-198220000D03*
%TO.N,/a6*%
X354710000Y-193720000D03*
%TD*%
%TO.N,/a7*%
%TO.C,SW8*%
X354710000Y-206420000D03*
%TO.N,GND*%
X354710000Y-210920000D03*
D11*
%TO.N,*%
X352210000Y-205170000D03*
X352210000Y-212170000D03*
%TD*%
%TO.N,*%
%TO.C,SW9*%
X351210000Y-99630000D03*
X351210000Y-106630000D03*
D10*
%TO.N,GND*%
X353710000Y-100880000D03*
%TO.N,/b0*%
X353710000Y-105380000D03*
%TD*%
%TO.N,/b1*%
%TO.C,SW10*%
X353500000Y-93500000D03*
%TO.N,GND*%
X353500000Y-89000000D03*
D11*
%TO.N,*%
X351000000Y-94750000D03*
X351000000Y-87750000D03*
%TD*%
%TO.N,*%
%TO.C,SW11*%
X351210000Y-75500000D03*
X351210000Y-82500000D03*
D10*
%TO.N,GND*%
X353710000Y-76750000D03*
%TO.N,/b2*%
X353710000Y-81250000D03*
%TD*%
%TO.N,/b3*%
%TO.C,SW12*%
X353710000Y-69820000D03*
%TO.N,GND*%
X353710000Y-65320000D03*
D11*
%TO.N,*%
X351210000Y-71070000D03*
X351210000Y-64070000D03*
%TD*%
%TO.N,*%
%TO.C,SW13*%
X226500000Y-70750000D03*
X226500000Y-77750000D03*
D10*
%TO.N,/reset*%
X224000000Y-72000000D03*
%TO.N,GND*%
X224000000Y-76500000D03*
%TD*%
D12*
%TO.N,Net-(C2-Pad1)*%
%TO.C,U1*%
X64190000Y-133980000D03*
D13*
%TO.N,/d1*%
X81970000Y-126360000D03*
%TO.N,Net-(U1-Pad2)*%
X66730000Y-133980000D03*
%TO.N,/d0*%
X79430000Y-126360000D03*
%TO.N,Net-(C2-Pad2)*%
X69270000Y-133980000D03*
%TO.N,Net-(U1-Pad11)*%
X76890000Y-126360000D03*
%TO.N,Net-(C3-Pad1)*%
X71810000Y-133980000D03*
%TO.N,Net-(U1-Pad12)*%
X74350000Y-126360000D03*
%TO.N,Net-(C3-Pad2)*%
X74350000Y-133980000D03*
%TO.N,Net-(U1-Pad13)*%
X71810000Y-126360000D03*
%TO.N,Net-(U1-Pad6)*%
X76890000Y-133980000D03*
%TO.N,Net-(U1-Pad14)*%
X69270000Y-126360000D03*
%TO.N,Net-(U1-Pad7)*%
X79430000Y-133980000D03*
%TO.N,GND*%
X66730000Y-126360000D03*
%TO.N,Net-(U1-Pad8)*%
X81970000Y-133980000D03*
%TO.N,VCC*%
X64190000Y-126360000D03*
%TD*%
D14*
%TO.N,/d5*%
%TO.C,U3*%
X163000000Y-110500000D03*
%TO.N,/d4*%
X160460000Y-110500000D03*
%TO.N,/d3*%
X157920000Y-110500000D03*
%TO.N,/d2*%
X155380000Y-110500000D03*
%TO.N,Net-(U3-Pad10)*%
X152840000Y-110500000D03*
%TO.N,Net-(U3-Pad9)*%
X150300000Y-110500000D03*
%TO.N,Net-(U3-Pad8)*%
X147760000Y-110500000D03*
%TO.N,Net-(U3-Pad7)*%
X145220000Y-110500000D03*
%TO.N,/d7*%
X142680000Y-110500000D03*
%TO.N,/d6*%
X140140000Y-110500000D03*
%TO.N,Net-(U3-Pad4)*%
X137600000Y-110500000D03*
%TO.N,Net-(U3-Pad3)*%
X135060000Y-110500000D03*
%TO.N,VCC*%
X132520000Y-110500000D03*
D15*
%TO.N,GND*%
X129980000Y-110500000D03*
D14*
%TO.N,Net-(U3-Pad15)*%
X127440000Y-110500000D03*
%TO.N,Net-(U3-Pad16)*%
X124900000Y-110500000D03*
D16*
%TO.N,*%
X55480000Y-109500000D03*
X55480000Y-72500000D03*
X170480000Y-109500000D03*
X170480000Y-72500000D03*
D17*
%TO.N,Net-(U3-PadA1)*%
X54480000Y-96500000D03*
%TO.N,Net-(U3-PadK1)*%
X54480000Y-92500000D03*
%TO.N,Net-(U3-PadA2)*%
X54480000Y-85500000D03*
%TO.N,Net-(U3-PadK2)*%
X54480000Y-81500000D03*
%TD*%
D12*
%TO.N,/b7*%
%TO.C,X1*%
X278000000Y-65000000D03*
D18*
%TO.N,/b6*%
X278000000Y-67770000D03*
%TO.N,/b5*%
X278000000Y-70540000D03*
%TO.N,/reset*%
X278000000Y-73310000D03*
%TO.N,GND*%
X278000000Y-76080000D03*
%TO.N,N/C*%
X280840000Y-66385000D03*
X280840000Y-69155000D03*
X280840000Y-71925000D03*
X280840000Y-74695000D03*
%TD*%
D12*
%TO.N,Net-(U1-Pad7)*%
%TO.C,X2*%
X81000000Y-161000000D03*
D18*
%TO.N,Net-(U1-Pad8)*%
X78230000Y-161000000D03*
%TO.N,GND*%
X75460000Y-161000000D03*
%TO.N,Net-(X2-Pad4)*%
X72690000Y-161000000D03*
%TO.N,Net-(X2-Pad5)*%
X69920000Y-161000000D03*
%TO.N,Net-(X2-Pad6)*%
X79615000Y-163540000D03*
%TO.N,Net-(X2-Pad7)*%
X76845000Y-163540000D03*
%TO.N,Net-(X2-Pad8)*%
X74075000Y-163540000D03*
%TO.N,Net-(X2-Pad9)*%
X71305000Y-163540000D03*
%TD*%
D19*
%TO.N,VCC*%
%TO.C,X3*%
X178500000Y-208000000D03*
%TO.N,GND*%
X208470000Y-208000000D03*
%TD*%
D20*
%TO.N,GND*%
X66275000Y-119500000D03*
X191550000Y-196500000D03*
X191725000Y-191500000D03*
X191725000Y-186000000D03*
X165409999Y-129825005D03*
X213500000Y-80500000D03*
X165409999Y-129825005D03*
%TD*%
M02*
