%TF.GenerationSoftware,KiCad,Pcbnew,(5.1.10)-1*%
%TF.CreationDate,2022-01-10T15:35:05+03:00*%
%TF.ProjectId,tutorial2,7475746f-7269-4616-9c32-2e6b69636164,rev?*%
%TF.SameCoordinates,Original*%
%TF.FileFunction,Legend,Top*%
%TF.FilePolarity,Positive*%
%FSLAX46Y46*%
G04 Gerber Fmt 4.6, Leading zero omitted, Abs format (unit mm)*
G04 Created by KiCad (PCBNEW (5.1.10)-1) date 2022-01-10 15:35:05*
%MOMM*%
%LPD*%
G01*
G04 APERTURE LIST*
%ADD10C,0.120000*%
%ADD11C,0.150000*%
G04 APERTURE END LIST*
D10*
%TO.C,C7*%
X79090560Y-163985000D02*
X79090560Y-165785000D01*
X78190560Y-164885000D02*
X79990560Y-164885000D01*
X97070000Y-169960000D02*
X97070000Y-170040000D01*
X97030000Y-169186000D02*
X97030000Y-170814000D01*
X96990000Y-168834000D02*
X96990000Y-171166000D01*
X96950000Y-168565000D02*
X96950000Y-171435000D01*
X96910000Y-168339000D02*
X96910000Y-171661000D01*
X96870000Y-168140000D02*
X96870000Y-171860000D01*
X96830000Y-167961000D02*
X96830000Y-172039000D01*
X96790000Y-167797000D02*
X96790000Y-172203000D01*
X96750000Y-167645000D02*
X96750000Y-172355000D01*
X96710000Y-167502000D02*
X96710000Y-172498000D01*
X96670000Y-167368000D02*
X96670000Y-172632000D01*
X96630000Y-167241000D02*
X96630000Y-172759000D01*
X96590000Y-167120000D02*
X96590000Y-172880000D01*
X96550000Y-167004000D02*
X96550000Y-172996000D01*
X96510000Y-166893000D02*
X96510000Y-173107000D01*
X96470000Y-166786000D02*
X96470000Y-173214000D01*
X96430000Y-166683000D02*
X96430000Y-173317000D01*
X96390000Y-166584000D02*
X96390000Y-173416000D01*
X96350000Y-166488000D02*
X96350000Y-173512000D01*
X96310000Y-166395000D02*
X96310000Y-173605000D01*
X96270000Y-166304000D02*
X96270000Y-173696000D01*
X96230000Y-166216000D02*
X96230000Y-173784000D01*
X96190000Y-166131000D02*
X96190000Y-173869000D01*
X96150000Y-166048000D02*
X96150000Y-173952000D01*
X96111000Y-165967000D02*
X96111000Y-174033000D01*
X96071000Y-165887000D02*
X96071000Y-174113000D01*
X96031000Y-165810000D02*
X96031000Y-174190000D01*
X95991000Y-165735000D02*
X95991000Y-174265000D01*
X95951000Y-165661000D02*
X95951000Y-174339000D01*
X95911000Y-165588000D02*
X95911000Y-174412000D01*
X95871000Y-165518000D02*
X95871000Y-174482000D01*
X95831000Y-165448000D02*
X95831000Y-174552000D01*
X95791000Y-165380000D02*
X95791000Y-174620000D01*
X95751000Y-165314000D02*
X95751000Y-174686000D01*
X95711000Y-165248000D02*
X95711000Y-174752000D01*
X95671000Y-165184000D02*
X95671000Y-174816000D01*
X95631000Y-165121000D02*
X95631000Y-174879000D01*
X95591000Y-165059000D02*
X95591000Y-174941000D01*
X95551000Y-164998000D02*
X95551000Y-175002000D01*
X95511000Y-164938000D02*
X95511000Y-175062000D01*
X95471000Y-164880000D02*
X95471000Y-175120000D01*
X95431000Y-164822000D02*
X95431000Y-175178000D01*
X95391000Y-164765000D02*
X95391000Y-175235000D01*
X95351000Y-164709000D02*
X95351000Y-175291000D01*
X95311000Y-164654000D02*
X95311000Y-175346000D01*
X95271000Y-164600000D02*
X95271000Y-175400000D01*
X95231000Y-164546000D02*
X95231000Y-175454000D01*
X95191000Y-164494000D02*
X95191000Y-175506000D01*
X95151000Y-164442000D02*
X95151000Y-175558000D01*
X95111000Y-164391000D02*
X95111000Y-175609000D01*
X95071000Y-164340000D02*
X95071000Y-175660000D01*
X95031000Y-164291000D02*
X95031000Y-175709000D01*
X94991000Y-164242000D02*
X94991000Y-175758000D01*
X94951000Y-164194000D02*
X94951000Y-175806000D01*
X94911000Y-164146000D02*
X94911000Y-175854000D01*
X94871000Y-164099000D02*
X94871000Y-175901000D01*
X94831000Y-164053000D02*
X94831000Y-175947000D01*
X94791000Y-164007000D02*
X94791000Y-175993000D01*
X94751000Y-163962000D02*
X94751000Y-176038000D01*
X94711000Y-163918000D02*
X94711000Y-176082000D01*
X94671000Y-163874000D02*
X94671000Y-176126000D01*
X94631000Y-163830000D02*
X94631000Y-176170000D01*
X94591000Y-163788000D02*
X94591000Y-176212000D01*
X94551000Y-163746000D02*
X94551000Y-176254000D01*
X94511000Y-163704000D02*
X94511000Y-176296000D01*
X94471000Y-163663000D02*
X94471000Y-176337000D01*
X94431000Y-163622000D02*
X94431000Y-176378000D01*
X94391000Y-163582000D02*
X94391000Y-176418000D01*
X94351000Y-163542000D02*
X94351000Y-176458000D01*
X94311000Y-163503000D02*
X94311000Y-176497000D01*
X94271000Y-163464000D02*
X94271000Y-176536000D01*
X94231000Y-163426000D02*
X94231000Y-176574000D01*
X94191000Y-163388000D02*
X94191000Y-176612000D01*
X94151000Y-163351000D02*
X94151000Y-176649000D01*
X94111000Y-163314000D02*
X94111000Y-176686000D01*
X94071000Y-163278000D02*
X94071000Y-176722000D01*
X94031000Y-163242000D02*
X94031000Y-176758000D01*
X93991000Y-163206000D02*
X93991000Y-176794000D01*
X93951000Y-163171000D02*
X93951000Y-176829000D01*
X93911000Y-163136000D02*
X93911000Y-176864000D01*
X93871000Y-163102000D02*
X93871000Y-176898000D01*
X93831000Y-163068000D02*
X93831000Y-176932000D01*
X93791000Y-163035000D02*
X93791000Y-176965000D01*
X93751000Y-163001000D02*
X93751000Y-176999000D01*
X93711000Y-162969000D02*
X93711000Y-177031000D01*
X93671000Y-162936000D02*
X93671000Y-177064000D01*
X93631000Y-162904000D02*
X93631000Y-177096000D01*
X93591000Y-162873000D02*
X93591000Y-177127000D01*
X93551000Y-162841000D02*
X93551000Y-177159000D01*
X93511000Y-162810000D02*
X93511000Y-177190000D01*
X93471000Y-162780000D02*
X93471000Y-177220000D01*
X93431000Y-162750000D02*
X93431000Y-177250000D01*
X93391000Y-162720000D02*
X93391000Y-177280000D01*
X93351000Y-162690000D02*
X93351000Y-177310000D01*
X93311000Y-162661000D02*
X93311000Y-177339000D01*
X93271000Y-162632000D02*
X93271000Y-177368000D01*
X93231000Y-162603000D02*
X93231000Y-177397000D01*
X93191000Y-162575000D02*
X93191000Y-177425000D01*
X93151000Y-162547000D02*
X93151000Y-177453000D01*
X93111000Y-171440000D02*
X93111000Y-177480000D01*
X93111000Y-162520000D02*
X93111000Y-168560000D01*
X93071000Y-171440000D02*
X93071000Y-177508000D01*
X93071000Y-162492000D02*
X93071000Y-168560000D01*
X93031000Y-171440000D02*
X93031000Y-177535000D01*
X93031000Y-162465000D02*
X93031000Y-168560000D01*
X92991000Y-171440000D02*
X92991000Y-177561000D01*
X92991000Y-162439000D02*
X92991000Y-168560000D01*
X92951000Y-171440000D02*
X92951000Y-177588000D01*
X92951000Y-162412000D02*
X92951000Y-168560000D01*
X92911000Y-171440000D02*
X92911000Y-177614000D01*
X92911000Y-162386000D02*
X92911000Y-168560000D01*
X92871000Y-171440000D02*
X92871000Y-177640000D01*
X92871000Y-162360000D02*
X92871000Y-168560000D01*
X92831000Y-171440000D02*
X92831000Y-177665000D01*
X92831000Y-162335000D02*
X92831000Y-168560000D01*
X92791000Y-171440000D02*
X92791000Y-177690000D01*
X92791000Y-162310000D02*
X92791000Y-168560000D01*
X92751000Y-171440000D02*
X92751000Y-177715000D01*
X92751000Y-162285000D02*
X92751000Y-168560000D01*
X92711000Y-171440000D02*
X92711000Y-177740000D01*
X92711000Y-162260000D02*
X92711000Y-168560000D01*
X92671000Y-171440000D02*
X92671000Y-177764000D01*
X92671000Y-162236000D02*
X92671000Y-168560000D01*
X92631000Y-171440000D02*
X92631000Y-177788000D01*
X92631000Y-162212000D02*
X92631000Y-168560000D01*
X92591000Y-171440000D02*
X92591000Y-177812000D01*
X92591000Y-162188000D02*
X92591000Y-168560000D01*
X92551000Y-171440000D02*
X92551000Y-177835000D01*
X92551000Y-162165000D02*
X92551000Y-168560000D01*
X92511000Y-171440000D02*
X92511000Y-177859000D01*
X92511000Y-162141000D02*
X92511000Y-168560000D01*
X92471000Y-171440000D02*
X92471000Y-177882000D01*
X92471000Y-162118000D02*
X92471000Y-168560000D01*
X92431000Y-171440000D02*
X92431000Y-177904000D01*
X92431000Y-162096000D02*
X92431000Y-168560000D01*
X92391000Y-171440000D02*
X92391000Y-177927000D01*
X92391000Y-162073000D02*
X92391000Y-168560000D01*
X92351000Y-171440000D02*
X92351000Y-177949000D01*
X92351000Y-162051000D02*
X92351000Y-168560000D01*
X92311000Y-171440000D02*
X92311000Y-177971000D01*
X92311000Y-162029000D02*
X92311000Y-168560000D01*
X92271000Y-171440000D02*
X92271000Y-177992000D01*
X92271000Y-162008000D02*
X92271000Y-168560000D01*
X92231000Y-171440000D02*
X92231000Y-178014000D01*
X92231000Y-161986000D02*
X92231000Y-168560000D01*
X92191000Y-171440000D02*
X92191000Y-178035000D01*
X92191000Y-161965000D02*
X92191000Y-168560000D01*
X92151000Y-171440000D02*
X92151000Y-178056000D01*
X92151000Y-161944000D02*
X92151000Y-168560000D01*
X92111000Y-171440000D02*
X92111000Y-178076000D01*
X92111000Y-161924000D02*
X92111000Y-168560000D01*
X92071000Y-171440000D02*
X92071000Y-178097000D01*
X92071000Y-161903000D02*
X92071000Y-168560000D01*
X92031000Y-171440000D02*
X92031000Y-178117000D01*
X92031000Y-161883000D02*
X92031000Y-168560000D01*
X91991000Y-171440000D02*
X91991000Y-178137000D01*
X91991000Y-161863000D02*
X91991000Y-168560000D01*
X91951000Y-171440000D02*
X91951000Y-178156000D01*
X91951000Y-161844000D02*
X91951000Y-168560000D01*
X91911000Y-171440000D02*
X91911000Y-178176000D01*
X91911000Y-161824000D02*
X91911000Y-168560000D01*
X91871000Y-171440000D02*
X91871000Y-178195000D01*
X91871000Y-161805000D02*
X91871000Y-168560000D01*
X91831000Y-171440000D02*
X91831000Y-178214000D01*
X91831000Y-161786000D02*
X91831000Y-168560000D01*
X91791000Y-171440000D02*
X91791000Y-178233000D01*
X91791000Y-161767000D02*
X91791000Y-168560000D01*
X91751000Y-171440000D02*
X91751000Y-178251000D01*
X91751000Y-161749000D02*
X91751000Y-168560000D01*
X91711000Y-171440000D02*
X91711000Y-178269000D01*
X91711000Y-161731000D02*
X91711000Y-168560000D01*
X91671000Y-171440000D02*
X91671000Y-178287000D01*
X91671000Y-161713000D02*
X91671000Y-168560000D01*
X91631000Y-171440000D02*
X91631000Y-178305000D01*
X91631000Y-161695000D02*
X91631000Y-168560000D01*
X91591000Y-171440000D02*
X91591000Y-178323000D01*
X91591000Y-161677000D02*
X91591000Y-168560000D01*
X91551000Y-171440000D02*
X91551000Y-178340000D01*
X91551000Y-161660000D02*
X91551000Y-168560000D01*
X91511000Y-171440000D02*
X91511000Y-178357000D01*
X91511000Y-161643000D02*
X91511000Y-168560000D01*
X91471000Y-171440000D02*
X91471000Y-178374000D01*
X91471000Y-161626000D02*
X91471000Y-168560000D01*
X91431000Y-171440000D02*
X91431000Y-178390000D01*
X91431000Y-161610000D02*
X91431000Y-168560000D01*
X91391000Y-171440000D02*
X91391000Y-178407000D01*
X91391000Y-161593000D02*
X91391000Y-168560000D01*
X91351000Y-171440000D02*
X91351000Y-178423000D01*
X91351000Y-161577000D02*
X91351000Y-168560000D01*
X91311000Y-171440000D02*
X91311000Y-178439000D01*
X91311000Y-161561000D02*
X91311000Y-168560000D01*
X91271000Y-171440000D02*
X91271000Y-178455000D01*
X91271000Y-161545000D02*
X91271000Y-168560000D01*
X91231000Y-171440000D02*
X91231000Y-178470000D01*
X91231000Y-161530000D02*
X91231000Y-168560000D01*
X91191000Y-171440000D02*
X91191000Y-178486000D01*
X91191000Y-161514000D02*
X91191000Y-168560000D01*
X91151000Y-171440000D02*
X91151000Y-178501000D01*
X91151000Y-161499000D02*
X91151000Y-168560000D01*
X91111000Y-171440000D02*
X91111000Y-178516000D01*
X91111000Y-161484000D02*
X91111000Y-168560000D01*
X91071000Y-171440000D02*
X91071000Y-178530000D01*
X91071000Y-161470000D02*
X91071000Y-168560000D01*
X91031000Y-171440000D02*
X91031000Y-178545000D01*
X91031000Y-161455000D02*
X91031000Y-168560000D01*
X90991000Y-171440000D02*
X90991000Y-178559000D01*
X90991000Y-161441000D02*
X90991000Y-168560000D01*
X90951000Y-171440000D02*
X90951000Y-178573000D01*
X90951000Y-161427000D02*
X90951000Y-168560000D01*
X90911000Y-171440000D02*
X90911000Y-178587000D01*
X90911000Y-161413000D02*
X90911000Y-168560000D01*
X90871000Y-171440000D02*
X90871000Y-178600000D01*
X90871000Y-161400000D02*
X90871000Y-168560000D01*
X90831000Y-171440000D02*
X90831000Y-178614000D01*
X90831000Y-161386000D02*
X90831000Y-168560000D01*
X90791000Y-171440000D02*
X90791000Y-178627000D01*
X90791000Y-161373000D02*
X90791000Y-168560000D01*
X90751000Y-171440000D02*
X90751000Y-178640000D01*
X90751000Y-161360000D02*
X90751000Y-168560000D01*
X90711000Y-171440000D02*
X90711000Y-178653000D01*
X90711000Y-161347000D02*
X90711000Y-168560000D01*
X90671000Y-171440000D02*
X90671000Y-178665000D01*
X90671000Y-161335000D02*
X90671000Y-168560000D01*
X90631000Y-171440000D02*
X90631000Y-178678000D01*
X90631000Y-161322000D02*
X90631000Y-168560000D01*
X90591000Y-171440000D02*
X90591000Y-178690000D01*
X90591000Y-161310000D02*
X90591000Y-168560000D01*
X90551000Y-171440000D02*
X90551000Y-178702000D01*
X90551000Y-161298000D02*
X90551000Y-168560000D01*
X90511000Y-171440000D02*
X90511000Y-178714000D01*
X90511000Y-161286000D02*
X90511000Y-168560000D01*
X90471000Y-171440000D02*
X90471000Y-178725000D01*
X90471000Y-161275000D02*
X90471000Y-168560000D01*
X90431000Y-171440000D02*
X90431000Y-178737000D01*
X90431000Y-161263000D02*
X90431000Y-168560000D01*
X90391000Y-171440000D02*
X90391000Y-178748000D01*
X90391000Y-161252000D02*
X90391000Y-168560000D01*
X90351000Y-171440000D02*
X90351000Y-178759000D01*
X90351000Y-161241000D02*
X90351000Y-168560000D01*
X90311000Y-171440000D02*
X90311000Y-178770000D01*
X90311000Y-161230000D02*
X90311000Y-168560000D01*
X90271000Y-171440000D02*
X90271000Y-178780000D01*
X90271000Y-161220000D02*
X90271000Y-168560000D01*
X90231000Y-161209000D02*
X90231000Y-178791000D01*
X90191000Y-161199000D02*
X90191000Y-178801000D01*
X90151000Y-161189000D02*
X90151000Y-178811000D01*
X90111000Y-161179000D02*
X90111000Y-178821000D01*
X90071000Y-161169000D02*
X90071000Y-178831000D01*
X90031000Y-161160000D02*
X90031000Y-178840000D01*
X89991000Y-161151000D02*
X89991000Y-178849000D01*
X89951000Y-161142000D02*
X89951000Y-178858000D01*
X89911000Y-161133000D02*
X89911000Y-178867000D01*
X89871000Y-161124000D02*
X89871000Y-178876000D01*
X89831000Y-161115000D02*
X89831000Y-178885000D01*
X89791000Y-161107000D02*
X89791000Y-178893000D01*
X89751000Y-161099000D02*
X89751000Y-178901000D01*
X89711000Y-161091000D02*
X89711000Y-178909000D01*
X89671000Y-161083000D02*
X89671000Y-178917000D01*
X89631000Y-161076000D02*
X89631000Y-178924000D01*
X89591000Y-161068000D02*
X89591000Y-178932000D01*
X89551000Y-161061000D02*
X89551000Y-178939000D01*
X89511000Y-161054000D02*
X89511000Y-178946000D01*
X89471000Y-161047000D02*
X89471000Y-178953000D01*
X89431000Y-161040000D02*
X89431000Y-178960000D01*
X89391000Y-161034000D02*
X89391000Y-178966000D01*
X89351000Y-161028000D02*
X89351000Y-178972000D01*
X89311000Y-161021000D02*
X89311000Y-178979000D01*
X89271000Y-161016000D02*
X89271000Y-178984000D01*
X89231000Y-161010000D02*
X89231000Y-178990000D01*
X89191000Y-161004000D02*
X89191000Y-178996000D01*
X89151000Y-160999000D02*
X89151000Y-179001000D01*
X89111000Y-160994000D02*
X89111000Y-179006000D01*
X89071000Y-160989000D02*
X89071000Y-179011000D01*
X89031000Y-160984000D02*
X89031000Y-179016000D01*
X88991000Y-160979000D02*
X88991000Y-179021000D01*
X88951000Y-160974000D02*
X88951000Y-179026000D01*
X88911000Y-160970000D02*
X88911000Y-179030000D01*
X88871000Y-160966000D02*
X88871000Y-179034000D01*
X88831000Y-160962000D02*
X88831000Y-179038000D01*
X88791000Y-160958000D02*
X88791000Y-179042000D01*
X88751000Y-160955000D02*
X88751000Y-179045000D01*
X88711000Y-160951000D02*
X88711000Y-179049000D01*
X88671000Y-160948000D02*
X88671000Y-179052000D01*
X88630000Y-160945000D02*
X88630000Y-179055000D01*
X88590000Y-160942000D02*
X88590000Y-179058000D01*
X88550000Y-160939000D02*
X88550000Y-179061000D01*
X88510000Y-160937000D02*
X88510000Y-179063000D01*
X88470000Y-160934000D02*
X88470000Y-179066000D01*
X88430000Y-160932000D02*
X88430000Y-179068000D01*
X88390000Y-160930000D02*
X88390000Y-179070000D01*
X88350000Y-160928000D02*
X88350000Y-179072000D01*
X88310000Y-160927000D02*
X88310000Y-179073000D01*
X88270000Y-160925000D02*
X88270000Y-179075000D01*
X88230000Y-160924000D02*
X88230000Y-179076000D01*
X88190000Y-160923000D02*
X88190000Y-179077000D01*
X88150000Y-160922000D02*
X88150000Y-179078000D01*
X88110000Y-160921000D02*
X88110000Y-179079000D01*
X88070000Y-160920000D02*
X88070000Y-179080000D01*
X88030000Y-160920000D02*
X88030000Y-179080000D01*
X87990000Y-160920000D02*
X87990000Y-179080000D01*
X87950000Y-160919000D02*
X87950000Y-179081000D01*
X97070000Y-170000000D02*
G75*
G03*
X97070000Y-170000000I-9120000J0D01*
G01*
%TO.C,U1*%
X135390000Y-184270000D02*
X133740000Y-184270000D01*
X133740000Y-184270000D02*
X133740000Y-204710000D01*
X133740000Y-204710000D02*
X139040000Y-204710000D01*
X139040000Y-204710000D02*
X139040000Y-184270000D01*
X139040000Y-184270000D02*
X137390000Y-184270000D01*
X137390000Y-184270000D02*
G75*
G02*
X135390000Y-184270000I-1000000J0D01*
G01*
%TO.C,SW9*%
X229630000Y-94120000D02*
X229630000Y-93770000D01*
X230520000Y-94120000D02*
X229630000Y-94120000D01*
X230520000Y-93820000D02*
X230520000Y-94120000D01*
X230520000Y-91180000D02*
X230520000Y-87330000D01*
X230520000Y-87330000D02*
X222780000Y-87330000D01*
X222780000Y-87330000D02*
X222780000Y-91180000D01*
X224160000Y-91570000D02*
X229140000Y-91570000D01*
X223670000Y-94120000D02*
X222780000Y-94120000D01*
X223670000Y-94120000D02*
X223670000Y-93770000D01*
X222780000Y-93820000D02*
X222780000Y-94120000D01*
%TO.C,SW1*%
X235205001Y-99455001D02*
X235205001Y-99755001D01*
X236095001Y-99755001D02*
X236095001Y-99405001D01*
X236095001Y-99755001D02*
X235205001Y-99755001D01*
X236585001Y-97205001D02*
X241565001Y-97205001D01*
X235205001Y-92965001D02*
X235205001Y-96815001D01*
X242945001Y-92965001D02*
X235205001Y-92965001D01*
X242945001Y-96815001D02*
X242945001Y-92965001D01*
X242945001Y-99455001D02*
X242945001Y-99755001D01*
X242945001Y-99755001D02*
X242055001Y-99755001D01*
X242055001Y-99755001D02*
X242055001Y-99405001D01*
%TO.C,C1*%
X89990000Y-149140580D02*
X89990000Y-148859420D01*
X91010000Y-149140580D02*
X91010000Y-148859420D01*
%TO.C,C2*%
X124490000Y-188134420D02*
X124490000Y-188415580D01*
X125510000Y-188134420D02*
X125510000Y-188415580D01*
%TO.C,C3*%
X124490000Y-195859420D02*
X124490000Y-196140580D01*
X125510000Y-195859420D02*
X125510000Y-196140580D01*
%TO.C,C4*%
X148010000Y-186359420D02*
X148010000Y-186640580D01*
X146990000Y-186359420D02*
X146990000Y-186640580D01*
%TO.C,C5*%
X249940580Y-187090000D02*
X249659420Y-187090000D01*
X249940580Y-188110000D02*
X249659420Y-188110000D01*
%TO.C,C6*%
X235140580Y-116310000D02*
X234859420Y-116310000D01*
X235140580Y-115290000D02*
X234859420Y-115290000D01*
%TO.C,R1*%
X72077500Y-128837258D02*
X72077500Y-128362742D01*
X73122500Y-128837258D02*
X73122500Y-128362742D01*
%TO.C,SW2*%
X252805001Y-99455001D02*
X252805001Y-99105001D01*
X253695001Y-99455001D02*
X252805001Y-99455001D01*
X253695001Y-99155001D02*
X253695001Y-99455001D01*
X253695001Y-96515001D02*
X253695001Y-92665001D01*
X253695001Y-92665001D02*
X245955001Y-92665001D01*
X245955001Y-92665001D02*
X245955001Y-96515001D01*
X247335001Y-96905001D02*
X252315001Y-96905001D01*
X246845001Y-99455001D02*
X245955001Y-99455001D01*
X246845001Y-99455001D02*
X246845001Y-99105001D01*
X245955001Y-99155001D02*
X245955001Y-99455001D01*
%TO.C,SW3*%
X256705001Y-99155001D02*
X256705001Y-99455001D01*
X257595001Y-99455001D02*
X257595001Y-99105001D01*
X257595001Y-99455001D02*
X256705001Y-99455001D01*
X258085001Y-96905001D02*
X263065001Y-96905001D01*
X256705001Y-92665001D02*
X256705001Y-96515001D01*
X264445001Y-92665001D02*
X256705001Y-92665001D01*
X264445001Y-96515001D02*
X264445001Y-92665001D01*
X264445001Y-99155001D02*
X264445001Y-99455001D01*
X264445001Y-99455001D02*
X263555001Y-99455001D01*
X263555001Y-99455001D02*
X263555001Y-99105001D01*
%TO.C,SW4*%
X276230000Y-99620000D02*
X276230000Y-99270000D01*
X277120000Y-99620000D02*
X276230000Y-99620000D01*
X277120000Y-99320000D02*
X277120000Y-99620000D01*
X277120000Y-96680000D02*
X277120000Y-92830000D01*
X277120000Y-92830000D02*
X269380000Y-92830000D01*
X269380000Y-92830000D02*
X269380000Y-96680000D01*
X270760000Y-97070000D02*
X275740000Y-97070000D01*
X270270000Y-99620000D02*
X269380000Y-99620000D01*
X270270000Y-99620000D02*
X270270000Y-99270000D01*
X269380000Y-99320000D02*
X269380000Y-99620000D01*
%TO.C,SW5*%
X285180000Y-107380000D02*
X284880000Y-107380000D01*
X284880000Y-108270000D02*
X285230000Y-108270000D01*
X284880000Y-108270000D02*
X284880000Y-107380000D01*
X287430000Y-108760000D02*
X287430000Y-113740000D01*
X291670000Y-107380000D02*
X287820000Y-107380000D01*
X291670000Y-115120000D02*
X291670000Y-107380000D01*
X287820000Y-115120000D02*
X291670000Y-115120000D01*
X285180000Y-115120000D02*
X284880000Y-115120000D01*
X284880000Y-115120000D02*
X284880000Y-114230000D01*
X284880000Y-114230000D02*
X285230000Y-114230000D01*
%TO.C,SW6*%
X284880000Y-126730000D02*
X285230000Y-126730000D01*
X284880000Y-127620000D02*
X284880000Y-126730000D01*
X285180000Y-127620000D02*
X284880000Y-127620000D01*
X287820000Y-127620000D02*
X291670000Y-127620000D01*
X291670000Y-127620000D02*
X291670000Y-119880000D01*
X291670000Y-119880000D02*
X287820000Y-119880000D01*
X287430000Y-121260000D02*
X287430000Y-126240000D01*
X284880000Y-120770000D02*
X284880000Y-119880000D01*
X284880000Y-120770000D02*
X285230000Y-120770000D01*
X285180000Y-119880000D02*
X284880000Y-119880000D01*
%TO.C,SW7*%
X284880000Y-139730000D02*
X285230000Y-139730000D01*
X284880000Y-140620000D02*
X284880000Y-139730000D01*
X285180000Y-140620000D02*
X284880000Y-140620000D01*
X287820000Y-140620000D02*
X291670000Y-140620000D01*
X291670000Y-140620000D02*
X291670000Y-132880000D01*
X291670000Y-132880000D02*
X287820000Y-132880000D01*
X287430000Y-134260000D02*
X287430000Y-139240000D01*
X284880000Y-133770000D02*
X284880000Y-132880000D01*
X284880000Y-133770000D02*
X285230000Y-133770000D01*
X285180000Y-132880000D02*
X284880000Y-132880000D01*
%TO.C,SW8*%
X284680000Y-147880000D02*
X284380000Y-147880000D01*
X284380000Y-148770000D02*
X284730000Y-148770000D01*
X284380000Y-148770000D02*
X284380000Y-147880000D01*
X286930000Y-149260000D02*
X286930000Y-154240000D01*
X291170000Y-147880000D02*
X287320000Y-147880000D01*
X291170000Y-155620000D02*
X291170000Y-147880000D01*
X287320000Y-155620000D02*
X291170000Y-155620000D01*
X284680000Y-155620000D02*
X284380000Y-155620000D01*
X284380000Y-155620000D02*
X284380000Y-154730000D01*
X284380000Y-154730000D02*
X284730000Y-154730000D01*
%TO.C,SW10*%
X210980000Y-93820000D02*
X210980000Y-94120000D01*
X211870000Y-94120000D02*
X211870000Y-93770000D01*
X211870000Y-94120000D02*
X210980000Y-94120000D01*
X212360000Y-91570000D02*
X217340000Y-91570000D01*
X210980000Y-87330000D02*
X210980000Y-91180000D01*
X218720000Y-87330000D02*
X210980000Y-87330000D01*
X218720000Y-91180000D02*
X218720000Y-87330000D01*
X218720000Y-93820000D02*
X218720000Y-94120000D01*
X218720000Y-94120000D02*
X217830000Y-94120000D01*
X217830000Y-94120000D02*
X217830000Y-93770000D01*
%TO.C,SW11*%
X206230000Y-93720000D02*
X206230000Y-93370000D01*
X207120000Y-93720000D02*
X206230000Y-93720000D01*
X207120000Y-93420000D02*
X207120000Y-93720000D01*
X207120000Y-90780000D02*
X207120000Y-86930000D01*
X207120000Y-86930000D02*
X199380000Y-86930000D01*
X199380000Y-86930000D02*
X199380000Y-90780000D01*
X200760000Y-91170000D02*
X205740000Y-91170000D01*
X200270000Y-93720000D02*
X199380000Y-93720000D01*
X200270000Y-93720000D02*
X200270000Y-93370000D01*
X199380000Y-93420000D02*
X199380000Y-93720000D01*
%TO.C,SW12*%
X187980000Y-93020000D02*
X187980000Y-93320000D01*
X188870000Y-93320000D02*
X188870000Y-92970000D01*
X188870000Y-93320000D02*
X187980000Y-93320000D01*
X189360000Y-90770000D02*
X194340000Y-90770000D01*
X187980000Y-86530000D02*
X187980000Y-90380000D01*
X195720000Y-86530000D02*
X187980000Y-86530000D01*
X195720000Y-90380000D02*
X195720000Y-86530000D01*
X195720000Y-93020000D02*
X195720000Y-93320000D01*
X195720000Y-93320000D02*
X194830000Y-93320000D01*
X194830000Y-93320000D02*
X194830000Y-92970000D01*
%TO.C,SW13*%
X72720000Y-145570000D02*
X72370000Y-145570000D01*
X72720000Y-144680000D02*
X72720000Y-145570000D01*
X72420000Y-144680000D02*
X72720000Y-144680000D01*
X69780000Y-144680000D02*
X65930000Y-144680000D01*
X65930000Y-144680000D02*
X65930000Y-152420000D01*
X65930000Y-152420000D02*
X69780000Y-152420000D01*
X70170000Y-151040000D02*
X70170000Y-146060000D01*
X72720000Y-151530000D02*
X72720000Y-152420000D01*
X72720000Y-151530000D02*
X72370000Y-151530000D01*
X72420000Y-152420000D02*
X72720000Y-152420000D01*
D11*
%TO.C,U2*%
X229825000Y-123325000D02*
X229825000Y-123900000D01*
X240175000Y-123325000D02*
X240175000Y-124000000D01*
X240175000Y-133675000D02*
X240175000Y-133000000D01*
X229825000Y-133675000D02*
X229825000Y-133000000D01*
X229825000Y-123325000D02*
X230500000Y-123325000D01*
X229825000Y-133675000D02*
X230500000Y-133675000D01*
X240175000Y-133675000D02*
X239500000Y-133675000D01*
X240175000Y-123325000D02*
X239500000Y-123325000D01*
X229825000Y-123900000D02*
X228550000Y-123900000D01*
D10*
%TO.C,U3*%
X171460000Y-234840000D02*
X293740000Y-234840000D01*
X293740000Y-190560000D02*
X293740000Y-234840000D01*
X248600000Y-190200000D02*
X250600000Y-190200000D01*
X293740000Y-190560000D02*
X171460000Y-190560000D01*
X171460000Y-190560000D02*
X171460000Y-234840000D01*
D11*
X283255000Y-198407000D02*
X181655000Y-198407000D01*
X181655000Y-198407000D02*
X181401000Y-198661000D01*
X181401000Y-198661000D02*
X181655000Y-198915000D01*
X181655000Y-198915000D02*
X283255000Y-198915000D01*
X283255000Y-198407000D02*
X283509000Y-198661000D01*
X283509000Y-198661000D02*
X283255000Y-198915000D01*
X283255000Y-231427000D02*
X283509000Y-231173000D01*
X283509000Y-231173000D02*
X283255000Y-230919000D01*
X283255000Y-230919000D02*
X181655000Y-230919000D01*
X181655000Y-230919000D02*
X181401000Y-231173000D01*
X181401000Y-231173000D02*
X181655000Y-231427000D01*
X181655000Y-231427000D02*
X283255000Y-231427000D01*
X281985000Y-203741000D02*
X281985000Y-226093000D01*
X183687000Y-202979000D02*
X281223000Y-202979000D01*
X182925000Y-226093000D02*
X182925000Y-203741000D01*
X281223000Y-226855000D02*
X183687000Y-226855000D01*
X281223000Y-202979000D02*
X281985000Y-203741000D01*
X182925000Y-203741000D02*
X183687000Y-202979000D01*
X183687000Y-226855000D02*
X182925000Y-226093000D01*
X281985000Y-226093000D02*
X281223000Y-226855000D01*
X179623000Y-198153000D02*
X179623000Y-231681000D01*
X284525000Y-197391000D02*
X180385000Y-197391000D01*
X285287000Y-231681000D02*
X285287000Y-198153000D01*
X180385000Y-232443000D02*
X284525000Y-232443000D01*
X284525000Y-197391000D02*
X284525000Y-198153000D01*
X284525000Y-198153000D02*
X285287000Y-198153000D01*
X180385000Y-197391000D02*
X180385000Y-198153000D01*
X180385000Y-198153000D02*
X179623000Y-198153000D01*
X180385000Y-232443000D02*
X180385000Y-231681000D01*
X180385000Y-231681000D02*
X179623000Y-231681000D01*
X285287000Y-231681000D02*
X284525000Y-231681000D01*
X284525000Y-231681000D02*
X284525000Y-232443000D01*
D10*
%TO.C,X1*%
X21220000Y-66650000D02*
X25320000Y-66650000D01*
X25320000Y-66650000D02*
X25320000Y-68660000D01*
X25320000Y-68660000D02*
X34460000Y-68660000D01*
X34460000Y-68660000D02*
X34460000Y-81860000D01*
X34460000Y-81860000D02*
X25320000Y-81860000D01*
X25320000Y-81860000D02*
X25320000Y-83870000D01*
X25320000Y-83870000D02*
X21220000Y-83870000D01*
X35154338Y-80550000D02*
X35154338Y-81050000D01*
X35154338Y-81050000D02*
X34721325Y-80800000D01*
X34721325Y-80800000D02*
X35154338Y-80550000D01*
%TO.C,X2*%
X21120000Y-32850000D02*
X25220000Y-32850000D01*
X25220000Y-32850000D02*
X25220000Y-34860000D01*
X25220000Y-34860000D02*
X34060000Y-34860000D01*
X34060000Y-34860000D02*
X34060000Y-48060000D01*
X34060000Y-48060000D02*
X25220000Y-48060000D01*
X25220000Y-48060000D02*
X25220000Y-50070000D01*
X25220000Y-50070000D02*
X21120000Y-50070000D01*
X34754338Y-46750000D02*
X34754338Y-47250000D01*
X34754338Y-47250000D02*
X34321325Y-47000000D01*
X34321325Y-47000000D02*
X34754338Y-46750000D01*
%TO.C,X3*%
X68525001Y-204605001D02*
X98525001Y-204605001D01*
X98525001Y-194105001D02*
X68525001Y-194105001D01*
X98525001Y-204605001D02*
G75*
G03*
X98525001Y-194105001I0J5250000D01*
G01*
X68525001Y-194105001D02*
G75*
G03*
X68525001Y-204605001I0J-5250000D01*
G01*
%TO.C,C7*%
D11*
X84033333Y-168677142D02*
X83985714Y-168724761D01*
X83842857Y-168772380D01*
X83747619Y-168772380D01*
X83604761Y-168724761D01*
X83509523Y-168629523D01*
X83461904Y-168534285D01*
X83414285Y-168343809D01*
X83414285Y-168200952D01*
X83461904Y-168010476D01*
X83509523Y-167915238D01*
X83604761Y-167820000D01*
X83747619Y-167772380D01*
X83842857Y-167772380D01*
X83985714Y-167820000D01*
X84033333Y-167867619D01*
X84366666Y-167772380D02*
X85033333Y-167772380D01*
X84604761Y-168772380D01*
%TO.C,U1*%
X135628095Y-182722380D02*
X135628095Y-183531904D01*
X135675714Y-183627142D01*
X135723333Y-183674761D01*
X135818571Y-183722380D01*
X136009047Y-183722380D01*
X136104285Y-183674761D01*
X136151904Y-183627142D01*
X136199523Y-183531904D01*
X136199523Y-182722380D01*
X137199523Y-183722380D02*
X136628095Y-183722380D01*
X136913809Y-183722380D02*
X136913809Y-182722380D01*
X136818571Y-182865238D01*
X136723333Y-182960476D01*
X136628095Y-183008095D01*
%TO.C,SW9*%
X225316666Y-92904761D02*
X225459523Y-92952380D01*
X225697619Y-92952380D01*
X225792857Y-92904761D01*
X225840476Y-92857142D01*
X225888095Y-92761904D01*
X225888095Y-92666666D01*
X225840476Y-92571428D01*
X225792857Y-92523809D01*
X225697619Y-92476190D01*
X225507142Y-92428571D01*
X225411904Y-92380952D01*
X225364285Y-92333333D01*
X225316666Y-92238095D01*
X225316666Y-92142857D01*
X225364285Y-92047619D01*
X225411904Y-92000000D01*
X225507142Y-91952380D01*
X225745238Y-91952380D01*
X225888095Y-92000000D01*
X226221428Y-91952380D02*
X226459523Y-92952380D01*
X226650000Y-92238095D01*
X226840476Y-92952380D01*
X227078571Y-91952380D01*
X227507142Y-92952380D02*
X227697619Y-92952380D01*
X227792857Y-92904761D01*
X227840476Y-92857142D01*
X227935714Y-92714285D01*
X227983333Y-92523809D01*
X227983333Y-92142857D01*
X227935714Y-92047619D01*
X227888095Y-92000000D01*
X227792857Y-91952380D01*
X227602380Y-91952380D01*
X227507142Y-92000000D01*
X227459523Y-92047619D01*
X227411904Y-92142857D01*
X227411904Y-92380952D01*
X227459523Y-92476190D01*
X227507142Y-92523809D01*
X227602380Y-92571428D01*
X227792857Y-92571428D01*
X227888095Y-92523809D01*
X227935714Y-92476190D01*
X227983333Y-92380952D01*
%TO.C,SW1*%
X237741667Y-98539762D02*
X237884524Y-98587381D01*
X238122620Y-98587381D01*
X238217858Y-98539762D01*
X238265477Y-98492143D01*
X238313096Y-98396905D01*
X238313096Y-98301667D01*
X238265477Y-98206429D01*
X238217858Y-98158810D01*
X238122620Y-98111191D01*
X237932143Y-98063572D01*
X237836905Y-98015953D01*
X237789286Y-97968334D01*
X237741667Y-97873096D01*
X237741667Y-97777858D01*
X237789286Y-97682620D01*
X237836905Y-97635001D01*
X237932143Y-97587381D01*
X238170239Y-97587381D01*
X238313096Y-97635001D01*
X238646429Y-97587381D02*
X238884524Y-98587381D01*
X239075001Y-97873096D01*
X239265477Y-98587381D01*
X239503572Y-97587381D01*
X240408334Y-98587381D02*
X239836905Y-98587381D01*
X240122620Y-98587381D02*
X240122620Y-97587381D01*
X240027381Y-97730239D01*
X239932143Y-97825477D01*
X239836905Y-97873096D01*
%TO.C,C1*%
X89427142Y-149166666D02*
X89474761Y-149214285D01*
X89522380Y-149357142D01*
X89522380Y-149452380D01*
X89474761Y-149595238D01*
X89379523Y-149690476D01*
X89284285Y-149738095D01*
X89093809Y-149785714D01*
X88950952Y-149785714D01*
X88760476Y-149738095D01*
X88665238Y-149690476D01*
X88570000Y-149595238D01*
X88522380Y-149452380D01*
X88522380Y-149357142D01*
X88570000Y-149214285D01*
X88617619Y-149166666D01*
X89522380Y-148214285D02*
X89522380Y-148785714D01*
X89522380Y-148500000D02*
X88522380Y-148500000D01*
X88665238Y-148595238D01*
X88760476Y-148690476D01*
X88808095Y-148785714D01*
%TO.C,C2*%
X126787142Y-188441666D02*
X126834761Y-188489285D01*
X126882380Y-188632142D01*
X126882380Y-188727380D01*
X126834761Y-188870238D01*
X126739523Y-188965476D01*
X126644285Y-189013095D01*
X126453809Y-189060714D01*
X126310952Y-189060714D01*
X126120476Y-189013095D01*
X126025238Y-188965476D01*
X125930000Y-188870238D01*
X125882380Y-188727380D01*
X125882380Y-188632142D01*
X125930000Y-188489285D01*
X125977619Y-188441666D01*
X125977619Y-188060714D02*
X125930000Y-188013095D01*
X125882380Y-187917857D01*
X125882380Y-187679761D01*
X125930000Y-187584523D01*
X125977619Y-187536904D01*
X126072857Y-187489285D01*
X126168095Y-187489285D01*
X126310952Y-187536904D01*
X126882380Y-188108333D01*
X126882380Y-187489285D01*
%TO.C,C3*%
X126787142Y-196166666D02*
X126834761Y-196214285D01*
X126882380Y-196357142D01*
X126882380Y-196452380D01*
X126834761Y-196595238D01*
X126739523Y-196690476D01*
X126644285Y-196738095D01*
X126453809Y-196785714D01*
X126310952Y-196785714D01*
X126120476Y-196738095D01*
X126025238Y-196690476D01*
X125930000Y-196595238D01*
X125882380Y-196452380D01*
X125882380Y-196357142D01*
X125930000Y-196214285D01*
X125977619Y-196166666D01*
X125882380Y-195833333D02*
X125882380Y-195214285D01*
X126263333Y-195547619D01*
X126263333Y-195404761D01*
X126310952Y-195309523D01*
X126358571Y-195261904D01*
X126453809Y-195214285D01*
X126691904Y-195214285D01*
X126787142Y-195261904D01*
X126834761Y-195309523D01*
X126882380Y-195404761D01*
X126882380Y-195690476D01*
X126834761Y-195785714D01*
X126787142Y-195833333D01*
%TO.C,C4*%
X149287142Y-186666666D02*
X149334761Y-186714285D01*
X149382380Y-186857142D01*
X149382380Y-186952380D01*
X149334761Y-187095238D01*
X149239523Y-187190476D01*
X149144285Y-187238095D01*
X148953809Y-187285714D01*
X148810952Y-187285714D01*
X148620476Y-187238095D01*
X148525238Y-187190476D01*
X148430000Y-187095238D01*
X148382380Y-186952380D01*
X148382380Y-186857142D01*
X148430000Y-186714285D01*
X148477619Y-186666666D01*
X148715714Y-185809523D02*
X149382380Y-185809523D01*
X148334761Y-186047619D02*
X149049047Y-186285714D01*
X149049047Y-185666666D01*
%TO.C,C5*%
X249633333Y-189387142D02*
X249585714Y-189434761D01*
X249442857Y-189482380D01*
X249347619Y-189482380D01*
X249204761Y-189434761D01*
X249109523Y-189339523D01*
X249061904Y-189244285D01*
X249014285Y-189053809D01*
X249014285Y-188910952D01*
X249061904Y-188720476D01*
X249109523Y-188625238D01*
X249204761Y-188530000D01*
X249347619Y-188482380D01*
X249442857Y-188482380D01*
X249585714Y-188530000D01*
X249633333Y-188577619D01*
X250538095Y-188482380D02*
X250061904Y-188482380D01*
X250014285Y-188958571D01*
X250061904Y-188910952D01*
X250157142Y-188863333D01*
X250395238Y-188863333D01*
X250490476Y-188910952D01*
X250538095Y-188958571D01*
X250585714Y-189053809D01*
X250585714Y-189291904D01*
X250538095Y-189387142D01*
X250490476Y-189434761D01*
X250395238Y-189482380D01*
X250157142Y-189482380D01*
X250061904Y-189434761D01*
X250014285Y-189387142D01*
%TO.C,C6*%
X234833333Y-117587142D02*
X234785714Y-117634761D01*
X234642857Y-117682380D01*
X234547619Y-117682380D01*
X234404761Y-117634761D01*
X234309523Y-117539523D01*
X234261904Y-117444285D01*
X234214285Y-117253809D01*
X234214285Y-117110952D01*
X234261904Y-116920476D01*
X234309523Y-116825238D01*
X234404761Y-116730000D01*
X234547619Y-116682380D01*
X234642857Y-116682380D01*
X234785714Y-116730000D01*
X234833333Y-116777619D01*
X235690476Y-116682380D02*
X235500000Y-116682380D01*
X235404761Y-116730000D01*
X235357142Y-116777619D01*
X235261904Y-116920476D01*
X235214285Y-117110952D01*
X235214285Y-117491904D01*
X235261904Y-117587142D01*
X235309523Y-117634761D01*
X235404761Y-117682380D01*
X235595238Y-117682380D01*
X235690476Y-117634761D01*
X235738095Y-117587142D01*
X235785714Y-117491904D01*
X235785714Y-117253809D01*
X235738095Y-117158571D01*
X235690476Y-117110952D01*
X235595238Y-117063333D01*
X235404761Y-117063333D01*
X235309523Y-117110952D01*
X235261904Y-117158571D01*
X235214285Y-117253809D01*
%TO.C,R1*%
X71622380Y-128766666D02*
X71146190Y-129100000D01*
X71622380Y-129338095D02*
X70622380Y-129338095D01*
X70622380Y-128957142D01*
X70670000Y-128861904D01*
X70717619Y-128814285D01*
X70812857Y-128766666D01*
X70955714Y-128766666D01*
X71050952Y-128814285D01*
X71098571Y-128861904D01*
X71146190Y-128957142D01*
X71146190Y-129338095D01*
X71622380Y-127814285D02*
X71622380Y-128385714D01*
X71622380Y-128100000D02*
X70622380Y-128100000D01*
X70765238Y-128195238D01*
X70860476Y-128290476D01*
X70908095Y-128385714D01*
%TO.C,SW2*%
X248491667Y-98239762D02*
X248634524Y-98287381D01*
X248872620Y-98287381D01*
X248967858Y-98239762D01*
X249015477Y-98192143D01*
X249063096Y-98096905D01*
X249063096Y-98001667D01*
X249015477Y-97906429D01*
X248967858Y-97858810D01*
X248872620Y-97811191D01*
X248682143Y-97763572D01*
X248586905Y-97715953D01*
X248539286Y-97668334D01*
X248491667Y-97573096D01*
X248491667Y-97477858D01*
X248539286Y-97382620D01*
X248586905Y-97335001D01*
X248682143Y-97287381D01*
X248920239Y-97287381D01*
X249063096Y-97335001D01*
X249396429Y-97287381D02*
X249634524Y-98287381D01*
X249825001Y-97573096D01*
X250015477Y-98287381D01*
X250253572Y-97287381D01*
X250586905Y-97382620D02*
X250634524Y-97335001D01*
X250729762Y-97287381D01*
X250967858Y-97287381D01*
X251063096Y-97335001D01*
X251110715Y-97382620D01*
X251158334Y-97477858D01*
X251158334Y-97573096D01*
X251110715Y-97715953D01*
X250539286Y-98287381D01*
X251158334Y-98287381D01*
%TO.C,SW3*%
X259241667Y-98239762D02*
X259384524Y-98287381D01*
X259622620Y-98287381D01*
X259717858Y-98239762D01*
X259765477Y-98192143D01*
X259813096Y-98096905D01*
X259813096Y-98001667D01*
X259765477Y-97906429D01*
X259717858Y-97858810D01*
X259622620Y-97811191D01*
X259432143Y-97763572D01*
X259336905Y-97715953D01*
X259289286Y-97668334D01*
X259241667Y-97573096D01*
X259241667Y-97477858D01*
X259289286Y-97382620D01*
X259336905Y-97335001D01*
X259432143Y-97287381D01*
X259670239Y-97287381D01*
X259813096Y-97335001D01*
X260146429Y-97287381D02*
X260384524Y-98287381D01*
X260575001Y-97573096D01*
X260765477Y-98287381D01*
X261003572Y-97287381D01*
X261289286Y-97287381D02*
X261908334Y-97287381D01*
X261575001Y-97668334D01*
X261717858Y-97668334D01*
X261813096Y-97715953D01*
X261860715Y-97763572D01*
X261908334Y-97858810D01*
X261908334Y-98096905D01*
X261860715Y-98192143D01*
X261813096Y-98239762D01*
X261717858Y-98287381D01*
X261432143Y-98287381D01*
X261336905Y-98239762D01*
X261289286Y-98192143D01*
%TO.C,SW4*%
X271916666Y-98404761D02*
X272059523Y-98452380D01*
X272297619Y-98452380D01*
X272392857Y-98404761D01*
X272440476Y-98357142D01*
X272488095Y-98261904D01*
X272488095Y-98166666D01*
X272440476Y-98071428D01*
X272392857Y-98023809D01*
X272297619Y-97976190D01*
X272107142Y-97928571D01*
X272011904Y-97880952D01*
X271964285Y-97833333D01*
X271916666Y-97738095D01*
X271916666Y-97642857D01*
X271964285Y-97547619D01*
X272011904Y-97500000D01*
X272107142Y-97452380D01*
X272345238Y-97452380D01*
X272488095Y-97500000D01*
X272821428Y-97452380D02*
X273059523Y-98452380D01*
X273250000Y-97738095D01*
X273440476Y-98452380D01*
X273678571Y-97452380D01*
X274488095Y-97785714D02*
X274488095Y-98452380D01*
X274250000Y-97404761D02*
X274011904Y-98119047D01*
X274630952Y-98119047D01*
%TO.C,SW5*%
X286904761Y-112583333D02*
X286952380Y-112440476D01*
X286952380Y-112202380D01*
X286904761Y-112107142D01*
X286857142Y-112059523D01*
X286761904Y-112011904D01*
X286666666Y-112011904D01*
X286571428Y-112059523D01*
X286523809Y-112107142D01*
X286476190Y-112202380D01*
X286428571Y-112392857D01*
X286380952Y-112488095D01*
X286333333Y-112535714D01*
X286238095Y-112583333D01*
X286142857Y-112583333D01*
X286047619Y-112535714D01*
X286000000Y-112488095D01*
X285952380Y-112392857D01*
X285952380Y-112154761D01*
X286000000Y-112011904D01*
X285952380Y-111678571D02*
X286952380Y-111440476D01*
X286238095Y-111250000D01*
X286952380Y-111059523D01*
X285952380Y-110821428D01*
X285952380Y-109964285D02*
X285952380Y-110440476D01*
X286428571Y-110488095D01*
X286380952Y-110440476D01*
X286333333Y-110345238D01*
X286333333Y-110107142D01*
X286380952Y-110011904D01*
X286428571Y-109964285D01*
X286523809Y-109916666D01*
X286761904Y-109916666D01*
X286857142Y-109964285D01*
X286904761Y-110011904D01*
X286952380Y-110107142D01*
X286952380Y-110345238D01*
X286904761Y-110440476D01*
X286857142Y-110488095D01*
%TO.C,SW6*%
X286904761Y-125083333D02*
X286952380Y-124940476D01*
X286952380Y-124702380D01*
X286904761Y-124607142D01*
X286857142Y-124559523D01*
X286761904Y-124511904D01*
X286666666Y-124511904D01*
X286571428Y-124559523D01*
X286523809Y-124607142D01*
X286476190Y-124702380D01*
X286428571Y-124892857D01*
X286380952Y-124988095D01*
X286333333Y-125035714D01*
X286238095Y-125083333D01*
X286142857Y-125083333D01*
X286047619Y-125035714D01*
X286000000Y-124988095D01*
X285952380Y-124892857D01*
X285952380Y-124654761D01*
X286000000Y-124511904D01*
X285952380Y-124178571D02*
X286952380Y-123940476D01*
X286238095Y-123750000D01*
X286952380Y-123559523D01*
X285952380Y-123321428D01*
X285952380Y-122511904D02*
X285952380Y-122702380D01*
X286000000Y-122797619D01*
X286047619Y-122845238D01*
X286190476Y-122940476D01*
X286380952Y-122988095D01*
X286761904Y-122988095D01*
X286857142Y-122940476D01*
X286904761Y-122892857D01*
X286952380Y-122797619D01*
X286952380Y-122607142D01*
X286904761Y-122511904D01*
X286857142Y-122464285D01*
X286761904Y-122416666D01*
X286523809Y-122416666D01*
X286428571Y-122464285D01*
X286380952Y-122511904D01*
X286333333Y-122607142D01*
X286333333Y-122797619D01*
X286380952Y-122892857D01*
X286428571Y-122940476D01*
X286523809Y-122988095D01*
%TO.C,SW7*%
X286904761Y-138083333D02*
X286952380Y-137940476D01*
X286952380Y-137702380D01*
X286904761Y-137607142D01*
X286857142Y-137559523D01*
X286761904Y-137511904D01*
X286666666Y-137511904D01*
X286571428Y-137559523D01*
X286523809Y-137607142D01*
X286476190Y-137702380D01*
X286428571Y-137892857D01*
X286380952Y-137988095D01*
X286333333Y-138035714D01*
X286238095Y-138083333D01*
X286142857Y-138083333D01*
X286047619Y-138035714D01*
X286000000Y-137988095D01*
X285952380Y-137892857D01*
X285952380Y-137654761D01*
X286000000Y-137511904D01*
X285952380Y-137178571D02*
X286952380Y-136940476D01*
X286238095Y-136750000D01*
X286952380Y-136559523D01*
X285952380Y-136321428D01*
X285952380Y-136035714D02*
X285952380Y-135369047D01*
X286952380Y-135797619D01*
%TO.C,SW8*%
X286404761Y-153083333D02*
X286452380Y-152940476D01*
X286452380Y-152702380D01*
X286404761Y-152607142D01*
X286357142Y-152559523D01*
X286261904Y-152511904D01*
X286166666Y-152511904D01*
X286071428Y-152559523D01*
X286023809Y-152607142D01*
X285976190Y-152702380D01*
X285928571Y-152892857D01*
X285880952Y-152988095D01*
X285833333Y-153035714D01*
X285738095Y-153083333D01*
X285642857Y-153083333D01*
X285547619Y-153035714D01*
X285500000Y-152988095D01*
X285452380Y-152892857D01*
X285452380Y-152654761D01*
X285500000Y-152511904D01*
X285452380Y-152178571D02*
X286452380Y-151940476D01*
X285738095Y-151750000D01*
X286452380Y-151559523D01*
X285452380Y-151321428D01*
X285880952Y-150797619D02*
X285833333Y-150892857D01*
X285785714Y-150940476D01*
X285690476Y-150988095D01*
X285642857Y-150988095D01*
X285547619Y-150940476D01*
X285500000Y-150892857D01*
X285452380Y-150797619D01*
X285452380Y-150607142D01*
X285500000Y-150511904D01*
X285547619Y-150464285D01*
X285642857Y-150416666D01*
X285690476Y-150416666D01*
X285785714Y-150464285D01*
X285833333Y-150511904D01*
X285880952Y-150607142D01*
X285880952Y-150797619D01*
X285928571Y-150892857D01*
X285976190Y-150940476D01*
X286071428Y-150988095D01*
X286261904Y-150988095D01*
X286357142Y-150940476D01*
X286404761Y-150892857D01*
X286452380Y-150797619D01*
X286452380Y-150607142D01*
X286404761Y-150511904D01*
X286357142Y-150464285D01*
X286261904Y-150416666D01*
X286071428Y-150416666D01*
X285976190Y-150464285D01*
X285928571Y-150511904D01*
X285880952Y-150607142D01*
%TO.C,SW10*%
X213040476Y-92904761D02*
X213183333Y-92952380D01*
X213421428Y-92952380D01*
X213516666Y-92904761D01*
X213564285Y-92857142D01*
X213611904Y-92761904D01*
X213611904Y-92666666D01*
X213564285Y-92571428D01*
X213516666Y-92523809D01*
X213421428Y-92476190D01*
X213230952Y-92428571D01*
X213135714Y-92380952D01*
X213088095Y-92333333D01*
X213040476Y-92238095D01*
X213040476Y-92142857D01*
X213088095Y-92047619D01*
X213135714Y-92000000D01*
X213230952Y-91952380D01*
X213469047Y-91952380D01*
X213611904Y-92000000D01*
X213945238Y-91952380D02*
X214183333Y-92952380D01*
X214373809Y-92238095D01*
X214564285Y-92952380D01*
X214802380Y-91952380D01*
X215707142Y-92952380D02*
X215135714Y-92952380D01*
X215421428Y-92952380D02*
X215421428Y-91952380D01*
X215326190Y-92095238D01*
X215230952Y-92190476D01*
X215135714Y-92238095D01*
X216326190Y-91952380D02*
X216421428Y-91952380D01*
X216516666Y-92000000D01*
X216564285Y-92047619D01*
X216611904Y-92142857D01*
X216659523Y-92333333D01*
X216659523Y-92571428D01*
X216611904Y-92761904D01*
X216564285Y-92857142D01*
X216516666Y-92904761D01*
X216421428Y-92952380D01*
X216326190Y-92952380D01*
X216230952Y-92904761D01*
X216183333Y-92857142D01*
X216135714Y-92761904D01*
X216088095Y-92571428D01*
X216088095Y-92333333D01*
X216135714Y-92142857D01*
X216183333Y-92047619D01*
X216230952Y-92000000D01*
X216326190Y-91952380D01*
%TO.C,SW11*%
X201440476Y-92504761D02*
X201583333Y-92552380D01*
X201821428Y-92552380D01*
X201916666Y-92504761D01*
X201964285Y-92457142D01*
X202011904Y-92361904D01*
X202011904Y-92266666D01*
X201964285Y-92171428D01*
X201916666Y-92123809D01*
X201821428Y-92076190D01*
X201630952Y-92028571D01*
X201535714Y-91980952D01*
X201488095Y-91933333D01*
X201440476Y-91838095D01*
X201440476Y-91742857D01*
X201488095Y-91647619D01*
X201535714Y-91600000D01*
X201630952Y-91552380D01*
X201869047Y-91552380D01*
X202011904Y-91600000D01*
X202345238Y-91552380D02*
X202583333Y-92552380D01*
X202773809Y-91838095D01*
X202964285Y-92552380D01*
X203202380Y-91552380D01*
X204107142Y-92552380D02*
X203535714Y-92552380D01*
X203821428Y-92552380D02*
X203821428Y-91552380D01*
X203726190Y-91695238D01*
X203630952Y-91790476D01*
X203535714Y-91838095D01*
X205059523Y-92552380D02*
X204488095Y-92552380D01*
X204773809Y-92552380D02*
X204773809Y-91552380D01*
X204678571Y-91695238D01*
X204583333Y-91790476D01*
X204488095Y-91838095D01*
%TO.C,SW12*%
X190040476Y-92104761D02*
X190183333Y-92152380D01*
X190421428Y-92152380D01*
X190516666Y-92104761D01*
X190564285Y-92057142D01*
X190611904Y-91961904D01*
X190611904Y-91866666D01*
X190564285Y-91771428D01*
X190516666Y-91723809D01*
X190421428Y-91676190D01*
X190230952Y-91628571D01*
X190135714Y-91580952D01*
X190088095Y-91533333D01*
X190040476Y-91438095D01*
X190040476Y-91342857D01*
X190088095Y-91247619D01*
X190135714Y-91200000D01*
X190230952Y-91152380D01*
X190469047Y-91152380D01*
X190611904Y-91200000D01*
X190945238Y-91152380D02*
X191183333Y-92152380D01*
X191373809Y-91438095D01*
X191564285Y-92152380D01*
X191802380Y-91152380D01*
X192707142Y-92152380D02*
X192135714Y-92152380D01*
X192421428Y-92152380D02*
X192421428Y-91152380D01*
X192326190Y-91295238D01*
X192230952Y-91390476D01*
X192135714Y-91438095D01*
X193088095Y-91247619D02*
X193135714Y-91200000D01*
X193230952Y-91152380D01*
X193469047Y-91152380D01*
X193564285Y-91200000D01*
X193611904Y-91247619D01*
X193659523Y-91342857D01*
X193659523Y-91438095D01*
X193611904Y-91580952D01*
X193040476Y-92152380D01*
X193659523Y-92152380D01*
%TO.C,SW13*%
X71504761Y-150359523D02*
X71552380Y-150216666D01*
X71552380Y-149978571D01*
X71504761Y-149883333D01*
X71457142Y-149835714D01*
X71361904Y-149788095D01*
X71266666Y-149788095D01*
X71171428Y-149835714D01*
X71123809Y-149883333D01*
X71076190Y-149978571D01*
X71028571Y-150169047D01*
X70980952Y-150264285D01*
X70933333Y-150311904D01*
X70838095Y-150359523D01*
X70742857Y-150359523D01*
X70647619Y-150311904D01*
X70600000Y-150264285D01*
X70552380Y-150169047D01*
X70552380Y-149930952D01*
X70600000Y-149788095D01*
X70552380Y-149454761D02*
X71552380Y-149216666D01*
X70838095Y-149026190D01*
X71552380Y-148835714D01*
X70552380Y-148597619D01*
X71552380Y-147692857D02*
X71552380Y-148264285D01*
X71552380Y-147978571D02*
X70552380Y-147978571D01*
X70695238Y-148073809D01*
X70790476Y-148169047D01*
X70838095Y-148264285D01*
X70552380Y-147359523D02*
X70552380Y-146740476D01*
X70933333Y-147073809D01*
X70933333Y-146930952D01*
X70980952Y-146835714D01*
X71028571Y-146788095D01*
X71123809Y-146740476D01*
X71361904Y-146740476D01*
X71457142Y-146788095D01*
X71504761Y-146835714D01*
X71552380Y-146930952D01*
X71552380Y-147216666D01*
X71504761Y-147311904D01*
X71457142Y-147359523D01*
%TO.C,U2*%
X234238095Y-120502380D02*
X234238095Y-121311904D01*
X234285714Y-121407142D01*
X234333333Y-121454761D01*
X234428571Y-121502380D01*
X234619047Y-121502380D01*
X234714285Y-121454761D01*
X234761904Y-121407142D01*
X234809523Y-121311904D01*
X234809523Y-120502380D01*
X235238095Y-120597619D02*
X235285714Y-120550000D01*
X235380952Y-120502380D01*
X235619047Y-120502380D01*
X235714285Y-120550000D01*
X235761904Y-120597619D01*
X235809523Y-120692857D01*
X235809523Y-120788095D01*
X235761904Y-120930952D01*
X235190476Y-121502380D01*
X235809523Y-121502380D01*
%TO.C,U3*%
X172628095Y-189242380D02*
X172628095Y-190051904D01*
X172675714Y-190147142D01*
X172723333Y-190194761D01*
X172818571Y-190242380D01*
X173009047Y-190242380D01*
X173104285Y-190194761D01*
X173151904Y-190147142D01*
X173199523Y-190051904D01*
X173199523Y-189242380D01*
X173580476Y-189242380D02*
X174199523Y-189242380D01*
X173866190Y-189623333D01*
X174009047Y-189623333D01*
X174104285Y-189670952D01*
X174151904Y-189718571D01*
X174199523Y-189813809D01*
X174199523Y-190051904D01*
X174151904Y-190147142D01*
X174104285Y-190194761D01*
X174009047Y-190242380D01*
X173723333Y-190242380D01*
X173628095Y-190194761D01*
X173580476Y-190147142D01*
%TO.C,X1*%
X34652380Y-76069523D02*
X35652380Y-75402857D01*
X34652380Y-75402857D02*
X35652380Y-76069523D01*
X35652380Y-74498095D02*
X35652380Y-75069523D01*
X35652380Y-74783809D02*
X34652380Y-74783809D01*
X34795238Y-74879047D01*
X34890476Y-74974285D01*
X34938095Y-75069523D01*
%TO.C,X2*%
X34252380Y-42269523D02*
X35252380Y-41602857D01*
X34252380Y-41602857D02*
X35252380Y-42269523D01*
X34347619Y-41269523D02*
X34300000Y-41221904D01*
X34252380Y-41126666D01*
X34252380Y-40888571D01*
X34300000Y-40793333D01*
X34347619Y-40745714D01*
X34442857Y-40698095D01*
X34538095Y-40698095D01*
X34680952Y-40745714D01*
X35252380Y-41317142D01*
X35252380Y-40698095D01*
%TO.C,X3*%
X82700477Y-192567381D02*
X83367143Y-193567381D01*
X83367143Y-192567381D02*
X82700477Y-193567381D01*
X83652858Y-192567381D02*
X84271905Y-192567381D01*
X83938572Y-192948334D01*
X84081429Y-192948334D01*
X84176667Y-192995953D01*
X84224286Y-193043572D01*
X84271905Y-193138810D01*
X84271905Y-193376905D01*
X84224286Y-193472143D01*
X84176667Y-193519762D01*
X84081429Y-193567381D01*
X83795715Y-193567381D01*
X83700477Y-193519762D01*
X83652858Y-193472143D01*
%TD*%
M02*
