%TF.GenerationSoftware,KiCad,Pcbnew,(5.1.10)-1*%
%TF.CreationDate,2021-12-02T22:33:07+03:00*%
%TF.ProjectId,gaponov_lab1,6761706f-6e6f-4765-9f6c-6162312e6b69,rev?*%
%TF.SameCoordinates,Original*%
%TF.FileFunction,Soldermask,Bot*%
%TF.FilePolarity,Negative*%
%FSLAX46Y46*%
G04 Gerber Fmt 4.6, Leading zero omitted, Abs format (unit mm)*
G04 Created by KiCad (PCBNEW (5.1.10)-1) date 2021-12-02 22:33:07*
%MOMM*%
%LPD*%
G01*
G04 APERTURE LIST*
%ADD10R,1.800000X1.800000*%
%ADD11C,1.800000*%
%ADD12C,1.400000*%
%ADD13O,1.400000X1.400000*%
%ADD14C,1.600000*%
%ADD15O,1.600000X1.600000*%
%ADD16C,10.160000*%
G04 APERTURE END LIST*
D10*
%TO.C,D1*%
X200660000Y-135890000D03*
D11*
X198120000Y-135890000D03*
%TD*%
D12*
%TO.C,R1*%
X209550000Y-121920000D03*
D13*
X207010000Y-121920000D03*
%TD*%
D14*
%TO.C,R2*%
X210820000Y-144780000D03*
D15*
X210820000Y-142240000D03*
%TD*%
D16*
%TO.C,X1*%
X185420000Y-141990000D03*
X185420000Y-112020000D03*
X185420000Y-127000000D03*
%TD*%
M02*
