EESchema Schematic File Version 4
EELAYER 30 0
EELAYER END
$Descr A3 16535 11693
encoding utf-8
Sheet 1 1
Title ""
Date ""
Rev ""
Comp ""
Comment1 ""
Comment2 "Нестеров А.С."
Comment3 ""
Comment4 ""
$EndDescr
$Comp
L MCU_Microchip_ATmega:ATmega8515-16PU U3
U 1 1 60563BE4
P 8000 3700
F 0 "U3" H 8000 5881 50  0000 C CNN
F 1 "ATmega8515-16PU" H 8000 5790 50  0000 C CNN
F 2 "Package_DIP:DIP-40_W15.24mm" H 8000 3700 50  0001 C CIN
F 3 "http://ww1.microchip.com/downloads/en/DeviceDoc/doc2512.pdf" H 8000 3700 50  0001 C CNN
	1    8000 3700
	1    0    0    -1  
$EndComp
$Comp
L power:VCC #PWR0101
U 1 1 60564AA7
P 8000 1100
F 0 "#PWR0101" H 8000 950 50  0001 C CNN
F 1 "VCC" H 8015 1273 50  0000 C CNN
F 2 "" H 8000 1100 50  0001 C CNN
F 3 "" H 8000 1100 50  0001 C CNN
	1    8000 1100
	1    0    0    -1  
$EndComp
Wire Wire Line
	8000 1650 7700 1650
Wire Wire Line
	7700 1650 7700 1550
Wire Wire Line
	8000 1650 8000 1700
$Comp
L Device:C C10
U 1 1 605653E2
P 7700 1400
F 0 "C10" H 7815 1446 50  0000 L CNN
F 1 "0.1" H 7815 1355 50  0000 L CNN
F 2 "Capacitor_SMD:C_0603_1608Metric" H 7738 1250 50  0001 C CNN
F 3 "~" H 7700 1400 50  0001 C CNN
	1    7700 1400
	1    0    0    -1  
$EndComp
$Comp
L power:GND #PWR0102
U 1 1 605659AA
P 7700 1100
F 0 "#PWR0102" H 7700 850 50  0001 C CNN
F 1 "GND" H 7705 927 50  0000 C CNN
F 2 "" H 7700 1100 50  0001 C CNN
F 3 "" H 7700 1100 50  0001 C CNN
	1    7700 1100
	-1   0    0    1   
$EndComp
Wire Wire Line
	7700 1250 7700 1100
Wire Wire Line
	8000 1100 8000 1650
Connection ~ 8000 1650
Wire Wire Line
	8000 5700 8000 5800
$Comp
L power:GND #PWR0103
U 1 1 6056673A
P 8000 5800
F 0 "#PWR0103" H 8000 5550 50  0001 C CNN
F 1 "GND" H 8005 5627 50  0000 C CNN
F 2 "" H 8000 5800 50  0001 C CNN
F 3 "" H 8000 5800 50  0001 C CNN
	1    8000 5800
	1    0    0    -1  
$EndComp
Wire Wire Line
	7400 2200 7100 2200
Wire Wire Line
	7400 2400 7100 2400
Text Label 7200 2200 0    50   ~ 0
XT1
Text Label 7200 2400 0    50   ~ 0
XT2
$Comp
L Device:Crystal Y1
U 1 1 60567200
P 2400 3600
F 0 "Y1" H 2400 3868 50  0000 C CNN
F 1 "Crystal" H 2400 3777 50  0000 C CNN
F 2 "Crystal:Crystal_AT310_D3.0mm_L10.0mm_Horizontal" H 2400 3600 50  0001 C CNN
F 3 "~" H 2400 3600 50  0001 C CNN
	1    2400 3600
	0    -1   -1   0   
$EndComp
Wire Wire Line
	2050 3750 2400 3750
Connection ~ 2400 3750
Text Label 2550 3450 0    50   ~ 0
XT1
Text Label 2550 3750 0    50   ~ 0
XT2
Wire Wire Line
	2400 3750 2800 3750
Wire Wire Line
	2400 3450 2800 3450
Wire Wire Line
	2050 3450 2400 3450
Connection ~ 2400 3450
$Comp
L Device:C C1
U 1 1 60568D18
P 1900 3450
F 0 "C1" V 1648 3450 50  0000 C CNN
F 1 "22пФ" V 1739 3450 50  0000 C CNN
F 2 "Capacitor_SMD:C_0603_1608Metric" H 1938 3300 50  0001 C CNN
F 3 "~" H 1900 3450 50  0001 C CNN
	1    1900 3450
	0    1    1    0   
$EndComp
$Comp
L Device:C C2
U 1 1 60569A01
P 1900 3750
F 0 "C2" V 1648 3750 50  0000 C CNN
F 1 "22пФ" V 1739 3750 50  0000 C CNN
F 2 "Capacitor_SMD:C_0603_1608Metric" H 1938 3600 50  0001 C CNN
F 3 "~" H 1900 3750 50  0001 C CNN
	1    1900 3750
	0    1    1    0   
$EndComp
Wire Wire Line
	1750 3450 1650 3450
Wire Wire Line
	1650 3450 1650 3600
Wire Wire Line
	1650 3750 1750 3750
$Comp
L power:GND #PWR0104
U 1 1 6056A854
P 1650 3600
F 0 "#PWR0104" H 1650 3350 50  0001 C CNN
F 1 "GND" V 1655 3473 50  0000 R CNN
F 2 "" H 1650 3600 50  0001 C CNN
F 3 "" H 1650 3600 50  0001 C CNN
	1    1650 3600
	0    1    1    0   
$EndComp
Connection ~ 1650 3600
Wire Wire Line
	1650 3600 1650 3750
$Comp
L Switch:SW_Push SW2
U 1 1 60570045
P 2100 5600
F 0 "SW2" H 2100 5885 50  0000 C CNN
F 1 "SW_Push" H 2100 5794 50  0000 C CNN
F 2 "Button_Switch_THT:SW_PUSH_6mm" H 2100 5800 50  0001 C CNN
F 3 "~" H 2100 5800 50  0001 C CNN
	1    2100 5600
	1    0    0    -1  
$EndComp
$Comp
L Switch:SW_Push SW3
U 1 1 60571449
P 2100 5950
F 0 "SW3" H 2100 6235 50  0000 C CNN
F 1 "SW_Push" H 2100 6144 50  0000 C CNN
F 2 "Button_Switch_THT:SW_PUSH_6mm" H 2100 6150 50  0001 C CNN
F 3 "~" H 2100 6150 50  0001 C CNN
	1    2100 5950
	1    0    0    -1  
$EndComp
$Comp
L Switch:SW_Push SW4
U 1 1 6057180F
P 2100 6350
F 0 "SW4" H 2100 6635 50  0000 C CNN
F 1 "SW_Push" H 2100 6544 50  0000 C CNN
F 2 "Button_Switch_THT:SW_PUSH_6mm" H 2100 6550 50  0001 C CNN
F 3 "~" H 2100 6550 50  0001 C CNN
	1    2100 6350
	1    0    0    -1  
$EndComp
$Comp
L Switch:SW_Push SW5
U 1 1 60571C1A
P 2100 6750
F 0 "SW5" H 2100 7035 50  0000 C CNN
F 1 "SW_Push" H 2100 6944 50  0000 C CNN
F 2 "Button_Switch_THT:SW_PUSH_6mm" H 2100 6950 50  0001 C CNN
F 3 "~" H 2100 6950 50  0001 C CNN
	1    2100 6750
	1    0    0    -1  
$EndComp
$Comp
L Switch:SW_Push SW6
U 1 1 60572153
P 2100 7150
F 0 "SW6" H 2100 7435 50  0000 C CNN
F 1 "SW_Push" H 2100 7344 50  0000 C CNN
F 2 "Button_Switch_THT:SW_PUSH_6mm" H 2100 7350 50  0001 C CNN
F 3 "~" H 2100 7350 50  0001 C CNN
	1    2100 7150
	1    0    0    -1  
$EndComp
$Comp
L Switch:SW_Push SW1
U 1 1 6057259C
P 2100 4550
F 0 "SW1" H 2100 4835 50  0000 C CNN
F 1 "SW_Push" H 2100 4744 50  0000 C CNN
F 2 "Button_Switch_THT:SW_PUSH_6mm" H 2100 4750 50  0001 C CNN
F 3 "~" H 2100 4750 50  0001 C CNN
	1    2100 4550
	1    0    0    -1  
$EndComp
Wire Wire Line
	1900 5600 1500 5600
Wire Wire Line
	1500 5600 1500 5950
Wire Wire Line
	1900 7150 1500 7150
Wire Wire Line
	1900 6750 1500 6750
Connection ~ 1500 6750
Wire Wire Line
	1500 6750 1500 7150
Wire Wire Line
	1900 6350 1500 6350
Connection ~ 1500 6350
Wire Wire Line
	1500 6350 1500 6750
Wire Wire Line
	1900 5950 1500 5950
Connection ~ 1500 5950
Wire Wire Line
	1500 5950 1500 6350
$Comp
L power:GND #PWR0105
U 1 1 605783EE
P 1800 4650
F 0 "#PWR0105" H 1800 4400 50  0001 C CNN
F 1 "GND" H 1805 4477 50  0000 C CNN
F 2 "" H 1800 4650 50  0001 C CNN
F 3 "" H 1800 4650 50  0001 C CNN
	1    1800 4650
	1    0    0    -1  
$EndComp
Wire Wire Line
	2300 5600 2800 5600
Wire Wire Line
	2300 5950 2800 5950
Wire Wire Line
	2300 6350 2800 6350
Wire Wire Line
	2300 6750 2800 6750
Text Label 2500 5600 0    50   ~ 0
C0
Text Label 2500 5950 0    50   ~ 0
C1
Text Label 2500 6350 0    50   ~ 0
C2
Text Label 2500 6750 0    50   ~ 0
C3
Text Label 2500 7150 0    50   ~ 0
C4
Wire Wire Line
	2300 7150 2800 7150
Wire Wire Line
	8600 3800 9100 3800
Wire Wire Line
	8600 3900 9100 3900
Wire Wire Line
	8600 4000 9100 4000
Wire Wire Line
	8600 4100 9100 4100
Wire Wire Line
	8600 4300 9100 4300
Text Label 8800 3800 0    50   ~ 0
C0
Text Label 8800 3900 0    50   ~ 0
C1
Text Label 8800 4000 0    50   ~ 0
C2
Text Label 8800 4100 0    50   ~ 0
C3
Text Label 8800 4200 0    50   ~ 0
C4
Wire Wire Line
	8600 4200 9100 4200
Text Label 8800 4300 0    50   ~ 0
C5
Wire Wire Line
	1900 4550 1800 4550
Wire Wire Line
	1800 4550 1800 4650
Wire Wire Line
	2300 4550 2400 4550
Wire Wire Line
	2400 4550 2400 4450
Connection ~ 2400 4550
Wire Wire Line
	2400 4550 2400 4700
$Comp
L Device:C C3
U 1 1 60591FA3
P 2400 4850
F 0 "C3" H 2515 4896 50  0000 L CNN
F 1 "0.1" H 2515 4805 50  0000 L CNN
F 2 "Capacitor_SMD:C_0603_1608Metric" H 2438 4700 50  0001 C CNN
F 3 "~" H 2400 4850 50  0001 C CNN
	1    2400 4850
	1    0    0    -1  
$EndComp
$Comp
L Device:R R3
U 1 1 605925CC
P 2400 4300
F 0 "R3" H 2470 4346 50  0000 L CNN
F 1 "10k" H 2470 4255 50  0000 L CNN
F 2 "Resistor_THT:R_Axial_DIN0207_L6.3mm_D2.5mm_P2.54mm_Vertical" V 2330 4300 50  0001 C CNN
F 3 "~" H 2400 4300 50  0001 C CNN
	1    2400 4300
	1    0    0    -1  
$EndComp
Wire Wire Line
	2400 4150 2400 4100
$Comp
L power:VCC #PWR0106
U 1 1 60593D56
P 2400 4100
F 0 "#PWR0106" H 2400 3950 50  0001 C CNN
F 1 "VCC" H 2415 4273 50  0000 C CNN
F 2 "" H 2400 4100 50  0001 C CNN
F 3 "" H 2400 4100 50  0001 C CNN
	1    2400 4100
	1    0    0    -1  
$EndComp
$Comp
L power:GND #PWR0107
U 1 1 60594643
P 2400 5050
F 0 "#PWR0107" H 2400 4800 50  0001 C CNN
F 1 "GND" H 2405 4877 50  0000 C CNN
F 2 "" H 2400 5050 50  0001 C CNN
F 3 "" H 2400 5050 50  0001 C CNN
	1    2400 5050
	1    0    0    -1  
$EndComp
Wire Wire Line
	2400 5050 2400 5000
$Comp
L Switch:SW_Push SW7
U 1 1 6059A765
P 2100 7550
F 0 "SW7" H 2100 7835 50  0000 C CNN
F 1 "SW_Push" H 2100 7744 50  0000 C CNN
F 2 "Button_Switch_THT:SW_PUSH_6mm" H 2100 7750 50  0001 C CNN
F 3 "~" H 2100 7750 50  0001 C CNN
	1    2100 7550
	1    0    0    -1  
$EndComp
Wire Wire Line
	1900 7550 1500 7550
Wire Wire Line
	1500 7150 1500 7550
Text Label 2500 7550 0    50   ~ 0
C5
Wire Wire Line
	2300 7550 2800 7550
$Comp
L power:GND #PWR0108
U 1 1 6059C737
P 1500 7650
F 0 "#PWR0108" H 1500 7400 50  0001 C CNN
F 1 "GND" H 1505 7477 50  0000 C CNN
F 2 "" H 1500 7650 50  0001 C CNN
F 3 "" H 1500 7650 50  0001 C CNN
	1    1500 7650
	1    0    0    -1  
$EndComp
Wire Wire Line
	1500 7550 1500 7650
Connection ~ 1500 7150
Connection ~ 1500 7550
$Comp
L Sensor_Temperature:DS1621 U1
U 1 1 605A70D3
P 3100 9000
F 0 "U1" H 3644 9046 50  0000 L CNN
F 1 "DS1621" H 3644 8955 50  0000 L CNN
F 2 "Package_DIP:DIP-8_W7.62mm" H 2400 8650 50  0001 C CNN
F 3 "https://datasheets.maximintegrated.com/en/ds/DS1621.pdf" H 2950 9250 50  0001 C CNN
	1    3100 9000
	1    0    0    -1  
$EndComp
Wire Wire Line
	2600 9000 2450 9000
Wire Wire Line
	2450 9000 2450 9100
Wire Wire Line
	2450 9200 2600 9200
Wire Wire Line
	2600 9100 2450 9100
Connection ~ 2450 9100
Wire Wire Line
	2450 9100 2450 9200
Wire Wire Line
	3100 9400 2350 9400
Wire Wire Line
	2350 9400 2350 9250
Wire Wire Line
	2350 9100 2450 9100
Wire Wire Line
	2350 9250 2250 9250
Connection ~ 2350 9250
Wire Wire Line
	2350 9250 2350 9100
$Comp
L power:GND #PWR0109
U 1 1 605ACE70
P 2250 9250
F 0 "#PWR0109" H 2250 9000 50  0001 C CNN
F 1 "GND" V 2255 9123 50  0000 R CNN
F 2 "" H 2250 9250 50  0001 C CNN
F 3 "" H 2250 9250 50  0001 C CNN
	1    2250 9250
	0    1    1    0   
$EndComp
NoConn ~ 3600 9000
$Comp
L power:VCC #PWR0110
U 1 1 605AEB02
P 3100 8450
F 0 "#PWR0110" H 3100 8300 50  0001 C CNN
F 1 "VCC" H 3115 8623 50  0000 C CNN
F 2 "" H 3100 8450 50  0001 C CNN
F 3 "" H 3100 8450 50  0001 C CNN
	1    3100 8450
	1    0    0    -1  
$EndComp
Wire Wire Line
	3100 8600 3100 8450
Wire Wire Line
	2600 8900 2400 8900
Wire Wire Line
	2400 8800 2400 8700
Wire Wire Line
	2400 8700 2350 8700
Wire Wire Line
	2400 8900 2400 9000
Wire Wire Line
	2400 9000 2350 9000
Connection ~ 2400 8900
$Comp
L Device:R R1
U 1 1 605B55F3
P 2200 8700
F 0 "R1" V 1993 8700 50  0000 C CNN
F 1 "100" V 2084 8700 50  0000 C CNN
F 2 "Resistor_THT:R_Axial_DIN0207_L6.3mm_D2.5mm_P2.54mm_Vertical" V 2130 8700 50  0001 C CNN
F 3 "~" H 2200 8700 50  0001 C CNN
	1    2200 8700
	0    1    1    0   
$EndComp
$Comp
L Device:R R2
U 1 1 605B5F34
P 2200 9000
F 0 "R2" V 1993 9000 50  0000 C CNN
F 1 "100" V 2084 9000 50  0000 C CNN
F 2 "Resistor_THT:R_Axial_DIN0207_L6.3mm_D2.5mm_P2.54mm_Vertical" V 2130 9000 50  0001 C CNN
F 3 "~" H 2200 9000 50  0001 C CNN
	1    2200 9000
	0    1    1    0   
$EndComp
Wire Wire Line
	1750 8800 2400 8800
Wire Wire Line
	1750 8900 2400 8900
Text Label 1850 8800 0    50   ~ 0
SDA
Text Label 1850 8900 0    50   ~ 0
SCL
Wire Wire Line
	2050 9000 1750 9000
Wire Wire Line
	1750 8700 2050 8700
$Comp
L power:VCC #PWR0111
U 1 1 605BF2BB
P 1750 8700
F 0 "#PWR0111" H 1750 8550 50  0001 C CNN
F 1 "VCC" V 1765 8827 50  0000 L CNN
F 2 "" H 1750 8700 50  0001 C CNN
F 3 "" H 1750 8700 50  0001 C CNN
	1    1750 8700
	0    -1   -1   0   
$EndComp
$Comp
L power:VCC #PWR0112
U 1 1 605C0144
P 1750 9000
F 0 "#PWR0112" H 1750 8850 50  0001 C CNN
F 1 "VCC" V 1765 9127 50  0000 L CNN
F 2 "" H 1750 9000 50  0001 C CNN
F 3 "" H 1750 9000 50  0001 C CNN
	1    1750 9000
	0    -1   -1   0   
$EndComp
$Comp
L power:PWR_FLAG #FLG0101
U 1 1 605C4BEA
P 15900 8350
F 0 "#FLG0101" H 15900 8425 50  0001 C CNN
F 1 "PWR_FLAG" H 15900 8523 50  0000 C CNN
F 2 "" H 15900 8350 50  0001 C CNN
F 3 "~" H 15900 8350 50  0001 C CNN
	1    15900 8350
	1    0    0    -1  
$EndComp
$Comp
L power:PWR_FLAG #FLG0102
U 1 1 605C5CFA
P 15500 8350
F 0 "#FLG0102" H 15500 8425 50  0001 C CNN
F 1 "PWR_FLAG" H 15500 8523 50  0000 C CNN
F 2 "" H 15500 8350 50  0001 C CNN
F 3 "~" H 15500 8350 50  0001 C CNN
	1    15500 8350
	1    0    0    -1  
$EndComp
$Comp
L power:VCC #PWR0113
U 1 1 605C661E
P 15500 8550
F 0 "#PWR0113" H 15500 8400 50  0001 C CNN
F 1 "VCC" H 15515 8723 50  0000 C CNN
F 2 "" H 15500 8550 50  0001 C CNN
F 3 "" H 15500 8550 50  0001 C CNN
	1    15500 8550
	-1   0    0    1   
$EndComp
$Comp
L power:GND #PWR0114
U 1 1 605C6AC2
P 15900 8550
F 0 "#PWR0114" H 15900 8300 50  0001 C CNN
F 1 "GND" H 15905 8377 50  0000 C CNN
F 2 "" H 15900 8550 50  0001 C CNN
F 3 "" H 15900 8550 50  0001 C CNN
	1    15900 8550
	1    0    0    -1  
$EndComp
Wire Wire Line
	15500 8550 15500 8350
Wire Wire Line
	15900 8350 15900 8550
Connection ~ 2400 8800
Wire Wire Line
	2400 8800 2600 8800
$Comp
L Connector:DB9_Female J1
U 1 1 605D6C66
P 2100 1900
F 0 "J1" H 2018 1208 50  0000 C CNN
F 1 "DB9_Female" H 2018 1299 50  0000 C CNN
F 2 "Connector_Dsub:DSUB-9_Female_Horizontal_P2.77x2.54mm_EdgePinOffset9.40mm" H 2100 1900 50  0001 C CNN
F 3 " ~" H 2100 1900 50  0001 C CNN
	1    2100 1900
	-1   0    0    1   
$EndComp
Wire Wire Line
	2400 2300 3050 2300
Wire Wire Line
	2400 2100 3050 2100
Wire Wire Line
	2400 1900 3050 1900
Wire Wire Line
	2400 1700 3050 1700
Wire Wire Line
	2400 1500 3050 1500
Wire Wire Line
	3050 1500 3050 1400
$Comp
L power:GND #PWR0115
U 1 1 605DEDB8
P 3050 1400
F 0 "#PWR0115" H 3050 1150 50  0001 C CNN
F 1 "GND" H 3055 1227 50  0000 C CNN
F 2 "" H 3050 1400 50  0001 C CNN
F 3 "" H 3050 1400 50  0001 C CNN
	1    3050 1400
	-1   0    0    1   
$EndComp
Text Label 2700 2100 0    50   ~ 0
SCK
Text Label 2700 1700 0    50   ~ 0
MOSI
Text Label 2700 1900 0    50   ~ 0
MISO
Text Label 2700 2300 0    50   ~ 0
RESET
Text Label 2600 4550 0    50   ~ 0
RESET
Wire Wire Line
	2400 4550 2900 4550
$Comp
L Display_Character:CC56-12SURKWA U4
U 1 1 605F21ED
P 12750 2300
F 0 "U4" H 12750 2967 50  0000 C CNN
F 1 "CC56-12SURKWA" H 12750 2876 50  0000 C CNN
F 2 "Display_7Segment:CA56-12SURKWA" H 12750 1700 50  0001 C CNN
F 3 "http://www.kingbright.com/attachments/file/psearch/000/00/00/CC56-12SURKWA(Ver.7A).pdf" H 12320 2330 50  0001 C CNN
	1    12750 2300
	1    0    0    -1  
$EndComp
Wire Wire Line
	8600 2000 9100 2000
$Comp
L Device:R R15
U 1 1 60610CA0
P 11350 2700
F 0 "R15" V 11557 2700 50  0000 C CNN
F 1 "240" V 11466 2700 50  0000 C CNN
F 2 "Resistor_THT:R_Axial_DIN0207_L6.3mm_D2.5mm_P2.54mm_Vertical" V 11280 2700 50  0001 C CNN
F 3 "~" H 11350 2700 50  0001 C CNN
	1    11350 2700
	0    -1   -1   0   
$EndComp
$Comp
L Device:R R14
U 1 1 60615E8B
P 11050 2600
F 0 "R14" V 11257 2600 50  0000 C CNN
F 1 "240" V 11166 2600 50  0000 C CNN
F 2 "Resistor_THT:R_Axial_DIN0207_L6.3mm_D2.5mm_P2.54mm_Vertical" V 10980 2600 50  0001 C CNN
F 3 "~" H 11050 2600 50  0001 C CNN
	1    11050 2600
	0    -1   -1   0   
$EndComp
$Comp
L Device:R R12
U 1 1 60617F9B
P 10750 2500
F 0 "R12" V 10957 2500 50  0000 C CNN
F 1 "240" V 10866 2500 50  0000 C CNN
F 2 "Resistor_THT:R_Axial_DIN0207_L6.3mm_D2.5mm_P2.54mm_Vertical" V 10680 2500 50  0001 C CNN
F 3 "~" H 10750 2500 50  0001 C CNN
	1    10750 2500
	0    -1   -1   0   
$EndComp
$Comp
L Device:R R11
U 1 1 6061A138
P 10450 2400
F 0 "R11" V 10657 2400 50  0000 C CNN
F 1 "240" V 10566 2400 50  0000 C CNN
F 2 "Resistor_THT:R_Axial_DIN0207_L6.3mm_D2.5mm_P2.54mm_Vertical" V 10380 2400 50  0001 C CNN
F 3 "~" H 10450 2400 50  0001 C CNN
	1    10450 2400
	0    -1   -1   0   
$EndComp
$Comp
L Device:R R10
U 1 1 6061C1F2
P 10150 2300
F 0 "R10" V 10357 2300 50  0000 C CNN
F 1 "240" V 10266 2300 50  0000 C CNN
F 2 "Resistor_THT:R_Axial_DIN0207_L6.3mm_D2.5mm_P2.54mm_Vertical" V 10080 2300 50  0001 C CNN
F 3 "~" H 10150 2300 50  0001 C CNN
	1    10150 2300
	0    -1   -1   0   
$EndComp
$Comp
L Device:R R8
U 1 1 6061E310
P 9850 2200
F 0 "R8" V 10057 2200 50  0000 C CNN
F 1 "240" V 9966 2200 50  0000 C CNN
F 2 "Resistor_THT:R_Axial_DIN0207_L6.3mm_D2.5mm_P2.54mm_Vertical" V 9780 2200 50  0001 C CNN
F 3 "~" H 9850 2200 50  0001 C CNN
	1    9850 2200
	0    -1   -1   0   
$EndComp
$Comp
L Device:R R7
U 1 1 60620429
P 9550 2100
F 0 "R7" V 9757 2100 50  0000 C CNN
F 1 "240" V 9666 2100 50  0000 C CNN
F 2 "Resistor_THT:R_Axial_DIN0207_L6.3mm_D2.5mm_P2.54mm_Vertical" V 9480 2100 50  0001 C CNN
F 3 "~" H 9550 2100 50  0001 C CNN
	1    9550 2100
	0    -1   -1   0   
$EndComp
$Comp
L Device:R R6
U 1 1 60622591
P 9250 2000
F 0 "R6" V 9457 2000 50  0000 C CNN
F 1 "240" V 9366 2000 50  0000 C CNN
F 2 "Resistor_THT:R_Axial_DIN0207_L6.3mm_D2.5mm_P2.54mm_Vertical" V 9180 2000 50  0001 C CNN
F 3 "~" H 9250 2000 50  0001 C CNN
	1    9250 2000
	0    -1   -1   0   
$EndComp
Wire Wire Line
	9400 2000 11650 2000
Wire Wire Line
	9700 2100 11650 2100
Wire Wire Line
	11650 2200 10000 2200
Wire Wire Line
	8600 2200 9700 2200
Wire Wire Line
	8600 2100 9400 2100
Wire Wire Line
	8600 2300 10000 2300
Wire Wire Line
	10300 2300 11650 2300
Wire Wire Line
	11650 2400 10600 2400
Wire Wire Line
	8600 2400 10300 2400
Wire Wire Line
	8600 2500 10600 2500
Wire Wire Line
	10900 2500 11650 2500
Wire Wire Line
	11650 2600 11200 2600
Wire Wire Line
	8600 2600 10900 2600
Wire Wire Line
	8600 2700 11200 2700
Wire Wire Line
	11500 2700 11650 2700
$Comp
L Transistor_BJT:BC547 Q4
U 1 1 60665911
P 12000 3400
F 0 "Q4" H 12191 3446 50  0000 L CNN
F 1 "BC547" H 12191 3355 50  0000 L CNN
F 2 "Package_TO_SOT_THT:TO-92_Inline" H 12200 3325 50  0001 L CIN
F 3 "https://www.onsemi.com/pub/Collateral/BC550-D.pdf" H 12000 3400 50  0001 L CNN
	1    12000 3400
	1    0    0    -1  
$EndComp
$Comp
L Transistor_BJT:BC547 Q5
U 1 1 606666B4
P 12500 4150
F 0 "Q5" H 12691 4196 50  0000 L CNN
F 1 "BC547" H 12691 4105 50  0000 L CNN
F 2 "Package_TO_SOT_THT:TO-92_Inline" H 12700 4075 50  0001 L CIN
F 3 "https://www.onsemi.com/pub/Collateral/BC550-D.pdf" H 12500 4150 50  0001 L CNN
	1    12500 4150
	1    0    0    -1  
$EndComp
$Comp
L Transistor_BJT:BC547 Q6
U 1 1 60669188
P 13100 4950
F 0 "Q6" H 13291 4996 50  0000 L CNN
F 1 "BC547" H 13291 4905 50  0000 L CNN
F 2 "Package_TO_SOT_THT:TO-92_Inline" H 13300 4875 50  0001 L CIN
F 3 "https://www.onsemi.com/pub/Collateral/BC550-D.pdf" H 13100 4950 50  0001 L CNN
	1    13100 4950
	1    0    0    -1  
$EndComp
$Comp
L Transistor_BJT:BC547 Q7
U 1 1 6066BB35
P 13750 5550
F 0 "Q7" H 13941 5596 50  0000 L CNN
F 1 "BC547" H 13941 5505 50  0000 L CNN
F 2 "Package_TO_SOT_THT:TO-92_Inline" H 13950 5475 50  0001 L CIN
F 3 "https://www.onsemi.com/pub/Collateral/BC550-D.pdf" H 13750 5550 50  0001 L CNN
	1    13750 5550
	1    0    0    -1  
$EndComp
Wire Wire Line
	13850 2700 13850 3150
Wire Wire Line
	13850 3150 12100 3150
Wire Wire Line
	13850 2600 14000 2600
Wire Wire Line
	14000 2600 14000 3850
Wire Wire Line
	14000 3850 12600 3850
Wire Wire Line
	13850 2500 14250 2500
Wire Wire Line
	14250 2500 14250 4650
Wire Wire Line
	14250 4650 13200 4650
Wire Wire Line
	13850 2400 14450 2400
Wire Wire Line
	14450 2400 14450 5200
Wire Wire Line
	14450 5200 13850 5200
Wire Wire Line
	12100 3200 12100 3150
Wire Wire Line
	12600 3950 12600 3850
Wire Wire Line
	13200 4650 13200 4750
Wire Wire Line
	13850 5200 13850 5350
Wire Wire Line
	12100 3600 12100 3700
$Comp
L power:GND #PWR0116
U 1 1 606AE38C
P 12100 3700
F 0 "#PWR0116" H 12100 3450 50  0001 C CNN
F 1 "GND" H 12105 3527 50  0000 C CNN
F 2 "" H 12100 3700 50  0001 C CNN
F 3 "" H 12100 3700 50  0001 C CNN
	1    12100 3700
	1    0    0    -1  
$EndComp
Wire Wire Line
	12600 4350 12600 4450
$Comp
L power:GND #PWR0117
U 1 1 606AF283
P 12600 4450
F 0 "#PWR0117" H 12600 4200 50  0001 C CNN
F 1 "GND" H 12605 4277 50  0000 C CNN
F 2 "" H 12600 4450 50  0001 C CNN
F 3 "" H 12600 4450 50  0001 C CNN
	1    12600 4450
	1    0    0    -1  
$EndComp
Wire Wire Line
	13200 5150 13200 5250
$Comp
L power:GND #PWR0118
U 1 1 606B2915
P 13200 5250
F 0 "#PWR0118" H 13200 5000 50  0001 C CNN
F 1 "GND" H 13205 5077 50  0000 C CNN
F 2 "" H 13200 5250 50  0001 C CNN
F 3 "" H 13200 5250 50  0001 C CNN
	1    13200 5250
	1    0    0    -1  
$EndComp
Wire Wire Line
	13850 5750 13850 5850
$Comp
L power:GND #PWR0119
U 1 1 606B5BE2
P 13850 5850
F 0 "#PWR0119" H 13850 5600 50  0001 C CNN
F 1 "GND" H 13855 5677 50  0000 C CNN
F 2 "" H 13850 5850 50  0001 C CNN
F 3 "" H 13850 5850 50  0001 C CNN
	1    13850 5850
	1    0    0    -1  
$EndComp
Wire Wire Line
	11800 3400 11150 3400
$Comp
L Device:R R13
U 1 1 606BC950
P 11000 3400
F 0 "R13" V 10793 3400 50  0000 C CNN
F 1 "100" V 10884 3400 50  0000 C CNN
F 2 "Resistor_THT:R_Axial_DIN0207_L6.3mm_D2.5mm_P2.54mm_Vertical" V 10930 3400 50  0001 C CNN
F 3 "~" H 11000 3400 50  0001 C CNN
	1    11000 3400
	0    1    1    0   
$EndComp
Wire Wire Line
	12300 4150 11650 4150
$Comp
L Device:R R16
U 1 1 606BD1E7
P 11500 4150
F 0 "R16" V 11293 4150 50  0000 C CNN
F 1 "100" V 11384 4150 50  0000 C CNN
F 2 "Resistor_THT:R_Axial_DIN0207_L6.3mm_D2.5mm_P2.54mm_Vertical" V 11430 4150 50  0001 C CNN
F 3 "~" H 11500 4150 50  0001 C CNN
	1    11500 4150
	0    1    1    0   
$EndComp
Wire Wire Line
	12900 4950 12250 4950
$Comp
L Device:R R17
U 1 1 606C07DF
P 12100 4950
F 0 "R17" V 11893 4950 50  0000 C CNN
F 1 "100" V 11984 4950 50  0000 C CNN
F 2 "Resistor_THT:R_Axial_DIN0207_L6.3mm_D2.5mm_P2.54mm_Vertical" V 12030 4950 50  0001 C CNN
F 3 "~" H 12100 4950 50  0001 C CNN
	1    12100 4950
	0    1    1    0   
$EndComp
Wire Wire Line
	13550 5550 12900 5550
$Comp
L Device:R R18
U 1 1 606C3EB4
P 12750 5550
F 0 "R18" V 12543 5550 50  0000 C CNN
F 1 "100" V 12634 5550 50  0000 C CNN
F 2 "Resistor_THT:R_Axial_DIN0207_L6.3mm_D2.5mm_P2.54mm_Vertical" V 12680 5550 50  0001 C CNN
F 3 "~" H 12750 5550 50  0001 C CNN
	1    12750 5550
	0    1    1    0   
$EndComp
Wire Wire Line
	10550 3400 10850 3400
Text Label 10650 3400 0    50   ~ 0
D2
Wire Wire Line
	11050 4150 11350 4150
Text Label 11150 4150 0    50   ~ 0
D3
Wire Wire Line
	11650 4950 11950 4950
Text Label 11750 4950 0    50   ~ 0
D4
Wire Wire Line
	12300 5550 12600 5550
Text Label 12400 5550 0    50   ~ 0
D5
Wire Wire Line
	8600 4900 8900 4900
Text Label 8700 4900 0    50   ~ 0
D2
Wire Wire Line
	8600 5000 8900 5000
Text Label 8700 5000 0    50   ~ 0
D3
Wire Wire Line
	8600 5100 8900 5100
Text Label 8700 5100 0    50   ~ 0
D4
Wire Wire Line
	8600 5200 8900 5200
Text Label 8700 5200 0    50   ~ 0
D5
Wire Wire Line
	8600 4700 9200 4700
Wire Wire Line
	8600 4800 9200 4800
Text Label 8900 4700 0    50   ~ 0
RXD
Text Label 8900 4800 0    50   ~ 0
TXD
Wire Wire Line
	8600 3600 9250 3600
Wire Wire Line
	8600 3500 9250 3500
Wire Wire Line
	8600 3400 9250 3400
Text Label 8900 3600 0    50   ~ 0
SCK
Text Label 8900 3400 0    50   ~ 0
MOSI
Text Label 8900 3500 0    50   ~ 0
MISO
Wire Wire Line
	6750 2000 7400 2000
Text Label 7050 2000 0    50   ~ 0
RESET
$Comp
L Relay:DIPxx-1Axx-13x K1
U 1 1 60782AB6
P 6550 9950
F 0 "K1" H 6880 9996 50  0000 L CNN
F 1 "DIPxx-1Axx-13x" H 6880 9905 50  0000 L CNN
F 2 "Relay_THT:Relay_StandexMeder_DIP_LowProfile" H 6900 9900 50  0001 L CNN
F 3 "https://standexelectronics.com/wp-content/uploads/datasheet_reed_relay_DIP.pdf" H 6550 9950 50  0001 C CNN
	1    6550 9950
	1    0    0    -1  
$EndComp
$Comp
L Relay:DIPxx-1Axx-13x K3
U 1 1 60783AF6
P 11400 7850
F 0 "K3" H 11730 7896 50  0000 L CNN
F 1 "DIPxx-1Axx-13x" H 11730 7805 50  0000 L CNN
F 2 "Relay_THT:Relay_StandexMeder_DIP_LowProfile" H 11750 7800 50  0001 L CNN
F 3 "https://standexelectronics.com/wp-content/uploads/datasheet_reed_relay_DIP.pdf" H 11400 7850 50  0001 C CNN
	1    11400 7850
	1    0    0    -1  
$EndComp
$Comp
L Transistor_BJT:BC547 Q1
U 1 1 607BFF88
P 6250 10650
F 0 "Q1" H 6441 10696 50  0000 L CNN
F 1 "BC547" H 6441 10605 50  0000 L CNN
F 2 "Package_TO_SOT_THT:TO-92_Inline" H 6450 10575 50  0001 L CIN
F 3 "https://www.onsemi.com/pub/Collateral/BC550-D.pdf" H 6250 10650 50  0001 L CNN
	1    6250 10650
	1    0    0    -1  
$EndComp
Wire Wire Line
	6350 10850 6350 10950
$Comp
L power:GND #PWR07
U 1 1 607BFF8F
P 6350 10950
F 0 "#PWR07" H 6350 10700 50  0001 C CNN
F 1 "GND" H 6355 10777 50  0000 C CNN
F 2 "" H 6350 10950 50  0001 C CNN
F 3 "" H 6350 10950 50  0001 C CNN
	1    6350 10950
	1    0    0    -1  
$EndComp
Wire Wire Line
	6050 10650 5400 10650
$Comp
L Device:R R4
U 1 1 607BFF96
P 5250 10650
F 0 "R4" V 5043 10650 50  0000 C CNN
F 1 "100" V 5134 10650 50  0000 C CNN
F 2 "Resistor_THT:R_Axial_DIN0207_L6.3mm_D2.5mm_P2.54mm_Vertical" V 5180 10650 50  0001 C CNN
F 3 "~" H 5250 10650 50  0001 C CNN
	1    5250 10650
	0    1    1    0   
$EndComp
Wire Wire Line
	4800 10650 5100 10650
Text Label 4900 10650 0    50   ~ 0
B0
Wire Wire Line
	6350 10450 6350 10350
Wire Wire Line
	6750 9650 6750 9350
Wire Wire Line
	6750 9350 7800 9350
$Comp
L Laba-4-and-Laba-5-rescue:Нагрев.-New_Library X1
U 1 1 607FC3CA
P 8100 9150
F 0 "X1" H 8528 8991 50  0000 L CNN
F 1 "Нагрев." H 8528 8900 50  0000 L CNN
F 2 "TerminalBlock_Phoenix:TerminalBlock_Phoenix_MKDS-1,5-2_1x02_P5.00mm_Horizontal" H 8100 9200 50  0001 C CNN
F 3 "" H 8100 9200 50  0001 C CNN
	1    8100 9150
	1    0    0    -1  
$EndComp
$Comp
L Laba-4-and-Laba-5-rescue:Мотор-New_Library X2
U 1 1 6080F2DA
P 12400 6400
F 0 "X2" H 12928 6366 50  0000 L CNN
F 1 "Мотор" H 12928 6275 50  0000 L CNN
F 2 "TerminalBlock_Phoenix:TerminalBlock_Phoenix_MKDS-1,5-2_1x02_P5.00mm_Horizontal" H 12500 6575 50  0001 C CNN
F 3 "" H 12500 6575 50  0001 C CNN
	1    12400 6400
	1    0    0    -1  
$EndComp
Wire Wire Line
	7800 9450 7550 9450
Wire Wire Line
	7550 9450 7550 10300
Wire Wire Line
	7550 10300 6750 10300
Wire Wire Line
	6750 10300 6750 10250
Wire Wire Line
	6350 9650 6350 9550
$Comp
L power:VCC #PWR06
U 1 1 608316D9
P 6350 9400
F 0 "#PWR06" H 6350 9250 50  0001 C CNN
F 1 "VCC" H 6365 9573 50  0000 C CNN
F 2 "" H 6350 9400 50  0001 C CNN
F 3 "" H 6350 9400 50  0001 C CNN
	1    6350 9400
	1    0    0    -1  
$EndComp
Wire Wire Line
	6350 10350 5800 10350
Wire Wire Line
	5800 10350 5800 10100
Wire Wire Line
	5800 9550 6350 9550
Connection ~ 6350 10350
Wire Wire Line
	6350 10350 6350 10250
Connection ~ 6350 9550
Wire Wire Line
	6350 9550 6350 9400
$Comp
L Diode:1N4007 D1
U 1 1 60837B0D
P 5800 9950
F 0 "D1" V 5754 10030 50  0000 L CNN
F 1 "1N4007" V 5845 10030 50  0000 L CNN
F 2 "Diode_THT:D_DO-41_SOD81_P10.16mm_Horizontal" H 5800 9775 50  0001 C CNN
F 3 "http://www.vishay.com/docs/88503/1n4001.pdf" H 5800 9950 50  0001 C CNN
	1    5800 9950
	0    1    1    0   
$EndComp
Wire Wire Line
	5800 9800 5800 9550
Wire Wire Line
	11200 8200 10650 8200
Wire Wire Line
	10650 8200 10650 7950
Wire Wire Line
	10650 7400 11200 7400
$Comp
L Diode:1N4007 D3
U 1 1 6083FAE3
P 10650 7800
F 0 "D3" V 10604 7880 50  0000 L CNN
F 1 "1N4007" V 10695 7880 50  0000 L CNN
F 2 "Diode_THT:D_DO-41_SOD81_P10.16mm_Horizontal" H 10650 7625 50  0001 C CNN
F 3 "http://www.vishay.com/docs/88503/1n4001.pdf" H 10650 7800 50  0001 C CNN
	1    10650 7800
	0    1    1    0   
$EndComp
Wire Wire Line
	10650 7650 10650 7400
$Comp
L Transistor_BJT:BC547 Q3
U 1 1 60847378
P 11100 8450
F 0 "Q3" H 11291 8496 50  0000 L CNN
F 1 "BC547" H 11291 8405 50  0000 L CNN
F 2 "Package_TO_SOT_THT:TO-92_Inline" H 11300 8375 50  0001 L CIN
F 3 "https://www.onsemi.com/pub/Collateral/BC550-D.pdf" H 11100 8450 50  0001 L CNN
	1    11100 8450
	1    0    0    -1  
$EndComp
Wire Wire Line
	11200 8650 11200 8750
$Comp
L power:GND #PWR014
U 1 1 6084737F
P 11200 8750
F 0 "#PWR014" H 11200 8500 50  0001 C CNN
F 1 "GND" H 11205 8577 50  0000 C CNN
F 2 "" H 11200 8750 50  0001 C CNN
F 3 "" H 11200 8750 50  0001 C CNN
	1    11200 8750
	1    0    0    -1  
$EndComp
Wire Wire Line
	10900 8450 10250 8450
$Comp
L Device:R R9
U 1 1 60847386
P 10100 8450
F 0 "R9" V 9893 8450 50  0000 C CNN
F 1 "100" V 9984 8450 50  0000 C CNN
F 2 "Resistor_THT:R_Axial_DIN0207_L6.3mm_D2.5mm_P2.54mm_Vertical" V 10030 8450 50  0001 C CNN
F 3 "~" H 10100 8450 50  0001 C CNN
	1    10100 8450
	0    1    1    0   
$EndComp
Wire Wire Line
	9650 8450 9950 8450
Text Label 8150 7550 0    50   ~ 0
B2
Wire Wire Line
	11200 8150 11200 8200
Wire Wire Line
	11200 8250 11200 8200
Connection ~ 11200 8200
Wire Wire Line
	8600 2900 8900 2900
Text Label 8700 2900 0    50   ~ 0
B0
Wire Wire Line
	11600 8150 11600 8250
$Comp
L power:GND #PWR015
U 1 1 608AD648
P 11600 8250
F 0 "#PWR015" H 11600 8000 50  0001 C CNN
F 1 "GND" H 11605 8077 50  0000 C CNN
F 2 "" H 11600 8250 50  0001 C CNN
F 3 "" H 11600 8250 50  0001 C CNN
	1    11600 8250
	1    0    0    -1  
$EndComp
$Comp
L power:VCC #PWR013
U 1 1 608AE6A2
P 11200 7250
F 0 "#PWR013" H 11200 7100 50  0001 C CNN
F 1 "VCC" H 11215 7423 50  0000 C CNN
F 2 "" H 11200 7250 50  0001 C CNN
F 3 "" H 11200 7250 50  0001 C CNN
	1    11200 7250
	1    0    0    -1  
$EndComp
Wire Wire Line
	11200 7400 11200 7250
Wire Wire Line
	11200 7550 11200 7400
Connection ~ 11200 7400
$Comp
L Relay:DIPxx-1Axx-13x K2
U 1 1 608D3DE4
P 9750 6950
F 0 "K2" H 10080 6996 50  0000 L CNN
F 1 "DIPxx-1Axx-13x" H 10080 6905 50  0000 L CNN
F 2 "Relay_THT:Relay_StandexMeder_DIP_LowProfile" H 10100 6900 50  0001 L CNN
F 3 "https://standexelectronics.com/wp-content/uploads/datasheet_reed_relay_DIP.pdf" H 9750 6950 50  0001 C CNN
	1    9750 6950
	1    0    0    -1  
$EndComp
Wire Wire Line
	9550 7300 9000 7300
Wire Wire Line
	9000 7300 9000 7050
Wire Wire Line
	9000 6500 9550 6500
$Comp
L Diode:1N4007 D2
U 1 1 608D3DED
P 9000 6900
F 0 "D2" V 8954 6980 50  0000 L CNN
F 1 "1N4007" V 9045 6980 50  0000 L CNN
F 2 "Diode_THT:D_DO-41_SOD81_P10.16mm_Horizontal" H 9000 6725 50  0001 C CNN
F 3 "http://www.vishay.com/docs/88503/1n4001.pdf" H 9000 6900 50  0001 C CNN
	1    9000 6900
	0    1    1    0   
$EndComp
Wire Wire Line
	9000 6750 9000 6500
$Comp
L Transistor_BJT:BC547 Q2
U 1 1 608D3DF4
P 9450 7550
F 0 "Q2" H 9641 7596 50  0000 L CNN
F 1 "BC547" H 9641 7505 50  0000 L CNN
F 2 "Package_TO_SOT_THT:TO-92_Inline" H 9650 7475 50  0001 L CIN
F 3 "https://www.onsemi.com/pub/Collateral/BC550-D.pdf" H 9450 7550 50  0001 L CNN
	1    9450 7550
	1    0    0    -1  
$EndComp
Wire Wire Line
	9550 7750 9550 7850
$Comp
L power:GND #PWR011
U 1 1 608D3DFB
P 9550 7850
F 0 "#PWR011" H 9550 7600 50  0001 C CNN
F 1 "GND" H 9555 7677 50  0000 C CNN
F 2 "" H 9550 7850 50  0001 C CNN
F 3 "" H 9550 7850 50  0001 C CNN
	1    9550 7850
	1    0    0    -1  
$EndComp
Wire Wire Line
	9250 7550 8600 7550
$Comp
L Device:R R5
U 1 1 608D3E02
P 8450 7550
F 0 "R5" V 8243 7550 50  0000 C CNN
F 1 "100" V 8334 7550 50  0000 C CNN
F 2 "Resistor_THT:R_Axial_DIN0207_L6.3mm_D2.5mm_P2.54mm_Vertical" V 8380 7550 50  0001 C CNN
F 3 "~" H 8450 7550 50  0001 C CNN
	1    8450 7550
	0    1    1    0   
$EndComp
Wire Wire Line
	8000 7550 8300 7550
Text Label 9800 8450 0    50   ~ 0
B1
Wire Wire Line
	9550 7250 9550 7300
Wire Wire Line
	9550 7350 9550 7300
Connection ~ 9550 7300
Wire Wire Line
	9950 7250 9950 7350
$Comp
L power:GND #PWR012
U 1 1 608D3E0E
P 9950 7350
F 0 "#PWR012" H 9950 7100 50  0001 C CNN
F 1 "GND" H 9955 7177 50  0000 C CNN
F 2 "" H 9950 7350 50  0001 C CNN
F 3 "" H 9950 7350 50  0001 C CNN
	1    9950 7350
	1    0    0    -1  
$EndComp
$Comp
L power:VCC #PWR010
U 1 1 608D3E14
P 9550 6350
F 0 "#PWR010" H 9550 6200 50  0001 C CNN
F 1 "VCC" H 9565 6523 50  0000 C CNN
F 2 "" H 9550 6350 50  0001 C CNN
F 3 "" H 9550 6350 50  0001 C CNN
	1    9550 6350
	1    0    0    -1  
$EndComp
Wire Wire Line
	9550 6500 9550 6350
Wire Wire Line
	9550 6650 9550 6500
Connection ~ 9550 6500
Wire Wire Line
	11600 7550 11600 6950
Wire Wire Line
	11600 6950 12300 6950
Wire Wire Line
	12300 6800 12300 6550
Wire Wire Line
	12300 6550 9950 6550
Wire Wire Line
	9950 6550 9950 6650
Wire Wire Line
	8600 3000 8900 3000
Text Label 8700 3000 0    50   ~ 0
B1
Wire Wire Line
	8600 3100 8900 3100
Text Label 8700 3100 0    50   ~ 0
B2
$Comp
L Interface_UART:MAX232 U2
U 1 1 609209D9
P 4950 6150
F 0 "U2" H 4950 7531 50  0000 C CNN
F 1 "MAX232" H 4950 7440 50  0000 C CNN
F 2 "Package_DIP:DIP-16_W7.62mm" H 5000 5100 50  0001 L CNN
F 3 "http://www.ti.com/lit/ds/symlink/max232.pdf" H 4950 6250 50  0001 C CNN
	1    4950 6150
	1    0    0    -1  
$EndComp
$Comp
L Device:CP C7
U 1 1 60921C3C
P 5900 5400
F 0 "C7" H 6018 5446 50  0000 L CNN
F 1 "0.1" H 6018 5355 50  0000 L CNN
F 2 "Capacitor_THT:CP_Axial_L10.0mm_D4.5mm_P15.00mm_Horizontal" H 5938 5250 50  0001 C CNN
F 3 "~" H 5900 5400 50  0001 C CNN
	1    5900 5400
	1    0    0    -1  
$EndComp
$Comp
L Device:CP C4
U 1 1 60922DDB
P 3950 5400
F 0 "C4" H 4068 5446 50  0000 L CNN
F 1 "0.1" H 4068 5355 50  0000 L CNN
F 2 "Capacitor_THT:CP_Axial_L10.0mm_D4.5mm_P15.00mm_Horizontal" H 3988 5250 50  0001 C CNN
F 3 "~" H 3950 5400 50  0001 C CNN
	1    3950 5400
	1    0    0    -1  
$EndComp
$Comp
L Device:CP C9
U 1 1 6092B4EC
P 6050 6050
F 0 "C9" V 5795 6050 50  0000 C CNN
F 1 "0.1" V 5886 6050 50  0000 C CNN
F 2 "Capacitor_THT:CP_Axial_L10.0mm_D4.5mm_P15.00mm_Horizontal" H 6088 5900 50  0001 C CNN
F 3 "~" H 6050 6050 50  0001 C CNN
	1    6050 6050
	0    1    1    0   
$EndComp
$Comp
L Device:CP C8
U 1 1 60933A74
P 6050 5750
F 0 "C8" V 6305 5750 50  0000 C CNN
F 1 "0.1" V 6214 5750 50  0000 C CNN
F 2 "Capacitor_THT:CP_Axial_L10.0mm_D4.5mm_P15.00mm_Horizontal" H 6088 5600 50  0001 C CNN
F 3 "~" H 6050 5750 50  0001 C CNN
	1    6050 5750
	0    -1   -1   0   
$EndComp
Wire Wire Line
	5750 5250 5900 5250
Wire Wire Line
	5900 5550 5750 5550
Wire Wire Line
	3950 5550 4150 5550
Wire Wire Line
	4150 5250 3950 5250
Wire Wire Line
	4950 4950 4950 4900
Wire Wire Line
	5750 6050 5900 6050
Wire Wire Line
	5750 5750 5900 5750
Wire Wire Line
	6200 5750 6500 5750
Wire Wire Line
	6200 6050 6500 6050
$Comp
L power:VCC #PWR04
U 1 1 60990E38
P 4950 4400
F 0 "#PWR04" H 4950 4250 50  0001 C CNN
F 1 "VCC" H 4965 4573 50  0000 C CNN
F 2 "" H 4950 4400 50  0001 C CNN
F 3 "" H 4950 4400 50  0001 C CNN
	1    4950 4400
	1    0    0    -1  
$EndComp
Wire Wire Line
	4950 7350 4950 7550
$Comp
L power:GND #PWR05
U 1 1 6099B0B7
P 4950 7550
F 0 "#PWR05" H 4950 7300 50  0001 C CNN
F 1 "GND" H 4955 7377 50  0000 C CNN
F 2 "" H 4950 7550 50  0001 C CNN
F 3 "" H 4950 7550 50  0001 C CNN
	1    4950 7550
	1    0    0    -1  
$EndComp
$Comp
L Device:C C5
U 1 1 6099DF85
P 4550 4700
F 0 "C5" H 4665 4746 50  0000 L CNN
F 1 "0.1" H 4665 4655 50  0000 L CNN
F 2 "Capacitor_SMD:C_0603_1608Metric" H 4588 4550 50  0001 C CNN
F 3 "~" H 4550 4700 50  0001 C CNN
	1    4550 4700
	1    0    0    -1  
$EndComp
$Comp
L power:GND #PWR01
U 1 1 6099DF8B
P 4550 4400
F 0 "#PWR01" H 4550 4150 50  0001 C CNN
F 1 "GND" H 4555 4227 50  0000 C CNN
F 2 "" H 4550 4400 50  0001 C CNN
F 3 "" H 4550 4400 50  0001 C CNN
	1    4550 4400
	-1   0    0    1   
$EndComp
Wire Wire Line
	4550 4550 4550 4400
Wire Wire Line
	4550 4850 4550 4900
Wire Wire Line
	4550 4900 4950 4900
Connection ~ 4950 4900
Wire Wire Line
	4950 4900 4950 4400
Wire Wire Line
	5750 6250 6800 6250
Wire Wire Line
	5750 6650 6800 6650
$Comp
L Connector:DB9_Female J3
U 1 1 609C7082
P 7100 6650
F 0 "J3" H 7280 6696 50  0000 L CNN
F 1 "DB9_Female" H 7280 6605 50  0000 L CNN
F 2 "Connector_Dsub:DSUB-9_Female_Horizontal_P2.77x2.54mm_EdgePinOffset9.40mm" H 7100 6650 50  0001 C CNN
F 3 " ~" H 7100 6650 50  0001 C CNN
	1    7100 6650
	1    0    0    -1  
$EndComp
Wire Wire Line
	4150 6250 3650 6250
Wire Wire Line
	4150 6650 3650 6650
NoConn ~ 4150 6450
NoConn ~ 4150 6850
NoConn ~ 5750 6850
NoConn ~ 5750 6450
Text Label 3800 6250 0    50   ~ 0
RXD
Text Label 3800 6650 0    50   ~ 0
TXD
$Comp
L power:VCC #PWR08
U 1 1 60A275E9
P 6500 5750
F 0 "#PWR08" H 6500 5600 50  0001 C CNN
F 1 "VCC" V 6515 5878 50  0000 L CNN
F 2 "" H 6500 5750 50  0001 C CNN
F 3 "" H 6500 5750 50  0001 C CNN
	1    6500 5750
	0    1    1    0   
$EndComp
$Comp
L power:GND #PWR09
U 1 1 60A28329
P 6500 6050
F 0 "#PWR09" H 6500 5800 50  0001 C CNN
F 1 "GND" V 6505 5922 50  0000 R CNN
F 2 "" H 6500 6050 50  0001 C CNN
F 3 "" H 6500 6050 50  0001 C CNN
	1    6500 6050
	0    -1   -1   0   
$EndComp
$Comp
L Connector:DB9_Female J2
U 1 1 60A29942
P 5750 2150
F 0 "J2" H 5930 2196 50  0000 L CNN
F 1 "DB9_Female" H 5930 2105 50  0000 L CNN
F 2 "Connector_Dsub:DSUB-9_Female_Horizontal_P2.77x2.54mm_EdgePinOffset9.40mm" H 5750 2150 50  0001 C CNN
F 3 " ~" H 5750 2150 50  0001 C CNN
	1    5750 2150
	1    0    0    -1  
$EndComp
$Comp
L Device:CP C6
U 1 1 60A2BA40
P 5250 1900
F 0 "C6" H 5368 1946 50  0000 L CNN
F 1 "1" H 5368 1855 50  0000 L CNN
F 2 "Capacitor_THT:CP_Axial_L10.0mm_D4.5mm_P15.00mm_Horizontal" H 5288 1750 50  0001 C CNN
F 3 "~" H 5250 1900 50  0001 C CNN
	1    5250 1900
	1    0    0    -1  
$EndComp
Wire Wire Line
	5450 1750 5250 1750
Connection ~ 5250 1750
Wire Wire Line
	5250 1750 4900 1750
Connection ~ 5250 2050
Wire Wire Line
	5250 2050 5450 2050
Wire Wire Line
	4900 2050 5250 2050
$Comp
L power:VCC #PWR02
U 1 1 60A5A103
P 4900 1750
F 0 "#PWR02" H 4900 1600 50  0001 C CNN
F 1 "VCC" V 4915 1877 50  0000 L CNN
F 2 "" H 4900 1750 50  0001 C CNN
F 3 "" H 4900 1750 50  0001 C CNN
	1    4900 1750
	0    -1   -1   0   
$EndComp
$Comp
L power:GND #PWR03
U 1 1 60A5B815
P 4900 2050
F 0 "#PWR03" H 4900 1800 50  0001 C CNN
F 1 "GND" V 4905 1922 50  0000 R CNN
F 2 "" H 4900 2050 50  0001 C CNN
F 3 "" H 4900 2050 50  0001 C CNN
	1    4900 2050
	0    1    1    0   
$EndComp
NoConn ~ 2400 2200
NoConn ~ 2400 2000
NoConn ~ 2400 1800
NoConn ~ 2400 1600
NoConn ~ 5450 1850
NoConn ~ 5450 1950
NoConn ~ 5450 2150
NoConn ~ 5450 2250
NoConn ~ 5450 2350
NoConn ~ 5450 2450
NoConn ~ 5450 2550
NoConn ~ 8600 4500
NoConn ~ 8600 4400
NoConn ~ 8600 3200
NoConn ~ 8600 3300
NoConn ~ 6800 6350
NoConn ~ 6800 6450
NoConn ~ 6800 6550
NoConn ~ 6800 6750
NoConn ~ 6800 6850
NoConn ~ 6800 6950
NoConn ~ 6800 7050
NoConn ~ 7400 4700
NoConn ~ 7400 4800
NoConn ~ 7400 4900
Wire Wire Line
	8600 5400 9250 5400
Wire Wire Line
	8600 5300 9250 5300
Text Label 8950 5400 0    50   ~ 0
SDA
Text Label 8700 5300 0    50   ~ 0
SCL
$EndSCHEMATC
