EESchema Schematic File Version 4
EELAYER 30 0
EELAYER END
$Descr A3 16535 11693
encoding utf-8
Sheet 1 1
Title "Простая принципиальная схема"
Date ""
Rev ""
Comp "МГТУ им. Н.Э.Баумана\\nГруппа ИУ6-73Б"
Comment1 "Лабораторная работа 2"
Comment2 "Шевченко В. А."
Comment3 "Хохлов С. А. "
Comment4 ""
$EndDescr
Wire Wire Line
	6500 6000 6500 6150
$Comp
L lab2-rescue:GND-power #PWR01
U 1 1 616A9F0F
P 6500 6150
F 0 "#PWR01" H 6500 5900 50  0001 C CNN
F 1 "GND" H 6505 5977 50  0000 C CNN
F 2 "" H 6500 6150 50  0001 C CNN
F 3 "" H 6500 6150 50  0001 C CNN
	1    6500 6150
	1    0    0    -1  
$EndComp
$Comp
L lab2-rescue:VCC-power #PWR02
U 1 1 616A6F14
P 6850 6000
F 0 "#PWR02" H 6850 5850 50  0001 C CNN
F 1 "VCC" H 6865 6173 50  0000 C CNN
F 2 "" H 6850 6000 50  0001 C CNN
F 3 "" H 6850 6000 50  0001 C CNN
	1    6850 6000
	1    0    0    -1  
$EndComp
$Comp
L lab2-rescue:PWR_FLAG-power #FLG01
U 1 1 616A69D1
P 6500 6000
F 0 "#FLG01" H 6500 6075 50  0001 C CNN
F 1 "PWR_FLAG" H 6500 6173 50  0000 C CNN
F 2 "" H 6500 6000 50  0001 C CNN
F 3 "~" H 6500 6000 50  0001 C CNN
	1    6500 6000
	1    0    0    -1  
$EndComp
$Comp
L lab2-rescue:PWR_FLAG-power #FLG02
U 1 1 616A6577
P 6850 6150
F 0 "#FLG02" H 6850 6225 50  0001 C CNN
F 1 "PWR_FLAG" H 6850 6323 50  0000 C CNN
F 2 "" H 6850 6150 50  0001 C CNN
F 3 "~" H 6850 6150 50  0001 C CNN
	1    6850 6150
	-1   0    0    1   
$EndComp
Text Label 10450 5950 0    50   ~ 0
INPUTtoR
Text Label 9850 3900 1    50   ~ 0
LEDtoR
Text Label 9100 4050 0    50   ~ 0
uCtoLED
Text Label 9300 4200 0    50   ~ 0
INPUT
Text Label 11350 5950 0    50   ~ 0
INPUT
Wire Wire Line
	11100 5950 11650 5950
Wire Wire Line
	10300 5950 10800 5950
Wire Wire Line
	9100 3900 9100 4100
Wire Wire Line
	9450 3900 9100 3900
Wire Wire Line
	10400 6050 10300 6050
Wire Wire Line
	10400 6150 10400 6050
Wire Wire Line
	10400 5850 10300 5850
Wire Wire Line
	10400 5700 10400 5850
Wire Wire Line
	9950 3900 9750 3900
Wire Wire Line
	10400 3900 10250 3900
Wire Wire Line
	10400 3700 10400 3900
$Comp
L lab2-rescue:GND-power #PWR06
U 1 1 6169F398
P 10400 6150
F 0 "#PWR06" H 10400 5900 50  0001 C CNN
F 1 "GND" H 10405 5977 50  0000 C CNN
F 2 "" H 10400 6150 50  0001 C CNN
F 3 "" H 10400 6150 50  0001 C CNN
	1    10400 6150
	1    0    0    -1  
$EndComp
$Comp
L lab2-rescue:GND-power #PWR04
U 1 1 6169EC9F
P 7950 5550
F 0 "#PWR04" H 7950 5300 50  0001 C CNN
F 1 "GND" H 7955 5377 50  0000 C CNN
F 2 "" H 7950 5550 50  0001 C CNN
F 3 "" H 7950 5550 50  0001 C CNN
	1    7950 5550
	1    0    0    -1  
$EndComp
$Comp
L lab2-rescue:VCC-power #PWR05
U 1 1 6169E6E1
P 10400 5700
F 0 "#PWR05" H 10400 5550 50  0001 C CNN
F 1 "VCC" H 10415 5873 50  0000 C CNN
F 2 "" H 10400 5700 50  0001 C CNN
F 3 "" H 10400 5700 50  0001 C CNN
	1    10400 5700
	1    0    0    -1  
$EndComp
$Comp
L lab2-rescue:VCC-power #PWR07
U 1 1 6169CF6E
P 10400 3700
F 0 "#PWR07" H 10400 3550 50  0001 C CNN
F 1 "VCC" H 10415 3873 50  0000 C CNN
F 2 "" H 10400 3700 50  0001 C CNN
F 3 "" H 10400 3700 50  0001 C CNN
	1    10400 3700
	1    0    0    -1  
$EndComp
$Comp
L lab2-rescue:LED-Device D1
U 1 1 61697C57
P 9600 3900
F 0 "D1" H 9593 4117 50  0000 C CNN
F 1 "LED" H 9593 4026 50  0000 C CNN
F 2 "LED_THT:LED_D5.0mm" H 9600 3900 50  0001 C CNN
F 3 "~" H 9600 3900 50  0001 C CNN
F 4 "Диоды" H 9600 3900 60  0001 C CNN "Группа"
	1    9600 3900
	1    0    0    -1  
$EndComp
$Comp
L lab2-rescue:R-Device R1
U 1 1 61696A41
P 10950 5950
F 0 "R1" V 11157 5950 50  0000 C CNN
F 1 "100" V 11066 5950 50  0000 C CNN
F 2 "Resistor_THT:R_Axial_DIN0207_L6.3mm_D2.5mm_P2.54mm_Vertical" V 10880 5950 50  0001 C CNN
F 3 "~" H 10950 5950 50  0001 C CNN
F 4 "Резисторы" H 10950 5950 60  0001 C CNN "Группа"
	1    10950 5950
	0    -1   -1   0   
$EndComp
$Comp
L lab2-rescue:R-Device R2
U 1 1 616965FF
P 10100 3900
F 0 "R2" V 9893 3900 50  0000 C CNN
F 1 "1k" V 9984 3900 50  0000 C CNN
F 2 "Resistor_THT:R_Axial_DIN0207_L6.3mm_D2.5mm_P2.54mm_Vertical" V 10030 3900 50  0001 C CNN
F 3 "~" H 10100 3900 50  0001 C CNN
	1    10100 3900
	0    1    1    0   
$EndComp
Wire Wire Line
	6850 6000 6850 6150
$Comp
L myLib:ConnectorGOST X1
U 1 1 61731764
P 10050 5950
F 0 "X1" H 9950 6250 50  0000 C CNN
F 1 "ConnectorGOST" H 10600 6250 50  0000 C CNN
F 2 "Connector:Banana_Jack_3Pin" H 10050 5950 50  0001 C CNN
F 3 "" H 10050 5950 50  0001 C CNN
F 4 "Разъемы" H 10050 5950 60  0001 C CNN "Группа"
	1    10050 5950
	-1   0    0    -1  
$EndComp
Wire Wire Line
	8750 4100 9100 4100
Wire Wire Line
	8750 4200 9600 4200
$Comp
L lab2-rescue:VCC-power #PWR03
U 1 1 6169A55D
P 7950 3650
F 0 "#PWR03" H 7950 3500 50  0001 C CNN
F 1 "VCC" H 7965 3823 50  0000 C CNN
F 2 "" H 7950 3650 50  0001 C CNN
F 3 "" H 7950 3650 50  0001 C CNN
	1    7950 3650
	1    0    0    -1  
$EndComp
Wire Wire Line
	7950 5300 7950 5550
Wire Wire Line
	7950 3650 7950 3900
$Comp
L MCU_Microchip_PIC16:PIC16F18344-SO U1
U 1 1 61C71C18
P 7950 4600
F 0 "U1" H 7650 5300 50  0000 C CNN
F 1 "PIC16F18344-SO" H 8500 5300 50  0000 C CNN
F 2 "Package_SO:SOIC-20W_7.5x12.8mm_P1.27mm" H 7950 3820 50  0001 C CNN
F 3 "http://ww1.microchip.com/downloads/en/devicedoc/40001800a.pdf" H 7950 3900 50  0001 C CNN
F 4 "Микроконтроллеры" H 7950 4600 60  0001 C CNN "Группа"
	1    7950 4600
	1    0    0    -1  
$EndComp
NoConn ~ 8750 4300
NoConn ~ 8750 4400
NoConn ~ 8750 4500
NoConn ~ 8750 4600
NoConn ~ 8750 4700
NoConn ~ 8750 4800
NoConn ~ 7150 4100
NoConn ~ 7150 4200
NoConn ~ 7150 4300
NoConn ~ 7150 4400
NoConn ~ 7150 4500
NoConn ~ 7150 4600
NoConn ~ 7150 4800
NoConn ~ 7150 4900
NoConn ~ 7150 5000
NoConn ~ 7150 5100
$EndSCHEMATC
