(export (version D)
  (design
    (source /home/egor/hohlov/trsvt/egor_shmorgun/lab2/tutotial1.sch)
    (date "Чт 11 ноя 2021 22:35:16")
    (tool "Eeschema 5.1.10-88a1d61d58~90~ubuntu20.04.1")
    (sheet (number 1) (name /) (tstamps /)
      (title_block
        (title Урок)
        (company)
        (rev)
        (date)
        (source tutotial1.sch)
        (comment (number 1) (value ""))
        (comment (number 2) (value ""))
        (comment (number 3) (value ""))
        (comment (number 4) (value "")))))
  (components
    (comp (ref R2)
      (value "1 k")
      (footprint Resistor_THT:R_Axial_DIN0207_L6.3mm_D2.5mm_P2.54mm_Vertical)
      (datasheet ~)
      (libsource (lib Device) (part R) (description Resistor))
      (sheetpath (names /) (tstamps /))
      (tstamp 615A0B29))
    (comp (ref R1)
      (value 100)
      (footprint Resistor_THT:R_Axial_DIN0207_L6.3mm_D2.5mm_P2.54mm_Vertical)
      (datasheet ~)
      (libsource (lib Device) (part R) (description Resistor))
      (sheetpath (names /) (tstamps /))
      (tstamp 615A1C9D))
    (comp (ref D1)
      (value LED)
      (footprint LED_THT:LED_D5.0mm)
      (datasheet ~)
      (libsource (lib Device) (part LED) (description "Light emitting diode"))
      (sheetpath (names /) (tstamps /))
      (tstamp 615A4F2B))
    (comp (ref X1)
      (value LabConnector)
      (footprint Connector:Banana_Jack_3Pin)
      (libsource (lib tutotial1-rescue) (part LabConnector-myLib) (description ""))
      (sheetpath (names /) (tstamps /))
      (tstamp 6178A784))
    (comp (ref U1)
      (value PIC18F23K22-xSO)
      (footprint Package_SO:SOIC-28W_7.5x18.7mm_P1.27mm)
      (datasheet http://ww1.microchip.com/downloads/en/DeviceDoc/40001412G.pdf)
      (libsource (lib MCU_Microchip_PIC18) (part PIC18F23K22-xSO) (description "8K Flash, 512B SRAM, 256B EEPROM, nanoWatt XLP, 2.3V to 5.5V, SOIC28"))
      (sheetpath (names /) (tstamps /))
      (tstamp 617A5DF0)))
  (libparts
    (libpart (lib Device) (part LED)
      (description "Light emitting diode")
      (docs ~)
      (footprints
        (fp LED*)
        (fp LED_SMD:*)
        (fp LED_THT:*))
      (fields
        (field (name Reference) D)
        (field (name Value) LED))
      (pins
        (pin (num 1) (name K) (type passive))
        (pin (num 2) (name A) (type passive))))
    (libpart (lib Device) (part R)
      (description Resistor)
      (docs ~)
      (footprints
        (fp R_*))
      (fields
        (field (name Reference) R)
        (field (name Value) R))
      (pins
        (pin (num 1) (name ~) (type passive))
        (pin (num 2) (name ~) (type passive))))
    (libpart (lib MCU_Microchip_PIC18) (part PIC18F23K22-xSO)
      (aliases
        (alias PIC18F24K22-xSO)
        (alias PIC18F25K22-xSO)
        (alias PIC18F26K22-xSO))
      (description "8K Flash, 512B SRAM, 256B EEPROM, nanoWatt XLP, 2.3V to 5.5V, SOIC28")
      (docs http://ww1.microchip.com/downloads/en/DeviceDoc/40001412G.pdf)
      (footprints
        (fp SO*W*7.5x17.9mm*P1.27mm*))
      (fields
        (field (name Reference) U)
        (field (name Value) PIC18F23K22-xSO)
        (field (name Footprint) Package_SO:SOIC-28W_7.5x17.9mm_P1.27mm))
      (pins
        (pin (num 1) (name ~MCLR~/VPP/RE3) (type input))
        (pin (num 2) (name RA0) (type BiDi))
        (pin (num 3) (name RA1) (type BiDi))
        (pin (num 4) (name RA2) (type BiDi))
        (pin (num 5) (name RA3) (type BiDi))
        (pin (num 6) (name RA4) (type BiDi))
        (pin (num 7) (name RA5) (type BiDi))
        (pin (num 8) (name VSS) (type power_in))
        (pin (num 9) (name RA7/OSC1_CLKIN) (type BiDi))
        (pin (num 10) (name RA6/OSC2_CLKOUT) (type BiDi))
        (pin (num 11) (name RC0/SOSCO) (type BiDi))
        (pin (num 12) (name RC1/SOSCI) (type BiDi))
        (pin (num 13) (name RC2) (type BiDi))
        (pin (num 14) (name RC3) (type BiDi))
        (pin (num 15) (name RC4) (type BiDi))
        (pin (num 16) (name RC5) (type BiDi))
        (pin (num 17) (name RC6) (type BiDi))
        (pin (num 18) (name RC7) (type BiDi))
        (pin (num 19) (name VSS) (type passive))
        (pin (num 20) (name VDD) (type power_in))
        (pin (num 21) (name RB0) (type BiDi))
        (pin (num 22) (name RB1) (type BiDi))
        (pin (num 23) (name RB2) (type BiDi))
        (pin (num 24) (name RB3) (type BiDi))
        (pin (num 25) (name RB4) (type BiDi))
        (pin (num 26) (name RB5) (type BiDi))
        (pin (num 27) (name RB6/PGC) (type BiDi))
        (pin (num 28) (name RB7/PGD) (type BiDi))))
    (libpart (lib tutotial1-rescue) (part LabConnector-myLib)
      (fields
        (field (name Reference) X)
        (field (name Value) LabConnector-myLib))
      (pins
        (pin (num 1) (name ~) (type power_in))
        (pin (num 2) (name ~) (type passive))
        (pin (num 3) (name ~) (type passive)))))
  (libraries
    (library (logical Device)
      (uri /usr/share/kicad/library/Device.lib))
    (library (logical MCU_Microchip_PIC18)
      (uri /usr/share/kicad/library/MCU_Microchip_PIC18.lib))
    (library (logical tutotial1-rescue)
      (uri /home/egor/hohlov/trsvt/egor_shmorgun/lab2/tutotial1-rescue.lib)))
  (nets
    (net (code 1) (name GND)
      (node (ref X1) (pin 3))
      (node (ref U1) (pin 19))
      (node (ref U1) (pin 8)))
    (net (code 2) (name "Net-(U1-Pad21)")
      (node (ref U1) (pin 21)))
    (net (code 3) (name VCC)
      (node (ref U1) (pin 20))
      (node (ref R2) (pin 1))
      (node (ref X1) (pin 1)))
    (net (code 4) (name "Net-(U1-Pad22)")
      (node (ref U1) (pin 22)))
    (net (code 5) (name "Net-(U1-Pad9)")
      (node (ref U1) (pin 9)))
    (net (code 6) (name "Net-(U1-Pad7)")
      (node (ref U1) (pin 7)))
    (net (code 7) (name "Net-(U1-Pad6)")
      (node (ref U1) (pin 6)))
    (net (code 8) (name "Net-(U1-Pad5)")
      (node (ref U1) (pin 5)))
    (net (code 9) (name "Net-(U1-Pad4)")
      (node (ref U1) (pin 4)))
    (net (code 10) (name "Net-(U1-Pad3)")
      (node (ref U1) (pin 3)))
    (net (code 11) (name "Net-(U1-Pad28)")
      (node (ref U1) (pin 28)))
    (net (code 12) (name "Net-(U1-Pad27)")
      (node (ref U1) (pin 27)))
    (net (code 13) (name "Net-(U1-Pad26)")
      (node (ref U1) (pin 26)))
    (net (code 14) (name "Net-(U1-Pad25)")
      (node (ref U1) (pin 25)))
    (net (code 15) (name "Net-(U1-Pad18)")
      (node (ref U1) (pin 18)))
    (net (code 16) (name "Net-(R1-Pad2)")
      (node (ref X1) (pin 2))
      (node (ref R1) (pin 2)))
    (net (code 17) (name "Net-(U1-Pad1)")
      (node (ref U1) (pin 1)))
    (net (code 18) (name "Net-(U1-Pad2)")
      (node (ref U1) (pin 2)))
    (net (code 19) (name "Net-(U1-Pad10)")
      (node (ref U1) (pin 10)))
    (net (code 20) (name "Net-(U1-Pad17)")
      (node (ref U1) (pin 17)))
    (net (code 21) (name "Net-(U1-Pad16)")
      (node (ref U1) (pin 16)))
    (net (code 22) (name "Net-(U1-Pad15)")
      (node (ref U1) (pin 15)))
    (net (code 23) (name "Net-(U1-Pad14)")
      (node (ref U1) (pin 14)))
    (net (code 24) (name "Net-(U1-Pad13)")
      (node (ref U1) (pin 13)))
    (net (code 25) (name "Net-(U1-Pad12)")
      (node (ref U1) (pin 12)))
    (net (code 26) (name "Net-(U1-Pad11)")
      (node (ref U1) (pin 11)))
    (net (code 27) (name /LEDtoR)
      (node (ref R2) (pin 2))
      (node (ref D1) (pin 2)))
    (net (code 28) (name /uCtoLED)
      (node (ref U1) (pin 23))
      (node (ref D1) (pin 1)))
    (net (code 29) (name /INPUT)
      (node (ref U1) (pin 24))
      (node (ref R1) (pin 1)))))