EESchema Schematic File Version 4
EELAYER 30 0
EELAYER END
$Descr A4 8268 11693 portrait
encoding utf-8
Sheet 1 1
Title "Урок"
Date ""
Rev ""
Comp ""
Comment1 ""
Comment2 ""
Comment3 ""
Comment4 ""
$EndDescr
$Comp
L Device:R R2
U 1 1 615A0B29
P 4600 3250
F 0 "R2" V 4393 3250 50  0000 C CNN
F 1 "1 k" V 4484 3250 50  0000 C CNN
F 2 "Resistor_THT:R_Axial_DIN0207_L6.3mm_D2.5mm_P2.54mm_Vertical" V 4530 3250 50  0001 C CNN
F 3 "~" H 4600 3250 50  0001 C CNN
	1    4600 3250
	0    1    1    0   
$EndComp
$Comp
L Device:R R1
U 1 1 615A1C9D
P 4200 5750
F 0 "R1" V 3993 5750 50  0000 C CNN
F 1 "100" V 4084 5750 50  0000 C CNN
F 2 "Resistor_THT:R_Axial_DIN0207_L6.3mm_D2.5mm_P2.54mm_Vertical" V 4130 5750 50  0001 C CNN
F 3 "~" H 4200 5750 50  0001 C CNN
	1    4200 5750
	0    1    1    0   
$EndComp
$Comp
L Device:LED D1
U 1 1 615A4F2B
P 4000 3250
F 0 "D1" H 3993 3467 50  0000 C CNN
F 1 "LED" H 3993 3376 50  0000 C CNN
F 2 "LED_THT:LED_D5.0mm" H 4000 3250 50  0001 C CNN
F 3 "~" H 4000 3250 50  0001 C CNN
	1    4000 3250
	1    0    0    -1  
$EndComp
$Comp
L power:VCC #PWR03
U 1 1 615D6B19
P 3750 5500
F 0 "#PWR03" H 3750 5350 50  0001 C CNN
F 1 "VCC" H 3765 5673 50  0000 C CNN
F 2 "" H 3750 5500 50  0001 C CNN
F 3 "" H 3750 5500 50  0001 C CNN
	1    3750 5500
	1    0    0    -1  
$EndComp
$Comp
L power:GND #PWR04
U 1 1 615D827C
P 3850 6000
F 0 "#PWR04" H 3850 5750 50  0001 C CNN
F 1 "GND" H 3855 5827 50  0000 C CNN
F 2 "" H 3850 6000 50  0001 C CNN
F 3 "" H 3850 6000 50  0001 C CNN
	1    3850 6000
	1    0    0    -1  
$EndComp
Wire Wire Line
	4750 3250 4900 3250
Wire Wire Line
	3850 3250 3850 3550
Wire Wire Line
	4450 3250 4150 3250
Text Label 3500 3650 0    50   ~ 0
INPUT
Text Label 4550 5750 0    50   ~ 0
INPUT
Text Label 3500 3550 0    50   ~ 0
uCtoLED
Text Label 4250 3250 1    50   ~ 0
LEDtoR
$Comp
L power:PWR_FLAG #FLG01
U 1 1 615DDD5D
P 4450 3700
F 0 "#FLG01" H 4450 3775 50  0001 C CNN
F 1 "PWR_FLAG" H 4400 3850 50  0000 C CNN
F 2 "" H 4450 3700 50  0001 C CNN
F 3 "~" H 4450 3700 50  0001 C CNN
	1    4450 3700
	1    0    0    -1  
$EndComp
$Comp
L power:PWR_FLAG #FLG02
U 1 1 615DE26C
P 4650 3700
F 0 "#FLG02" H 4650 3775 50  0001 C CNN
F 1 "PWR_FLAG" H 4800 3850 50  0000 C CNN
F 2 "" H 4650 3700 50  0001 C CNN
F 3 "~" H 4650 3700 50  0001 C CNN
	1    4650 3700
	1    0    0    -1  
$EndComp
$Comp
L power:GND #PWR05
U 1 1 615DF2DE
P 4450 3900
F 0 "#PWR05" H 4450 3650 50  0001 C CNN
F 1 "GND" H 4455 3727 50  0000 C CNN
F 2 "" H 4450 3900 50  0001 C CNN
F 3 "" H 4450 3900 50  0001 C CNN
	1    4450 3900
	1    0    0    -1  
$EndComp
$Comp
L power:VCC #PWR06
U 1 1 615DFDB5
P 4650 3900
F 0 "#PWR06" H 4650 3750 50  0001 C CNN
F 1 "VCC" H 4665 4073 50  0000 C CNN
F 2 "" H 4650 3900 50  0001 C CNN
F 3 "" H 4650 3900 50  0001 C CNN
	1    4650 3900
	-1   0    0    1   
$EndComp
Wire Wire Line
	4650 3900 4650 3700
Wire Wire Line
	4450 3900 4450 3700
$Comp
L tutotial1-rescue:LabConnector-myLib X1
U 1 1 6178A784
P 3250 5300
F 0 "X1" H 3500 5250 50  0000 C CNN
F 1 "LabConnector" H 3000 5250 50  0000 C CNN
F 2 "Connector:Banana_Jack_3Pin" H 3250 5300 50  0001 C CNN
F 3 "" H 3250 5300 50  0001 C CNN
	1    3250 5300
	1    0    0    -1  
$EndComp
Wire Wire Line
	3850 5900 3850 6000
Wire Wire Line
	3650 5600 3750 5600
Wire Wire Line
	3750 5600 3750 5500
Wire Wire Line
	4350 5750 4850 5750
$Comp
L MCU_Microchip_PIC18:PIC18F23K22-xSO U1
U 1 1 617A5DF0
P 2450 4150
F 0 "U1" H 2950 5100 50  0000 C CNN
F 1 "PIC18F23K22-xSO" H 1950 5100 50  0000 C CNN
F 2 "Package_SO:SOIC-28W_7.5x18.7mm_P1.27mm" H 2650 4150 50  0001 C CNN
F 3 "http://ww1.microchip.com/downloads/en/DeviceDoc/40001412G.pdf" H 2650 4150 50  0001 C CNN
	1    2450 4150
	1    0    0    -1  
$EndComp
$Comp
L power:GND #PWR0101
U 1 1 617A73D1
P 2450 5350
F 0 "#PWR0101" H 2450 5100 50  0001 C CNN
F 1 "GND" H 2455 5177 50  0000 C CNN
F 2 "" H 2450 5350 50  0001 C CNN
F 3 "" H 2450 5350 50  0001 C CNN
	1    2450 5350
	1    0    0    -1  
$EndComp
$Comp
L power:VCC #PWR0102
U 1 1 617A7BB5
P 2450 2900
F 0 "#PWR0102" H 2450 2750 50  0001 C CNN
F 1 "VCC" H 2465 3073 50  0000 C CNN
F 2 "" H 2450 2900 50  0001 C CNN
F 3 "" H 2450 2900 50  0001 C CNN
	1    2450 2900
	1    0    0    -1  
$EndComp
Wire Wire Line
	2450 2900 2450 3150
Wire Wire Line
	2450 5150 2450 5350
Wire Wire Line
	4900 3250 4900 3150
$Comp
L power:VCC #PWR07
U 1 1 615CCC57
P 4900 3150
F 0 "#PWR07" H 4900 3000 50  0001 C CNN
F 1 "VCC" H 4915 3323 50  0000 C CNN
F 2 "" H 4900 3150 50  0001 C CNN
F 3 "" H 4900 3150 50  0001 C CNN
	1    4900 3150
	1    0    0    -1  
$EndComp
Wire Wire Line
	3150 3550 3850 3550
Wire Wire Line
	3150 3650 3850 3650
NoConn ~ 3150 3350
NoConn ~ 3150 3450
NoConn ~ 3150 3750
NoConn ~ 3150 3850
NoConn ~ 3150 3950
NoConn ~ 3150 4050
NoConn ~ 3150 4250
NoConn ~ 3150 4350
NoConn ~ 3150 4450
NoConn ~ 3150 4550
NoConn ~ 3150 4650
NoConn ~ 3150 4750
NoConn ~ 3150 4850
NoConn ~ 3150 4950
NoConn ~ 1750 4650
NoConn ~ 1750 4550
NoConn ~ 1750 4450
NoConn ~ 1750 4350
NoConn ~ 1750 4250
NoConn ~ 1750 4150
NoConn ~ 1750 4050
NoConn ~ 1750 3950
NoConn ~ 1750 3550
Wire Wire Line
	4050 5750 3650 5750
Wire Wire Line
	3650 5900 3850 5900
$EndSCHEMATC
