%TF.GenerationSoftware,KiCad,Pcbnew,(5.1.10-1-10_14)*%
%TF.CreationDate,2021-12-15T22:27:15+03:00*%
%TF.ProjectId,lab2,6c616232-2e6b-4696-9361-645f70636258,rev?*%
%TF.SameCoordinates,Original*%
%TF.FileFunction,Soldermask,Top*%
%TF.FilePolarity,Negative*%
%FSLAX46Y46*%
G04 Gerber Fmt 4.6, Leading zero omitted, Abs format (unit mm)*
G04 Created by KiCad (PCBNEW (5.1.10-1-10_14)) date 2021-12-15 22:27:15*
%MOMM*%
%LPD*%
G01*
G04 APERTURE LIST*
%ADD10C,10.160000*%
%ADD11R,2.800000X2.800000*%
%ADD12O,1.600000X1.600000*%
%ADD13C,1.600000*%
%ADD14C,1.800000*%
%ADD15R,1.800000X1.800000*%
G04 APERTURE END LIST*
D10*
%TO.C,X1*%
X117600000Y-89260000D03*
X132580000Y-89260000D03*
X102610000Y-89260000D03*
%TD*%
D11*
%TO.C,U1*%
X119380000Y-119380000D03*
G36*
G01*
X117717500Y-120505000D02*
X117092500Y-120505000D01*
G75*
G02*
X117030000Y-120442500I0J62500D01*
G01*
X117030000Y-120317500D01*
G75*
G02*
X117092500Y-120255000I62500J0D01*
G01*
X117717500Y-120255000D01*
G75*
G02*
X117780000Y-120317500I0J-62500D01*
G01*
X117780000Y-120442500D01*
G75*
G02*
X117717500Y-120505000I-62500J0D01*
G01*
G37*
G36*
G01*
X117717500Y-120005000D02*
X117092500Y-120005000D01*
G75*
G02*
X117030000Y-119942500I0J62500D01*
G01*
X117030000Y-119817500D01*
G75*
G02*
X117092500Y-119755000I62500J0D01*
G01*
X117717500Y-119755000D01*
G75*
G02*
X117780000Y-119817500I0J-62500D01*
G01*
X117780000Y-119942500D01*
G75*
G02*
X117717500Y-120005000I-62500J0D01*
G01*
G37*
G36*
G01*
X117717500Y-119505000D02*
X117092500Y-119505000D01*
G75*
G02*
X117030000Y-119442500I0J62500D01*
G01*
X117030000Y-119317500D01*
G75*
G02*
X117092500Y-119255000I62500J0D01*
G01*
X117717500Y-119255000D01*
G75*
G02*
X117780000Y-119317500I0J-62500D01*
G01*
X117780000Y-119442500D01*
G75*
G02*
X117717500Y-119505000I-62500J0D01*
G01*
G37*
G36*
G01*
X117717500Y-119005000D02*
X117092500Y-119005000D01*
G75*
G02*
X117030000Y-118942500I0J62500D01*
G01*
X117030000Y-118817500D01*
G75*
G02*
X117092500Y-118755000I62500J0D01*
G01*
X117717500Y-118755000D01*
G75*
G02*
X117780000Y-118817500I0J-62500D01*
G01*
X117780000Y-118942500D01*
G75*
G02*
X117717500Y-119005000I-62500J0D01*
G01*
G37*
G36*
G01*
X117717500Y-118505000D02*
X117092500Y-118505000D01*
G75*
G02*
X117030000Y-118442500I0J62500D01*
G01*
X117030000Y-118317500D01*
G75*
G02*
X117092500Y-118255000I62500J0D01*
G01*
X117717500Y-118255000D01*
G75*
G02*
X117780000Y-118317500I0J-62500D01*
G01*
X117780000Y-118442500D01*
G75*
G02*
X117717500Y-118505000I-62500J0D01*
G01*
G37*
G36*
G01*
X118442500Y-117780000D02*
X118317500Y-117780000D01*
G75*
G02*
X118255000Y-117717500I0J62500D01*
G01*
X118255000Y-117092500D01*
G75*
G02*
X118317500Y-117030000I62500J0D01*
G01*
X118442500Y-117030000D01*
G75*
G02*
X118505000Y-117092500I0J-62500D01*
G01*
X118505000Y-117717500D01*
G75*
G02*
X118442500Y-117780000I-62500J0D01*
G01*
G37*
G36*
G01*
X118942500Y-117780000D02*
X118817500Y-117780000D01*
G75*
G02*
X118755000Y-117717500I0J62500D01*
G01*
X118755000Y-117092500D01*
G75*
G02*
X118817500Y-117030000I62500J0D01*
G01*
X118942500Y-117030000D01*
G75*
G02*
X119005000Y-117092500I0J-62500D01*
G01*
X119005000Y-117717500D01*
G75*
G02*
X118942500Y-117780000I-62500J0D01*
G01*
G37*
G36*
G01*
X119442500Y-117780000D02*
X119317500Y-117780000D01*
G75*
G02*
X119255000Y-117717500I0J62500D01*
G01*
X119255000Y-117092500D01*
G75*
G02*
X119317500Y-117030000I62500J0D01*
G01*
X119442500Y-117030000D01*
G75*
G02*
X119505000Y-117092500I0J-62500D01*
G01*
X119505000Y-117717500D01*
G75*
G02*
X119442500Y-117780000I-62500J0D01*
G01*
G37*
G36*
G01*
X119942500Y-117780000D02*
X119817500Y-117780000D01*
G75*
G02*
X119755000Y-117717500I0J62500D01*
G01*
X119755000Y-117092500D01*
G75*
G02*
X119817500Y-117030000I62500J0D01*
G01*
X119942500Y-117030000D01*
G75*
G02*
X120005000Y-117092500I0J-62500D01*
G01*
X120005000Y-117717500D01*
G75*
G02*
X119942500Y-117780000I-62500J0D01*
G01*
G37*
G36*
G01*
X120442500Y-117780000D02*
X120317500Y-117780000D01*
G75*
G02*
X120255000Y-117717500I0J62500D01*
G01*
X120255000Y-117092500D01*
G75*
G02*
X120317500Y-117030000I62500J0D01*
G01*
X120442500Y-117030000D01*
G75*
G02*
X120505000Y-117092500I0J-62500D01*
G01*
X120505000Y-117717500D01*
G75*
G02*
X120442500Y-117780000I-62500J0D01*
G01*
G37*
G36*
G01*
X121667500Y-118505000D02*
X121042500Y-118505000D01*
G75*
G02*
X120980000Y-118442500I0J62500D01*
G01*
X120980000Y-118317500D01*
G75*
G02*
X121042500Y-118255000I62500J0D01*
G01*
X121667500Y-118255000D01*
G75*
G02*
X121730000Y-118317500I0J-62500D01*
G01*
X121730000Y-118442500D01*
G75*
G02*
X121667500Y-118505000I-62500J0D01*
G01*
G37*
G36*
G01*
X121667500Y-119005000D02*
X121042500Y-119005000D01*
G75*
G02*
X120980000Y-118942500I0J62500D01*
G01*
X120980000Y-118817500D01*
G75*
G02*
X121042500Y-118755000I62500J0D01*
G01*
X121667500Y-118755000D01*
G75*
G02*
X121730000Y-118817500I0J-62500D01*
G01*
X121730000Y-118942500D01*
G75*
G02*
X121667500Y-119005000I-62500J0D01*
G01*
G37*
G36*
G01*
X121667500Y-119505000D02*
X121042500Y-119505000D01*
G75*
G02*
X120980000Y-119442500I0J62500D01*
G01*
X120980000Y-119317500D01*
G75*
G02*
X121042500Y-119255000I62500J0D01*
G01*
X121667500Y-119255000D01*
G75*
G02*
X121730000Y-119317500I0J-62500D01*
G01*
X121730000Y-119442500D01*
G75*
G02*
X121667500Y-119505000I-62500J0D01*
G01*
G37*
G36*
G01*
X121667500Y-120005000D02*
X121042500Y-120005000D01*
G75*
G02*
X120980000Y-119942500I0J62500D01*
G01*
X120980000Y-119817500D01*
G75*
G02*
X121042500Y-119755000I62500J0D01*
G01*
X121667500Y-119755000D01*
G75*
G02*
X121730000Y-119817500I0J-62500D01*
G01*
X121730000Y-119942500D01*
G75*
G02*
X121667500Y-120005000I-62500J0D01*
G01*
G37*
G36*
G01*
X121667500Y-120505000D02*
X121042500Y-120505000D01*
G75*
G02*
X120980000Y-120442500I0J62500D01*
G01*
X120980000Y-120317500D01*
G75*
G02*
X121042500Y-120255000I62500J0D01*
G01*
X121667500Y-120255000D01*
G75*
G02*
X121730000Y-120317500I0J-62500D01*
G01*
X121730000Y-120442500D01*
G75*
G02*
X121667500Y-120505000I-62500J0D01*
G01*
G37*
G36*
G01*
X120442500Y-121730000D02*
X120317500Y-121730000D01*
G75*
G02*
X120255000Y-121667500I0J62500D01*
G01*
X120255000Y-121042500D01*
G75*
G02*
X120317500Y-120980000I62500J0D01*
G01*
X120442500Y-120980000D01*
G75*
G02*
X120505000Y-121042500I0J-62500D01*
G01*
X120505000Y-121667500D01*
G75*
G02*
X120442500Y-121730000I-62500J0D01*
G01*
G37*
G36*
G01*
X119942500Y-121730000D02*
X119817500Y-121730000D01*
G75*
G02*
X119755000Y-121667500I0J62500D01*
G01*
X119755000Y-121042500D01*
G75*
G02*
X119817500Y-120980000I62500J0D01*
G01*
X119942500Y-120980000D01*
G75*
G02*
X120005000Y-121042500I0J-62500D01*
G01*
X120005000Y-121667500D01*
G75*
G02*
X119942500Y-121730000I-62500J0D01*
G01*
G37*
G36*
G01*
X119442500Y-121730000D02*
X119317500Y-121730000D01*
G75*
G02*
X119255000Y-121667500I0J62500D01*
G01*
X119255000Y-121042500D01*
G75*
G02*
X119317500Y-120980000I62500J0D01*
G01*
X119442500Y-120980000D01*
G75*
G02*
X119505000Y-121042500I0J-62500D01*
G01*
X119505000Y-121667500D01*
G75*
G02*
X119442500Y-121730000I-62500J0D01*
G01*
G37*
G36*
G01*
X118942500Y-121730000D02*
X118817500Y-121730000D01*
G75*
G02*
X118755000Y-121667500I0J62500D01*
G01*
X118755000Y-121042500D01*
G75*
G02*
X118817500Y-120980000I62500J0D01*
G01*
X118942500Y-120980000D01*
G75*
G02*
X119005000Y-121042500I0J-62500D01*
G01*
X119005000Y-121667500D01*
G75*
G02*
X118942500Y-121730000I-62500J0D01*
G01*
G37*
G36*
G01*
X118442500Y-121730000D02*
X118317500Y-121730000D01*
G75*
G02*
X118255000Y-121667500I0J62500D01*
G01*
X118255000Y-121042500D01*
G75*
G02*
X118317500Y-120980000I62500J0D01*
G01*
X118442500Y-120980000D01*
G75*
G02*
X118505000Y-121042500I0J-62500D01*
G01*
X118505000Y-121667500D01*
G75*
G02*
X118442500Y-121730000I-62500J0D01*
G01*
G37*
%TD*%
D12*
%TO.C,R2*%
X105410000Y-105410000D03*
D13*
X102870000Y-105410000D03*
%TD*%
D12*
%TO.C,R1*%
X133350000Y-106680000D03*
D13*
X133350000Y-104140000D03*
%TD*%
D14*
%TO.C,D1*%
X116840000Y-105410000D03*
D15*
X119380000Y-105410000D03*
%TD*%
M02*
