(export (version D)
  (design
    (source C:\Users\smoke\Desktop\KiCad\lab2\tutorial1\tutorial1.sch)
    (date "03.11.2021 1:07:57")
    (tool "Eeschema (5.1.10)-1")
    (sheet (number 1) (name /) (tstamps /)
      (title_block
        (title "Урок 1")
        (company)
        (rev)
        (date)
        (source tutorial1.sch)
        (comment (number 1) (value ""))
        (comment (number 2) (value ""))
        (comment (number 3) (value ""))
        (comment (number 4) (value "")))))
  (components
    (comp (ref R1)
      (value 1k)
      (datasheet ~)
      (libsource (lib Device) (part R) (description Resistor))
      (sheetpath (names /) (tstamps /))
      (tstamp 616A2D84))
    (comp (ref R2)
      (value 100)
      (datasheet ~)
      (libsource (lib Device) (part R) (description Resistor))
      (sheetpath (names /) (tstamps /))
      (tstamp 616A382E))
    (comp (ref D1)
      (value LED)
      (datasheet ~)
      (libsource (lib Device) (part LED) (description "Light emitting diode"))
      (sheetpath (names /) (tstamps /))
      (tstamp 616A4FA9))
    (comp (ref U1)
      (value PIC18F23K22-xSP)
      (footprint Package_DIP:DIP-28_W7.62mm)
      (datasheet http://ww1.microchip.com/downloads/en/DeviceDoc/40001412G.pdf)
      (libsource (lib MCU_Microchip_PIC18) (part PIC18F23K22-xSP) (description "8K Flash, 512B SRAM, 256B EEPROM, nanoWatt XLP, 2.3V to 5.5V, SPDIP28"))
      (sheetpath (names /) (tstamps /))
      (tstamp 6181902A))
    (comp (ref X11)
      (value GostConnector)
      (libsource (lib myLib) (part GostConnector) (description ""))
      (sheetpath (names /) (tstamps /))
      (tstamp 6181E668)))
  (libparts
    (libpart (lib Device) (part LED)
      (description "Light emitting diode")
      (docs ~)
      (footprints
        (fp LED*)
        (fp LED_SMD:*)
        (fp LED_THT:*))
      (fields
        (field (name Reference) D)
        (field (name Value) LED))
      (pins
        (pin (num 1) (name K) (type passive))
        (pin (num 2) (name A) (type passive))))
    (libpart (lib Device) (part R)
      (description Resistor)
      (docs ~)
      (footprints
        (fp R_*))
      (fields
        (field (name Reference) R)
        (field (name Value) R))
      (pins
        (pin (num 1) (name ~) (type passive))
        (pin (num 2) (name ~) (type passive))))
    (libpart (lib MCU_Microchip_PIC18) (part PIC18F23K22-xSP)
      (aliases
        (alias PIC18F24K22-xSP)
        (alias PIC18F25K22-xSP)
        (alias PIC18F26K22-xSP))
      (description "8K Flash, 512B SRAM, 256B EEPROM, nanoWatt XLP, 2.3V to 5.5V, SPDIP28")
      (docs http://ww1.microchip.com/downloads/en/DeviceDoc/40001412G.pdf)
      (footprints
        (fp DIP*W7.62mm*))
      (fields
        (field (name Reference) U)
        (field (name Value) PIC18F23K22-xSP)
        (field (name Footprint) Package_DIP:DIP-28_W7.62mm))
      (pins
        (pin (num 1) (name ~MCLR~/VPP/RE3) (type input))
        (pin (num 2) (name RA0) (type BiDi))
        (pin (num 3) (name RA1) (type BiDi))
        (pin (num 4) (name RA2) (type BiDi))
        (pin (num 5) (name RA3) (type BiDi))
        (pin (num 6) (name RA4) (type BiDi))
        (pin (num 7) (name RA5) (type BiDi))
        (pin (num 8) (name VSS) (type power_in))
        (pin (num 9) (name RA7/OSC1_CLKIN) (type BiDi))
        (pin (num 10) (name RA6/OSC2_CLKOUT) (type BiDi))
        (pin (num 11) (name RC0/SOSCO) (type BiDi))
        (pin (num 12) (name RC1/SOSCI) (type BiDi))
        (pin (num 13) (name RC2) (type BiDi))
        (pin (num 14) (name RC3) (type BiDi))
        (pin (num 15) (name RC4) (type BiDi))
        (pin (num 16) (name RC5) (type BiDi))
        (pin (num 17) (name RC6) (type BiDi))
        (pin (num 18) (name RC7) (type BiDi))
        (pin (num 19) (name VSS) (type passive))
        (pin (num 20) (name VDD) (type power_in))
        (pin (num 21) (name RB0) (type BiDi))
        (pin (num 22) (name RB1) (type BiDi))
        (pin (num 23) (name RB2) (type BiDi))
        (pin (num 24) (name RB3) (type BiDi))
        (pin (num 25) (name RB4) (type BiDi))
        (pin (num 26) (name RB5) (type BiDi))
        (pin (num 27) (name RB6/PGC) (type BiDi))
        (pin (num 28) (name RB7/PGD) (type BiDi))))
    (libpart (lib myLib) (part GostConnector)
      (fields
        (field (name Reference) X1)
        (field (name Value) GostConnector))
      (pins
        (pin (num 1) (name ~) (type power_in))
        (pin (num 2) (name ~) (type passive))
        (pin (num 3) (name ~) (type passive)))))
  (libraries
    (library (logical Device)
      (uri E:\KiCad\share\kicad\library/Device.lib))
    (library (logical MCU_Microchip_PIC18)
      (uri E:\KiCad\share\kicad\library/MCU_Microchip_PIC18.lib))
    (library (logical myLib)
      (uri C:\Users\smoke\Desktop\KiCad\lab2\tutorial1/library/myLib.lib)))
  (nets
    (net (code 1) (name "Net-(U1-Pad9)")
      (node (ref U1) (pin 9)))
    (net (code 2) (name "Net-(U1-Pad10)")
      (node (ref U1) (pin 10)))
    (net (code 3) (name "Net-(U1-Pad7)")
      (node (ref U1) (pin 7)))
    (net (code 4) (name "Net-(U1-Pad6)")
      (node (ref U1) (pin 6)))
    (net (code 5) (name "Net-(U1-Pad5)")
      (node (ref U1) (pin 5)))
    (net (code 6) (name "Net-(U1-Pad4)")
      (node (ref U1) (pin 4)))
    (net (code 7) (name "Net-(U1-Pad3)")
      (node (ref U1) (pin 3)))
    (net (code 8) (name "Net-(U1-Pad2)")
      (node (ref U1) (pin 2)))
    (net (code 9) (name "Net-(U1-Pad1)")
      (node (ref U1) (pin 1)))
    (net (code 10) (name "Net-(U1-Pad23)")
      (node (ref U1) (pin 23)))
    (net (code 11) (name GND)
      (node (ref U1) (pin 19))
      (node (ref U1) (pin 8))
      (node (ref X11) (pin 3)))
    (net (code 12) (name "Net-(U1-Pad28)")
      (node (ref U1) (pin 28)))
    (net (code 13) (name "Net-(U1-Pad17)")
      (node (ref U1) (pin 17)))
    (net (code 14) (name VCC)
      (node (ref R1) (pin 1))
      (node (ref U1) (pin 20))
      (node (ref X11) (pin 1)))
    (net (code 15) (name "Net-(U1-Pad18)")
      (node (ref U1) (pin 18)))
    (net (code 16) (name "Net-(U1-Pad27)")
      (node (ref U1) (pin 27)))
    (net (code 17) (name "Net-(U1-Pad16)")
      (node (ref U1) (pin 16)))
    (net (code 18) (name "Net-(U1-Pad15)")
      (node (ref U1) (pin 15)))
    (net (code 19) (name "Net-(U1-Pad14)")
      (node (ref U1) (pin 14)))
    (net (code 20) (name "Net-(U1-Pad13)")
      (node (ref U1) (pin 13)))
    (net (code 21) (name "Net-(U1-Pad12)")
      (node (ref U1) (pin 12)))
    (net (code 22) (name "Net-(U1-Pad11)")
      (node (ref U1) (pin 11)))
    (net (code 23) (name "Net-(U1-Pad26)")
      (node (ref U1) (pin 26)))
    (net (code 24) (name "Net-(U1-Pad25)")
      (node (ref U1) (pin 25)))
    (net (code 25) (name "Net-(U1-Pad24)")
      (node (ref U1) (pin 24)))
    (net (code 26) (name /INPUTtoR)
      (node (ref R2) (pin 2))
      (node (ref X11) (pin 2)))
    (net (code 27) (name /LEDtoR)
      (node (ref D1) (pin 2))
      (node (ref R1) (pin 2)))
    (net (code 28) (name /uCtoLED)
      (node (ref U1) (pin 21))
      (node (ref D1) (pin 1)))
    (net (code 29) (name /INPUT)
      (node (ref R2) (pin 1))
      (node (ref U1) (pin 22)))))