EESchema Schematic File Version 4
EELAYER 30 0
EELAYER END
$Descr A3 16535 11693
encoding utf-8
Sheet 1 1
Title "Схема электрическая принципиальная"
Date ""
Rev ""
Comp "МГТУ им. Н.Э. Баумана\\nГруппа ИУ6-72Б"
Comment1 "Устройство динамической фоновой подсветки монитора"
Comment2 "Калинин И.Г."
Comment3 "Хохлов С.А."
Comment4 ""
$EndDescr
$Comp
L MCU_Microchip_ATmega:ATmega328P-AU DD1
U 1 1 61ADA8B2
P 3080 5735
F 0 "DD1" H 2630 7185 50  0000 C CNN
F 1 "ATmega328P" H 3480 7185 50  0000 C CNN
F 2 "Package_QFP:TQFP-32_7x7mm_P0.8mm" H 3080 5735 50  0001 C CIN
F 3 "http://ww1.microchip.com/downloads/en/DeviceDoc/ATmega328_P%20AVR%20MCU%20with%20picoPower%20Technology%20Data%20Sheet%2040001984A.pdf" H 3080 5735 50  0001 C CNN
	1    3080 5735
	1    0    0    -1  
$EndComp
$Comp
L Device:C_Small C1
U 1 1 61ADE6B5
P 1430 4335
F 0 "C1" H 1522 4381 50  0000 L CNN
F 1 "100нФ" H 1522 4290 50  0000 L CNN
F 2 "" H 1430 4335 50  0001 C CNN
F 3 "~" H 1430 4335 50  0001 C CNN
	1    1430 4335
	1    0    0    -1  
$EndComp
$Comp
L power:VCC #PWR04
U 1 1 61ADECFC
P 3180 3935
F 0 "#PWR04" H 3180 3785 50  0001 C CNN
F 1 "VCC" V 3195 4063 50  0000 L CNN
F 2 "" H 3180 3935 50  0001 C CNN
F 3 "" H 3180 3935 50  0001 C CNN
	1    3180 3935
	0    1    1    0   
$EndComp
Wire Wire Line
	1430 4685 1430 4435
Wire Wire Line
	1430 4235 1430 3935
Wire Wire Line
	1430 3935 2030 3935
Wire Wire Line
	3080 4235 3080 3935
Connection ~ 3080 3935
Wire Wire Line
	3080 3935 3180 3935
Wire Wire Line
	3180 4235 3180 3935
$Comp
L Device:Crystal_Small ZQ1
U 1 1 61AE0724
P 4230 5435
F 0 "ZQ1" H 4230 5302 50  0000 C CNN
F 1 "16MHz" H 4230 5569 50  0000 C CNN
F 2 "" H 4230 5435 50  0001 C CNN
F 3 "~" H 4230 5435 50  0001 C CNN
	1    4230 5435
	1    0    0    1   
$EndComp
$Comp
L Device:C_Small C2
U 1 1 61AE0B50
P 3930 5735
F 0 "C2" H 4022 5781 50  0000 L CNN
F 1 "22пФ" H 4022 5690 50  0000 L CNN
F 2 "" H 3930 5735 50  0001 C CNN
F 3 "~" H 3930 5735 50  0001 C CNN
	1    3930 5735
	1    0    0    -1  
$EndComp
Wire Wire Line
	3680 5135 4530 5135
Wire Wire Line
	4530 5135 4530 5435
Wire Wire Line
	3680 5235 3930 5235
Wire Wire Line
	3930 5235 3930 5435
Wire Wire Line
	4130 5435 3930 5435
Connection ~ 3930 5435
Wire Wire Line
	3930 5435 3930 5635
Wire Wire Line
	4330 5435 4530 5435
Connection ~ 4530 5435
Wire Wire Line
	4530 5435 4530 5635
Wire Wire Line
	3080 7385 3080 7235
$Comp
L Device:R R1
U 1 1 61AF31AD
P 2030 5785
F 0 "R1" H 2100 5831 50  0000 L CNN
F 1 "10K" H 2100 5740 50  0000 L CNN
F 2 "" V 1960 5785 50  0001 C CNN
F 3 "~" H 2030 5785 50  0001 C CNN
	1    2030 5785
	1    0    0    -1  
$EndComp
Wire Wire Line
	2030 5635 2030 3935
Connection ~ 2030 3935
Wire Wire Line
	2030 3935 3080 3935
Wire Wire Line
	2030 5935 2030 6060
Wire Wire Line
	2030 6585 2030 7385
Wire Wire Line
	4340 6660 3805 6660
Wire Wire Line
	3805 6660 3805 6235
$Comp
L Device:C_Small C4
U 1 1 61B58270
P 5770 9125
F 0 "C4" V 5870 9075 50  0000 L CNN
F 1 "100нФ" V 5645 9025 50  0000 L CNN
F 2 "" H 5770 9125 50  0001 C CNN
F 3 "~" H 5770 9125 50  0001 C CNN
	1    5770 9125
	0    -1   -1   0   
$EndComp
Wire Wire Line
	5670 9125 5560 9125
Wire Wire Line
	6370 9625 6095 9625
Wire Wire Line
	6370 9225 6095 9225
Wire Wire Line
	6370 9525 6095 9525
Wire Wire Line
	6370 9425 6095 9425
Wire Wire Line
	6370 9325 6095 9325
Wire Wire Line
	3805 6235 3680 6235
Wire Wire Line
	6370 9025 6270 9025
Wire Wire Line
	5870 9125 6370 9125
Wire Wire Line
	6095 9730 5985 9730
Connection ~ 6095 9425
Wire Wire Line
	6095 9425 6095 9525
Connection ~ 6095 9525
Wire Wire Line
	6095 9525 6095 9625
Connection ~ 6095 9625
Wire Wire Line
	6095 9625 6095 9730
Wire Wire Line
	6095 9225 6095 9325
Connection ~ 6095 9325
Wire Wire Line
	6095 9325 6095 9425
Wire Wire Line
	7665 9025 7665 8925
Wire Wire Line
	7470 8925 7665 8925
Connection ~ 7665 8925
Wire Wire Line
	7665 8925 7665 8760
Wire Wire Line
	7965 9225 7965 9125
Wire Wire Line
	7470 9225 7965 9225
$Comp
L power:VCC #PWR020
U 1 1 61D3DD12
P 7665 8760
F 0 "#PWR020" H 7665 8610 50  0001 C CNN
F 1 "VCC" H 7680 8887 50  0000 L CNN
F 2 "" H 7665 8760 50  0001 C CNN
F 3 "" H 7665 8760 50  0001 C CNN
	1    7665 8760
	1    0    0    -1  
$EndComp
Wire Wire Line
	7665 9025 7470 9025
Wire Wire Line
	7470 9125 7815 9125
Wire Wire Line
	7815 9025 7815 9125
Wire Wire Line
	7815 9025 8290 9025
Wire Wire Line
	7965 9125 8290 9125
Wire Wire Line
	8090 9225 8290 9225
$Comp
L Device:C_Small C3
U 1 1 61AE11A8
P 4530 5735
F 0 "C3" H 4622 5781 50  0000 L CNN
F 1 "22пФ" H 4622 5690 50  0000 L CNN
F 2 "" H 4530 5735 50  0001 C CNN
F 3 "~" H 4530 5735 50  0001 C CNN
	1    4530 5735
	1    0    0    -1  
$EndComp
Wire Wire Line
	2480 4735 2265 4735
Wire Wire Line
	2265 4735 2265 4150
Wire Wire Line
	2265 4150 5025 4150
$Comp
L Device:R_PHOTO R3
U 1 1 61DF652C
P 6135 5755
F 0 "R3" H 6205 5801 50  0000 L CNN
F 1 "R_PHOTO" H 6205 5710 50  0000 L CNN
F 2 "" V 6185 5505 50  0001 L CNN
F 3 "~" H 6135 5705 50  0001 C CNN
	1    6135 5755
	1    0    0    -1  
$EndComp
Wire Wire Line
	6135 5605 5375 5605
Wire Wire Line
	5025 4150 5025 5605
$Comp
L Device:R R2
U 1 1 61E0E6B9
P 5375 5935
F 0 "R2" H 5445 5981 50  0000 L CNN
F 1 "10К" H 5445 5890 50  0000 L CNN
F 2 "" V 5305 5935 50  0001 C CNN
F 3 "~" H 5375 5935 50  0001 C CNN
	1    5375 5935
	1    0    0    -1  
$EndComp
Wire Wire Line
	5375 6085 5375 6515
Wire Wire Line
	5375 5785 5375 5605
Connection ~ 5375 5605
Wire Wire Line
	5375 5605 5025 5605
Wire Wire Line
	7065 6010 6135 6010
Wire Wire Line
	6135 6010 6135 5905
$Comp
L LED:WS2812B D5
U 1 1 61E24F30
P 8075 3800
F 0 "D5" H 7880 4060 50  0000 L CNN
F 1 "WS2812B" H 8155 4060 50  0000 L CNN
F 2 "LED_SMD:LED_WS2812B_PLCC4_5.0x5.0mm_P3.2mm" H 8125 3500 50  0001 L TNN
F 3 "https://cdn-shop.adafruit.com/datasheets/WS2812B.pdf" H 8175 3425 50  0001 L TNN
	1    8075 3800
	1    0    0    -1  
$EndComp
$Comp
L LED:WS2812B D1
U 1 1 61E28E35
P 8070 4540
F 0 "D1" H 7875 4800 50  0000 L CNN
F 1 "WS2812B" H 8150 4800 50  0000 L CNN
F 2 "LED_SMD:LED_WS2812B_PLCC4_5.0x5.0mm_P3.2mm" H 8120 4240 50  0001 L TNN
F 3 "https://cdn-shop.adafruit.com/datasheets/WS2812B.pdf" H 8170 4165 50  0001 L TNN
	1    8070 4540
	1    0    0    -1  
$EndComp
$Comp
L LED:WS2812B D2
U 1 1 61E3A05B
P 8070 5345
F 0 "D2" H 7875 5605 50  0000 L CNN
F 1 "WS2812B" H 8150 5605 50  0000 L CNN
F 2 "LED_SMD:LED_WS2812B_PLCC4_5.0x5.0mm_P3.2mm" H 8120 5045 50  0001 L TNN
F 3 "https://cdn-shop.adafruit.com/datasheets/WS2812B.pdf" H 8170 4970 50  0001 L TNN
	1    8070 5345
	1    0    0    -1  
$EndComp
$Comp
L LED:WS2812B D25
U 1 1 61E3DF85
P 14970 3005
F 0 "D25" H 14775 3265 50  0000 L CNN
F 1 "WS2812B" H 15050 3265 50  0000 L CNN
F 2 "LED_SMD:LED_WS2812B_PLCC4_5.0x5.0mm_P3.2mm" H 15020 2705 50  0001 L TNN
F 3 "https://cdn-shop.adafruit.com/datasheets/WS2812B.pdf" H 15070 2630 50  0001 L TNN
	1    14970 3005
	1    0    0    -1  
$EndComp
$Comp
L LED:WS2812B D26
U 1 1 61E3DF8B
P 14970 3755
F 0 "D26" H 14775 4015 50  0000 L CNN
F 1 "WS2812B" H 15050 4015 50  0000 L CNN
F 2 "LED_SMD:LED_WS2812B_PLCC4_5.0x5.0mm_P3.2mm" H 15020 3455 50  0001 L TNN
F 3 "https://cdn-shop.adafruit.com/datasheets/WS2812B.pdf" H 15070 3380 50  0001 L TNN
	1    14970 3755
	1    0    0    -1  
$EndComp
$Comp
L LED:WS2812B D24
U 1 1 61E3DF91
P 14965 4495
F 0 "D24" H 14770 4755 50  0000 L CNN
F 1 "WS2812B" H 15045 4755 50  0000 L CNN
F 2 "LED_SMD:LED_WS2812B_PLCC4_5.0x5.0mm_P3.2mm" H 15015 4195 50  0001 L TNN
F 3 "https://cdn-shop.adafruit.com/datasheets/WS2812B.pdf" H 15065 4120 50  0001 L TNN
	1    14965 4495
	1    0    0    -1  
$EndComp
$Comp
L LED:WS2812B D22
U 1 1 61E44219
P 14955 5315
F 0 "D22" H 14760 5575 50  0000 L CNN
F 1 "WS2812B" H 15035 5575 50  0000 L CNN
F 2 "LED_SMD:LED_WS2812B_PLCC4_5.0x5.0mm_P3.2mm" H 15005 5015 50  0001 L TNN
F 3 "https://cdn-shop.adafruit.com/datasheets/WS2812B.pdf" H 15055 4940 50  0001 L TNN
	1    14955 5315
	1    0    0    -1  
$EndComp
$Comp
L LED:WS2812B D23
U 1 1 61E4421F
P 14955 6065
F 0 "D23" H 14760 6325 50  0000 L CNN
F 1 "WS2812B" H 15035 6325 50  0000 L CNN
F 2 "LED_SMD:LED_WS2812B_PLCC4_5.0x5.0mm_P3.2mm" H 15005 5765 50  0001 L TNN
F 3 "https://cdn-shop.adafruit.com/datasheets/WS2812B.pdf" H 15055 5690 50  0001 L TNN
	1    14955 6065
	1    0    0    -1  
$EndComp
$Comp
L LED:WS2812B D20
U 1 1 61E44225
P 14130 6830
F 0 "D20" H 13935 7090 50  0000 L CNN
F 1 "WS2812B" H 14210 7090 50  0000 L CNN
F 2 "LED_SMD:LED_WS2812B_PLCC4_5.0x5.0mm_P3.2mm" H 14180 6530 50  0001 L TNN
F 3 "https://cdn-shop.adafruit.com/datasheets/WS2812B.pdf" H 14230 6455 50  0001 L TNN
	1    14130 6830
	1    0    0    -1  
$EndComp
Wire Wire Line
	4340 8810 6270 8810
Wire Wire Line
	6270 8810 6270 9025
Wire Wire Line
	4340 6660 4340 8810
Wire Wire Line
	5005 6335 3680 6335
Wire Wire Line
	5005 6335 5005 8925
Wire Wire Line
	5005 8925 6370 8925
$Comp
L LED:WS2812B D8
U 1 1 61E8BF26
P 9605 6830
F 0 "D8" H 9410 7090 50  0000 L CNN
F 1 "WS2812B" H 9685 7090 50  0000 L CNN
F 2 "LED_SMD:LED_WS2812B_PLCC4_5.0x5.0mm_P3.2mm" H 9655 6530 50  0001 L TNN
F 3 "https://cdn-shop.adafruit.com/datasheets/WS2812B.pdf" H 9705 6455 50  0001 L TNN
	1    9605 6830
	1    0    0    -1  
$EndComp
$Comp
L LED:WS2812B D10
U 1 1 61E8DF1F
P 10380 6830
F 0 "D10" H 10185 7090 50  0000 L CNN
F 1 "WS2812B" H 10460 7090 50  0000 L CNN
F 2 "LED_SMD:LED_WS2812B_PLCC4_5.0x5.0mm_P3.2mm" H 10430 6530 50  0001 L TNN
F 3 "https://cdn-shop.adafruit.com/datasheets/WS2812B.pdf" H 10480 6455 50  0001 L TNN
	1    10380 6830
	1    0    0    -1  
$EndComp
$Comp
L LED:WS2812B D12
U 1 1 61E8FD87
P 11175 6830
F 0 "D12" H 10980 7090 50  0000 L CNN
F 1 "WS2812B" H 11255 7090 50  0000 L CNN
F 2 "LED_SMD:LED_WS2812B_PLCC4_5.0x5.0mm_P3.2mm" H 11225 6530 50  0001 L TNN
F 3 "https://cdn-shop.adafruit.com/datasheets/WS2812B.pdf" H 11275 6455 50  0001 L TNN
	1    11175 6830
	1    0    0    -1  
$EndComp
$Comp
L LED:WS2812B D14
U 1 1 61E91B58
P 11930 6830
F 0 "D14" H 11735 7090 50  0000 L CNN
F 1 "WS2812B" H 12010 7090 50  0000 L CNN
F 2 "LED_SMD:LED_WS2812B_PLCC4_5.0x5.0mm_P3.2mm" H 11980 6530 50  0001 L TNN
F 3 "https://cdn-shop.adafruit.com/datasheets/WS2812B.pdf" H 12030 6455 50  0001 L TNN
	1    11930 6830
	1    0    0    -1  
$EndComp
$Comp
L LED:WS2812B D16
U 1 1 61E93B4E
P 12705 6830
F 0 "D16" H 12510 7090 50  0000 L CNN
F 1 "WS2812B" H 12785 7090 50  0000 L CNN
F 2 "LED_SMD:LED_WS2812B_PLCC4_5.0x5.0mm_P3.2mm" H 12755 6530 50  0001 L TNN
F 3 "https://cdn-shop.adafruit.com/datasheets/WS2812B.pdf" H 12805 6455 50  0001 L TNN
	1    12705 6830
	1    0    0    -1  
$EndComp
$Comp
L LED:WS2812B D18
U 1 1 61E95A49
P 13385 6830
F 0 "D18" H 13190 7090 50  0000 L CNN
F 1 "WS2812B" H 13465 7090 50  0000 L CNN
F 2 "LED_SMD:LED_WS2812B_PLCC4_5.0x5.0mm_P3.2mm" H 13435 6530 50  0001 L TNN
F 3 "https://cdn-shop.adafruit.com/datasheets/WS2812B.pdf" H 13485 6455 50  0001 L TNN
	1    13385 6830
	1    0    0    -1  
$EndComp
$Comp
L LED:WS2812B D21
U 1 1 61EC3E81
P 14235 2390
F 0 "D21" H 14040 2650 50  0000 L CNN
F 1 "WS2812B" H 14315 2650 50  0000 L CNN
F 2 "LED_SMD:LED_WS2812B_PLCC4_5.0x5.0mm_P3.2mm" H 14285 2090 50  0001 L TNN
F 3 "https://cdn-shop.adafruit.com/datasheets/WS2812B.pdf" H 14335 2015 50  0001 L TNN
	1    14235 2390
	1    0    0    -1  
$EndComp
$Comp
L LED:WS2812B D7
U 1 1 61EC3E87
P 8920 2390
F 0 "D7" H 8725 2650 50  0000 L CNN
F 1 "WS2812B" H 9000 2650 50  0000 L CNN
F 2 "LED_SMD:LED_WS2812B_PLCC4_5.0x5.0mm_P3.2mm" H 8970 2090 50  0001 L TNN
F 3 "https://cdn-shop.adafruit.com/datasheets/WS2812B.pdf" H 9020 2015 50  0001 L TNN
	1    8920 2390
	1    0    0    -1  
$EndComp
$Comp
L LED:WS2812B D15
U 1 1 61EC3E9F
P 12035 2390
F 0 "D15" H 11840 2650 50  0000 L CNN
F 1 "WS2812B" H 12115 2650 50  0000 L CNN
F 2 "LED_SMD:LED_WS2812B_PLCC4_5.0x5.0mm_P3.2mm" H 12085 2090 50  0001 L TNN
F 3 "https://cdn-shop.adafruit.com/datasheets/WS2812B.pdf" H 12135 2015 50  0001 L TNN
	1    12035 2390
	1    0    0    -1  
$EndComp
$Comp
L LED:WS2812B D19
U 1 1 61EC3EAB
P 13490 2390
F 0 "D19" H 13295 2650 50  0000 L CNN
F 1 "WS2812B" H 13570 2650 50  0000 L CNN
F 2 "LED_SMD:LED_WS2812B_PLCC4_5.0x5.0mm_P3.2mm" H 13540 2090 50  0001 L TNN
F 3 "https://cdn-shop.adafruit.com/datasheets/WS2812B.pdf" H 13590 2015 50  0001 L TNN
	1    13490 2390
	1    0    0    -1  
$EndComp
Wire Wire Line
	8375 3455 7775 3455
Wire Wire Line
	7775 3455 7775 3800
Wire Wire Line
	8375 3800 8375 4170
Wire Wire Line
	8375 4170 7770 4170
Wire Wire Line
	7770 4170 7770 4540
Wire Wire Line
	8370 4540 8370 4965
Wire Wire Line
	8370 4965 7770 4965
Wire Wire Line
	7770 4965 7770 5345
Wire Wire Line
	8370 5345 8370 5730
Wire Wire Line
	8370 5730 7770 5730
Wire Wire Line
	7770 5730 7770 6095
Wire Wire Line
	8370 6830 8515 6830
Wire Wire Line
	9115 6830 9305 6830
Wire Wire Line
	9905 6830 10080 6830
Wire Wire Line
	10875 6830 10680 6830
Wire Wire Line
	11475 6830 11630 6830
Wire Wire Line
	12230 6830 12405 6830
Wire Wire Line
	13685 6830 13830 6830
Wire Wire Line
	14430 6830 14655 6830
Wire Wire Line
	14655 6830 14655 6065
Wire Wire Line
	15255 6065 15255 5680
Wire Wire Line
	15255 5680 14655 5680
Wire Wire Line
	14655 5680 14655 5315
Wire Wire Line
	15255 5315 15470 5315
Wire Wire Line
	15470 5315 15470 4895
Wire Wire Line
	15470 4895 14665 4895
Wire Wire Line
	14665 4895 14665 4495
Wire Wire Line
	15265 4495 15465 4495
Wire Wire Line
	15465 4495 15465 4095
Wire Wire Line
	15465 4095 14665 4095
Wire Wire Line
	14665 4095 14665 3755
Wire Wire Line
	14665 3755 14670 3755
Wire Wire Line
	15270 3755 15440 3755
Wire Wire Line
	15440 3755 15440 3370
Wire Wire Line
	15440 3370 14670 3370
Wire Wire Line
	14670 3370 14670 3005
Wire Wire Line
	15270 3005 15435 3005
NoConn ~ 9220 2390
Wire Wire Line
	4850 5035 4850 3010
$Comp
L Device:R R4
U 1 1 624CDB6F
P 6895 3010
F 0 "R4" V 6970 3040 50  0000 L CNN
F 1 "250" V 6970 2855 50  0000 L CNN
F 2 "" V 6825 3010 50  0001 C CNN
F 3 "~" H 6895 3010 50  0001 C CNN
	1    6895 3010
	0    -1   -1   0   
$EndComp
Wire Wire Line
	4850 3010 6745 3010
Connection ~ 3180 3935
$Comp
L LED:WS2812B D6
U 1 1 61E8A1A3
P 8815 6830
F 0 "D6" H 8620 7090 50  0000 L CNN
F 1 "WS2812B" H 8895 7090 50  0000 L CNN
F 2 "LED_SMD:LED_WS2812B_PLCC4_5.0x5.0mm_P3.2mm" H 8865 6530 50  0001 L TNN
F 3 "https://cdn-shop.adafruit.com/datasheets/WS2812B.pdf" H 8915 6455 50  0001 L TNN
	1    8815 6830
	1    0    0    -1  
$EndComp
Wire Wire Line
	8370 6095 8370 6830
$Comp
L LED:WS2812B D3
U 1 1 61E3A061
P 8070 6095
F 0 "D3" H 7875 6355 50  0000 L CNN
F 1 "WS2812B" H 8150 6355 50  0000 L CNN
F 2 "LED_SMD:LED_WS2812B_PLCC4_5.0x5.0mm_P3.2mm" H 8120 5795 50  0001 L TNN
F 3 "https://cdn-shop.adafruit.com/datasheets/WS2812B.pdf" H 8170 5720 50  0001 L TNN
	1    8070 6095
	1    0    0    -1  
$EndComp
$Comp
L LED:WS2812B D4
U 1 1 61E1DD8B
P 8075 3010
F 0 "D4" H 7880 3270 50  0000 L CNN
F 1 "WS2812B" H 8155 3270 50  0000 L CNN
F 2 "LED_SMD:LED_WS2812B_PLCC4_5.0x5.0mm_P3.2mm" H 8125 2710 50  0001 L TNN
F 3 "https://cdn-shop.adafruit.com/datasheets/WS2812B.pdf" H 8175 2635 50  0001 L TNN
	1    8075 3010
	1    0    0    -1  
$EndComp
Wire Wire Line
	7775 3010 7045 3010
Wire Wire Line
	8375 3010 8375 3455
Wire Wire Line
	15435 2480 14520 2480
Wire Wire Line
	15435 2480 15435 3005
Wire Wire Line
	14520 2945 13935 2945
Wire Wire Line
	13935 2945 13935 2390
Wire Wire Line
	14520 2480 14520 2945
Wire Wire Line
	14535 2390 14560 2390
Wire Wire Line
	14560 2390 14560 2990
Wire Wire Line
	14560 2990 13190 2990
Wire Wire Line
	13190 2990 13190 2390
Wire Wire Line
	13790 2390 13790 2960
Wire Wire Line
	13790 2960 12510 2960
Wire Wire Line
	12510 2960 12510 2390
Wire Wire Line
	11735 2995 11735 2390
Wire Wire Line
	12335 2390 12335 2970
Wire Wire Line
	12335 2970 10980 2970
Wire Wire Line
	10185 2990 10185 2390
Wire Wire Line
	10790 2960 9410 2960
Wire Wire Line
	9410 2960 9410 2390
Wire Wire Line
	10015 2995 8620 2995
Wire Wire Line
	8620 2995 8620 2390
$Comp
L LibForSch:USB_Разъем XP3
U 1 1 61DD0DFB
P 8740 9125
F 0 "XP3" H 8400 9540 50  0000 L CNN
F 1 "USB_Разъем" H 8890 9525 50  0001 C CNN
F 2 "" H 8490 9525 50  0001 C CNN
F 3 "" H 8490 9525 50  0001 C CNN
	1    8740 9125
	1    0    0    -1  
$EndComp
$Comp
L LED:WS2812B D9
U 1 1 61EC3E8D
P 9710 2390
F 0 "D9" H 9515 2650 50  0000 L CNN
F 1 "WS2812B" H 9790 2650 50  0000 L CNN
F 2 "LED_SMD:LED_WS2812B_PLCC4_5.0x5.0mm_P3.2mm" H 9760 2090 50  0001 L TNN
F 3 "https://cdn-shop.adafruit.com/datasheets/WS2812B.pdf" H 9810 2015 50  0001 L TNN
	1    9710 2390
	1    0    0    -1  
$EndComp
Wire Wire Line
	13005 6830 13085 6830
$Comp
L LED:WS2812B D17
U 1 1 61EC3EA5
P 12810 2390
F 0 "D17" H 12615 2650 50  0000 L CNN
F 1 "WS2812B" H 12890 2650 50  0000 L CNN
F 2 "LED_SMD:LED_WS2812B_PLCC4_5.0x5.0mm_P3.2mm" H 12860 2090 50  0001 L TNN
F 3 "https://cdn-shop.adafruit.com/datasheets/WS2812B.pdf" H 12910 2015 50  0001 L TNN
	1    12810 2390
	1    0    0    -1  
$EndComp
Wire Wire Line
	13115 2995 11735 2995
Wire Wire Line
	13115 2995 13115 2390
Wire Wire Line
	13115 2390 13110 2390
$Comp
L LED:WS2812B D11
U 1 1 61EC3E93
P 10485 2390
F 0 "D11" H 10290 2650 50  0000 L CNN
F 1 "WS2812B" H 10565 2650 50  0000 L CNN
F 2 "LED_SMD:LED_WS2812B_PLCC4_5.0x5.0mm_P3.2mm" H 10535 2090 50  0001 L TNN
F 3 "https://cdn-shop.adafruit.com/datasheets/WS2812B.pdf" H 10585 2015 50  0001 L TNN
	1    10485 2390
	1    0    0    -1  
$EndComp
Wire Wire Line
	10790 2960 10790 2390
Wire Wire Line
	10790 2390 10785 2390
Wire Wire Line
	10015 2995 10015 2390
Wire Wire Line
	10015 2390 10010 2390
Wire Wire Line
	3680 6035 3965 6035
Wire Wire Line
	3965 6035 3965 8025
Wire Wire Line
	3965 8025 1510 8025
Wire Wire Line
	1510 8025 1510 6060
Wire Wire Line
	1510 6060 2030 6060
Connection ~ 2030 6060
$Comp
L LibForSch:ICSP XP1
U 1 1 621B40FE
P 4480 3005
F 0 "XP1" H 4200 3330 50  0000 L CNN
F 1 "ICSP" H 4615 3330 50  0000 L CNN
F 2 "" H 4430 3505 50  0001 C CNN
F 3 "" H 4430 3505 50  0001 C CNN
	1    4480 3005
	1    0    0    -1  
$EndComp
Wire Wire Line
	4080 3005 3290 3005
Wire Wire Line
	4080 2905 3815 2905
Wire Wire Line
	3815 2905 3815 4935
Wire Wire Line
	3815 4935 3680 4935
Wire Wire Line
	3680 5035 3890 5035
Wire Wire Line
	4080 3105 3890 3105
Wire Wire Line
	3890 3105 3890 5035
Connection ~ 3890 5035
Wire Wire Line
	3890 5035 4850 5035
Wire Wire Line
	4080 3205 3940 3205
Wire Wire Line
	3940 3205 3940 4735
Wire Wire Line
	3940 4735 3680 4735
Wire Wire Line
	4080 3305 1210 3305
Wire Wire Line
	1210 3305 1210 6060
Wire Wire Line
	1210 6060 1510 6060
Connection ~ 1510 6060
Wire Wire Line
	7065 6010 7065 5845
$Comp
L power:VCC #PWR014
U 1 1 61DE3C7D
P 7065 5845
F 0 "#PWR014" H 7065 5695 50  0001 C CNN
F 1 "VCC" H 7080 5972 50  0000 L CNN
F 2 "" H 7065 5845 50  0001 C CNN
F 3 "" H 7065 5845 50  0001 C CNN
	1    7065 5845
	1    0    0    -1  
$EndComp
Wire Wire Line
	11585 2990 10185 2990
Wire Wire Line
	11585 2400 11580 2400
Wire Wire Line
	11585 2990 11585 2400
Wire Wire Line
	10980 2970 10980 2400
$Comp
L LED:WS2812B D13
U 1 1 61EC3E99
P 11280 2400
F 0 "D13" H 11085 2660 50  0000 L CNN
F 1 "WS2812B" H 11360 2660 50  0000 L CNN
F 2 "LED_SMD:LED_WS2812B_PLCC4_5.0x5.0mm_P3.2mm" H 11330 2100 50  0001 L TNN
F 3 "https://cdn-shop.adafruit.com/datasheets/WS2812B.pdf" H 11380 2025 50  0001 L TNN
	1    11280 2400
	1    0    0    -1  
$EndComp
Wire Wire Line
	14970 3305 15605 3305
Wire Wire Line
	14970 3455 14520 3455
Wire Wire Line
	14965 4195 14515 4195
Wire Wire Line
	14970 4055 15600 4055
Wire Wire Line
	14965 4795 15600 4795
Wire Wire Line
	14955 5015 14505 5015
Wire Wire Line
	14955 5615 15585 5615
Wire Wire Line
	14955 5765 14505 5765
Wire Wire Line
	8075 3310 7605 3310
Wire Wire Line
	8075 3500 8575 3500
Wire Wire Line
	8075 4100 7605 4100
Wire Wire Line
	8070 4240 8570 4240
Wire Wire Line
	8070 4840 7600 4840
Wire Wire Line
	8070 5045 8570 5045
Wire Wire Line
	8070 5645 7600 5645
Wire Wire Line
	8070 5795 8570 5795
Wire Wire Line
	8070 6395 7600 6395
$Comp
L power:VCC #PWR05
U 1 1 622410F5
P 3290 2825
F 0 "#PWR05" H 3290 2675 50  0001 C CNN
F 1 "VCC" H 3305 2952 50  0000 L CNN
F 2 "" H 3290 2825 50  0001 C CNN
F 3 "" H 3290 2825 50  0001 C CNN
	1    3290 2825
	1    0    0    -1  
$EndComp
Wire Wire Line
	3290 2825 3290 3005
$Comp
L power:+5V #PWR012
U 1 1 62264B28
P 6995 2085
F 0 "#PWR012" H 6995 1935 50  0001 C CNN
F 1 "+5V" H 7010 2258 50  0000 C CNN
F 2 "" H 6995 2085 50  0001 C CNN
F 3 "" H 6995 2085 50  0001 C CNN
	1    6995 2085
	1    0    0    -1  
$EndComp
$Comp
L LibForSch:Разъём_блока_питания XP2
U 1 1 61ED19F3
P 7345 1835
F 0 "XP2" H 7105 1795 50  0000 L CNN
F 1 "Разъём_блока_питания" H 7845 1785 50  0001 C CNN
F 2 "" H 7345 1835 50  0001 C CNN
F 3 "" H 7345 1835 50  0001 C CNN
	1    7345 1835
	1    0    0    -1  
$EndComp
$Comp
L power:+5V #PWR021
U 1 1 62436C5B
P 8075 2710
F 0 "#PWR021" H 8075 2560 50  0001 C CNN
F 1 "+5V" H 8090 2883 50  0000 C CNN
F 2 "" H 8075 2710 50  0001 C CNN
F 3 "" H 8075 2710 50  0001 C CNN
	1    8075 2710
	1    0    0    -1  
$EndComp
$Comp
L power:+5V #PWR026
U 1 1 6243F91D
P 8575 3500
F 0 "#PWR026" H 8575 3350 50  0001 C CNN
F 1 "+5V" H 8590 3673 50  0000 C CNN
F 2 "" H 8575 3500 50  0001 C CNN
F 3 "" H 8575 3500 50  0001 C CNN
	1    8575 3500
	1    0    0    -1  
$EndComp
$Comp
L power:+5V #PWR023
U 1 1 62448602
P 8570 4240
F 0 "#PWR023" H 8570 4090 50  0001 C CNN
F 1 "+5V" H 8585 4413 50  0000 C CNN
F 2 "" H 8570 4240 50  0001 C CNN
F 3 "" H 8570 4240 50  0001 C CNN
	1    8570 4240
	1    0    0    -1  
$EndComp
$Comp
L power:+5V #PWR024
U 1 1 62451104
P 8570 5045
F 0 "#PWR024" H 8570 4895 50  0001 C CNN
F 1 "+5V" H 8585 5218 50  0000 C CNN
F 2 "" H 8570 5045 50  0001 C CNN
F 3 "" H 8570 5045 50  0001 C CNN
	1    8570 5045
	1    0    0    -1  
$EndComp
$Comp
L power:+5V #PWR025
U 1 1 62459BDE
P 8570 5795
F 0 "#PWR025" H 8570 5645 50  0001 C CNN
F 1 "+5V" H 8585 5968 50  0000 C CNN
F 2 "" H 8570 5795 50  0001 C CNN
F 3 "" H 8570 5795 50  0001 C CNN
	1    8570 5795
	1    0    0    -1  
$EndComp
$Comp
L power:+5V #PWR027
U 1 1 6246274F
P 8815 6530
F 0 "#PWR027" H 8815 6380 50  0001 C CNN
F 1 "+5V" H 8830 6703 50  0000 C CNN
F 2 "" H 8815 6530 50  0001 C CNN
F 3 "" H 8815 6530 50  0001 C CNN
	1    8815 6530
	1    0    0    -1  
$EndComp
$Comp
L power:+5V #PWR031
U 1 1 6246B3F7
P 9605 6530
F 0 "#PWR031" H 9605 6380 50  0001 C CNN
F 1 "+5V" H 9620 6703 50  0000 C CNN
F 2 "" H 9605 6530 50  0001 C CNN
F 3 "" H 9605 6530 50  0001 C CNN
	1    9605 6530
	1    0    0    -1  
$EndComp
$Comp
L power:+5V #PWR035
U 1 1 62474015
P 10380 6530
F 0 "#PWR035" H 10380 6380 50  0001 C CNN
F 1 "+5V" H 10395 6703 50  0000 C CNN
F 2 "" H 10380 6530 50  0001 C CNN
F 3 "" H 10380 6530 50  0001 C CNN
	1    10380 6530
	1    0    0    -1  
$EndComp
$Comp
L power:+5V #PWR039
U 1 1 6247CC4C
P 11175 6530
F 0 "#PWR039" H 11175 6380 50  0001 C CNN
F 1 "+5V" H 11190 6703 50  0000 C CNN
F 2 "" H 11175 6530 50  0001 C CNN
F 3 "" H 11175 6530 50  0001 C CNN
	1    11175 6530
	1    0    0    -1  
$EndComp
$Comp
L power:+5V #PWR043
U 1 1 62485802
P 11930 6530
F 0 "#PWR043" H 11930 6380 50  0001 C CNN
F 1 "+5V" H 11945 6703 50  0000 C CNN
F 2 "" H 11930 6530 50  0001 C CNN
F 3 "" H 11930 6530 50  0001 C CNN
	1    11930 6530
	1    0    0    -1  
$EndComp
$Comp
L power:+5V #PWR051
U 1 1 6248E2C6
P 13385 6530
F 0 "#PWR051" H 13385 6380 50  0001 C CNN
F 1 "+5V" H 13400 6703 50  0000 C CNN
F 2 "" H 13385 6530 50  0001 C CNN
F 3 "" H 13385 6530 50  0001 C CNN
	1    13385 6530
	1    0    0    -1  
$EndComp
$Comp
L power:+5V #PWR047
U 1 1 62496F74
P 12705 6530
F 0 "#PWR047" H 12705 6380 50  0001 C CNN
F 1 "+5V" H 12720 6703 50  0000 C CNN
F 2 "" H 12705 6530 50  0001 C CNN
F 3 "" H 12705 6530 50  0001 C CNN
	1    12705 6530
	1    0    0    -1  
$EndComp
$Comp
L power:+5V #PWR055
U 1 1 624A8BAD
P 14130 6530
F 0 "#PWR055" H 14130 6380 50  0001 C CNN
F 1 "+5V" H 14145 6703 50  0000 C CNN
F 2 "" H 14130 6530 50  0001 C CNN
F 3 "" H 14130 6530 50  0001 C CNN
	1    14130 6530
	1    0    0    -1  
$EndComp
$Comp
L power:+5V #PWR060
U 1 1 624BA9A5
P 14505 5765
F 0 "#PWR060" H 14505 5615 50  0001 C CNN
F 1 "+5V" H 14520 5938 50  0000 C CNN
F 2 "" H 14505 5765 50  0001 C CNN
F 3 "" H 14505 5765 50  0001 C CNN
	1    14505 5765
	1    0    0    -1  
$EndComp
$Comp
L power:+5V #PWR059
U 1 1 624C3521
P 14505 5015
F 0 "#PWR059" H 14505 4865 50  0001 C CNN
F 1 "+5V" H 14520 5188 50  0000 C CNN
F 2 "" H 14505 5015 50  0001 C CNN
F 3 "" H 14505 5015 50  0001 C CNN
	1    14505 5015
	1    0    0    -1  
$EndComp
$Comp
L power:+5V #PWR061
U 1 1 624CC087
P 14515 4195
F 0 "#PWR061" H 14515 4045 50  0001 C CNN
F 1 "+5V" H 14530 4368 50  0000 C CNN
F 2 "" H 14515 4195 50  0001 C CNN
F 3 "" H 14515 4195 50  0001 C CNN
	1    14515 4195
	1    0    0    -1  
$EndComp
$Comp
L power:+5V #PWR062
U 1 1 624DDDC2
P 14520 3455
F 0 "#PWR062" H 14520 3305 50  0001 C CNN
F 1 "+5V" H 14535 3628 50  0000 C CNN
F 2 "" H 14520 3455 50  0001 C CNN
F 3 "" H 14520 3455 50  0001 C CNN
	1    14520 3455
	1    0    0    -1  
$EndComp
$Comp
L power:+5V #PWR064
U 1 1 624E6897
P 14970 2705
F 0 "#PWR064" H 14970 2555 50  0001 C CNN
F 1 "+5V" H 14985 2878 50  0000 C CNN
F 2 "" H 14970 2705 50  0001 C CNN
F 3 "" H 14970 2705 50  0001 C CNN
	1    14970 2705
	1    0    0    -1  
$EndComp
$Comp
L power:+5V #PWR057
U 1 1 624EF3FA
P 14235 2090
F 0 "#PWR057" H 14235 1940 50  0001 C CNN
F 1 "+5V" H 14250 2263 50  0000 C CNN
F 2 "" H 14235 2090 50  0001 C CNN
F 3 "" H 14235 2090 50  0001 C CNN
	1    14235 2090
	1    0    0    -1  
$EndComp
$Comp
L power:+5V #PWR053
U 1 1 624F7F78
P 13490 2090
F 0 "#PWR053" H 13490 1940 50  0001 C CNN
F 1 "+5V" H 13505 2263 50  0000 C CNN
F 2 "" H 13490 2090 50  0001 C CNN
F 3 "" H 13490 2090 50  0001 C CNN
	1    13490 2090
	1    0    0    -1  
$EndComp
$Comp
L power:+5V #PWR049
U 1 1 62500D7C
P 12810 2090
F 0 "#PWR049" H 12810 1940 50  0001 C CNN
F 1 "+5V" H 12825 2263 50  0000 C CNN
F 2 "" H 12810 2090 50  0001 C CNN
F 3 "" H 12810 2090 50  0001 C CNN
	1    12810 2090
	1    0    0    -1  
$EndComp
$Comp
L power:+5V #PWR045
U 1 1 625098B6
P 12035 2090
F 0 "#PWR045" H 12035 1940 50  0001 C CNN
F 1 "+5V" H 12050 2263 50  0000 C CNN
F 2 "" H 12035 2090 50  0001 C CNN
F 3 "" H 12035 2090 50  0001 C CNN
	1    12035 2090
	1    0    0    -1  
$EndComp
$Comp
L power:+5V #PWR041
U 1 1 62512421
P 11280 2100
F 0 "#PWR041" H 11280 1950 50  0001 C CNN
F 1 "+5V" H 11295 2273 50  0000 C CNN
F 2 "" H 11280 2100 50  0001 C CNN
F 3 "" H 11280 2100 50  0001 C CNN
	1    11280 2100
	1    0    0    -1  
$EndComp
$Comp
L power:+5V #PWR037
U 1 1 6251AF71
P 10485 2090
F 0 "#PWR037" H 10485 1940 50  0001 C CNN
F 1 "+5V" H 10500 2263 50  0000 C CNN
F 2 "" H 10485 2090 50  0001 C CNN
F 3 "" H 10485 2090 50  0001 C CNN
	1    10485 2090
	1    0    0    -1  
$EndComp
$Comp
L power:+5V #PWR033
U 1 1 62523A2A
P 9710 2090
F 0 "#PWR033" H 9710 1940 50  0001 C CNN
F 1 "+5V" H 9725 2263 50  0000 C CNN
F 2 "" H 9710 2090 50  0001 C CNN
F 3 "" H 9710 2090 50  0001 C CNN
	1    9710 2090
	1    0    0    -1  
$EndComp
$Comp
L power:+5V #PWR029
U 1 1 6252C5A2
P 8920 2090
F 0 "#PWR029" H 8920 1940 50  0001 C CNN
F 1 "+5V" H 8935 2263 50  0000 C CNN
F 2 "" H 8920 2090 50  0001 C CNN
F 3 "" H 8920 2090 50  0001 C CNN
	1    8920 2090
	1    0    0    -1  
$EndComp
$Comp
L Device:C C5
U 1 1 61B8F6F3
P 7940 9440
F 0 "C5" V 7790 9330 50  0000 C CNN
F 1 "4.7 мкФ" V 7790 9595 50  0000 C CNN
F 2 "" H 7978 9290 50  0001 C CNN
F 3 "~" H 7940 9440 50  0001 C CNN
	1    7940 9440
	0    1    1    0   
$EndComp
Wire Wire Line
	8090 9225 8090 9440
Connection ~ 8090 9440
Wire Wire Line
	8090 9440 8090 9510
Wire Wire Line
	7790 9440 7740 9440
$Comp
L power:Earth #PWR0101
U 1 1 61BC9332
P 5985 9730
F 0 "#PWR0101" H 5985 9480 50  0001 C CNN
F 1 "Earth" H 5985 9580 50  0001 C CNN
F 2 "" H 5985 9730 50  0001 C CNN
F 3 "~" H 5985 9730 50  0001 C CNN
	1    5985 9730
	1    0    0    -1  
$EndComp
$Comp
L power:Earth #PWR0102
U 1 1 61BDA7DA
P 8090 9510
F 0 "#PWR0102" H 8090 9260 50  0001 C CNN
F 1 "Earth" H 8090 9360 50  0001 C CNN
F 2 "" H 8090 9510 50  0001 C CNN
F 3 "~" H 8090 9510 50  0001 C CNN
	1    8090 9510
	1    0    0    -1  
$EndComp
$Comp
L power:Earth #PWR0104
U 1 1 61BFD179
P 3080 7385
F 0 "#PWR0104" H 3080 7135 50  0001 C CNN
F 1 "Earth" H 3080 7235 50  0001 C CNN
F 2 "" H 3080 7385 50  0001 C CNN
F 3 "~" H 3080 7385 50  0001 C CNN
	1    3080 7385
	1    0    0    -1  
$EndComp
$Comp
L power:Earth #PWR0105
U 1 1 61C0F3EB
P 2030 7385
F 0 "#PWR0105" H 2030 7135 50  0001 C CNN
F 1 "Earth" H 2030 7235 50  0001 C CNN
F 2 "" H 2030 7385 50  0001 C CNN
F 3 "~" H 2030 7385 50  0001 C CNN
	1    2030 7385
	1    0    0    -1  
$EndComp
$Comp
L power:Earth #PWR0106
U 1 1 61C20791
P 4530 5835
F 0 "#PWR0106" H 4530 5585 50  0001 C CNN
F 1 "Earth" H 4530 5685 50  0001 C CNN
F 2 "" H 4530 5835 50  0001 C CNN
F 3 "~" H 4530 5835 50  0001 C CNN
	1    4530 5835
	1    0    0    -1  
$EndComp
$Comp
L power:Earth #PWR0107
U 1 1 61C3191E
P 3930 5835
F 0 "#PWR0107" H 3930 5585 50  0001 C CNN
F 1 "Earth" H 3930 5685 50  0001 C CNN
F 2 "" H 3930 5835 50  0001 C CNN
F 3 "~" H 3930 5835 50  0001 C CNN
	1    3930 5835
	1    0    0    -1  
$EndComp
$Comp
L power:Earth #PWR0108
U 1 1 61C42DCF
P 1430 4685
F 0 "#PWR0108" H 1430 4435 50  0001 C CNN
F 1 "Earth" H 1430 4535 50  0001 C CNN
F 2 "" H 1430 4685 50  0001 C CNN
F 3 "~" H 1430 4685 50  0001 C CNN
	1    1430 4685
	1    0    0    -1  
$EndComp
$Comp
L power:Earth #PWR0109
U 1 1 61C54360
P 4080 3405
F 0 "#PWR0109" H 4080 3155 50  0001 C CNN
F 1 "Earth" H 4080 3255 50  0001 C CNN
F 2 "" H 4080 3405 50  0001 C CNN
F 3 "~" H 4080 3405 50  0001 C CNN
	1    4080 3405
	1    0    0    -1  
$EndComp
$Comp
L power:Earth #PWR0110
U 1 1 61C65715
P 5375 6515
F 0 "#PWR0110" H 5375 6265 50  0001 C CNN
F 1 "Earth" H 5375 6365 50  0001 C CNN
F 2 "" H 5375 6515 50  0001 C CNN
F 3 "~" H 5375 6515 50  0001 C CNN
	1    5375 6515
	1    0    0    -1  
$EndComp
$Comp
L power:Earth #PWR0111
U 1 1 61C76AC0
P 6995 2185
F 0 "#PWR0111" H 6995 1935 50  0001 C CNN
F 1 "Earth" H 6995 2035 50  0001 C CNN
F 2 "" H 6995 2185 50  0001 C CNN
F 3 "~" H 6995 2185 50  0001 C CNN
	1    6995 2185
	1    0    0    -1  
$EndComp
$Comp
L power:Earth #PWR0112
U 1 1 61C87EE3
P 7605 3310
F 0 "#PWR0112" H 7605 3060 50  0001 C CNN
F 1 "Earth" H 7605 3160 50  0001 C CNN
F 2 "" H 7605 3310 50  0001 C CNN
F 3 "~" H 7605 3310 50  0001 C CNN
	1    7605 3310
	1    0    0    -1  
$EndComp
$Comp
L power:Earth #PWR0113
U 1 1 61C993B7
P 7605 4100
F 0 "#PWR0113" H 7605 3850 50  0001 C CNN
F 1 "Earth" H 7605 3950 50  0001 C CNN
F 2 "" H 7605 4100 50  0001 C CNN
F 3 "~" H 7605 4100 50  0001 C CNN
	1    7605 4100
	1    0    0    -1  
$EndComp
$Comp
L power:Earth #PWR0114
U 1 1 61CAA605
P 7600 4840
F 0 "#PWR0114" H 7600 4590 50  0001 C CNN
F 1 "Earth" H 7600 4690 50  0001 C CNN
F 2 "" H 7600 4840 50  0001 C CNN
F 3 "~" H 7600 4840 50  0001 C CNN
	1    7600 4840
	1    0    0    -1  
$EndComp
$Comp
L power:Earth #PWR0115
U 1 1 61CBB81A
P 7600 5645
F 0 "#PWR0115" H 7600 5395 50  0001 C CNN
F 1 "Earth" H 7600 5495 50  0001 C CNN
F 2 "" H 7600 5645 50  0001 C CNN
F 3 "~" H 7600 5645 50  0001 C CNN
	1    7600 5645
	1    0    0    -1  
$EndComp
$Comp
L power:Earth #PWR0116
U 1 1 61CCD110
P 7600 6395
F 0 "#PWR0116" H 7600 6145 50  0001 C CNN
F 1 "Earth" H 7600 6245 50  0001 C CNN
F 2 "" H 7600 6395 50  0001 C CNN
F 3 "~" H 7600 6395 50  0001 C CNN
	1    7600 6395
	1    0    0    -1  
$EndComp
$Comp
L power:Earth #PWR0117
U 1 1 61CEACC4
P 8815 7130
F 0 "#PWR0117" H 8815 6880 50  0001 C CNN
F 1 "Earth" H 8815 6980 50  0001 C CNN
F 2 "" H 8815 7130 50  0001 C CNN
F 3 "~" H 8815 7130 50  0001 C CNN
	1    8815 7130
	1    0    0    -1  
$EndComp
$Comp
L power:Earth #PWR0118
U 1 1 61CFCABB
P 9605 7130
F 0 "#PWR0118" H 9605 6880 50  0001 C CNN
F 1 "Earth" H 9605 6980 50  0001 C CNN
F 2 "" H 9605 7130 50  0001 C CNN
F 3 "~" H 9605 7130 50  0001 C CNN
	1    9605 7130
	1    0    0    -1  
$EndComp
$Comp
L power:Earth #PWR0119
U 1 1 61D05559
P 10380 7130
F 0 "#PWR0119" H 10380 6880 50  0001 C CNN
F 1 "Earth" H 10380 6980 50  0001 C CNN
F 2 "" H 10380 7130 50  0001 C CNN
F 3 "~" H 10380 7130 50  0001 C CNN
	1    10380 7130
	1    0    0    -1  
$EndComp
$Comp
L power:Earth #PWR0120
U 1 1 61D0DE46
P 11175 7130
F 0 "#PWR0120" H 11175 6880 50  0001 C CNN
F 1 "Earth" H 11175 6980 50  0001 C CNN
F 2 "" H 11175 7130 50  0001 C CNN
F 3 "~" H 11175 7130 50  0001 C CNN
	1    11175 7130
	1    0    0    -1  
$EndComp
$Comp
L power:Earth #PWR0121
U 1 1 61D16841
P 11930 7130
F 0 "#PWR0121" H 11930 6880 50  0001 C CNN
F 1 "Earth" H 11930 6980 50  0001 C CNN
F 2 "" H 11930 7130 50  0001 C CNN
F 3 "~" H 11930 7130 50  0001 C CNN
	1    11930 7130
	1    0    0    -1  
$EndComp
$Comp
L power:Earth #PWR0122
U 1 1 61D1F081
P 12705 7130
F 0 "#PWR0122" H 12705 6880 50  0001 C CNN
F 1 "Earth" H 12705 6980 50  0001 C CNN
F 2 "" H 12705 7130 50  0001 C CNN
F 3 "~" H 12705 7130 50  0001 C CNN
	1    12705 7130
	1    0    0    -1  
$EndComp
$Comp
L power:Earth #PWR0123
U 1 1 61D27B0A
P 13385 7130
F 0 "#PWR0123" H 13385 6880 50  0001 C CNN
F 1 "Earth" H 13385 6980 50  0001 C CNN
F 2 "" H 13385 7130 50  0001 C CNN
F 3 "~" H 13385 7130 50  0001 C CNN
	1    13385 7130
	1    0    0    -1  
$EndComp
$Comp
L power:Earth #PWR0124
U 1 1 61D305E7
P 14130 7130
F 0 "#PWR0124" H 14130 6880 50  0001 C CNN
F 1 "Earth" H 14130 6980 50  0001 C CNN
F 2 "" H 14130 7130 50  0001 C CNN
F 3 "~" H 14130 7130 50  0001 C CNN
	1    14130 7130
	1    0    0    -1  
$EndComp
$Comp
L power:Earth #PWR0125
U 1 1 61D41A9F
P 14955 6365
F 0 "#PWR0125" H 14955 6115 50  0001 C CNN
F 1 "Earth" H 14955 6215 50  0001 C CNN
F 2 "" H 14955 6365 50  0001 C CNN
F 3 "~" H 14955 6365 50  0001 C CNN
	1    14955 6365
	1    0    0    -1  
$EndComp
$Comp
L power:Earth #PWR0126
U 1 1 61D52D11
P 15585 5615
F 0 "#PWR0126" H 15585 5365 50  0001 C CNN
F 1 "Earth" H 15585 5465 50  0001 C CNN
F 2 "" H 15585 5615 50  0001 C CNN
F 3 "~" H 15585 5615 50  0001 C CNN
	1    15585 5615
	1    0    0    -1  
$EndComp
$Comp
L power:Earth #PWR0127
U 1 1 61D63EEC
P 15600 4795
F 0 "#PWR0127" H 15600 4545 50  0001 C CNN
F 1 "Earth" H 15600 4645 50  0001 C CNN
F 2 "" H 15600 4795 50  0001 C CNN
F 3 "~" H 15600 4795 50  0001 C CNN
	1    15600 4795
	1    0    0    -1  
$EndComp
$Comp
L power:Earth #PWR0128
U 1 1 61D75335
P 15600 4055
F 0 "#PWR0128" H 15600 3805 50  0001 C CNN
F 1 "Earth" H 15600 3905 50  0001 C CNN
F 2 "" H 15600 4055 50  0001 C CNN
F 3 "~" H 15600 4055 50  0001 C CNN
	1    15600 4055
	1    0    0    -1  
$EndComp
$Comp
L power:Earth #PWR0129
U 1 1 61D869FE
P 15605 3305
F 0 "#PWR0129" H 15605 3055 50  0001 C CNN
F 1 "Earth" H 15605 3155 50  0001 C CNN
F 2 "" H 15605 3305 50  0001 C CNN
F 3 "~" H 15605 3305 50  0001 C CNN
	1    15605 3305
	1    0    0    -1  
$EndComp
$Comp
L power:Earth #PWR0130
U 1 1 61D97D02
P 14235 2690
F 0 "#PWR0130" H 14235 2440 50  0001 C CNN
F 1 "Earth" H 14235 2540 50  0001 C CNN
F 2 "" H 14235 2690 50  0001 C CNN
F 3 "~" H 14235 2690 50  0001 C CNN
	1    14235 2690
	1    0    0    -1  
$EndComp
$Comp
L power:Earth #PWR0131
U 1 1 61DA8DC3
P 13490 2690
F 0 "#PWR0131" H 13490 2440 50  0001 C CNN
F 1 "Earth" H 13490 2540 50  0001 C CNN
F 2 "" H 13490 2690 50  0001 C CNN
F 3 "~" H 13490 2690 50  0001 C CNN
	1    13490 2690
	1    0    0    -1  
$EndComp
$Comp
L power:Earth #PWR0132
U 1 1 61DB9FBF
P 12810 2690
F 0 "#PWR0132" H 12810 2440 50  0001 C CNN
F 1 "Earth" H 12810 2540 50  0001 C CNN
F 2 "" H 12810 2690 50  0001 C CNN
F 3 "~" H 12810 2690 50  0001 C CNN
	1    12810 2690
	1    0    0    -1  
$EndComp
$Comp
L power:Earth #PWR0133
U 1 1 61DCB162
P 12035 2690
F 0 "#PWR0133" H 12035 2440 50  0001 C CNN
F 1 "Earth" H 12035 2540 50  0001 C CNN
F 2 "" H 12035 2690 50  0001 C CNN
F 3 "~" H 12035 2690 50  0001 C CNN
	1    12035 2690
	1    0    0    -1  
$EndComp
$Comp
L power:Earth #PWR0134
U 1 1 61DDC427
P 11280 2700
F 0 "#PWR0134" H 11280 2450 50  0001 C CNN
F 1 "Earth" H 11280 2550 50  0001 C CNN
F 2 "" H 11280 2700 50  0001 C CNN
F 3 "~" H 11280 2700 50  0001 C CNN
	1    11280 2700
	1    0    0    -1  
$EndComp
$Comp
L power:Earth #PWR0135
U 1 1 61DF6760
P 10485 2690
F 0 "#PWR0135" H 10485 2440 50  0001 C CNN
F 1 "Earth" H 10485 2540 50  0001 C CNN
F 2 "" H 10485 2690 50  0001 C CNN
F 3 "~" H 10485 2690 50  0001 C CNN
	1    10485 2690
	1    0    0    -1  
$EndComp
$Comp
L power:Earth #PWR0136
U 1 1 61E079F5
P 9710 2690
F 0 "#PWR0136" H 9710 2440 50  0001 C CNN
F 1 "Earth" H 9710 2540 50  0001 C CNN
F 2 "" H 9710 2690 50  0001 C CNN
F 3 "~" H 9710 2690 50  0001 C CNN
	1    9710 2690
	1    0    0    -1  
$EndComp
$Comp
L power:Earth #PWR0137
U 1 1 61E18CC8
P 8920 2690
F 0 "#PWR0137" H 8920 2440 50  0001 C CNN
F 1 "Earth" H 8920 2540 50  0001 C CNN
F 2 "" H 8920 2690 50  0001 C CNN
F 3 "~" H 8920 2690 50  0001 C CNN
	1    8920 2690
	1    0    0    -1  
$EndComp
$Comp
L LibForSch:RESET SW1
U 1 1 61E66EB0
P 1950 6475
F 0 "SW1" V 2010 6345 50  0000 R CNN
F 1 "RESET" V 1890 6360 50  0000 R CNN
F 2 "" H 1950 6475 50  0001 C CNN
F 3 "" H 1950 6475 50  0001 C CNN
	1    1950 6475
	0    -1   -1   0   
$EndComp
Wire Wire Line
	2030 6060 2030 6345
NoConn ~ 3680 6935
NoConn ~ 3680 6835
NoConn ~ 3680 6735
NoConn ~ 3680 6635
NoConn ~ 3680 6535
NoConn ~ 3680 6435
NoConn ~ 3680 5935
NoConn ~ 3680 5835
NoConn ~ 3680 5735
NoConn ~ 3680 5635
NoConn ~ 3680 5535
NoConn ~ 3680 5435
NoConn ~ 3680 4835
NoConn ~ 3680 4635
NoConn ~ 3680 4535
NoConn ~ 2480 4835
NoConn ~ 2480 4535
$Comp
L power:PWR_FLAG #FLG0101
U 1 1 61CA316D
P 5915 3965
F 0 "#FLG0101" H 5915 4040 50  0001 C CNN
F 1 "PWR_FLAG" H 5915 4138 50  0000 C CNN
F 2 "" H 5915 3965 50  0001 C CNN
F 3 "~" H 5915 3965 50  0001 C CNN
	1    5915 3965
	1    0    0    -1  
$EndComp
$Comp
L power:PWR_FLAG #FLG0102
U 1 1 61CA385D
P 6410 4180
F 0 "#FLG0102" H 6410 4255 50  0001 C CNN
F 1 "PWR_FLAG" H 6410 4353 50  0000 C CNN
F 2 "" H 6410 4180 50  0001 C CNN
F 3 "~" H 6410 4180 50  0001 C CNN
	1    6410 4180
	1    0    0    -1  
$EndComp
$Comp
L power:PWR_FLAG #FLG0103
U 1 1 61CB5837
P 6925 4455
F 0 "#FLG0103" H 6925 4530 50  0001 C CNN
F 1 "PWR_FLAG" H 6925 4628 50  0000 C CNN
F 2 "" H 6925 4455 50  0001 C CNN
F 3 "~" H 6925 4455 50  0001 C CNN
	1    6925 4455
	1    0    0    -1  
$EndComp
$Comp
L power:Earth #PWR0138
U 1 1 61CC8551
P 6925 4455
F 0 "#PWR0138" H 6925 4205 50  0001 C CNN
F 1 "Earth" H 6925 4305 50  0001 C CNN
F 2 "" H 6925 4455 50  0001 C CNN
F 3 "~" H 6925 4455 50  0001 C CNN
	1    6925 4455
	1    0    0    -1  
$EndComp
$Comp
L power:+5V #PWR0139
U 1 1 61CD1A4D
P 6410 4180
F 0 "#PWR0139" H 6410 4030 50  0001 C CNN
F 1 "+5V" H 6425 4353 50  0000 C CNN
F 2 "" H 6410 4180 50  0001 C CNN
F 3 "" H 6410 4180 50  0001 C CNN
	1    6410 4180
	-1   0    0    1   
$EndComp
$Comp
L power:VCC #PWR0140
U 1 1 61D0D7C4
P 5915 3965
F 0 "#PWR0140" H 5915 3815 50  0001 C CNN
F 1 "VCC" H 5930 4092 50  0000 L CNN
F 2 "" H 5915 3965 50  0001 C CNN
F 3 "" H 5915 3965 50  0001 C CNN
	1    5915 3965
	1    0    0    1   
$EndComp
$Comp
L LibForSch:FT3232RL DD2
U 1 1 61D48DA5
P 6870 9075
F 0 "DD2" H 6580 9325 50  0000 C CNN
F 1 "FT3232RL" H 7180 9325 50  0000 C CNN
F 2 "" H 6770 9275 50  0001 C CNN
F 3 "" H 6770 9275 50  0001 C CNN
	1    6870 9075
	1    0    0    -1  
$EndComp
Wire Wire Line
	7740 8925 8290 8925
Wire Wire Line
	7665 8925 7740 8925
Connection ~ 7740 8925
Wire Wire Line
	7740 9440 7740 8925
$Comp
L power:Earth #PWR0103
U 1 1 61BEBAE9
P 5560 9125
F 0 "#PWR0103" H 5560 8875 50  0001 C CNN
F 1 "Earth" H 5560 8975 50  0001 C CNN
F 2 "" H 5560 9125 50  0001 C CNN
F 3 "~" H 5560 9125 50  0001 C CNN
	1    5560 9125
	1    0    0    -1  
$EndComp
$EndSCHEMATC
