EESchema Schematic File Version 4
EELAYER 30 0
EELAYER END
$Descr A3 16535 11693
encoding utf-8
Sheet 3 3
Title ""
Date ""
Rev ""
Comp ""
Comment1 ""
Comment2 ""
Comment3 ""
Comment4 ""
$EndDescr
$Comp
L Device:LED D?
U 1 1 61EB268B
P 12175 6600
AR Path="/61EB268B" Ref="D?"  Part="1" 
AR Path="/61CDA8F2/61EB268B" Ref="D5"  Part="1" 
F 0 "D5" V 12150 6750 50  0000 C CNN
F 1 "LED(yellow)" V 12150 6300 50  0000 C CNN
F 2 "" H 12175 6600 50  0001 C CNN
F 3 "~" H 12175 6600 50  0001 C CNN
	1    12175 6600
	0    -1   -1   0   
$EndComp
Wire Wire Line
	10300 3075 10300 4550
Wire Wire Line
	8775 4850 10950 4850
Wire Wire Line
	8700 4450 10950 4450
Wire Wire Line
	9825 5050 10950 5050
Wire Wire Line
	9775 4650 10950 4650
Wire Wire Line
	10300 4950 10950 4950
Wire Wire Line
	10300 4550 10950 4550
$Comp
L mylib:RJ45 XP2
U 1 1 623E29B0
P 13250 4975
F 0 "XP2" H 13200 5400 50  0000 L CNN
F 1 "RJ45" H 13150 4375 50  0000 L CNN
F 2 "" H 13250 5425 50  0001 C CNN
F 3 "" H 13250 5425 50  0001 C CNN
	1    13250 4975
	1    0    0    -1  
$EndComp
$Comp
L mylib:LAN8742A-CZ-TR DD3
U 1 1 61CDD9E1
P 6450 5175
F 0 "DD3" H 6675 5900 50  0000 C CNN
F 1 "LAN8742A-CZ-TR" H 6675 5809 50  0000 C CNN
F 2 "" H 6650 3875 50  0001 C CNN
F 3 "" H 6650 3875 50  0001 C CNN
	1    6450 5175
	1    0    0    -1  
$EndComp
Wire Wire Line
	12175 6450 12175 5950
Wire Wire Line
	12175 7075 12175 6750
Wire Wire Line
	12725 6575 12725 6150
Wire Wire Line
	12725 6875 12725 7075
Wire Wire Line
	12575 5450 12900 5450
Wire Wire Line
	12575 5350 12900 5350
Wire Wire Line
	12575 5150 12900 5150
Wire Wire Line
	12575 5050 12900 5050
Wire Wire Line
	12475 5250 12900 5250
Wire Wire Line
	12275 4950 12900 4950
Wire Wire Line
	12350 4850 12900 4850
Wire Wire Line
	12675 4750 12900 4750
Wire Wire Line
	10900 6150 12725 6150
Wire Wire Line
	4700 5475 4475 5475
Text Label 4475 5475 2    50   ~ 0
RMII_CRS_DV(L1)
Wire Wire Line
	5525 6375 5525 7500
Wire Wire Line
	5700 6375 5525 6375
Wire Wire Line
	5700 6275 5525 6275
Wire Wire Line
	4600 7500 5525 7500
Wire Wire Line
	4750 6075 4475 6075
Wire Wire Line
	4600 7000 4600 7500
Wire Wire Line
	4825 7000 4600 7000
Wire Wire Line
	5350 6600 4900 6600
Wire Wire Line
	5350 7000 5350 6600
Wire Wire Line
	5225 7000 5350 7000
Text Label 4475 6075 2    50   ~ 0
RMII_REF_CLK(L1)
Text Label 4475 5975 2    50   ~ 0
NRST(L1)
Text Label 4475 5775 2    50   ~ 0
RMII_MDIO(L1)
Text Label 4475 5675 2    50   ~ 0
RMII_MDC(L1)
Text Label 4450 5175 2    50   ~ 0
RMII_RXD1(L1)
Text Label 4450 5075 2    50   ~ 0
RMII_RXD0(L1)
Text Label 4450 4875 2    50   ~ 0
RMII_TXD1(L1)
Text Label 4450 4775 2    50   ~ 0
RMII_TXD0(L1)
Text Label 4450 4675 2    50   ~ 0
RMII_TX_EN(L1)
Wire Wire Line
	5700 4875 4450 4875
Wire Wire Line
	5700 4775 4450 4775
Wire Wire Line
	5400 5775 4475 5775
Wire Wire Line
	5700 5675 4475 5675
Wire Wire Line
	5700 5975 4475 5975
Wire Wire Line
	4700 5175 4450 5175
Wire Wire Line
	4700 5075 4450 5075
$Comp
L power:Earth #PWR021
U 1 1 61F8545D
P 4550 5275
F 0 "#PWR021" H 4550 5025 50  0001 C CNN
F 1 "Earth" H 4550 5125 50  0001 C CNN
F 2 "" H 4550 5275 50  0001 C CNN
F 3 "~" H 4550 5275 50  0001 C CNN
	1    4550 5275
	0    1    -1   0   
$EndComp
Wire Wire Line
	4700 5275 4550 5275
Wire Wire Line
	12725 7375 12725 7875
Wire Wire Line
	12175 7875 12725 7875
Connection ~ 12175 7875
Wire Wire Line
	12175 7375 12175 7875
Wire Wire Line
	10900 5275 10900 6150
Wire Wire Line
	7650 5275 10900 5275
Wire Wire Line
	11075 5950 12175 5950
Wire Wire Line
	11075 5175 11075 5950
Wire Wire Line
	7650 5175 11075 5175
$Comp
L Device:R R29
U 1 1 61EF5C81
P 12725 7225
F 0 "R29" H 12800 7375 50  0000 C CNN
F 1 "270R" H 12850 7075 50  0000 C CNN
F 2 "" V 12655 7225 50  0001 C CNN
F 3 "~" H 12725 7225 50  0001 C CNN
	1    12725 7225
	1    0    0    -1  
$EndComp
$Comp
L Device:R R27
U 1 1 61EE0CEB
P 12175 7225
F 0 "R27" H 12250 7375 50  0000 C CNN
F 1 "270R" H 12300 7075 50  0000 C CNN
F 2 "" V 12105 7225 50  0001 C CNN
F 3 "~" H 12175 7225 50  0001 C CNN
	1    12175 7225
	1    0    0    -1  
$EndComp
Wire Wire Line
	12000 5700 12000 6325
Wire Wire Line
	12275 5725 12275 6325
Wire Wire Line
	11475 7875 11475 7325
Wire Wire Line
	12175 7875 11875 7875
Wire Wire Line
	11875 7875 11475 7875
Connection ~ 11875 7875
$Comp
L power:Earth #PWR028
U 1 1 61EA8041
P 11875 7875
F 0 "#PWR028" H 11875 7625 50  0001 C CNN
F 1 "Earth" H 11875 7725 50  0001 C CNN
F 2 "" H 11875 7875 50  0001 C CNN
F 3 "~" H 11875 7875 50  0001 C CNN
	1    11875 7875
	1    0    0    -1  
$EndComp
Wire Wire Line
	12000 6325 12275 6325
Wire Wire Line
	12275 6325 12575 6325
Connection ~ 12275 6325
Wire Wire Line
	12275 5250 12275 5425
Wire Wire Line
	12125 5250 12275 5250
Wire Wire Line
	12125 4950 12125 5250
Wire Wire Line
	11875 4950 12125 4950
Wire Wire Line
	11875 4550 12000 4550
Wire Wire Line
	12000 4550 12000 5400
$Comp
L Device:R R28
U 1 1 61E6DB0F
P 12275 5575
F 0 "R28" H 12375 5625 50  0000 C CNN
F 1 "75R" H 12400 5550 50  0000 C CNN
F 2 "" V 12205 5575 50  0001 C CNN
F 3 "~" H 12275 5575 50  0001 C CNN
	1    12275 5575
	1    0    0    -1  
$EndComp
$Comp
L Device:R R26
U 1 1 61E6DB09
P 12000 5550
F 0 "R26" H 12100 5600 50  0000 C CNN
F 1 "75R" H 12125 5525 50  0000 C CNN
F 2 "" V 11930 5550 50  0001 C CNN
F 3 "~" H 12000 5550 50  0001 C CNN
	1    12000 5550
	1    0    0    -1  
$EndComp
Wire Wire Line
	12575 5450 12575 6325
Connection ~ 12575 5450
Wire Wire Line
	12575 5350 12575 5450
Connection ~ 12575 5350
Wire Wire Line
	12575 5350 12575 5150
Wire Wire Line
	12575 5150 12575 5050
Connection ~ 12575 5150
Connection ~ 12000 6325
Wire Wire Line
	11475 6325 12000 6325
Wire Wire Line
	11475 7025 11475 6325
$Comp
L Device:C C36
U 1 1 61E4B1BE
P 11475 7175
F 0 "C36" H 11360 7129 50  0000 R CNN
F 1 "100nF" H 11360 7220 50  0000 R CNN
F 2 "" H 11513 7025 50  0001 C CNN
F 3 "~" H 11475 7175 50  0001 C CNN
	1    11475 7175
	-1   0    0    1   
$EndComp
Wire Wire Line
	12475 5050 12475 5250
Wire Wire Line
	11875 5050 12475 5050
Wire Wire Line
	12275 4850 12275 4950
Wire Wire Line
	11875 4850 12275 4850
Wire Wire Line
	12350 4650 12350 4850
Wire Wire Line
	11875 4650 12350 4650
Wire Wire Line
	12675 4450 12675 4750
Wire Wire Line
	11875 4450 12675 4450
$Comp
L Device:L L1
U 1 1 61E211A5
P 7300 2500
F 0 "L1" H 7352 2546 50  0000 L CNN
F 1 "600R на 100MHz" H 7352 2455 50  0000 L CNN
F 2 "" H 7300 2500 50  0001 C CNN
F 3 "~" H 7300 2500 50  0001 C CNN
	1    7300 2500
	1    0    0    -1  
$EndComp
Text Label 7300 2125 2    50   ~ 0
3V3(L1)
Wire Wire Line
	7300 2350 7300 2125
Wire Wire Line
	7300 3075 7300 2650
Wire Wire Line
	7925 5475 7650 5475
Wire Wire Line
	8575 5475 8225 5475
$Comp
L Device:R R23
U 1 1 61E12F55
P 8075 5475
F 0 "R23" V 8025 5275 50  0000 C CNN
F 1 "12K1" V 8025 5675 50  0000 C CNN
F 2 "" V 8005 5475 50  0001 C CNN
F 3 "~" H 8075 5475 50  0001 C CNN
	1    8075 5475
	0    1    1    0   
$EndComp
$Comp
L power:Earth #PWR026
U 1 1 61E00E1D
P 8575 5475
F 0 "#PWR026" H 8575 5225 50  0001 C CNN
F 1 "Earth" H 8575 5325 50  0001 C CNN
F 2 "" H 8575 5475 50  0001 C CNN
F 3 "~" H 8575 5475 50  0001 C CNN
	1    8575 5475
	0    -1   1    0   
$EndComp
Text Label 8850 5725 2    50   ~ 0
VDD(L1)
Wire Wire Line
	8850 6700 8850 6775
Wire Wire Line
	8850 6775 8375 6775
Connection ~ 8375 6775
Wire Wire Line
	8375 6700 8375 6775
Wire Wire Line
	7750 6775 7750 6175
Wire Wire Line
	8375 6775 7900 6775
Wire Wire Line
	7900 6775 7750 6775
Connection ~ 7900 6775
Wire Wire Line
	7900 6700 7900 6775
Wire Wire Line
	7750 6175 7650 6175
Connection ~ 7750 6775
Wire Wire Line
	7750 6900 7750 6775
$Comp
L power:Earth #PWR025
U 1 1 61DE89B0
P 7750 6900
F 0 "#PWR025" H 7750 6650 50  0001 C CNN
F 1 "Earth" H 7750 6750 50  0001 C CNN
F 2 "" H 7750 6900 50  0001 C CNN
F 3 "~" H 7750 6900 50  0001 C CNN
	1    7750 6900
	1    0    0    -1  
$EndComp
Wire Wire Line
	8850 5875 8850 5725
Wire Wire Line
	8850 5875 8850 6400
Connection ~ 8850 5875
Wire Wire Line
	7650 5875 8850 5875
Wire Wire Line
	8375 5975 8375 6400
Wire Wire Line
	7900 5975 8375 5975
Wire Wire Line
	7900 5975 7900 6400
Connection ~ 7900 5975
Wire Wire Line
	7650 5975 7900 5975
$Comp
L Device:C C33
U 1 1 61DD709C
P 8850 6550
F 0 "C33" H 8735 6504 50  0000 R CNN
F 1 "100nF" H 8735 6595 50  0000 R CNN
F 2 "" H 8888 6400 50  0001 C CNN
F 3 "~" H 8850 6550 50  0001 C CNN
	1    8850 6550
	-1   0    0    1   
$EndComp
$Comp
L Device:C C32
U 1 1 61DD3956
P 8375 6550
F 0 "C32" H 8260 6504 50  0000 R CNN
F 1 "100nF" H 8260 6595 50  0000 R CNN
F 2 "" H 8413 6400 50  0001 C CNN
F 3 "~" H 8375 6550 50  0001 C CNN
	1    8375 6550
	-1   0    0    1   
$EndComp
$Comp
L Device:C C31
U 1 1 61DD3950
P 7900 6550
F 0 "C31" H 7785 6504 50  0000 R CNN
F 1 "100nF" H 7785 6595 50  0000 R CNN
F 2 "" H 7938 6400 50  0001 C CNN
F 3 "~" H 7900 6550 50  0001 C CNN
	1    7900 6550
	-1   0    0    1   
$EndComp
$Comp
L power:Earth #PWR027
U 1 1 61DCC4DB
P 10300 7775
F 0 "#PWR027" H 10300 7525 50  0001 C CNN
F 1 "Earth" H 10300 7625 50  0001 C CNN
F 2 "" H 10300 7775 50  0001 C CNN
F 3 "~" H 10300 7775 50  0001 C CNN
	1    10300 7775
	1    0    0    -1  
$EndComp
Wire Wire Line
	9825 6825 10300 6825
Wire Wire Line
	10300 4950 10300 6825
Wire Wire Line
	9825 6825 9825 7125
Connection ~ 10300 6825
Wire Wire Line
	10300 7125 10300 6825
Wire Wire Line
	10300 7775 10300 7700
Wire Wire Line
	10300 7700 10300 7425
Connection ~ 10300 7700
Wire Wire Line
	9825 7700 10300 7700
Wire Wire Line
	9825 7425 9825 7700
$Comp
L Device:C C35
U 1 1 61DAF0CD
P 10300 7275
F 0 "C35" H 10185 7229 50  0000 R CNN
F 1 "100nF" H 10185 7320 50  0000 R CNN
F 2 "" H 10338 7125 50  0001 C CNN
F 3 "~" H 10300 7275 50  0001 C CNN
	1    10300 7275
	-1   0    0    1   
$EndComp
$Comp
L Device:C C34
U 1 1 61DAF0C7
P 9825 7275
F 0 "C34" H 9710 7229 50  0000 R CNN
F 1 "100nF" H 9710 7320 50  0000 R CNN
F 2 "" H 9863 7125 50  0001 C CNN
F 3 "~" H 9825 7275 50  0001 C CNN
	1    9825 7275
	-1   0    0    1   
$EndComp
Connection ~ 10300 4950
Connection ~ 10300 4550
Wire Wire Line
	10300 4550 10300 4950
Connection ~ 7750 3075
Wire Wire Line
	7750 3825 7750 3075
Wire Wire Line
	7750 3075 8025 3075
Connection ~ 8025 3075
Wire Wire Line
	8025 3075 8025 3825
Wire Wire Line
	8025 3075 8300 3075
Connection ~ 8300 3075
Wire Wire Line
	8300 3825 8300 3075
Wire Wire Line
	8300 3075 8575 3075
Connection ~ 8575 3075
Wire Wire Line
	8575 3825 8575 3075
Wire Wire Line
	8575 3075 8825 3075
Wire Wire Line
	8825 3075 10300 3075
Connection ~ 8825 3075
Wire Wire Line
	8825 5100 8825 3075
Wire Wire Line
	7800 5100 8825 5100
Wire Wire Line
	7800 5675 7800 5100
Wire Wire Line
	7650 5775 7800 5775
Wire Wire Line
	7800 5675 7650 5675
Connection ~ 7800 5675
Wire Wire Line
	7800 5775 7800 5675
Wire Wire Line
	7750 4975 9825 4975
Wire Wire Line
	7750 4125 7750 4975
Wire Wire Line
	8025 4875 8775 4875
Wire Wire Line
	8025 4125 8025 4875
Wire Wire Line
	8300 4775 9775 4775
Wire Wire Line
	8300 4125 8300 4775
Wire Wire Line
	8575 4675 8700 4675
Wire Wire Line
	8575 4125 8575 4675
$Comp
L Device:R R25
U 1 1 61D8CC5F
P 8575 3975
F 0 "R25" H 8650 4125 50  0000 C CNN
F 1 "49.9R" H 8700 3825 50  0000 C CNN
F 2 "" V 8505 3975 50  0001 C CNN
F 3 "~" H 8575 3975 50  0001 C CNN
	1    8575 3975
	1    0    0    -1  
$EndComp
$Comp
L Device:R R24
U 1 1 61D8B20A
P 8300 3975
F 0 "R24" H 8375 4125 50  0000 C CNN
F 1 "49.9R" H 8425 3825 50  0000 C CNN
F 2 "" V 8230 3975 50  0001 C CNN
F 3 "~" H 8300 3975 50  0001 C CNN
	1    8300 3975
	1    0    0    -1  
$EndComp
$Comp
L Device:R R22
U 1 1 61D895E7
P 8025 3975
F 0 "R22" H 8100 4125 50  0000 C CNN
F 1 "49.9R" H 8150 3825 50  0000 C CNN
F 2 "" V 7955 3975 50  0001 C CNN
F 3 "~" H 8025 3975 50  0001 C CNN
	1    8025 3975
	1    0    0    -1  
$EndComp
$Comp
L Device:R R21
U 1 1 61D652DB
P 7750 3975
F 0 "R21" H 7825 4125 50  0000 C CNN
F 1 "49.9R" H 7875 3825 50  0000 C CNN
F 2 "" V 7680 3975 50  0001 C CNN
F 3 "~" H 7750 3975 50  0001 C CNN
	1    7750 3975
	1    0    0    -1  
$EndComp
Wire Wire Line
	9825 4975 9825 5050
Connection ~ 7750 4975
Wire Wire Line
	7650 4975 7750 4975
Wire Wire Line
	8775 4875 8775 4850
Connection ~ 8025 4875
Wire Wire Line
	7650 4875 8025 4875
Wire Wire Line
	9775 4775 9775 4650
Connection ~ 8300 4775
Wire Wire Line
	7650 4775 8300 4775
Wire Wire Line
	8700 4675 8700 4450
Connection ~ 8575 4675
Wire Wire Line
	7650 4675 8575 4675
Wire Wire Line
	7300 3075 7750 3075
Connection ~ 7300 3075
Wire Wire Line
	6450 3375 6450 3675
Wire Wire Line
	6875 3675 7300 3675
Wire Wire Line
	6875 3375 6875 3675
Wire Wire Line
	7300 3675 7300 3375
Connection ~ 6875 3675
Wire Wire Line
	6450 3675 6875 3675
$Comp
L Device:C C30
U 1 1 61D24C90
P 7300 3225
F 0 "C30" H 7185 3179 50  0000 R CNN
F 1 "10uF" H 7185 3270 50  0000 R CNN
F 2 "" H 7338 3075 50  0001 C CNN
F 3 "~" H 7300 3225 50  0001 C CNN
	1    7300 3225
	-1   0    0    1   
$EndComp
Wire Wire Line
	6875 3075 7300 3075
Wire Wire Line
	6450 3075 6875 3075
Connection ~ 6875 3075
$Comp
L Device:C C29
U 1 1 61D23F39
P 6875 3225
F 0 "C29" H 6760 3179 50  0000 R CNN
F 1 "100nF" H 6775 3275 50  0000 R CNN
F 2 "" H 6913 3075 50  0001 C CNN
F 3 "~" H 6875 3225 50  0001 C CNN
	1    6875 3225
	-1   0    0    1   
$EndComp
$Comp
L Device:C C28
U 1 1 61D2257C
P 6450 3225
F 0 "C28" H 6335 3179 50  0000 R CNN
F 1 "100nF" H 6350 3275 50  0000 R CNN
F 2 "" H 6488 3075 50  0001 C CNN
F 3 "~" H 6450 3225 50  0001 C CNN
	1    6450 3225
	-1   0    0    1   
$EndComp
Connection ~ 6450 3675
$Comp
L power:Earth #PWR024
U 1 1 61D1F5EE
P 6450 3675
F 0 "#PWR024" H 6450 3425 50  0001 C CNN
F 1 "Earth" H 6450 3525 50  0001 C CNN
F 2 "" H 6450 3675 50  0001 C CNN
F 3 "~" H 6450 3675 50  0001 C CNN
	1    6450 3675
	1    0    0    -1  
$EndComp
Wire Wire Line
	5000 5275 5700 5275
Wire Wire Line
	5000 5475 5300 5475
$Comp
L Device:R R12
U 1 1 61D1AC95
P 4850 5175
F 0 "R12" V 4800 4975 50  0000 C CNN
F 1 "33R" V 4800 5375 50  0000 C CNN
F 2 "" V 4780 5175 50  0001 C CNN
F 3 "~" H 4850 5175 50  0001 C CNN
	1    4850 5175
	0    1    1    0   
$EndComp
Wire Wire Line
	5000 5075 5150 5075
Text Label 5300 3275 2    50   ~ 0
VDD(L1)
Wire Wire Line
	5300 3575 5300 3275
Wire Wire Line
	5850 3575 5850 3800
Wire Wire Line
	5575 3575 5850 3575
Wire Wire Line
	5575 3575 5575 3800
Connection ~ 5575 3575
Wire Wire Line
	5300 3575 5575 3575
Connection ~ 5300 3575
Wire Wire Line
	5300 3575 5300 3800
Wire Wire Line
	5025 3575 5300 3575
Wire Wire Line
	5025 3575 5025 3800
Connection ~ 5025 3575
Wire Wire Line
	4750 3575 5025 3575
Wire Wire Line
	4750 3800 4750 3575
Wire Wire Line
	5550 6075 5050 6075
Wire Wire Line
	5850 4475 5850 4100
Wire Wire Line
	5550 4475 5850 4475
Wire Wire Line
	5550 6075 5550 4475
Wire Wire Line
	5575 4375 5575 4100
Wire Wire Line
	5400 4375 5575 4375
Wire Wire Line
	5400 5775 5400 4375
Connection ~ 5400 5775
Wire Wire Line
	5700 5775 5400 5775
Wire Wire Line
	5300 4100 5300 5475
Wire Wire Line
	5000 5175 5225 5175
Wire Wire Line
	5225 5175 5700 5175
Connection ~ 5225 5175
Wire Wire Line
	5225 4675 5700 4675
Connection ~ 5225 4675
Wire Wire Line
	5225 4675 5225 5175
Wire Wire Line
	4450 4675 5025 4675
Wire Wire Line
	5025 4675 5225 4675
Connection ~ 5025 4675
Wire Wire Line
	5025 4100 5025 4675
Wire Wire Line
	5150 4800 5150 5075
Wire Wire Line
	4750 4800 5150 4800
Wire Wire Line
	4750 4100 4750 4800
$Comp
L Device:R R20
U 1 1 61D0F4DF
P 5850 3950
F 0 "R20" H 5950 4000 50  0000 C CNN
F 1 "10K" H 5975 3925 50  0000 C CNN
F 2 "" V 5780 3950 50  0001 C CNN
F 3 "~" H 5850 3950 50  0001 C CNN
	1    5850 3950
	1    0    0    -1  
$EndComp
$Comp
L Device:R R19
U 1 1 61D0F21D
P 5575 3950
F 0 "R19" H 5675 4000 50  0000 C CNN
F 1 "1K5" H 5700 3925 50  0000 C CNN
F 2 "" V 5505 3950 50  0001 C CNN
F 3 "~" H 5575 3950 50  0001 C CNN
	1    5575 3950
	1    0    0    -1  
$EndComp
$Comp
L Device:R R17
U 1 1 61D0EEAD
P 5300 3950
F 0 "R17" H 5400 4000 50  0000 C CNN
F 1 "10K" H 5425 3925 50  0000 C CNN
F 2 "" V 5230 3950 50  0001 C CNN
F 3 "~" H 5300 3950 50  0001 C CNN
	1    5300 3950
	1    0    0    -1  
$EndComp
$Comp
L Device:R R16
U 1 1 61D0EB4D
P 5025 3950
F 0 "R16" H 5125 4000 50  0000 C CNN
F 1 "10K" H 5150 3925 50  0000 C CNN
F 2 "" V 4955 3950 50  0001 C CNN
F 3 "~" H 5025 3950 50  0001 C CNN
	1    5025 3950
	1    0    0    -1  
$EndComp
$Comp
L Device:R R14
U 1 1 61D02E5D
P 4850 5475
F 0 "R14" V 4800 5275 50  0000 C CNN
F 1 "33R" V 4800 5675 50  0000 C CNN
F 2 "" V 4780 5475 50  0001 C CNN
F 3 "~" H 4850 5475 50  0001 C CNN
	1    4850 5475
	0    1    1    0   
$EndComp
$Comp
L Device:R R13
U 1 1 61D03E58
P 4850 5275
F 0 "R13" V 4800 5075 50  0000 C CNN
F 1 "10K" V 4800 5475 50  0000 C CNN
F 2 "" V 4780 5275 50  0001 C CNN
F 3 "~" H 4850 5275 50  0001 C CNN
	1    4850 5275
	0    1    1    0   
$EndComp
$Comp
L Device:R R11
U 1 1 61D04618
P 4850 5075
F 0 "R11" V 4800 4875 50  0000 C CNN
F 1 "33R" V 4800 5275 50  0000 C CNN
F 2 "" V 4780 5075 50  0001 C CNN
F 3 "~" H 4850 5075 50  0001 C CNN
	1    4850 5075
	0    1    1    0   
$EndComp
$Comp
L Device:R R10
U 1 1 61D05954
P 4750 3950
F 0 "R10" H 4850 4000 50  0000 C CNN
F 1 "10K" H 4875 3925 50  0000 C CNN
F 2 "" V 4680 3950 50  0001 C CNN
F 3 "~" H 4750 3950 50  0001 C CNN
	1    4750 3950
	1    0    0    -1  
$EndComp
Connection ~ 5150 5075
Wire Wire Line
	5700 5075 5150 5075
Connection ~ 5300 5475
Wire Wire Line
	5700 5475 5300 5475
Connection ~ 5550 6075
Wire Wire Line
	5700 6075 5550 6075
$Comp
L Device:R R15
U 1 1 61D01B93
P 4900 6075
F 0 "R15" V 4850 5875 50  0000 C CNN
F 1 "33R" V 4850 6275 50  0000 C CNN
F 2 "" V 4830 6075 50  0001 C CNN
F 3 "~" H 4900 6075 50  0001 C CNN
	1    4900 6075
	0    1    1    0   
$EndComp
Wire Wire Line
	4900 6275 4900 6600
Wire Wire Line
	5225 6275 4900 6275
$Comp
L Device:R R18
U 1 1 61CFCD68
P 5375 6275
F 0 "R18" V 5325 6075 50  0000 C CNN
F 1 "0R" V 5325 6450 50  0000 C CNN
F 2 "" V 5305 6275 50  0001 C CNN
F 3 "~" H 5375 6275 50  0001 C CNN
	1    5375 6275
	0    1    1    0   
$EndComp
Connection ~ 4900 6600
Wire Wire Line
	4575 6600 4900 6600
Connection ~ 4600 7500
Wire Wire Line
	4575 7500 4600 7500
Wire Wire Line
	4175 7500 4275 7500
Wire Wire Line
	4175 6600 4275 6600
$Comp
L Device:C C26
U 1 1 61CF537F
P 4425 6600
F 0 "C26" V 4173 6600 50  0000 C CNN
F 1 "5.6pF" V 4264 6600 50  0000 C CNN
F 2 "" H 4463 6450 50  0001 C CNN
F 3 "~" H 4425 6600 50  0001 C CNN
	1    4425 6600
	0    1    1    0   
$EndComp
$Comp
L Device:C C27
U 1 1 61CF3B8B
P 4425 7500
F 0 "C27" V 4173 7500 50  0000 C CNN
F 1 "5.6pF" V 4264 7500 50  0000 C CNN
F 2 "" H 4463 7350 50  0001 C CNN
F 3 "~" H 4425 7500 50  0001 C CNN
	1    4425 7500
	0    1    1    0   
$EndComp
Wire Wire Line
	5225 7175 5325 7175
Wire Wire Line
	4825 7175 4725 7175
$Comp
L power:Earth #PWR020
U 1 1 61CF1FC7
P 4175 7500
F 0 "#PWR020" H 4175 7250 50  0001 C CNN
F 1 "Earth" H 4175 7350 50  0001 C CNN
F 2 "" H 4175 7500 50  0001 C CNN
F 3 "~" H 4175 7500 50  0001 C CNN
	1    4175 7500
	0    1    -1   0   
$EndComp
$Comp
L power:Earth #PWR019
U 1 1 61CF0593
P 4175 6600
F 0 "#PWR019" H 4175 6350 50  0001 C CNN
F 1 "Earth" H 4175 6450 50  0001 C CNN
F 2 "" H 4175 6600 50  0001 C CNN
F 3 "~" H 4175 6600 50  0001 C CNN
	1    4175 6600
	0    1    -1   0   
$EndComp
$Comp
L power:Earth #PWR022
U 1 1 61CEFB3A
P 4725 7175
F 0 "#PWR022" H 4725 6925 50  0001 C CNN
F 1 "Earth" H 4725 7025 50  0001 C CNN
F 2 "" H 4725 7175 50  0001 C CNN
F 3 "~" H 4725 7175 50  0001 C CNN
	1    4725 7175
	0    1    1    0   
$EndComp
$Comp
L power:Earth #PWR023
U 1 1 61CEDE5A
P 5325 7175
F 0 "#PWR023" H 5325 6925 50  0001 C CNN
F 1 "Earth" H 5325 7025 50  0001 C CNN
F 2 "" H 5325 7175 50  0001 C CNN
F 3 "~" H 5325 7175 50  0001 C CNN
	1    5325 7175
	0    -1   -1   0   
$EndComp
$Comp
L mylib:NX2016SA-25MHz X2
U 1 1 61CED225
P 4875 7075
F 0 "X2" V 4650 7200 50  0000 L CNN
F 1 "NX2016SA-25MHz" V 5075 6925 50  0000 L CNN
F 2 "" H 5075 7275 50  0001 C CNN
F 3 "" H 5075 7275 50  0001 C CNN
	1    4875 7075
	0    1    1    0   
$EndComp
$Comp
L mylib:KMS-1102NL DA2
U 1 1 61CE3ECC
P 11300 4750
F 0 "DA2" H 11325 5275 50  0000 C CNN
F 1 "KMS-1102NL" H 11325 5184 50  0000 C CNN
F 2 "" H 11300 4350 50  0001 C CNN
F 3 "" H 11300 4350 50  0001 C CNN
	1    11300 4750
	1    0    0    -1  
$EndComp
$Comp
L Device:LED D?
U 1 1 61EAA03E
P 12725 6725
AR Path="/61EAA03E" Ref="D?"  Part="1" 
AR Path="/61CDA8F2/61EAA03E" Ref="D6"  Part="1" 
F 0 "D6" V 12700 6875 50  0000 C CNN
F 1 "LED(green)" V 12700 6425 50  0000 C CNN
F 2 "" H 12725 6725 50  0001 C CNN
F 3 "~" H 12725 6725 50  0001 C CNN
	1    12725 6725
	0    -1   -1   0   
$EndComp
$EndSCHEMATC
