EESchema Schematic File Version 4
EELAYER 30 0
EELAYER END
$Descr A3 16535 11693
encoding utf-8
Sheet 2 3
Title ""
Date ""
Rev ""
Comp ""
Comment1 ""
Comment2 ""
Comment3 ""
Comment4 ""
$EndDescr
Wire Wire Line
	8950 2850 9400 2850
Wire Wire Line
	8950 2950 9400 2950
Text Label 9400 2850 0    50   ~ 0
DCMI_D0(L1)
Text Label 9400 2950 0    50   ~ 0
DCMI_D1(L1)
Wire Wire Line
	8950 3050 9400 3050
Text Label 9400 3050 0    50   ~ 0
DCMI_D2(L1)
Wire Wire Line
	8950 3150 9400 3150
Text Label 9400 3150 0    50   ~ 0
DCMI_D3(L1)
Wire Wire Line
	8950 3250 9400 3250
Text Label 9400 3250 0    50   ~ 0
DCMI_D4(L1)
Wire Wire Line
	8950 3350 9400 3350
Text Label 9400 3350 0    50   ~ 0
DCMI_D5(L1)
Wire Wire Line
	8950 3450 9400 3450
Text Label 9400 3450 0    50   ~ 0
DCMI_D6(L1)
Wire Wire Line
	8950 3550 9400 3550
Text Label 9400 3550 0    50   ~ 0
DCMI_D7(L1)
NoConn ~ 8950 3650
NoConn ~ 8950 3750
NoConn ~ 8950 4400
Wire Wire Line
	8950 5000 9400 5000
Text Label 9400 5000 0    50   ~ 0
OV2640_RESET(L1)
Wire Wire Line
	8950 4000 9400 4000
Text Label 9400 4000 0    50   ~ 0
DCMI_PCLK(L1)
Wire Wire Line
	8950 4100 9400 4100
Text Label 9400 4100 0    50   ~ 0
DCMI_VSYNC(L1)
Wire Wire Line
	8950 4200 9400 4200
Text Label 9400 4200 0    50   ~ 0
DCMI_HREF(L1)
NoConn ~ 7150 3650
NoConn ~ 8950 4900
Wire Wire Line
	8950 4600 9400 4600
Text Label 9400 4600 0    50   ~ 0
I2C_SCL(L1)
Wire Wire Line
	8950 4700 9400 4700
Text Label 9400 4700 0    50   ~ 0
I2C_SDA(L1)
$Comp
L power:Earth #PWR017
U 1 1 6212309B
P 8500 6750
F 0 "#PWR017" H 8500 6500 50  0001 C CNN
F 1 "Earth" H 8500 6600 50  0001 C CNN
F 2 "" H 8500 6750 50  0001 C CNN
F 3 "~" H 8500 6750 50  0001 C CNN
	1    8500 6750
	0    -1   -1   0   
$EndComp
$Comp
L power:GNDA #PWR015
U 1 1 62123C24
P 7000 2850
F 0 "#PWR015" H 7000 2600 50  0001 C CNN
F 1 "GNDA" V 7005 2723 50  0000 R CNN
F 2 "" H 7000 2850 50  0001 C CNN
F 3 "" H 7000 2850 50  0001 C CNN
	1    7000 2850
	0    1    1    0   
$EndComp
Wire Wire Line
	7150 2850 7000 2850
$Comp
L power:Earth #PWR016
U 1 1 6212560B
P 7000 3000
F 0 "#PWR016" H 7000 2750 50  0001 C CNN
F 1 "Earth" H 7000 2850 50  0001 C CNN
F 2 "" H 7000 3000 50  0001 C CNN
F 3 "~" H 7000 3000 50  0001 C CNN
	1    7000 3000
	0    1    1    0   
$EndComp
Wire Wire Line
	7000 3000 7150 3000
$Comp
L mylib:RT9166A-12PXL DA3
U 1 1 62126EA3
P 7325 6575
F 0 "DA3" H 7025 6900 50  0000 L CNN
F 1 "RT9166A-12PXL" H 6800 6825 50  0000 L CNN
F 2 "" H 7075 7000 50  0001 C CNN
F 3 "" H 7075 7000 50  0001 C CNN
	1    7325 6575
	1    0    0    -1  
$EndComp
$Comp
L Device:C C23
U 1 1 621283F5
P 8175 6450
F 0 "C23" V 8300 6475 50  0000 L CNN
F 1 "1uF" V 8300 6300 50  0000 L CNN
F 2 "" H 8213 6300 50  0001 C CNN
F 3 "~" H 8175 6450 50  0001 C CNN
	1    8175 6450
	0    -1   -1   0   
$EndComp
$Comp
L Device:C C22
U 1 1 6212A675
P 8175 6100
F 0 "C22" V 8290 6146 50  0000 L CNN
F 1 "1uF" V 8300 5975 50  0000 L CNN
F 2 "" H 8213 5950 50  0001 C CNN
F 3 "~" H 8175 6100 50  0001 C CNN
	1    8175 6100
	0    -1   -1   0   
$EndComp
Wire Wire Line
	8500 6750 8450 6750
Wire Wire Line
	8025 6650 8025 6450
Wire Wire Line
	7650 6550 7875 6550
Wire Wire Line
	7875 6550 7875 6100
Wire Wire Line
	7875 6100 8025 6100
Wire Wire Line
	8325 6450 8450 6450
Wire Wire Line
	8450 6450 8450 6750
Connection ~ 8450 6750
Wire Wire Line
	8450 6750 7650 6750
Wire Wire Line
	8325 6100 8450 6100
Wire Wire Line
	8450 6100 8450 6450
Connection ~ 8450 6450
Wire Wire Line
	7875 7150 7875 6650
Connection ~ 7875 6650
Wire Wire Line
	7875 6650 8025 6650
Wire Wire Line
	7875 6100 7875 5675
Connection ~ 7875 6100
Text Label 7875 5675 2    50   ~ 0
1.2V
Text Label 7875 7150 2    50   ~ 0
3V3(L1)
$Comp
L mylib:RT9166A-28PXL DA4
U 1 1 6212F458
P 9900 6675
F 0 "DA4" H 9675 7150 50  0000 L CNN
F 1 "RT9166A-28PXL" H 9425 7075 50  0000 L CNN
F 2 "" H 9675 7000 50  0001 C CNN
F 3 "" H 9675 7000 50  0001 C CNN
	1    9900 6675
	1    0    0    -1  
$EndComp
$Comp
L Device:C C25
U 1 1 62132BFD
P 10800 6500
F 0 "C25" V 10915 6546 50  0000 L CNN
F 1 "1uF" V 10925 6350 50  0000 L CNN
F 2 "" H 10838 6350 50  0001 C CNN
F 3 "~" H 10800 6500 50  0001 C CNN
	1    10800 6500
	0    -1   -1   0   
$EndComp
$Comp
L Device:C C24
U 1 1 62132C03
P 10800 6150
F 0 "C24" V 10915 6196 50  0000 L CNN
F 1 "1uF" V 10925 6000 50  0000 L CNN
F 2 "" H 10838 6000 50  0001 C CNN
F 3 "~" H 10800 6150 50  0001 C CNN
	1    10800 6150
	0    -1   -1   0   
$EndComp
Wire Wire Line
	11125 6800 11075 6800
Wire Wire Line
	10500 6150 10650 6150
Wire Wire Line
	10950 6500 11075 6500
Wire Wire Line
	11075 6500 11075 6800
Connection ~ 11075 6800
Wire Wire Line
	11075 6800 10275 6800
Wire Wire Line
	10950 6150 11075 6150
Wire Wire Line
	11075 6150 11075 6500
Connection ~ 11075 6500
Wire Wire Line
	10500 6150 10500 5725
Text Label 10500 5725 2    50   ~ 0
2.8V
Text Label 10500 7200 2    50   ~ 0
3V3(L1)
Wire Wire Line
	10500 6150 10500 6550
Connection ~ 10500 6150
Wire Wire Line
	10650 6500 10650 6675
Wire Wire Line
	10650 6675 10500 6675
Wire Wire Line
	10500 7200 10500 6675
Connection ~ 10500 6675
Wire Wire Line
	7150 3300 7000 3300
$Comp
L power:Earth #PWR014
U 1 1 6213DD80
P 6725 3950
F 0 "#PWR014" H 6725 3700 50  0001 C CNN
F 1 "Earth" H 6725 3800 50  0001 C CNN
F 2 "" H 6725 3950 50  0001 C CNN
F 3 "~" H 6725 3950 50  0001 C CNN
	1    6725 3950
	1    0    0    -1  
$EndComp
$Comp
L Device:C C21
U 1 1 6213F580
P 6725 3650
F 0 "C21" H 6840 3696 50  0000 L CNN
F 1 "1uF" H 6840 3605 50  0000 L CNN
F 2 "" H 6763 3500 50  0001 C CNN
F 3 "~" H 6725 3650 50  0001 C CNN
	1    6725 3650
	1    0    0    -1  
$EndComp
Wire Wire Line
	6725 3950 6725 3800
Wire Wire Line
	7150 3400 6725 3400
Wire Wire Line
	6725 3400 6725 3500
Wire Wire Line
	6725 3400 6475 3400
Connection ~ 6725 3400
Text Label 6475 3400 2    50   ~ 0
3V3(L1)
Text Label 7000 3300 2    50   ~ 0
1.2V
Wire Wire Line
	5875 3200 6025 3200
$Comp
L Device:C C19
U 1 1 62148AB2
P 6025 2900
F 0 "C19" H 6140 2946 50  0000 L CNN
F 1 "1uF" H 6140 2855 50  0000 L CNN
F 2 "" H 6063 2750 50  0001 C CNN
F 3 "~" H 6025 2900 50  0001 C CNN
	1    6025 2900
	1    0    0    -1  
$EndComp
$Comp
L Device:C C20
U 1 1 62149896
P 6375 2900
F 0 "C20" H 6490 2946 50  0000 L CNN
F 1 "1uF" H 6490 2855 50  0000 L CNN
F 2 "" H 6413 2750 50  0001 C CNN
F 3 "~" H 6375 2900 50  0001 C CNN
	1    6375 2900
	1    0    0    -1  
$EndComp
Wire Wire Line
	6375 3050 6375 3200
Connection ~ 6375 3200
Wire Wire Line
	6375 3200 7150 3200
Wire Wire Line
	6025 3050 6025 3200
Connection ~ 6025 3200
Wire Wire Line
	6025 3200 6375 3200
$Comp
L power:GNDA #PWR013
U 1 1 6214C10E
P 5700 2675
F 0 "#PWR013" H 5700 2425 50  0001 C CNN
F 1 "GNDA" V 5705 2548 50  0000 R CNN
F 2 "" H 5700 2675 50  0001 C CNN
F 3 "" H 5700 2675 50  0001 C CNN
	1    5700 2675
	0    1    1    0   
$EndComp
Wire Wire Line
	6375 2750 6375 2675
Wire Wire Line
	6375 2675 6025 2675
Wire Wire Line
	6025 2750 6025 2675
Connection ~ 6025 2675
Wire Wire Line
	6025 2675 5700 2675
Text Label 5875 3200 2    50   ~ 0
2.8V
$Comp
L ov2640:OV2640 DD2
U 1 1 62052CEC
P 6400 3850
F 0 "DD2" H 8050 5115 50  0000 C CNN
F 1 "OV2640" H 8050 5024 50  0000 C CNN
F 2 "" H 7400 5000 50  0001 C CNN
F 3 "" H 7400 5000 50  0001 C CNN
	1    6400 3850
	1    0    0    -1  
$EndComp
Wire Wire Line
	10275 6550 10500 6550
Wire Wire Line
	10275 6800 10275 7025
Wire Wire Line
	10275 7025 9125 7025
Wire Wire Line
	9125 7025 9125 6675
Wire Wire Line
	9125 6675 9175 6675
Wire Wire Line
	10150 6675 10150 6850
Wire Wire Line
	10150 6850 9050 6850
Wire Wire Line
	9050 6850 9050 6450
Wire Wire Line
	9050 6450 9175 6450
Wire Wire Line
	10150 6675 10500 6675
Wire Wire Line
	7475 6650 7475 6775
Wire Wire Line
	7475 6775 6425 6775
Wire Wire Line
	6425 6775 6425 6475
Wire Wire Line
	6425 6475 6550 6475
Wire Wire Line
	7475 6650 7875 6650
Wire Wire Line
	7650 6750 7650 6900
Wire Wire Line
	7650 6900 6275 6900
Wire Wire Line
	6275 6900 6275 6625
Wire Wire Line
	6275 6625 6550 6625
$Comp
L power:GNDA #PWR018
U 1 1 62138ABE
P 11125 6800
F 0 "#PWR018" H 11125 6550 50  0001 C CNN
F 1 "GNDA" V 11130 6673 50  0000 R CNN
F 2 "" H 11125 6800 50  0001 C CNN
F 3 "" H 11125 6800 50  0001 C CNN
	1    11125 6800
	0    -1   1    0   
$EndComp
$EndSCHEMATC
