EESchema Schematic File Version 4
EELAYER 30 0
EELAYER END
$Descr A3 16535 11693
encoding utf-8
Sheet 1 3
Title "Схема электрическая принципиальная"
Date ""
Rev ""
Comp "МГТУ им. Н.Э. Баумана"
Comment1 "Устройство фотофиксации"
Comment2 "Сапарбаев Т.Р."
Comment3 "Ибрагимов С.В."
Comment4 ""
$EndDescr
$Sheet
S 17950 1175 2300 1700
U 61C777B2
F0 "OV2640" 50
F1 "file61C777B1.sch" 50
$EndSheet
$Sheet
S 18150 3400 2000 1550
U 61CDA8F2
F0 "Ethernet" 50
F1 "ethernet.sch" 50
$EndSheet
Text Label 8700 1000 0    50   ~ 0
RMII_REF_CLK(L3)
Text Label 8700 1100 0    50   ~ 0
RMII_MDIO(L3)
Text Label 8700 1600 0    50   ~ 0
RMII_CRS_DV(L3)
Text Label 8700 3900 0    50   ~ 0
RMII_TXD1(L3)
Text Label 8700 4400 0    50   ~ 0
RMII_MDC(L3)
Text Label 8700 4700 0    50   ~ 0
RMII_RXD0(L3)
Text Label 8700 4800 0    50   ~ 0
RMII_RXD1(L3)
Text Label 5525 4000 2    50   ~ 0
RMII_TX_EN(L3)
Text Label 5525 4200 2    50   ~ 0
RMII_TXD0(L3)
Text Label 8700 3200 0    50   ~ 0
I2C_SCL(L2)
Text Label 8700 3300 0    50   ~ 0
I2C_SDA(L2)
Text Label 8700 4900 0    50   ~ 0
DCMI_D0(L2)
Text Label 8700 5000 0    50   ~ 0
DCMI_D1(L2)
Text Label 8700 5100 0    50   ~ 0
DCMI_D2(L2)
Text Label 8700 5200 0    50   ~ 0
DCMI_D3(L2)
Text Label 8700 6300 0    50   ~ 0
DCMI_D5(L2)
Text Label 8700 1300 0    50   ~ 0
DCMI_HREF(L2)
Text Label 8700 1500 0    50   ~ 0
DCMI_PCLK(L2)
Text Label 5525 6400 2    50   ~ 0
DCMI_D4(L2)
Text Label 5525 6500 2    50   ~ 0
DCMI_D6(L2)
Text Label 5525 6600 2    50   ~ 0
DCMI_D7(L2)
Text Label 5525 3800 2    50   ~ 0
DCMI_VSYNC(L2)
$Comp
L power:Earth #PWR?
U 1 1 62110C90
P 2650 7525
AR Path="/61CA2AE0/62110C90" Ref="#PWR?"  Part="1" 
AR Path="/62110C90" Ref="#PWR03"  Part="1" 
F 0 "#PWR03" H 2650 7275 50  0001 C CNN
F 1 "Earth" H 2650 7375 50  0001 C CNN
F 2 "" H 2650 7525 50  0001 C CNN
F 3 "~" H 2650 7525 50  0001 C CNN
	1    2650 7525
	1    0    0    -1  
$EndComp
Wire Wire Line
	2650 7525 2650 7475
Wire Wire Line
	2650 7475 2300 7475
Wire Wire Line
	2300 7475 2300 7425
Connection ~ 2650 7475
Wire Wire Line
	1500 7475 1500 7425
Connection ~ 2300 7475
Wire Wire Line
	4200 7375 4200 7475
Wire Wire Line
	4200 7475 2650 7475
Wire Wire Line
	2300 7475 1500 7475
Wire Wire Line
	4400 6725 4200 6725
$Comp
L Device:C C?
U 1 1 62110CA7
P 4200 7225
AR Path="/61CA2AE0/62110CA7" Ref="C?"  Part="1" 
AR Path="/62110CA7" Ref="C5"  Part="1" 
F 0 "C5" H 4315 7271 50  0000 L CNN
F 1 "4.7uF" H 4315 7180 50  0000 L CNN
F 2 "" H 4238 7075 50  0001 C CNN
F 3 "~" H 4200 7225 50  0001 C CNN
	1    4200 7225
	1    0    0    -1  
$EndComp
Wire Wire Line
	1500 6725 1750 6725
Connection ~ 1500 6725
Wire Wire Line
	1500 7125 1500 6725
$Comp
L Device:C C?
U 1 1 62110CB0
P 1500 7275
AR Path="/61CA2AE0/62110CB0" Ref="C?"  Part="1" 
AR Path="/62110CB0" Ref="C1"  Part="1" 
F 0 "C1" H 1615 7321 50  0000 L CNN
F 1 "4.7uF" H 1615 7230 50  0000 L CNN
F 2 "" H 1538 7125 50  0001 C CNN
F 3 "~" H 1500 7275 50  0001 C CNN
	1    1500 7275
	1    0    0    -1  
$EndComp
Connection ~ 1750 6725
Wire Wire Line
	1250 6725 1500 6725
Wire Wire Line
	1750 6725 2900 6725
Wire Wire Line
	1750 6725 1750 7025
Connection ~ 2300 7025
Wire Wire Line
	2300 6825 2300 7025
Wire Wire Line
	2900 6825 2300 6825
Wire Wire Line
	2300 7025 2150 7025
Wire Wire Line
	2300 7125 2300 7025
Wire Wire Line
	2650 7475 2650 6925
Wire Wire Line
	1750 7025 1850 7025
$Comp
L Device:R R?
U 1 1 62110CC2
P 2000 7025
AR Path="/61CA2AE0/62110CC2" Ref="R?"  Part="1" 
AR Path="/62110CC2" Ref="R1"  Part="1" 
F 0 "R1" V 1793 7025 50  0000 C CNN
F 1 "10K" V 1884 7025 50  0000 C CNN
F 2 "" V 1930 7025 50  0001 C CNN
F 3 "~" H 2000 7025 50  0001 C CNN
	1    2000 7025
	0    1    1    0   
$EndComp
$Comp
L Device:C C?
U 1 1 62110CC8
P 2300 7275
AR Path="/61CA2AE0/62110CC8" Ref="C?"  Part="1" 
AR Path="/62110CC8" Ref="C4"  Part="1" 
F 0 "C4" H 2415 7321 50  0000 L CNN
F 1 "100nF" H 2415 7230 50  0000 L CNN
F 2 "" H 2338 7125 50  0001 C CNN
F 3 "~" H 2300 7275 50  0001 C CNN
	1    2300 7275
	1    0    0    -1  
$EndComp
Wire Wire Line
	2650 6925 2900 6925
$Comp
L stm32h745zit6u:ST1L05CPU33R U?
U 1 1 62110CCF
P 3450 6825
AR Path="/61CA2AE0/62110CCF" Ref="U?"  Part="1" 
AR Path="/62110CCF" Ref="DA1"  Part="1" 
F 0 "DA1" H 3450 7150 50  0000 C CNN
F 1 "ST1L05CPU33R" H 3450 7059 50  0000 C CNN
F 2 "" H 3450 6625 50  0001 C CNN
F 3 "" H 3450 6625 50  0001 C CNN
	1    3450 6825
	1    0    0    -1  
$EndComp
Text Label 4400 6375 0    50   ~ 0
3V3
Text Label 1250 6725 2    50   ~ 0
VDD
$Comp
L Device:C C?
U 1 1 6215A34F
P 10225 8150
AR Path="/61CA2AE0/6215A34F" Ref="C?"  Part="1" 
AR Path="/6215A34F" Ref="C7"  Part="1" 
F 0 "C7" H 10340 8196 50  0000 L CNN
F 1 "4.7uF" H 10340 8105 50  0000 L CNN
F 2 "" H 10263 8000 50  0001 C CNN
F 3 "~" H 10225 8150 50  0001 C CNN
	1    10225 8150
	1    0    0    -1  
$EndComp
$Comp
L Device:C C?
U 1 1 6215D21A
P 10975 8125
AR Path="/61CA2AE0/6215D21A" Ref="C?"  Part="1" 
AR Path="/6215D21A" Ref="C8"  Part="1" 
F 0 "C8" H 11090 8171 50  0000 L CNN
F 1 "100nF" H 11090 8080 50  0000 L CNN
F 2 "" H 11013 7975 50  0001 C CNN
F 3 "~" H 10975 8125 50  0001 C CNN
	1    10975 8125
	1    0    0    -1  
$EndComp
$Comp
L Device:C C?
U 1 1 62160AAC
P 11500 8125
AR Path="/61CA2AE0/62160AAC" Ref="C?"  Part="1" 
AR Path="/62160AAC" Ref="C9"  Part="1" 
F 0 "C9" H 11615 8171 50  0000 L CNN
F 1 "100nF" H 11615 8080 50  0000 L CNN
F 2 "" H 11538 7975 50  0001 C CNN
F 3 "~" H 11500 8125 50  0001 C CNN
	1    11500 8125
	1    0    0    -1  
$EndComp
$Comp
L Device:C C?
U 1 1 62164391
P 11975 8125
AR Path="/61CA2AE0/62164391" Ref="C?"  Part="1" 
AR Path="/62164391" Ref="C11"  Part="1" 
F 0 "C11" H 12090 8171 50  0000 L CNN
F 1 "100nF" H 12090 8080 50  0000 L CNN
F 2 "" H 12013 7975 50  0001 C CNN
F 3 "~" H 11975 8125 50  0001 C CNN
	1    11975 8125
	1    0    0    -1  
$EndComp
$Comp
L Device:C C?
U 1 1 62164397
P 12500 8125
AR Path="/61CA2AE0/62164397" Ref="C?"  Part="1" 
AR Path="/62164397" Ref="C12"  Part="1" 
F 0 "C12" H 12615 8171 50  0000 L CNN
F 1 "100nF" H 12615 8080 50  0000 L CNN
F 2 "" H 12538 7975 50  0001 C CNN
F 3 "~" H 12500 8125 50  0001 C CNN
	1    12500 8125
	1    0    0    -1  
$EndComp
$Comp
L Device:C C?
U 1 1 6216BD2A
P 13000 8125
AR Path="/61CA2AE0/6216BD2A" Ref="C?"  Part="1" 
AR Path="/6216BD2A" Ref="C13"  Part="1" 
F 0 "C13" H 13115 8171 50  0000 L CNN
F 1 "100nF" H 13115 8080 50  0000 L CNN
F 2 "" H 13038 7975 50  0001 C CNN
F 3 "~" H 13000 8125 50  0001 C CNN
	1    13000 8125
	1    0    0    -1  
$EndComp
$Comp
L Device:C C?
U 1 1 6216BD30
P 13525 8125
AR Path="/61CA2AE0/6216BD30" Ref="C?"  Part="1" 
AR Path="/6216BD30" Ref="C14"  Part="1" 
F 0 "C14" H 13640 8171 50  0000 L CNN
F 1 "100nF" H 13640 8080 50  0000 L CNN
F 2 "" H 13563 7975 50  0001 C CNN
F 3 "~" H 13525 8125 50  0001 C CNN
	1    13525 8125
	1    0    0    -1  
$EndComp
$Comp
L Device:C C?
U 1 1 6216BD36
P 14000 8125
AR Path="/61CA2AE0/6216BD36" Ref="C?"  Part="1" 
AR Path="/6216BD36" Ref="C15"  Part="1" 
F 0 "C15" H 14115 8171 50  0000 L CNN
F 1 "100nF" H 14115 8080 50  0000 L CNN
F 2 "" H 14038 7975 50  0001 C CNN
F 3 "~" H 14000 8125 50  0001 C CNN
	1    14000 8125
	1    0    0    -1  
$EndComp
$Comp
L Device:C C?
U 1 1 6216BD3C
P 14525 8125
AR Path="/61CA2AE0/6216BD3C" Ref="C?"  Part="1" 
AR Path="/6216BD3C" Ref="C16"  Part="1" 
F 0 "C16" H 14640 8171 50  0000 L CNN
F 1 "100nF" H 14640 8080 50  0000 L CNN
F 2 "" H 14563 7975 50  0001 C CNN
F 3 "~" H 14525 8125 50  0001 C CNN
	1    14525 8125
	1    0    0    -1  
$EndComp
$Comp
L Device:C C?
U 1 1 621706E7
P 15050 8125
AR Path="/61CA2AE0/621706E7" Ref="C?"  Part="1" 
AR Path="/621706E7" Ref="C17"  Part="1" 
F 0 "C17" H 15165 8171 50  0000 L CNN
F 1 "100nF" H 15165 8080 50  0000 L CNN
F 2 "" H 15088 7975 50  0001 C CNN
F 3 "~" H 15050 8125 50  0001 C CNN
	1    15050 8125
	1    0    0    -1  
$EndComp
$Comp
L Device:C C?
U 1 1 621706ED
P 15575 8125
AR Path="/61CA2AE0/621706ED" Ref="C?"  Part="1" 
AR Path="/621706ED" Ref="C18"  Part="1" 
F 0 "C18" H 15690 8171 50  0000 L CNN
F 1 "100nF" H 15690 8080 50  0000 L CNN
F 2 "" H 15613 7975 50  0001 C CNN
F 3 "~" H 15575 8125 50  0001 C CNN
	1    15575 8125
	1    0    0    -1  
$EndComp
$Comp
L power:Earth #PWR09
U 1 1 62173B37
P 10225 8500
F 0 "#PWR09" H 10225 8250 50  0001 C CNN
F 1 "Earth" H 10225 8350 50  0001 C CNN
F 2 "" H 10225 8500 50  0001 C CNN
F 3 "~" H 10225 8500 50  0001 C CNN
	1    10225 8500
	1    0    0    -1  
$EndComp
Wire Wire Line
	10225 8500 10225 8450
Wire Wire Line
	10225 7850 10225 7475
Wire Wire Line
	15575 7850 15575 7975
Wire Wire Line
	15575 8275 15575 8450
Wire Wire Line
	15575 8450 15050 8450
Wire Wire Line
	15050 8275 15050 8450
Connection ~ 15050 8450
Wire Wire Line
	15050 8450 14525 8450
Wire Wire Line
	15050 7975 15050 7850
Connection ~ 15050 7850
Wire Wire Line
	15050 7850 15575 7850
Wire Wire Line
	14525 7975 14525 7850
Connection ~ 14525 7850
Wire Wire Line
	14525 7850 15050 7850
Wire Wire Line
	14525 8275 14525 8450
Connection ~ 14525 8450
Wire Wire Line
	14525 8450 14000 8450
Wire Wire Line
	14000 8275 14000 8450
Connection ~ 14000 8450
Wire Wire Line
	14000 8450 13525 8450
Wire Wire Line
	14000 7975 14000 7850
Connection ~ 14000 7850
Wire Wire Line
	14000 7850 14525 7850
Wire Wire Line
	13525 7850 13525 7975
Connection ~ 13525 7850
Wire Wire Line
	13525 7850 14000 7850
Wire Wire Line
	13525 8275 13525 8450
Connection ~ 13525 8450
Wire Wire Line
	13525 8450 13000 8450
Wire Wire Line
	13000 7975 13000 7850
Connection ~ 13000 7850
Wire Wire Line
	13000 7850 13525 7850
Wire Wire Line
	13000 8275 13000 8450
Connection ~ 13000 8450
Wire Wire Line
	13000 8450 12500 8450
Wire Wire Line
	12500 8275 12500 8450
Connection ~ 12500 8450
Wire Wire Line
	12500 8450 11975 8450
Wire Wire Line
	12500 7975 12500 7850
Connection ~ 12500 7850
Wire Wire Line
	12500 7850 13000 7850
Wire Wire Line
	11975 7975 11975 7850
Connection ~ 11975 7850
Wire Wire Line
	11975 7850 12500 7850
Wire Wire Line
	11975 8275 11975 8450
Connection ~ 11975 8450
Wire Wire Line
	11975 8450 11500 8450
Wire Wire Line
	11500 8275 11500 8450
Connection ~ 11500 8450
Wire Wire Line
	11500 8450 10975 8450
Wire Wire Line
	11500 7975 11500 7850
Connection ~ 11500 7850
Wire Wire Line
	11500 7850 11975 7850
Wire Wire Line
	10975 7975 10975 7850
Connection ~ 10975 7850
Wire Wire Line
	10975 7850 11500 7850
Wire Wire Line
	10975 8275 10975 8450
Connection ~ 10975 8450
Text Label 10225 7475 2    50   ~ 0
VDD
Wire Wire Line
	10225 8450 10975 8450
Wire Wire Line
	10225 7850 10975 7850
Wire Wire Line
	10225 8300 10225 8450
Connection ~ 10225 8450
Wire Wire Line
	10225 8000 10225 7850
Connection ~ 10225 7850
$Comp
L power:GNDA #PWR08
U 1 1 62088190
P 8575 7675
F 0 "#PWR08" H 8575 7425 50  0001 C CNN
F 1 "GNDA" H 8580 7502 50  0000 C CNN
F 2 "" H 8575 7675 50  0001 C CNN
F 3 "" H 8575 7675 50  0001 C CNN
	1    8575 7675
	0    -1   1    0   
$EndComp
$Comp
L power:Earth #PWR07
U 1 1 62083437
P 8475 9200
F 0 "#PWR07" H 8475 8950 50  0001 C CNN
F 1 "Earth" H 8475 9050 50  0001 C CNN
F 2 "" H 8475 9200 50  0001 C CNN
F 3 "~" H 8475 9200 50  0001 C CNN
	1    8475 9200
	1    0    0    -1  
$EndComp
Connection ~ 8475 7975
Wire Wire Line
	8475 7975 8475 8075
Connection ~ 8475 8075
Wire Wire Line
	8475 8075 8475 8175
Connection ~ 8475 8175
Connection ~ 8475 9075
Wire Wire Line
	8475 9075 8475 9200
Connection ~ 8475 8975
Wire Wire Line
	8475 8975 8475 9075
Connection ~ 8475 8875
Wire Wire Line
	8475 8875 8475 8975
Connection ~ 8475 8775
Wire Wire Line
	8475 8775 8475 8875
Connection ~ 8475 8675
Wire Wire Line
	8475 8675 8475 8775
Connection ~ 8475 8575
Wire Wire Line
	8475 8575 8475 8675
Connection ~ 8475 8475
Wire Wire Line
	8475 8475 8475 8575
Wire Wire Line
	5825 6600 5525 6600
Wire Wire Line
	5825 6500 5525 6500
Wire Wire Line
	5825 6400 5525 6400
Wire Wire Line
	5825 4200 5525 4200
Wire Wire Line
	5825 4000 5525 4000
Wire Wire Line
	5825 3800 5525 3800
Wire Wire Line
	8475 8175 8475 8275
Connection ~ 8475 8275
Wire Wire Line
	8475 8275 8475 8375
Connection ~ 8475 8375
Wire Wire Line
	8475 8375 8475 8475
Wire Wire Line
	5825 7800 5725 7800
Wire Wire Line
	5825 7900 5725 7900
Wire Wire Line
	5725 7900 5725 7800
Connection ~ 5725 7800
Wire Wire Line
	5725 7800 5525 7800
Wire Wire Line
	5725 7900 5725 8000
Wire Wire Line
	5725 8900 5825 8900
Connection ~ 5725 7900
Wire Wire Line
	5825 8800 5725 8800
Connection ~ 5725 8800
Wire Wire Line
	5725 8800 5725 8900
Wire Wire Line
	5825 8700 5725 8700
Connection ~ 5725 8700
Wire Wire Line
	5725 8700 5725 8800
Wire Wire Line
	5825 8600 5725 8600
Connection ~ 5725 8600
Wire Wire Line
	5725 8600 5725 8700
Wire Wire Line
	5825 8500 5725 8500
Connection ~ 5725 8500
Wire Wire Line
	5725 8500 5725 8600
Wire Wire Line
	5825 8400 5725 8400
Connection ~ 5725 8400
Wire Wire Line
	5725 8400 5725 8500
Wire Wire Line
	5825 8300 5725 8300
Connection ~ 5725 8300
Wire Wire Line
	5725 8300 5725 8400
Wire Wire Line
	5825 8200 5725 8200
Connection ~ 5725 8200
Wire Wire Line
	5725 8200 5725 8300
Wire Wire Line
	5825 8100 5725 8100
Connection ~ 5725 8100
Wire Wire Line
	5725 8100 5725 8200
Wire Wire Line
	5825 8000 5725 8000
Connection ~ 5725 8000
Wire Wire Line
	5725 8000 5725 8100
Text Label 5525 7800 2    50   ~ 0
VDD
Wire Wire Line
	11150 1325 11900 1325
$Comp
L Device:R R2
U 1 1 6247C3BD
P 12050 1325
F 0 "R2" V 11843 1325 50  0000 C CNN
F 1 "47K" V 11934 1325 50  0000 C CNN
F 2 "" V 11980 1325 50  0001 C CNN
F 3 "~" H 12050 1325 50  0001 C CNN
	1    12050 1325
	0    1    1    0   
$EndComp
$Comp
L mylib:SOT23 Q1
U 1 1 624C640E
P 12750 1325
F 0 "Q1" H 12938 1371 50  0000 L CNN
F 1 "SOT23" H 12938 1280 50  0000 L CNN
F 2 "" H 12950 1425 50  0001 C CNN
F 3 "~" H 12750 1325 50  0001 C CNN
	1    12750 1325
	1    0    0    -1  
$EndComp
Wire Wire Line
	12200 1325 12350 1325
$Comp
L Device:R R5
U 1 1 6250515B
P 12350 1650
F 0 "R5" H 12280 1604 50  0000 R CNN
F 1 "100K" H 12280 1695 50  0000 R CNN
F 2 "" V 12280 1650 50  0001 C CNN
F 3 "~" H 12350 1650 50  0001 C CNN
	1    12350 1650
	-1   0    0    1   
$EndComp
Wire Wire Line
	12350 1800 12850 1800
Wire Wire Line
	12850 1800 12850 1525
Wire Wire Line
	12350 1500 12350 1325
Connection ~ 12350 1325
Wire Wire Line
	12350 1325 12550 1325
Wire Wire Line
	12850 1125 12850 925 
$Comp
L power:Earth #PWR?
U 1 1 6252F7E0
P 12850 1925
AR Path="/61CA2AE0/6252F7E0" Ref="#PWR?"  Part="1" 
AR Path="/6252F7E0" Ref="#PWR011"  Part="1" 
F 0 "#PWR011" H 12850 1675 50  0001 C CNN
F 1 "Earth" H 12850 1775 50  0001 C CNN
F 2 "" H 12850 1925 50  0001 C CNN
F 3 "~" H 12850 1925 50  0001 C CNN
	1    12850 1925
	1    0    0    -1  
$EndComp
Wire Wire Line
	12850 1925 12850 1800
Connection ~ 12850 1800
Wire Wire Line
	11150 2650 11900 2650
$Comp
L Device:R R3
U 1 1 62540D32
P 12050 2650
F 0 "R3" V 11843 2650 50  0000 C CNN
F 1 "47K" V 11934 2650 50  0000 C CNN
F 2 "" V 11980 2650 50  0001 C CNN
F 3 "~" H 12050 2650 50  0001 C CNN
	1    12050 2650
	0    1    1    0   
$EndComp
$Comp
L mylib:SOT23 Q2
U 1 1 62540D38
P 12750 2650
F 0 "Q2" H 12938 2696 50  0000 L CNN
F 1 "SOT23" H 12938 2605 50  0000 L CNN
F 2 "" H 12950 2750 50  0001 C CNN
F 3 "~" H 12750 2650 50  0001 C CNN
	1    12750 2650
	1    0    0    -1  
$EndComp
Wire Wire Line
	12200 2650 12350 2650
$Comp
L Device:R R6
U 1 1 62540D3F
P 12350 2975
F 0 "R6" H 12280 2929 50  0000 R CNN
F 1 "100K" H 12280 3020 50  0000 R CNN
F 2 "" V 12280 2975 50  0001 C CNN
F 3 "~" H 12350 2975 50  0001 C CNN
	1    12350 2975
	-1   0    0    1   
$EndComp
Wire Wire Line
	12350 3125 12850 3125
Wire Wire Line
	12850 3125 12850 2850
Wire Wire Line
	12350 2825 12350 2650
Connection ~ 12350 2650
Wire Wire Line
	12350 2650 12550 2650
Wire Wire Line
	12850 2450 12850 2250
$Comp
L power:Earth #PWR?
U 1 1 62540D4B
P 12850 3250
AR Path="/61CA2AE0/62540D4B" Ref="#PWR?"  Part="1" 
AR Path="/62540D4B" Ref="#PWR012"  Part="1" 
F 0 "#PWR012" H 12850 3000 50  0001 C CNN
F 1 "Earth" H 12850 3100 50  0001 C CNN
F 2 "" H 12850 3250 50  0001 C CNN
F 3 "~" H 12850 3250 50  0001 C CNN
	1    12850 3250
	1    0    0    -1  
$EndComp
Wire Wire Line
	12850 3250 12850 3125
Connection ~ 12850 3125
Text Label 11150 1325 2    50   ~ 0
LD_RED
Text Label 11150 2650 2    50   ~ 0
LD_GREEN
$Comp
L Device:R R9
U 1 1 625594B1
P 14600 925
F 0 "R9" V 14393 925 50  0000 C CNN
F 1 "270R" V 14484 925 50  0000 C CNN
F 2 "" V 14530 925 50  0001 C CNN
F 3 "~" H 14600 925 50  0001 C CNN
	1    14600 925 
	0    1    1    0   
$EndComp
Wire Wire Line
	14225 925  14450 925 
Wire Wire Line
	14750 925  15250 925 
Text Label 15250 925  0    50   ~ 0
3V3
Text Label 8700 4000 0    50   ~ 0
LD_RED
Text Label 8700 2600 0    50   ~ 0
LD_GREEN
Text Label 8700 5600 0    50   ~ 0
BUTTON
Wire Wire Line
	11175 5175 11550 5175
$Comp
L Device:R R4
U 1 1 625955E4
P 12075 5175
F 0 "R4" V 11868 5175 50  0000 C CNN
F 1 "330R" V 11959 5175 50  0000 C CNN
F 2 "" V 12005 5175 50  0001 C CNN
F 3 "~" H 12075 5175 50  0001 C CNN
	1    12075 5175
	0    1    1    0   
$EndComp
$Comp
L Device:C C?
U 1 1 6259E1DE
P 11550 5675
AR Path="/61CA2AE0/6259E1DE" Ref="C?"  Part="1" 
AR Path="/6259E1DE" Ref="C10"  Part="1" 
F 0 "C10" H 11665 5721 50  0000 L CNN
F 1 "100nF" H 11665 5630 50  0000 L CNN
F 2 "" H 11588 5525 50  0001 C CNN
F 3 "~" H 11550 5675 50  0001 C CNN
	1    11550 5675
	1    0    0    -1  
$EndComp
$Comp
L Device:R R7
U 1 1 625A7424
P 12650 5700
F 0 "R7" H 12580 5654 50  0000 R CNN
F 1 "100K" H 12580 5745 50  0000 R CNN
F 2 "" V 12580 5700 50  0001 C CNN
F 3 "~" H 12650 5700 50  0001 C CNN
	1    12650 5700
	-1   0    0    1   
$EndComp
$Comp
L Switch:SW_Push SW2
U 1 1 61C61859
P 13350 4675
F 0 "SW2" V 13304 4823 50  0000 L CNN
F 1 "Switch" V 13395 4823 50  0000 L CNN
F 2 "" H 13350 4875 50  0001 C CNN
F 3 "~" H 13350 4875 50  0001 C CNN
	1    13350 4675
	0    1    1    0   
$EndComp
Wire Wire Line
	12650 5550 12650 5175
Wire Wire Line
	12650 5175 12225 5175
Wire Wire Line
	12650 5175 13350 5175
Wire Wire Line
	13350 4875 13350 5175
Connection ~ 12650 5175
Connection ~ 13350 5175
Wire Wire Line
	13350 5175 13350 5600
Wire Wire Line
	11550 5525 11550 5175
Connection ~ 11550 5175
Wire Wire Line
	11550 5175 11925 5175
$Comp
L power:Earth #PWR010
U 1 1 61CB49C5
P 12475 6275
F 0 "#PWR010" H 12475 6025 50  0001 C CNN
F 1 "Earth" H 12475 6125 50  0001 C CNN
F 2 "" H 12475 6275 50  0001 C CNN
F 3 "~" H 12475 6275 50  0001 C CNN
	1    12475 6275
	1    0    0    -1  
$EndComp
Wire Wire Line
	11550 5825 11550 6125
Wire Wire Line
	11550 6125 12475 6125
Wire Wire Line
	12475 6125 12475 6275
Wire Wire Line
	12650 5850 12650 6125
Wire Wire Line
	12650 6125 12475 6125
Connection ~ 12475 6125
Wire Wire Line
	13350 6125 12650 6125
Connection ~ 12650 6125
Text Label 11175 5175 2    50   ~ 0
BUTTON
Wire Wire Line
	13350 4475 13350 4250
Text Label 13350 4250 0    50   ~ 0
3V3
Wire Wire Line
	12850 2250 13850 2250
$Comp
L Device:R R8
U 1 1 61D05E4B
P 14525 2250
F 0 "R8" V 14318 2250 50  0000 C CNN
F 1 "270R" V 14409 2250 50  0000 C CNN
F 2 "" V 14455 2250 50  0001 C CNN
F 3 "~" H 14525 2250 50  0001 C CNN
	1    14525 2250
	0    1    1    0   
$EndComp
Wire Wire Line
	14150 2250 14375 2250
Wire Wire Line
	14675 2250 15175 2250
Text Label 15175 2250 0    50   ~ 0
3V3
Wire Wire Line
	12850 925  13925 925 
Wire Wire Line
	5825 7700 5525 7700
Text Label 5525 7700 2    50   ~ 0
VDDA
Text Label 5525 5200 2    50   ~ 0
OV2640_RESET(L2)
Wire Wire Line
	5825 5200 5525 5200
NoConn ~ 8325 6000
NoConn ~ 8325 6100
NoConn ~ 8325 6200
NoConn ~ 8325 6400
NoConn ~ 8325 6500
NoConn ~ 8325 6600
NoConn ~ 8325 6700
NoConn ~ 8325 6800
NoConn ~ 8325 6900
NoConn ~ 8325 7000
NoConn ~ 8325 7100
NoConn ~ 8325 7200
NoConn ~ 8325 7300
NoConn ~ 8325 7400
NoConn ~ 8325 7500
NoConn ~ 8325 5500
NoConn ~ 8325 5400
NoConn ~ 8325 5300
NoConn ~ 8325 4600
NoConn ~ 8325 4500
NoConn ~ 8325 4300
NoConn ~ 8325 4100
NoConn ~ 8325 3800
NoConn ~ 8325 3700
NoConn ~ 8325 3600
NoConn ~ 8325 3500
NoConn ~ 8325 3400
NoConn ~ 8325 3100
NoConn ~ 8325 3000
NoConn ~ 8325 2900
NoConn ~ 8325 2800
NoConn ~ 8325 2700
Text Label 5525 2350 2    50   ~ 0
3V3
Wire Wire Line
	5825 2350 5525 2350
Text Label 5525 2500 2    50   ~ 0
VDD
Wire Wire Line
	5825 2500 5525 2500
Text Label 5525 2200 2    50   ~ 0
3V3
Wire Wire Line
	5825 2200 5525 2200
Wire Wire Line
	5825 9000 5725 9000
Wire Wire Line
	5725 9000 5725 8900
Connection ~ 5725 8900
Wire Wire Line
	8475 7775 8475 7875
Connection ~ 8475 7875
Wire Wire Line
	8475 7875 8475 7975
$Comp
L power:Earth #PWR06
U 1 1 61FB2A86
P 5650 1275
F 0 "#PWR06" H 5650 1025 50  0001 C CNN
F 1 "Earth" H 5650 1125 50  0001 C CNN
F 2 "" H 5650 1275 50  0001 C CNN
F 3 "~" H 5650 1275 50  0001 C CNN
	1    5650 1275
	1    0    0    -1  
$EndComp
Wire Wire Line
	5825 1200 5650 1200
Wire Wire Line
	5650 1200 5650 1275
Wire Wire Line
	5825 1000 5650 1000
Wire Wire Line
	5650 1000 5650 1200
Connection ~ 5650 1200
$Comp
L Switch:SW_Push SW1
U 1 1 6200EA42
P 3600 850
F 0 "SW1" V 3554 802 50  0000 R CNN
F 1 "Switch" V 3645 802 50  0000 R CNN
F 2 "" H 3600 1050 50  0001 C CNN
F 3 "~" H 3600 1050 50  0001 C CNN
	1    3600 850 
	0    -1   1    0   
$EndComp
Wire Wire Line
	3600 1050 3600 1225
Wire Wire Line
	3600 1225 4175 1225
Wire Wire Line
	3600 650  3600 475 
Wire Wire Line
	3600 475  4175 475 
Wire Wire Line
	4175 475  4175 725 
$Comp
L Device:C C?
U 1 1 620560D3
P 5025 875
AR Path="/61CA2AE0/620560D3" Ref="C?"  Part="1" 
AR Path="/620560D3" Ref="C6"  Part="1" 
F 0 "C6" H 5140 921 50  0000 L CNN
F 1 "100nF" H 5140 830 50  0000 L CNN
F 2 "" H 5063 725 50  0001 C CNN
F 3 "~" H 5025 875 50  0001 C CNN
	1    5025 875 
	1    0    0    -1  
$EndComp
$Comp
L power:Earth #PWR?
U 1 1 62062364
P 4175 1300
AR Path="/61CA2AE0/62062364" Ref="#PWR?"  Part="1" 
AR Path="/62062364" Ref="#PWR04"  Part="1" 
F 0 "#PWR04" H 4175 1050 50  0001 C CNN
F 1 "Earth" H 4175 1150 50  0001 C CNN
F 2 "" H 4175 1300 50  0001 C CNN
F 3 "~" H 4175 1300 50  0001 C CNN
	1    4175 1300
	1    0    0    -1  
$EndComp
Wire Wire Line
	4175 1225 4175 1300
Connection ~ 4175 1225
Wire Wire Line
	5025 1025 5025 1225
Wire Wire Line
	5025 475  5025 725 
Connection ~ 4175 475 
Wire Wire Line
	5375 475  5375 900 
Wire Wire Line
	5375 900  5825 900 
Wire Wire Line
	5375 475  5775 475 
Connection ~ 5375 475 
Text Label 5775 475  0    50   ~ 0
NRST(L3)
NoConn ~ 8325 1200
NoConn ~ 8325 900 
NoConn ~ 8325 1700
NoConn ~ 8325 1800
NoConn ~ 8325 1900
NoConn ~ 8325 2000
NoConn ~ 8325 2100
NoConn ~ 8325 2200
NoConn ~ 8325 2300
NoConn ~ 8325 2400
NoConn ~ 5825 7500
NoConn ~ 5825 7400
NoConn ~ 5825 7300
NoConn ~ 5825 7200
NoConn ~ 5825 7100
NoConn ~ 5825 7000
NoConn ~ 5825 6900
NoConn ~ 5825 6800
NoConn ~ 5825 6700
NoConn ~ 5825 6300
NoConn ~ 5825 6200
NoConn ~ 5825 6100
NoConn ~ 5825 6000
NoConn ~ 5825 5750
NoConn ~ 5825 5650
NoConn ~ 5825 5500
NoConn ~ 5825 5400
NoConn ~ 5825 5300
NoConn ~ 5825 5100
NoConn ~ 5825 5000
NoConn ~ 5825 4400
NoConn ~ 5825 4300
NoConn ~ 5825 4100
NoConn ~ 5825 3900
NoConn ~ 5825 3700
NoConn ~ 5825 3600
NoConn ~ 5825 3500
NoConn ~ 5825 3400
NoConn ~ 5825 3300
NoConn ~ 5825 3200
NoConn ~ 5825 3100
NoConn ~ 5825 3000
NoConn ~ 5825 2900
NoConn ~ 5825 2650
NoConn ~ 5825 2000
NoConn ~ 5825 1900
NoConn ~ 5825 1800
NoConn ~ 5825 1600
NoConn ~ 5825 1500
NoConn ~ 5825 1400
$Comp
L mylib:Micro-USB XP1
U 1 1 624EBD58
P 3900 2125
F 0 "XP1" H 3958 2540 50  0000 C CNN
F 1 "Micro-USB" H 3958 2449 50  0000 C CNN
F 2 "" H 3900 2425 50  0001 C CNN
F 3 "" H 3900 2425 50  0001 C CNN
	1    3900 2125
	1    0    0    -1  
$EndComp
Wire Wire Line
	4400 2025 4625 2025
Wire Wire Line
	4625 1725 4625 2025
Text Label 4625 1725 0    50   ~ 0
VDD
Wire Wire Line
	4400 6725 4400 6375
Wire Notes Line
	10525 3500 15750 3500
Wire Notes Line
	15750 3500 15750 475 
Wire Notes Line
	15750 475  10525 475 
Wire Notes Line
	10525 475  10525 3500
Wire Notes Line
	10525 4000 15750 4000
Wire Notes Line
	15750 4000 15750 6500
Wire Notes Line
	15750 6500 10525 6500
Wire Notes Line
	10525 6500 10525 4000
$Comp
L power:Earth #PWR05
U 1 1 61DFEB4D
P 4650 2425
F 0 "#PWR05" H 4650 2175 50  0001 C CNN
F 1 "Earth" H 4650 2275 50  0001 C CNN
F 2 "" H 4650 2425 50  0001 C CNN
F 3 "~" H 4650 2425 50  0001 C CNN
	1    4650 2425
	1    0    0    -1  
$EndComp
Wire Wire Line
	4400 2325 4650 2325
Wire Wire Line
	4650 2325 4650 2425
$Comp
L mylib:NX3215SA_32KHz X1
U 1 1 61F61C0C
P 3050 4875
F 0 "X1" H 3278 4871 50  0000 L CNN
F 1 "NX2016SA_25MHz" H 3278 4780 50  0000 L CNN
F 2 "" H 3300 4875 50  0001 C CNN
F 3 "" H 3300 4875 50  0001 C CNN
	1    3050 4875
	-1   0    0    1   
$EndComp
$Comp
L Device:C C?
U 1 1 61F61C12
P 1900 5325
AR Path="/61CA2AE0/61F61C12" Ref="C?"  Part="1" 
AR Path="/61F61C12" Ref="C3"  Part="1" 
F 0 "C3" V 1750 5275 50  0000 L CNN
F 1 "5.1pF" V 2050 5225 50  0000 L CNN
F 2 "" H 1938 5175 50  0001 C CNN
F 3 "~" H 1900 5325 50  0001 C CNN
	1    1900 5325
	0    -1   -1   0   
$EndComp
$Comp
L Device:C C?
U 1 1 61F61C18
P 1900 4325
AR Path="/61CA2AE0/61F61C18" Ref="C?"  Part="1" 
AR Path="/61F61C18" Ref="C2"  Part="1" 
F 0 "C2" V 1750 4275 50  0000 L CNN
F 1 "5.1pF" V 2050 4225 50  0000 L CNN
F 2 "" H 1938 4175 50  0001 C CNN
F 3 "~" H 1900 4325 50  0001 C CNN
	1    1900 4325
	0    -1   -1   0   
$EndComp
$Comp
L power:Earth #PWR01
U 1 1 61F61C1E
P 1325 4325
F 0 "#PWR01" H 1325 4075 50  0001 C CNN
F 1 "Earth" H 1325 4175 50  0001 C CNN
F 2 "" H 1325 4325 50  0001 C CNN
F 3 "~" H 1325 4325 50  0001 C CNN
	1    1325 4325
	0    1    -1   0   
$EndComp
$Comp
L power:Earth #PWR02
U 1 1 61F61C24
P 1325 5325
F 0 "#PWR02" H 1325 5075 50  0001 C CNN
F 1 "Earth" H 1325 5175 50  0001 C CNN
F 2 "" H 1325 5325 50  0001 C CNN
F 3 "~" H 1325 5325 50  0001 C CNN
	1    1325 5325
	0    1    -1   0   
$EndComp
Wire Wire Line
	1325 4325 1750 4325
Wire Wire Line
	1325 5325 1750 5325
Wire Wire Line
	2050 4325 3050 4325
Wire Wire Line
	3050 4325 3050 4575
Wire Wire Line
	2050 5325 3050 5325
Wire Wire Line
	3050 5325 3050 5075
Text Notes 10600 4150 0    89   ~ 0
Пользовательская кнопка 
Text Notes 10575 625  0    89   ~ 0
Пользовательские красная и зеленая LED
Wire Wire Line
	8325 9075 8475 9075
Wire Wire Line
	8325 8975 8475 8975
Wire Wire Line
	8325 8875 8475 8875
Wire Wire Line
	8325 8775 8475 8775
Wire Wire Line
	8325 8675 8475 8675
Wire Wire Line
	8325 8575 8475 8575
Wire Wire Line
	8325 8475 8475 8475
Wire Wire Line
	8325 8375 8475 8375
Wire Wire Line
	8325 8275 8475 8275
Wire Wire Line
	8325 8175 8475 8175
Wire Wire Line
	8325 8075 8475 8075
Wire Wire Line
	8325 7975 8475 7975
Wire Wire Line
	8325 7875 8475 7875
Wire Wire Line
	8325 7775 8475 7775
Wire Wire Line
	8575 7675 8325 7675
Wire Wire Line
	8325 6300 8700 6300
Wire Wire Line
	8325 5600 8700 5600
Wire Wire Line
	8325 5200 8700 5200
Wire Wire Line
	8325 5100 8700 5100
Wire Wire Line
	8325 5000 8700 5000
Wire Wire Line
	8325 4900 8700 4900
Wire Wire Line
	8325 4800 8700 4800
Wire Wire Line
	8325 4700 8700 4700
Wire Wire Line
	8325 4400 8700 4400
Wire Wire Line
	8325 4000 8700 4000
Wire Wire Line
	8325 3900 8700 3900
Wire Wire Line
	8325 3300 8700 3300
Wire Wire Line
	8325 3200 8700 3200
Wire Wire Line
	8325 2600 8700 2600
Wire Wire Line
	8325 1600 8700 1600
Wire Wire Line
	8325 1500 8700 1500
Wire Wire Line
	8325 1300 8700 1300
Wire Wire Line
	8325 1100 8700 1100
Wire Wire Line
	8325 1000 8700 1000
$Comp
L stm32h745zit6u:STM32H745ZIT6U DD1
U 1 1 61C4AD15
P 7125 4200
F 0 "DD1" H 6075 7650 50  0000 C CNN
F 1 "STM32H745ZIT6U" H 8125 7650 50  0000 C CNN
F 2 "Package_QFP:LQFP-144_20x20mm_P0.5mm" H 6025 800 50  0001 R CNN
F 3 "http://www.st.com/st-web-ui/static/active/en/resource/technical/document/datasheet/DM00387108.pdf" H 7125 4200 50  0001 C CNN
	1    7125 4200
	1    0    0    -1  
$EndComp
Connection ~ 3050 4325
Connection ~ 3050 5325
Wire Wire Line
	4525 5325 4525 4750
Wire Wire Line
	4525 4750 5825 4750
Wire Wire Line
	3050 5325 4525 5325
Wire Wire Line
	4525 4650 4525 4325
Wire Wire Line
	4525 4650 5825 4650
Wire Wire Line
	3050 4325 4525 4325
NoConn ~ 8325 5800
NoConn ~ 8325 5700
Wire Wire Line
	4200 6725 4200 6825
Wire Wire Line
	4100 6825 4200 6825
Connection ~ 4200 6825
Wire Wire Line
	4200 6825 4200 7075
Wire Wire Line
	4200 6725 4100 6725
Connection ~ 4200 6725
NoConn ~ 4100 6925
$Comp
L Device:LED D2
U 1 1 61D2A287
P 14000 2250
F 0 "D2" H 13993 2467 50  0000 C CNN
F 1 "LED" H 13993 2376 50  0000 C CNN
F 2 "" H 14000 2250 50  0001 C CNN
F 3 "~" H 14000 2250 50  0001 C CNN
	1    14000 2250
	1    0    0    -1  
$EndComp
$Comp
L Device:LED D3
U 1 1 61D589D6
P 14075 925
F 0 "D3" H 14068 1142 50  0000 C CNN
F 1 "LED" H 14068 1051 50  0000 C CNN
F 2 "" H 14075 925 50  0001 C CNN
F 3 "~" H 14075 925 50  0001 C CNN
	1    14075 925 
	1    0    0    -1  
$EndComp
$Comp
L mylib:ESDALC6V1-IU2 DD5
U 1 1 61E29BE4
P 13350 5825
F 0 "DD5" H 13428 5884 50  0000 L CNN
F 1 "ESDALC6V1-IU2" H 13428 5793 50  0000 L CNN
F 2 "" H 13350 5600 50  0001 C CNN
F 3 "" H 13350 5600 50  0001 C CNN
	1    13350 5825
	1    0    0    -1  
$EndComp
Wire Wire Line
	13350 6125 13350 6025
$Comp
L mylib:ESDALC6V1-IU2 DD4
U 1 1 61E49819
P 4175 950
F 0 "DD4" H 4253 1009 50  0000 L CNN
F 1 "ESDALC6V1-IU2" H 4253 918 50  0000 L CNN
F 2 "" H 4175 725 50  0001 C CNN
F 3 "" H 4175 725 50  0001 C CNN
	1    4175 950 
	1    0    0    -1  
$EndComp
Wire Wire Line
	4175 1150 4175 1225
Connection ~ 5025 475 
Wire Wire Line
	5025 475  5375 475 
Wire Wire Line
	4175 475  5025 475 
Wire Wire Line
	4175 1225 5025 1225
Wire Notes Line
	19700 4350 19675 4350
$EndSCHEMATC
