EESchema Schematic File Version 4
EELAYER 30 0
EELAYER END
$Descr A3 16535 11693
encoding utf-8
Sheet 1 1
Title "Лабораторная 4"
Date ""
Rev ""
Comp ""
Comment1 ""
Comment2 "Межанскас Д."
Comment3 ""
Comment4 ""
$EndDescr
NoConn ~ 7500 5450
NoConn ~ 7500 5350
NoConn ~ 7500 5250
$Comp
L Device:LED D1
U 1 1 61A3E151
P 11750 2050
F 0 "D1" V 11789 1932 50  0000 R CNN
F 1 "100м" V 11698 1932 50  0000 R CNN
F 2 "LED_THT:LED_D3.0mm" H 11750 2050 50  0001 C CNN
F 3 "~" H 11750 2050 50  0001 C CNN
	1    11750 2050
	0    -1   -1   0   
$EndComp
$Comp
L Device:LED D2
U 1 1 61A3F262
P 12200 2050
F 0 "D2" V 12239 1932 50  0000 R CNN
F 1 "400м" V 12148 1932 50  0000 R CNN
F 2 "LED_THT:LED_D3.0mm" H 12200 2050 50  0001 C CNN
F 3 "~" H 12200 2050 50  0001 C CNN
	1    12200 2050
	0    -1   -1   0   
$EndComp
$Comp
L Device:LED D3
U 1 1 61A3F61A
P 12650 2050
F 0 "D3" V 12689 1932 50  0000 R CNN
F 1 "1500м" V 12598 1932 50  0000 R CNN
F 2 "LED_THT:LED_D3.0mm" H 12650 2050 50  0001 C CNN
F 3 "~" H 12650 2050 50  0001 C CNN
	1    12650 2050
	0    -1   -1   0   
$EndComp
$Comp
L power:GND #PWR011
U 1 1 61A3FFDA
P 12200 2400
F 0 "#PWR011" H 12200 2150 50  0001 C CNN
F 1 "GND" H 12205 2227 50  0000 C CNN
F 2 "" H 12200 2400 50  0001 C CNN
F 3 "" H 12200 2400 50  0001 C CNN
	1    12200 2400
	1    0    0    -1  
$EndComp
$Comp
L power:GND #PWR08
U 1 1 61A46592
P 8100 6400
F 0 "#PWR08" H 8100 6150 50  0001 C CNN
F 1 "GND" H 8105 6227 50  0000 C CNN
F 2 "" H 8100 6400 50  0001 C CNN
F 3 "" H 8100 6400 50  0001 C CNN
	1    8100 6400
	1    0    0    -1  
$EndComp
$Comp
L Device:Crystal Y1
U 1 1 61A0E924
P 6700 3400
F 0 "Y1" H 6700 3668 50  0000 C CNN
F 1 "8MHz" H 6700 3577 50  0000 C CNN
F 2 "Crystal:Crystal_AT310_D3.0mm_L10.0mm_Horizontal" H 6700 3400 50  0001 C CNN
F 3 "~" H 6700 3400 50  0001 C CNN
	1    6700 3400
	1    0    0    -1  
$EndComp
$Comp
L power:GND #PWR07
U 1 1 61A1B8BD
P 6700 4050
F 0 "#PWR07" H 6700 3800 50  0001 C CNN
F 1 "GND" H 6705 3877 50  0000 C CNN
F 2 "" H 6700 4050 50  0001 C CNN
F 3 "" H 6700 4050 50  0001 C CNN
	1    6700 4050
	1    0    0    -1  
$EndComp
$Comp
L Display_Character:LM16255K U3
U 1 1 61A312A8
P 9800 4550
F 0 "U3" H 9550 5200 50  0000 L CNN
F 1 "LM16255K" H 9850 5200 50  0000 L CNN
F 2 "Display:LM16255" H 9800 3750 50  0001 C CNN
F 3 "http://pdf.datasheetcatalog.com/datasheet/Sharp/mXvtrzw.pdf" H 9900 4450 50  0001 C CNN
	1    9800 4550
	1    0    0    -1  
$EndComp
$Comp
L power:+5V #PWR09
U 1 1 61A12521
P 8100 1700
F 0 "#PWR09" H 8100 1550 50  0001 C CNN
F 1 "+5V" H 8115 1873 50  0000 C CNN
F 2 "" H 8100 1700 50  0001 C CNN
F 3 "" H 8100 1700 50  0001 C CNN
	1    8100 1700
	-1   0    0    -1  
$EndComp
NoConn ~ 8700 3850
$Comp
L MCU_Microchip_ATmega:ATmega8515-16PU U2
U 1 1 61A0C5DA
P 8100 4250
F 0 "U2" H 7700 6200 50  0000 C CNN
F 1 "ATmega8515-16PU" H 8500 6200 50  0000 C CNN
F 2 "Package_DIP:DIP-40_W15.24mm" H 8100 4250 50  0001 C CIN
F 3 "http://ww1.microchip.com/downloads/en/DeviceDoc/doc2512.pdf" H 8100 4250 50  0001 C CNN
	1    8100 4250
	1    0    0    -1  
$EndComp
$Comp
L Interface_USB:FT232RL U1
U 1 1 61BA718A
P 3050 8750
F 0 "U1" H 3600 9650 50  0000 C CNN
F 1 "FT232RL" H 2550 9650 50  0000 C CNN
F 2 "Package_SO:SSOP-28_5.3x10.2mm_P0.65mm" H 4150 7850 50  0001 C CNN
F 3 "https://www.ftdichip.com/Support/Documents/DataSheets/ICs/DS_FT232R.pdf" H 3050 8750 50  0001 C CNN
	1    3050 8750
	-1   0    0    -1  
$EndComp
$Comp
L Connector:USB_A J1
U 1 1 61A58316
P 5100 7300
F 0 "J1" H 5157 7767 50  0000 C CNN
F 1 "USB_A" H 5157 7676 50  0000 C CNN
F 2 "Connector_USB:USB3_A_Molex_48393-001" H 5250 7250 50  0001 C CNN
F 3 " ~" H 5250 7250 50  0001 C CNN
	1    5100 7300
	-1   0    0    -1  
$EndComp
$Comp
L Device:C C1
U 1 1 61BC8544
P 4250 8050
F 0 "C1" V 3998 8050 50  0000 C CNN
F 1 "100nF" V 4089 8050 50  0000 C CNN
F 2 "Capacitor_SMD:C_0201_0603Metric" H 4288 7900 50  0001 C CNN
F 3 "~" H 4250 8050 50  0001 C CNN
	1    4250 8050
	0    1    1    0   
$EndComp
$Comp
L power:GND #PWR04
U 1 1 61BD77DB
P 4500 8100
F 0 "#PWR04" H 4500 7850 50  0001 C CNN
F 1 "GND" H 4505 7927 50  0000 C CNN
F 2 "" H 4500 8100 50  0001 C CNN
F 3 "" H 4500 8100 50  0001 C CNN
	1    4500 8100
	1    0    0    -1  
$EndComp
$Comp
L power:GND #PWR01
U 1 1 61BDF873
P 3000 9950
F 0 "#PWR01" H 3000 9700 50  0001 C CNN
F 1 "GND" H 3005 9777 50  0000 C CNN
F 2 "" H 3000 9950 50  0001 C CNN
F 3 "" H 3000 9950 50  0001 C CNN
	1    3000 9950
	1    0    0    -1  
$EndComp
NoConn ~ 3850 9150
NoConn ~ 3850 8950
NoConn ~ 2250 9450
NoConn ~ 2250 9350
NoConn ~ 2250 9250
$Comp
L power:GND #PWR06
U 1 1 61AF4670
P 5150 7850
F 0 "#PWR06" H 5150 7600 50  0001 C CNN
F 1 "GND" H 5155 7677 50  0000 C CNN
F 2 "" H 5150 7850 50  0001 C CNN
F 3 "" H 5150 7850 50  0001 C CNN
	1    5150 7850
	1    0    0    -1  
$EndComp
Text Label 9100 2950 2    50   ~ 0
100м
Text Label 9100 3050 2    50   ~ 0
400м
Text Label 9100 3150 2    50   ~ 0
1500м
Text Label 11550 1300 0    50   ~ 0
100м
Text Label 12000 1150 0    50   ~ 0
400м
Text Label 12450 1000 0    50   ~ 0
1500м
Text Label 9100 3950 2    50   ~ 0
MOSI
Text Label 9100 4050 2    50   ~ 0
MISO
Text Label 9100 4150 2    50   ~ 0
SCK
Text Label 4400 7300 0    50   ~ 0
D+
Text Label 4400 7400 0    50   ~ 0
D-
Text Label 1850 8050 0    50   ~ 0
RXD
Text Label 1850 8150 0    50   ~ 0
TXD
Text Label 9100 5250 2    50   ~ 0
RXD
Text Label 9100 5350 2    50   ~ 0
TXD
Text Label 4250 8450 2    50   ~ 0
D-
Text Label 4250 8350 2    50   ~ 0
D+
Text Label 4250 8750 2    50   ~ 0
RST
NoConn ~ 2250 9150
NoConn ~ 2250 9050
NoConn ~ 2250 8750
NoConn ~ 2250 8650
NoConn ~ 2250 8550
NoConn ~ 2250 8350
NoConn ~ 2250 8250
NoConn ~ 8700 5450
NoConn ~ 8700 5550
NoConn ~ 8700 5650
NoConn ~ 8700 5750
NoConn ~ 8700 5850
NoConn ~ 8700 5950
NoConn ~ 2250 8450
NoConn ~ 8700 3250
$Comp
L power:PWR_FLAG #FLG0102
U 1 1 61AECC8E
P 3000 5300
F 0 "#FLG0102" H 3000 5375 50  0001 C CNN
F 1 "PWR_FLAG" H 3000 5473 50  0000 C CNN
F 2 "" H 3000 5300 50  0001 C CNN
F 3 "~" H 3000 5300 50  0001 C CNN
	1    3000 5300
	1    0    0    -1  
$EndComp
$Comp
L power:GND #PWR0101
U 1 1 61AED25F
P 3000 5550
F 0 "#PWR0101" H 3000 5300 50  0001 C CNN
F 1 "GND" H 3005 5377 50  0000 C CNN
F 2 "" H 3000 5550 50  0001 C CNN
F 3 "" H 3000 5550 50  0001 C CNN
	1    3000 5550
	1    0    0    -1  
$EndComp
Wire Wire Line
	8100 6400 8100 6250
Wire Wire Line
	9250 4250 9250 3750
Wire Wire Line
	9250 3750 8700 3750
Wire Wire Line
	7150 3550 7150 3400
Wire Wire Line
	7150 3400 6850 3400
Wire Wire Line
	6550 3400 6200 3400
Wire Wire Line
	6200 3400 6200 3550
Wire Wire Line
	7500 2950 7150 2950
Wire Wire Line
	7150 2950 7150 3400
Connection ~ 7150 3400
Wire Wire Line
	7500 2750 6200 2750
Wire Wire Line
	6200 2750 6200 3400
Connection ~ 6200 3400
Wire Wire Line
	7150 3850 7150 4000
Wire Wire Line
	7150 4000 6700 4000
Wire Wire Line
	6700 4000 6700 4050
Wire Wire Line
	6200 3850 6200 4000
Wire Wire Line
	6200 4000 6700 4000
Connection ~ 6700 4000
Wire Wire Line
	9500 1950 9200 1950
Wire Wire Line
	9900 1950 10300 1950
Wire Wire Line
	10300 1950 10300 2400
Wire Wire Line
	10300 1500 10300 1950
Connection ~ 10300 1950
Connection ~ 10300 2400
Wire Wire Line
	9900 1500 10300 1500
Wire Wire Line
	9400 4250 9250 4250
Wire Wire Line
	9300 3650 8700 3650
Wire Wire Line
	9300 4150 9300 3650
Wire Wire Line
	9400 4150 9300 4150
Wire Wire Line
	9350 4050 9400 4050
Wire Wire Line
	9350 3550 9350 4050
Wire Wire Line
	8700 3550 9350 3550
Wire Wire Line
	8700 5050 9400 5050
Wire Wire Line
	8700 4950 9400 4950
Wire Wire Line
	8700 4850 9400 4850
Wire Wire Line
	8700 4750 9400 4750
Wire Wire Line
	8700 4650 9400 4650
Wire Wire Line
	8700 4550 9400 4550
Wire Wire Line
	8700 4450 9400 4450
Wire Wire Line
	8700 4350 9400 4350
Connection ~ 10300 2850
Wire Wire Line
	10300 2400 10300 2850
Wire Wire Line
	9900 2400 10300 2400
Wire Wire Line
	10300 2850 10300 3450
Wire Wire Line
	9900 2850 10300 2850
Wire Wire Line
	10300 3450 9900 3450
Wire Wire Line
	8700 3450 9500 3450
Wire Wire Line
	9250 2750 8700 2750
Wire Wire Line
	9250 2400 9250 2750
Wire Wire Line
	9500 2400 9250 2400
Wire Wire Line
	9200 2650 8700 2650
Wire Wire Line
	9200 1950 9200 2650
Wire Wire Line
	9150 1500 9500 1500
Wire Wire Line
	9150 2550 9150 1500
Wire Wire Line
	8700 2550 9150 2550
Wire Wire Line
	4500 8100 4500 8050
Wire Wire Line
	4500 8050 4400 8050
Wire Wire Line
	3000 9950 3000 9900
Wire Wire Line
	3000 9900 2950 9900
Wire Wire Line
	2850 9900 2850 9750
Wire Wire Line
	2950 9750 2950 9900
Connection ~ 2950 9900
Wire Wire Line
	2950 9900 2850 9900
Wire Wire Line
	3050 9750 3050 9900
Wire Wire Line
	3050 9900 3000 9900
Connection ~ 3000 9900
Wire Wire Line
	3250 9750 3250 9900
Wire Wire Line
	3250 9900 3050 9900
Connection ~ 3050 9900
Wire Wire Line
	3850 9450 3900 9450
Wire Wire Line
	3900 9450 3900 9900
Wire Wire Line
	3900 9900 3250 9900
Connection ~ 3250 9900
Wire Wire Line
	5150 7850 5150 7750
Wire Wire Line
	5150 7750 5100 7750
Wire Wire Line
	5100 7750 5100 7700
Wire Wire Line
	5200 7700 5200 7750
Wire Wire Line
	5200 7750 5150 7750
Connection ~ 5150 7750
Wire Wire Line
	8700 2950 9100 2950
Wire Wire Line
	8700 3050 9100 3050
Wire Wire Line
	8700 3150 9100 3150
Wire Wire Line
	12200 1150 12000 1150
Wire Wire Line
	12650 1000 12450 1000
Wire Wire Line
	11550 1300 11750 1300
Wire Wire Line
	8700 3950 9100 3950
Wire Wire Line
	8700 4050 9100 4050
Wire Wire Line
	8700 4150 9100 4150
Wire Wire Line
	9100 5250 8700 5250
Wire Wire Line
	9100 5350 8700 5350
Wire Wire Line
	2250 8050 1850 8050
Wire Wire Line
	2250 8150 1850 8150
Wire Wire Line
	4400 7300 4800 7300
Wire Wire Line
	4400 7400 4800 7400
Wire Wire Line
	3850 8450 4250 8450
Wire Wire Line
	3850 8350 4250 8350
Wire Wire Line
	3850 8750 4250 8750
Wire Wire Line
	12200 2300 12200 2200
Wire Wire Line
	11750 2200 11750 2300
Wire Wire Line
	11750 2300 12200 2300
Wire Wire Line
	12650 2200 12650 2300
Connection ~ 12200 2300
Wire Wire Line
	12650 2300 12200 2300
Wire Wire Line
	12200 2400 12200 2300
Wire Wire Line
	3000 5550 3000 5300
Wire Wire Line
	3850 8050 4100 8050
Wire Wire Line
	3150 7100 3150 7750
Wire Wire Line
	2950 7750 2950 7100
Wire Wire Line
	2950 7100 3150 7100
Connection ~ 3150 7100
Wire Wire Line
	4450 5400 4450 5300
Wire Wire Line
	4450 5300 4350 5300
$Comp
L power:+5V #PWR02
U 1 1 61B86987
P 3150 6950
F 0 "#PWR02" H 3150 6800 50  0001 C CNN
F 1 "+5V" H 3165 7123 50  0000 C CNN
F 2 "" H 3150 6950 50  0001 C CNN
F 3 "" H 3150 6950 50  0001 C CNN
	1    3150 6950
	-1   0    0    -1  
$EndComp
Wire Wire Line
	3150 6950 3150 7100
Wire Wire Line
	4800 7100 3150 7100
$Comp
L Device:C C4
U 1 1 61A0FEF8
P 6200 3700
F 0 "C4" H 6315 3746 50  0000 L CNN
F 1 "22pF" H 6315 3655 50  0000 L CNN
F 2 "Capacitor_SMD:C_0201_0603Metric" H 6238 3550 50  0001 C CNN
F 3 "~" H 6200 3700 50  0001 C CNN
	1    6200 3700
	1    0    0    -1  
$EndComp
$Comp
L Device:C C5
U 1 1 61A10384
P 7150 3700
F 0 "C5" H 7265 3746 50  0000 L CNN
F 1 "22pF" H 7265 3655 50  0000 L CNN
F 2 "Capacitor_SMD:C_0201_0603Metric" H 7188 3550 50  0001 C CNN
F 3 "~" H 7150 3700 50  0001 C CNN
	1    7150 3700
	1    0    0    -1  
$EndComp
$Comp
L myLib:GOST_MYCONN3 J3
U 1 1 61B426BF
P 3950 5200
F 0 "J3" H 3958 5515 50  0000 C CNN
F 1 "GOST_MYCONN3" H 3958 5424 50  0000 C CNN
F 2 "Connector:Banana_Jack_2Pin" H 3950 5000 50  0001 C CNN
F 3 "" H 3950 5000 50  0001 C CNN
	1    3950 5200
	1    0    0    -1  
$EndComp
$Comp
L Device:CP C3
U 1 1 61B60548
P 5750 5500
F 0 "C3" H 5868 5546 50  0000 L CNN
F 1 "10uF" H 5868 5455 50  0000 L CNN
F 2 "Capacitor_SMD:CP_Elec_3x5.3" H 5788 5350 50  0001 C CNN
F 3 "~" H 5750 5500 50  0001 C CNN
	1    5750 5500
	1    0    0    -1  
$EndComp
Wire Wire Line
	5000 5200 4850 5200
$Comp
L Regulator_Linear:NCP1117-5.0_SOT223 U4
U 1 1 61B49328
P 5300 5200
F 0 "U4" H 5300 5442 50  0000 C CNN
F 1 "NCP1117-5.0_SOT223" H 5300 5351 50  0000 C CNN
F 2 "Package_TO_SOT_SMD:SOT-223-3_TabPin2" H 5300 5400 50  0001 C CNN
F 3 "http://www.onsemi.com/pub_link/Collateral/NCP1117-D.PDF" H 5400 4950 50  0001 C CNN
	1    5300 5200
	1    0    0    -1  
$EndComp
Wire Wire Line
	6100 5200 5750 5200
Wire Wire Line
	6100 5100 6100 5200
$Comp
L power:GND #PWR05
U 1 1 61AEF460
P 4450 5400
F 0 "#PWR05" H 4450 5150 50  0001 C CNN
F 1 "GND" H 4455 5227 50  0000 C CNN
F 2 "" H 4450 5400 50  0001 C CNN
F 3 "" H 4450 5400 50  0001 C CNN
	1    4450 5400
	1    0    0    -1  
$EndComp
$Comp
L power:+5V #PWR03
U 1 1 61AEEBCF
P 6100 5100
F 0 "#PWR03" H 6100 4950 50  0001 C CNN
F 1 "+5V" H 6115 5273 50  0000 C CNN
F 2 "" H 6100 5100 50  0001 C CNN
F 3 "" H 6100 5100 50  0001 C CNN
	1    6100 5100
	-1   0    0    -1  
$EndComp
$Comp
L power:GND #PWR012
U 1 1 61B7C3FA
P 5300 5850
F 0 "#PWR012" H 5300 5600 50  0001 C CNN
F 1 "GND" H 5305 5677 50  0000 C CNN
F 2 "" H 5300 5850 50  0001 C CNN
F 3 "" H 5300 5850 50  0001 C CNN
	1    5300 5850
	1    0    0    -1  
$EndComp
Wire Wire Line
	5750 5650 5750 5700
Wire Wire Line
	5750 5700 5300 5700
Wire Wire Line
	5300 5700 5300 5850
Wire Wire Line
	4850 5650 4850 5700
Wire Wire Line
	4850 5700 5300 5700
Connection ~ 5300 5700
Wire Wire Line
	5300 5500 5300 5700
Wire Wire Line
	5750 5350 5750 5200
Connection ~ 5750 5200
Wire Wire Line
	5750 5200 5600 5200
Wire Wire Line
	4850 5350 4850 5200
Connection ~ 4850 5200
$Comp
L Switch:SW_Push SW1
U 1 1 61BD0AC8
P 6200 2550
F 0 "SW1" H 6200 2835 50  0000 C CNN
F 1 "Reset" H 6200 2744 50  0000 C CNN
F 2 "Button_Switch_SMD:SW_SPST_Omron_B3FS-100xP" H 6200 2750 50  0001 C CNN
F 3 "~" H 6200 2750 50  0001 C CNN
	1    6200 2550
	1    0    0    -1  
$EndComp
$Comp
L Switch:SW_Push SW2
U 1 1 61BEF6DF
P 9700 1500
F 0 "SW2" H 9700 1785 50  0000 C CNN
F 1 "Старт" H 9700 1694 50  0000 C CNN
F 2 "Button_Switch_SMD:SW_SPST_Omron_B3FS-100xP" H 9700 1700 50  0001 C CNN
F 3 "~" H 9700 1700 50  0001 C CNN
	1    9700 1500
	1    0    0    -1  
$EndComp
$Comp
L Switch:SW_Push SW3
U 1 1 61BF015D
P 9700 1950
F 0 "SW3" H 9700 2235 50  0000 C CNN
F 1 "Показать" H 9700 2144 50  0000 C CNN
F 2 "Button_Switch_SMD:SW_SPST_Omron_B3FS-100xP" H 9700 2150 50  0001 C CNN
F 3 "~" H 9700 2150 50  0001 C CNN
	1    9700 1950
	1    0    0    -1  
$EndComp
$Comp
L Switch:SW_Push SW4
U 1 1 61BF07C2
P 9700 2400
F 0 "SW4" H 9700 2685 50  0000 C CNN
F 1 "Изменить дистанцию" H 9700 2594 50  0000 C CNN
F 2 "Button_Switch_SMD:SW_SPST_Omron_B3FS-100xP" H 9700 2600 50  0001 C CNN
F 3 "~" H 9700 2600 50  0001 C CNN
	1    9700 2400
	1    0    0    -1  
$EndComp
$Comp
L Switch:SW_Push SW5
U 1 1 61BF11EA
P 9700 2850
F 0 "SW5" H 9700 3135 50  0000 C CNN
F 1 "Сохранить" H 9700 3044 50  0000 C CNN
F 2 "Button_Switch_SMD:SW_SPST_Omron_B3FS-100xP" H 9700 3050 50  0001 C CNN
F 3 "~" H 9700 3050 50  0001 C CNN
	1    9700 2850
	1    0    0    -1  
$EndComp
$Comp
L Switch:SW_Push SW6
U 1 1 61BF1B1E
P 9700 3450
F 0 "SW6" H 9700 3735 50  0000 C CNN
F 1 "Финиш" H 9700 3644 50  0000 C CNN
F 2 "Button_Switch_SMD:SW_SPST_Omron_B3FS-100xP" H 9700 3650 50  0001 C CNN
F 3 "~" H 9700 3650 50  0001 C CNN
	1    9700 3450
	1    0    0    -1  
$EndComp
$Comp
L power:GND #PWR013
U 1 1 61C09BD5
P 5850 2600
F 0 "#PWR013" H 5850 2350 50  0001 C CNN
F 1 "GND" H 5855 2427 50  0000 C CNN
F 2 "" H 5850 2600 50  0001 C CNN
F 3 "" H 5850 2600 50  0001 C CNN
	1    5850 2600
	1    0    0    -1  
$EndComp
Wire Wire Line
	5850 2600 5850 2550
Wire Wire Line
	5850 2550 6000 2550
Wire Wire Line
	6400 2550 7050 2550
Wire Wire Line
	7050 2550 7050 2250
Connection ~ 7050 2550
Wire Wire Line
	7050 2550 7500 2550
Wire Wire Line
	6650 2250 7050 2250
Text Label 6650 2250 0    50   ~ 0
RST
Wire Wire Line
	8700 2850 9500 2850
Wire Wire Line
	4600 5100 4600 5200
Wire Wire Line
	4600 5200 4850 5200
Connection ~ 4600 5200
Wire Wire Line
	4350 5200 4600 5200
$Comp
L power:PWR_FLAG #FLG01
U 1 1 61CE3E6B
P 4600 5100
F 0 "#FLG01" H 4600 5175 50  0001 C CNN
F 1 "PWR_FLAG" H 4600 5273 50  0000 C CNN
F 2 "" H 4600 5100 50  0001 C CNN
F 3 "~" H 4600 5100 50  0001 C CNN
	1    4600 5100
	1    0    0    -1  
$EndComp
$Comp
L Device:R R2
U 1 1 61B71CB1
P 12200 1650
F 0 "R2" H 12270 1696 50  0000 L CNN
F 1 "220" H 12270 1605 50  0000 L CNN
F 2 "Resistor_SMD:R_0201_0603Metric" V 12130 1650 50  0001 C CNN
F 3 "~" H 12200 1650 50  0001 C CNN
	1    12200 1650
	1    0    0    -1  
$EndComp
$Comp
L Device:R R3
U 1 1 61B721BE
P 12650 1650
F 0 "R3" H 12720 1696 50  0000 L CNN
F 1 "220" H 12720 1605 50  0000 L CNN
F 2 "Resistor_SMD:R_0201_0603Metric" V 12580 1650 50  0001 C CNN
F 3 "~" H 12650 1650 50  0001 C CNN
	1    12650 1650
	1    0    0    -1  
$EndComp
Wire Wire Line
	12200 1800 12200 1900
Wire Wire Line
	12650 1800 12650 1900
Wire Wire Line
	11750 1800 11750 1900
Wire Wire Line
	12650 1000 12650 1500
Wire Wire Line
	12200 1150 12200 1500
Wire Wire Line
	11750 1300 11750 1500
$Comp
L Device:R R1
U 1 1 61B71703
P 11750 1650
F 0 "R1" H 11820 1696 50  0000 L CNN
F 1 "220" H 11820 1605 50  0000 L CNN
F 2 "Resistor_SMD:R_0201_0603Metric" V 11680 1650 50  0001 C CNN
F 3 "~" H 11750 1650 50  0001 C CNN
	1    11750 1650
	1    0    0    -1  
$EndComp
$Comp
L power:+5V #PWR018
U 1 1 61BF2404
P 10500 3650
F 0 "#PWR018" H 10500 3500 50  0001 C CNN
F 1 "+5V" H 10515 3823 50  0000 C CNN
F 2 "" H 10500 3650 50  0001 C CNN
F 3 "" H 10500 3650 50  0001 C CNN
	1    10500 3650
	-1   0    0    -1  
$EndComp
$Comp
L power:GND #PWR016
U 1 1 61C03F87
P 9800 5400
F 0 "#PWR016" H 9800 5150 50  0001 C CNN
F 1 "GND" H 9805 5227 50  0000 C CNN
F 2 "" H 9800 5400 50  0001 C CNN
F 3 "" H 9800 5400 50  0001 C CNN
	1    9800 5400
	1    0    0    -1  
$EndComp
$Comp
L power:GND #PWR017
U 1 1 61C6ADB0
P 10500 1550
F 0 "#PWR017" H 10500 1300 50  0001 C CNN
F 1 "GND" H 10505 1377 50  0000 C CNN
F 2 "" H 10500 1550 50  0001 C CNN
F 3 "" H 10500 1550 50  0001 C CNN
	1    10500 1550
	1    0    0    -1  
$EndComp
Wire Wire Line
	10500 1550 10500 1500
Wire Wire Line
	10500 1500 10300 1500
Connection ~ 10300 1500
Wire Wire Line
	12550 5250 12550 5350
Wire Wire Line
	13050 4950 13450 4950
Wire Wire Line
	13050 4850 13450 4850
Wire Wire Line
	13050 4750 13450 4750
Wire Wire Line
	13050 4650 13450 4650
Text Label 13450 4950 2    50   ~ 0
RST
Text Label 13450 4850 2    50   ~ 0
SCK
Text Label 13450 4750 2    50   ~ 0
MOSI
Text Label 13450 4650 2    50   ~ 0
MISO
$Comp
L power:GND #PWR010
U 1 1 61B114B3
P 12550 5400
F 0 "#PWR010" H 12550 5150 50  0001 C CNN
F 1 "GND" H 12555 5227 50  0000 C CNN
F 2 "" H 12550 5400 50  0001 C CNN
F 3 "" H 12550 5400 50  0001 C CNN
	1    12550 5400
	1    0    0    -1  
$EndComp
$Comp
L Connector:AVR-ISP-6 J2
U 1 1 61A59925
P 12650 4850
F 0 "J2" H 12450 5300 50  0000 R CNN
F 1 "AVR-ISP-6" H 13050 5300 50  0000 R CNN
F 2 "Connector_PinHeader_1.00mm:PinHeader_2x03_P1.00mm_Vertical_SMD" V 12400 4900 50  0001 C CNN
F 3 " ~" H 11375 4300 50  0001 C CNN
	1    12650 4850
	1    0    0    -1  
$EndComp
$Comp
L Device:C C9
U 1 1 61CA68B8
P 11900 4800
F 0 "C9" H 12015 4846 50  0000 L CNN
F 1 "100nF" H 12015 4755 50  0000 L CNN
F 2 "Capacitor_SMD:C_0201_0603Metric" H 11938 4650 50  0001 C CNN
F 3 "~" H 11900 4800 50  0001 C CNN
	1    11900 4800
	1    0    0    -1  
$EndComp
Wire Wire Line
	11900 4650 11900 4250
Wire Wire Line
	11900 4250 12550 4250
Wire Wire Line
	12550 4250 12550 4350
Wire Wire Line
	11900 4950 11900 5350
Wire Wire Line
	11900 5350 12550 5350
Connection ~ 12550 5350
Wire Wire Line
	12550 5350 12550 5400
$Comp
L power:+5V #PWR021
U 1 1 61CC69B9
P 12550 4100
F 0 "#PWR021" H 12550 3950 50  0001 C CNN
F 1 "+5V" H 12565 4273 50  0000 C CNN
F 2 "" H 12550 4100 50  0001 C CNN
F 3 "" H 12550 4100 50  0001 C CNN
	1    12550 4100
	-1   0    0    -1  
$EndComp
Wire Wire Line
	12550 4100 12550 4250
Connection ~ 12550 4250
Wire Wire Line
	10700 3750 10500 3750
Connection ~ 10500 3750
Wire Wire Line
	10500 3750 10500 3650
Wire Wire Line
	9800 3850 9800 3750
Wire Wire Line
	9800 3750 10500 3750
$Comp
L Device:C C8
U 1 1 61CD93A7
P 10850 3750
F 0 "C8" V 11102 3750 50  0000 C CNN
F 1 "100nF" V 11011 3750 50  0000 C CNN
F 2 "Capacitor_SMD:C_0201_0603Metric" H 10888 3600 50  0001 C CNN
F 3 "~" H 10850 3750 50  0001 C CNN
	1    10850 3750
	0    -1   -1   0   
$EndComp
Wire Wire Line
	9800 5250 9800 5400
$Comp
L power:GND #PWR020
U 1 1 61D2A144
P 11100 3850
F 0 "#PWR020" H 11100 3600 50  0001 C CNN
F 1 "GND" H 11105 3677 50  0000 C CNN
F 2 "" H 11100 3850 50  0001 C CNN
F 3 "" H 11100 3850 50  0001 C CNN
	1    11100 3850
	1    0    0    -1  
$EndComp
Wire Wire Line
	11100 3850 11100 3750
Wire Wire Line
	11100 3750 11000 3750
$Comp
L Device:C C7
U 1 1 61D3791A
P 7800 1950
F 0 "C7" V 8052 1950 50  0000 C CNN
F 1 "100nF" V 7961 1950 50  0000 C CNN
F 2 "Capacitor_SMD:C_0201_0603Metric" H 7838 1800 50  0001 C CNN
F 3 "~" H 7800 1950 50  0001 C CNN
	1    7800 1950
	0    -1   -1   0   
$EndComp
$Comp
L power:GND #PWR015
U 1 1 61D3E792
P 7450 2000
F 0 "#PWR015" H 7450 1750 50  0001 C CNN
F 1 "GND" H 7455 1827 50  0000 C CNN
F 2 "" H 7450 2000 50  0001 C CNN
F 3 "" H 7450 2000 50  0001 C CNN
	1    7450 2000
	1    0    0    -1  
$EndComp
Wire Wire Line
	7650 1950 7450 1950
Wire Wire Line
	7450 1950 7450 2000
Wire Wire Line
	7950 1950 8100 1950
Wire Wire Line
	8100 1700 8100 1950
Wire Wire Line
	8100 1950 8100 2250
Connection ~ 8100 1950
$Comp
L Device:C C6
U 1 1 61D563C1
P 2500 7100
F 0 "C6" V 2752 7100 50  0000 C CNN
F 1 "100nF" V 2661 7100 50  0000 C CNN
F 2 "Capacitor_SMD:C_0201_0603Metric" H 2538 6950 50  0001 C CNN
F 3 "~" H 2500 7100 50  0001 C CNN
	1    2500 7100
	0    -1   -1   0   
$EndComp
$Comp
L power:GND #PWR014
U 1 1 61D563C7
P 2150 7250
F 0 "#PWR014" H 2150 7000 50  0001 C CNN
F 1 "GND" H 2155 7077 50  0000 C CNN
F 2 "" H 2150 7250 50  0001 C CNN
F 3 "" H 2150 7250 50  0001 C CNN
	1    2150 7250
	1    0    0    -1  
$EndComp
Wire Wire Line
	2150 7250 2150 7100
Wire Wire Line
	2150 7100 2350 7100
Wire Wire Line
	2650 7100 2950 7100
Connection ~ 2950 7100
$Comp
L Device:CP C2
U 1 1 61B7BCEE
P 4850 5500
F 0 "C2" H 4968 5546 50  0000 L CNN
F 1 "10uF" H 4968 5455 50  0000 L CNN
F 2 "Capacitor_SMD:CP_Elec_3x5.3" H 4888 5350 50  0001 C CNN
F 3 "~" H 4850 5500 50  0001 C CNN
	1    4850 5500
	1    0    0    -1  
$EndComp
Wire Wire Line
	10500 3750 10500 4350
Wire Wire Line
	10200 4350 10500 4350
$EndSCHEMATC
