(export (version D)
  (design
    (source /Users/dominyk/Desktop/University/trsvt/Miezanskas/lab5/lab5.sch)
    (date "2021 December 27, Monday 13:24:07")
    (tool "Eeschema (5.1.10-1-10_14)")
    (sheet (number 1) (name /) (tstamps /)
      (title_block
        (title "Лабораторная 4")
        (company)
        (rev)
        (date)
        (source lab5.sch)
        (comment (number 1) (value ""))
        (comment (number 2) (value "Межанскас Д."))
        (comment (number 3) (value ""))
        (comment (number 4) (value "")))))
  (components
    (comp (ref D1)
      (value 100м)
      (footprint LED_THT:LED_D3.0mm)
      (datasheet ~)
      (libsource (lib Device) (part LED) (description "Light emitting diode"))
      (sheetpath (names /) (tstamps /))
      (tstamp 61A3E151))
    (comp (ref D2)
      (value 400м)
      (footprint LED_THT:LED_D3.0mm)
      (datasheet ~)
      (libsource (lib Device) (part LED) (description "Light emitting diode"))
      (sheetpath (names /) (tstamps /))
      (tstamp 61A3F262))
    (comp (ref D3)
      (value 1500м)
      (footprint LED_THT:LED_D3.0mm)
      (datasheet ~)
      (libsource (lib Device) (part LED) (description "Light emitting diode"))
      (sheetpath (names /) (tstamps /))
      (tstamp 61A3F61A))
    (comp (ref Y1)
      (value 8MHz)
      (footprint Crystal:Crystal_AT310_D3.0mm_L10.0mm_Horizontal)
      (datasheet ~)
      (libsource (lib Device) (part Crystal) (description "Two pin crystal"))
      (sheetpath (names /) (tstamps /))
      (tstamp 61A0E924))
    (comp (ref U3)
      (value LM16255K)
      (footprint Display:LM16255)
      (datasheet http://pdf.datasheetcatalog.com/datasheet/Sharp/mXvtrzw.pdf)
      (libsource (lib Display_Character) (part LM16255K) (description "2 Lines, 12 character reflective LCD"))
      (sheetpath (names /) (tstamps /))
      (tstamp 61A312A8))
    (comp (ref U2)
      (value ATmega8515-16PU)
      (footprint Package_DIP:DIP-40_W15.24mm)
      (datasheet http://ww1.microchip.com/downloads/en/DeviceDoc/doc2512.pdf)
      (libsource (lib MCU_Microchip_ATmega) (part ATmega8515-16PU) (description "16MHz, 8kB Flash, 512B SRAM, 512B EEPROM, DIP-40"))
      (sheetpath (names /) (tstamps /))
      (tstamp 61A0C5DA))
    (comp (ref U1)
      (value FT232RL)
      (footprint Package_SO:SSOP-28_5.3x10.2mm_P0.65mm)
      (datasheet https://www.ftdichip.com/Support/Documents/DataSheets/ICs/DS_FT232R.pdf)
      (libsource (lib Interface_USB) (part FT232RL) (description "USB to Serial Interface, SSOP-28"))
      (sheetpath (names /) (tstamps /))
      (tstamp 61BA718A))
    (comp (ref J1)
      (value USB_A)
      (footprint Connector_USB:USB3_A_Molex_48393-001)
      (datasheet " ~")
      (libsource (lib Connector) (part USB_A) (description "USB Type A connector"))
      (sheetpath (names /) (tstamps /))
      (tstamp 61A58316))
    (comp (ref C1)
      (value 100nF)
      (footprint Capacitor_SMD:C_0201_0603Metric)
      (datasheet ~)
      (libsource (lib Device) (part C) (description "Unpolarized capacitor"))
      (sheetpath (names /) (tstamps /))
      (tstamp 61BC8544))
    (comp (ref C4)
      (value 22pF)
      (footprint Capacitor_SMD:C_0201_0603Metric)
      (datasheet ~)
      (libsource (lib Device) (part C) (description "Unpolarized capacitor"))
      (sheetpath (names /) (tstamps /))
      (tstamp 61A0FEF8))
    (comp (ref C5)
      (value 22pF)
      (footprint Capacitor_SMD:C_0201_0603Metric)
      (datasheet ~)
      (libsource (lib Device) (part C) (description "Unpolarized capacitor"))
      (sheetpath (names /) (tstamps /))
      (tstamp 61A10384))
    (comp (ref J3)
      (value GOST_MYCONN3)
      (footprint Connector:Banana_Jack_2Pin)
      (libsource (lib myLib) (part GOST_MYCONN3) (description ""))
      (sheetpath (names /) (tstamps /))
      (tstamp 61B426BF))
    (comp (ref C3)
      (value 10uF)
      (footprint Capacitor_SMD:CP_Elec_3x5.3)
      (datasheet ~)
      (libsource (lib Device) (part CP) (description "Polarized capacitor"))
      (sheetpath (names /) (tstamps /))
      (tstamp 61B60548))
    (comp (ref U4)
      (value NCP1117-5.0_SOT223)
      (footprint Package_TO_SOT_SMD:SOT-223-3_TabPin2)
      (datasheet http://www.onsemi.com/pub_link/Collateral/NCP1117-D.PDF)
      (libsource (lib Regulator_Linear) (part NCP1117-5.0_SOT223) (description "1A Low drop-out regulator, Fixed Output 5V, SOT-223"))
      (sheetpath (names /) (tstamps /))
      (tstamp 61B49328))
    (comp (ref SW1)
      (value Reset)
      (footprint Button_Switch_SMD:SW_SPST_Omron_B3FS-100xP)
      (datasheet ~)
      (libsource (lib Switch) (part SW_Push) (description "Push button switch, generic, two pins"))
      (sheetpath (names /) (tstamps /))
      (tstamp 61BD0AC8))
    (comp (ref SW2)
      (value Старт)
      (footprint Button_Switch_SMD:SW_SPST_Omron_B3FS-100xP)
      (datasheet ~)
      (libsource (lib Switch) (part SW_Push) (description "Push button switch, generic, two pins"))
      (sheetpath (names /) (tstamps /))
      (tstamp 61BEF6DF))
    (comp (ref SW3)
      (value Показать)
      (footprint Button_Switch_SMD:SW_SPST_Omron_B3FS-100xP)
      (datasheet ~)
      (libsource (lib Switch) (part SW_Push) (description "Push button switch, generic, two pins"))
      (sheetpath (names /) (tstamps /))
      (tstamp 61BF015D))
    (comp (ref SW4)
      (value "Изменить дистанцию")
      (footprint Button_Switch_SMD:SW_SPST_Omron_B3FS-100xP)
      (datasheet ~)
      (libsource (lib Switch) (part SW_Push) (description "Push button switch, generic, two pins"))
      (sheetpath (names /) (tstamps /))
      (tstamp 61BF07C2))
    (comp (ref SW5)
      (value Сохранить)
      (footprint Button_Switch_SMD:SW_SPST_Omron_B3FS-100xP)
      (datasheet ~)
      (libsource (lib Switch) (part SW_Push) (description "Push button switch, generic, two pins"))
      (sheetpath (names /) (tstamps /))
      (tstamp 61BF11EA))
    (comp (ref SW6)
      (value Финиш)
      (footprint Button_Switch_SMD:SW_SPST_Omron_B3FS-100xP)
      (datasheet ~)
      (libsource (lib Switch) (part SW_Push) (description "Push button switch, generic, two pins"))
      (sheetpath (names /) (tstamps /))
      (tstamp 61BF1B1E))
    (comp (ref R2)
      (value 220)
      (footprint Resistor_SMD:R_0201_0603Metric)
      (datasheet ~)
      (libsource (lib Device) (part R) (description Resistor))
      (sheetpath (names /) (tstamps /))
      (tstamp 61B71CB1))
    (comp (ref R3)
      (value 220)
      (footprint Resistor_SMD:R_0201_0603Metric)
      (datasheet ~)
      (libsource (lib Device) (part R) (description Resistor))
      (sheetpath (names /) (tstamps /))
      (tstamp 61B721BE))
    (comp (ref R1)
      (value 220)
      (footprint Resistor_SMD:R_0201_0603Metric)
      (datasheet ~)
      (libsource (lib Device) (part R) (description Resistor))
      (sheetpath (names /) (tstamps /))
      (tstamp 61B71703))
    (comp (ref J2)
      (value AVR-ISP-6)
      (footprint Connector_PinHeader_1.00mm:PinHeader_2x03_P1.00mm_Vertical_SMD)
      (datasheet " ~")
      (libsource (lib Connector) (part AVR-ISP-6) (description "Atmel 6-pin ISP connector"))
      (sheetpath (names /) (tstamps /))
      (tstamp 61A59925))
    (comp (ref C9)
      (value 100nF)
      (footprint Capacitor_SMD:C_0201_0603Metric)
      (datasheet ~)
      (libsource (lib Device) (part C) (description "Unpolarized capacitor"))
      (sheetpath (names /) (tstamps /))
      (tstamp 61CA68B8))
    (comp (ref C8)
      (value 100nF)
      (footprint Capacitor_SMD:C_0201_0603Metric)
      (datasheet ~)
      (libsource (lib Device) (part C) (description "Unpolarized capacitor"))
      (sheetpath (names /) (tstamps /))
      (tstamp 61CD93A7))
    (comp (ref C7)
      (value 100nF)
      (footprint Capacitor_SMD:C_0201_0603Metric)
      (datasheet ~)
      (libsource (lib Device) (part C) (description "Unpolarized capacitor"))
      (sheetpath (names /) (tstamps /))
      (tstamp 61D3791A))
    (comp (ref C6)
      (value 100nF)
      (footprint Capacitor_SMD:C_0201_0603Metric)
      (datasheet ~)
      (libsource (lib Device) (part C) (description "Unpolarized capacitor"))
      (sheetpath (names /) (tstamps /))
      (tstamp 61D563C1))
    (comp (ref C2)
      (value 10uF)
      (footprint Capacitor_SMD:CP_Elec_3x5.3)
      (datasheet ~)
      (libsource (lib Device) (part CP) (description "Polarized capacitor"))
      (sheetpath (names /) (tstamps /))
      (tstamp 61B7BCEE)))
  (libparts
    (libpart (lib Connector) (part AVR-ISP-6)
      (description "Atmel 6-pin ISP connector")
      (docs " ~")
      (footprints
        (fp IDC?Header*2x03*)
        (fp Pin?Header*2x03*))
      (fields
        (field (name Reference) J)
        (field (name Value) AVR-ISP-6))
      (pins
        (pin (num 1) (name MISO) (type passive))
        (pin (num 2) (name VCC) (type passive))
        (pin (num 3) (name SCK) (type passive))
        (pin (num 4) (name MOSI) (type passive))
        (pin (num 5) (name ~RST) (type passive))
        (pin (num 6) (name GND) (type passive))))
    (libpart (lib Connector) (part USB_A)
      (description "USB Type A connector")
      (docs " ~")
      (footprints
        (fp USB*))
      (fields
        (field (name Reference) J)
        (field (name Value) USB_A))
      (pins
        (pin (num 1) (name VBUS) (type power_in))
        (pin (num 2) (name D-) (type BiDi))
        (pin (num 3) (name D+) (type BiDi))
        (pin (num 4) (name GND) (type power_in))
        (pin (num 5) (name Shield) (type passive))))
    (libpart (lib Device) (part C)
      (description "Unpolarized capacitor")
      (docs ~)
      (footprints
        (fp C_*))
      (fields
        (field (name Reference) C)
        (field (name Value) C))
      (pins
        (pin (num 1) (name ~) (type passive))
        (pin (num 2) (name ~) (type passive))))
    (libpart (lib Device) (part CP)
      (description "Polarized capacitor")
      (docs ~)
      (footprints
        (fp CP_*))
      (fields
        (field (name Reference) C)
        (field (name Value) CP))
      (pins
        (pin (num 1) (name ~) (type passive))
        (pin (num 2) (name ~) (type passive))))
    (libpart (lib Device) (part Crystal)
      (description "Two pin crystal")
      (docs ~)
      (footprints
        (fp Crystal*))
      (fields
        (field (name Reference) Y)
        (field (name Value) Crystal))
      (pins
        (pin (num 1) (name 1) (type passive))
        (pin (num 2) (name 2) (type passive))))
    (libpart (lib Device) (part LED)
      (description "Light emitting diode")
      (docs ~)
      (footprints
        (fp LED*)
        (fp LED_SMD:*)
        (fp LED_THT:*))
      (fields
        (field (name Reference) D)
        (field (name Value) LED))
      (pins
        (pin (num 1) (name K) (type passive))
        (pin (num 2) (name A) (type passive))))
    (libpart (lib Device) (part R)
      (description Resistor)
      (docs ~)
      (footprints
        (fp R_*))
      (fields
        (field (name Reference) R)
        (field (name Value) R))
      (pins
        (pin (num 1) (name ~) (type passive))
        (pin (num 2) (name ~) (type passive))))
    (libpart (lib Display_Character) (part LM16255K)
      (description "2 Lines, 12 character reflective LCD")
      (docs http://pdf.datasheetcatalog.com/datasheet/Sharp/mXvtrzw.pdf)
      (footprints
        (fp *LM16255*))
      (fields
        (field (name Reference) U)
        (field (name Value) LM16255K)
        (field (name Footprint) Display:LM16255))
      (pins
        (pin (num 1) (name VSS) (type power_in))
        (pin (num 2) (name VDD) (type power_in))
        (pin (num 3) (name VO) (type power_in))
        (pin (num 4) (name RS) (type input))
        (pin (num 5) (name R/W) (type input))
        (pin (num 6) (name E) (type input))
        (pin (num 7) (name DB0) (type BiDi))
        (pin (num 8) (name DB1) (type BiDi))
        (pin (num 9) (name DB2) (type BiDi))
        (pin (num 10) (name DB3) (type BiDi))
        (pin (num 11) (name DB4) (type BiDi))
        (pin (num 12) (name DB5) (type BiDi))
        (pin (num 13) (name DB6) (type BiDi))
        (pin (num 14) (name DB7) (type BiDi))))
    (libpart (lib Interface_USB) (part FT232RL)
      (description "USB to Serial Interface, SSOP-28")
      (docs https://www.ftdichip.com/Support/Documents/DataSheets/ICs/DS_FT232R.pdf)
      (footprints
        (fp SSOP*5.3x10.2mm*P0.65mm*))
      (fields
        (field (name Reference) U)
        (field (name Value) FT232RL)
        (field (name Footprint) Package_SO:SSOP-28_5.3x10.2mm_P0.65mm))
      (pins
        (pin (num 1) (name TXD) (type output))
        (pin (num 2) (name DTR) (type output))
        (pin (num 3) (name RTS) (type output))
        (pin (num 4) (name VCCIO) (type power_in))
        (pin (num 5) (name RXD) (type input))
        (pin (num 6) (name RI) (type input))
        (pin (num 7) (name GND) (type power_in))
        (pin (num 9) (name DCR) (type input))
        (pin (num 10) (name DCD) (type input))
        (pin (num 11) (name CTS) (type input))
        (pin (num 12) (name CBUS4) (type BiDi))
        (pin (num 13) (name CBUS2) (type BiDi))
        (pin (num 14) (name CBUS3) (type BiDi))
        (pin (num 15) (name USBD+) (type BiDi))
        (pin (num 16) (name USBD-) (type BiDi))
        (pin (num 17) (name 3V3OUT) (type power_out))
        (pin (num 18) (name GND) (type power_in))
        (pin (num 19) (name ~RESET~) (type input))
        (pin (num 20) (name VCC) (type power_in))
        (pin (num 21) (name GND) (type power_in))
        (pin (num 22) (name CBUS1) (type BiDi))
        (pin (num 23) (name CBUS0) (type BiDi))
        (pin (num 25) (name AGND) (type power_in))
        (pin (num 26) (name TEST) (type input))
        (pin (num 27) (name OSCI) (type input))
        (pin (num 28) (name OSCO) (type output))))
    (libpart (lib MCU_Microchip_ATmega) (part ATmega8515L-8PU)
      (aliases
        (alias ATmega8515-16PU))
      (description "8MHz, 8kB Flash, 512B SRAM, 512B EEPROM, DIP-40")
      (docs http://ww1.microchip.com/downloads/en/DeviceDoc/doc2512.pdf)
      (footprints
        (fp DIP*W15.24mm*))
      (fields
        (field (name Reference) U)
        (field (name Value) ATmega8515L-8PU)
        (field (name Footprint) Package_DIP:DIP-40_W15.24mm))
      (pins
        (pin (num 1) (name PB0) (type BiDi))
        (pin (num 2) (name PB1) (type BiDi))
        (pin (num 3) (name PB2) (type BiDi))
        (pin (num 4) (name PB3) (type BiDi))
        (pin (num 5) (name PB4) (type BiDi))
        (pin (num 6) (name PB5) (type BiDi))
        (pin (num 7) (name PB6) (type BiDi))
        (pin (num 8) (name PB7) (type BiDi))
        (pin (num 9) (name ~RESET) (type input))
        (pin (num 10) (name PD0) (type BiDi))
        (pin (num 11) (name PD1) (type BiDi))
        (pin (num 12) (name PD2) (type BiDi))
        (pin (num 13) (name PD3) (type BiDi))
        (pin (num 14) (name PD4) (type BiDi))
        (pin (num 15) (name PD5) (type BiDi))
        (pin (num 16) (name PD6) (type BiDi))
        (pin (num 17) (name PD7) (type BiDi))
        (pin (num 18) (name XTAL2) (type output))
        (pin (num 19) (name XTAL1) (type input))
        (pin (num 20) (name GND) (type power_in))
        (pin (num 21) (name PC0) (type BiDi))
        (pin (num 22) (name PC1) (type BiDi))
        (pin (num 23) (name PC2) (type BiDi))
        (pin (num 24) (name PC3) (type BiDi))
        (pin (num 25) (name PC4) (type BiDi))
        (pin (num 26) (name PC5) (type BiDi))
        (pin (num 27) (name PC6) (type BiDi))
        (pin (num 28) (name PC7) (type BiDi))
        (pin (num 29) (name PE2) (type BiDi))
        (pin (num 30) (name PE1) (type BiDi))
        (pin (num 31) (name PE0) (type BiDi))
        (pin (num 32) (name PA7) (type BiDi))
        (pin (num 33) (name PA6) (type BiDi))
        (pin (num 34) (name PA5) (type BiDi))
        (pin (num 35) (name PA4) (type BiDi))
        (pin (num 36) (name PA3) (type BiDi))
        (pin (num 37) (name PA2) (type BiDi))
        (pin (num 38) (name PA1) (type BiDi))
        (pin (num 39) (name PA0) (type BiDi))
        (pin (num 40) (name VCC) (type power_in))))
    (libpart (lib Regulator_Linear) (part AP1117-15)
      (aliases
        (alias AP1117-18)
        (alias AP1117-25)
        (alias AP1117-33)
        (alias AP1117-50)
        (alias LD1117S33TR_SOT223)
        (alias LD1117S12TR_SOT223)
        (alias LD1117S18TR_SOT223)
        (alias LD1117S25TR_SOT223)
        (alias LD1117S50TR_SOT223)
        (alias NCP1117-12_SOT223)
        (alias NCP1117-1.5_SOT223)
        (alias NCP1117-1.8_SOT223)
        (alias NCP1117-2.0_SOT223)
        (alias NCP1117-2.5_SOT223)
        (alias NCP1117-2.85_SOT223)
        (alias NCP1117-3.3_SOT223)
        (alias NCP1117-5.0_SOT223)
        (alias AMS1117-1.5)
        (alias AMS1117-1.8)
        (alias AMS1117-2.5)
        (alias AMS1117-2.85)
        (alias AMS1117-3.3)
        (alias AMS1117-5.0))
      (description "1A Low Dropout regulator, positive, 1.5V fixed output, SOT-223")
      (docs http://www.diodes.com/datasheets/AP1117.pdf)
      (footprints
        (fp SOT?223*TabPin2*))
      (fields
        (field (name Reference) U)
        (field (name Value) AP1117-15)
        (field (name Footprint) Package_TO_SOT_SMD:SOT-223-3_TabPin2))
      (pins
        (pin (num 1) (name GND) (type power_in))
        (pin (num 2) (name VO) (type power_out))
        (pin (num 3) (name VI) (type power_in))))
    (libpart (lib Switch) (part SW_Push)
      (description "Push button switch, generic, two pins")
      (docs ~)
      (fields
        (field (name Reference) SW)
        (field (name Value) SW_Push))
      (pins
        (pin (num 1) (name 1) (type passive))
        (pin (num 2) (name 2) (type passive))))
    (libpart (lib myLib) (part GOST_MYCONN3)
      (fields
        (field (name Reference) J)
        (field (name Value) GOST_MYCONN3))
      (pins
        (pin (num 1) (name VCC) (type power_in))
        (pin (num 2) (name GND) (type passive)))))
  (libraries
    (library (logical Connector)
      (uri "/Library/Application Support/kicad/library/Connector.lib"))
    (library (logical Device)
      (uri "/Library/Application Support/kicad/library/Device.lib"))
    (library (logical Display_Character)
      (uri "/Library/Application Support/kicad/library/Display_Character.lib"))
    (library (logical Interface_USB)
      (uri "/Library/Application Support/kicad/library/Interface_USB.lib"))
    (library (logical MCU_Microchip_ATmega)
      (uri "/Library/Application Support/kicad/library/MCU_Microchip_ATmega.lib"))
    (library (logical Regulator_Linear)
      (uri "/Library/Application Support/kicad/library/Regulator_Linear.lib"))
    (library (logical Switch)
      (uri "/Library/Application Support/kicad/library/Switch.lib"))
    (library (logical myLib)
      (uri /Users/dominyk/Desktop/University/trsvt/Miezanskas/lab5/library/myLib.lib)))
  (nets
    (net (code 1) (name "Net-(U2-Pad29)")
      (node (ref U2) (pin 29)))
    (net (code 2) (name "Net-(U2-Pad30)")
      (node (ref U2) (pin 30)))
    (net (code 3) (name "Net-(U2-Pad31)")
      (node (ref U2) (pin 31)))
    (net (code 4) (name "Net-(D1-Pad2)")
      (node (ref D1) (pin 2))
      (node (ref R1) (pin 2)))
    (net (code 5) (name GND)
      (node (ref D1) (pin 1))
      (node (ref D2) (pin 1))
      (node (ref U3) (pin 1))
      (node (ref SW6) (pin 2))
      (node (ref C6) (pin 1))
      (node (ref SW5) (pin 2))
      (node (ref SW4) (pin 2))
      (node (ref SW3) (pin 2))
      (node (ref SW2) (pin 2))
      (node (ref SW1) (pin 1))
      (node (ref U2) (pin 20))
      (node (ref U4) (pin 1))
      (node (ref C3) (pin 2))
      (node (ref D3) (pin 1))
      (node (ref C2) (pin 2))
      (node (ref J3) (pin 2))
      (node (ref C5) (pin 2))
      (node (ref C4) (pin 2))
      (node (ref J2) (pin 6))
      (node (ref C9) (pin 2))
      (node (ref C8) (pin 2))
      (node (ref U1) (pin 18))
      (node (ref U1) (pin 21))
      (node (ref U1) (pin 25))
      (node (ref U1) (pin 26))
      (node (ref C7) (pin 1))
      (node (ref U1) (pin 7))
      (node (ref J1) (pin 4))
      (node (ref J1) (pin 5))
      (node (ref C1) (pin 1)))
    (net (code 6) (name "Net-(U2-Pad2)")
      (node (ref U3) (pin 4))
      (node (ref U2) (pin 2)))
    (net (code 7) (name "Net-(U2-Pad5)")
      (node (ref U2) (pin 5)))
    (net (code 8) (name "Net-(SW6-Pad1)")
      (node (ref SW6) (pin 1))
      (node (ref U2) (pin 1)))
    (net (code 9) (name "Net-(U2-Pad12)")
      (node (ref U2) (pin 12)))
    (net (code 10) (name "Net-(U2-Pad13)")
      (node (ref U2) (pin 13)))
    (net (code 11) (name "Net-(U2-Pad14)")
      (node (ref U2) (pin 14)))
    (net (code 12) (name "Net-(U2-Pad15)")
      (node (ref U2) (pin 15)))
    (net (code 13) (name "Net-(U2-Pad16)")
      (node (ref U2) (pin 16)))
    (net (code 14) (name "Net-(U2-Pad17)")
      (node (ref U2) (pin 17)))
    (net (code 15) (name "Net-(C5-Pad1)")
      (node (ref U2) (pin 18))
      (node (ref C5) (pin 1))
      (node (ref Y1) (pin 2)))
    (net (code 16) (name "Net-(C4-Pad1)")
      (node (ref C4) (pin 1))
      (node (ref U2) (pin 19))
      (node (ref Y1) (pin 1)))
    (net (code 17) (name "Net-(U2-Pad21)")
      (node (ref U2) (pin 21))
      (node (ref U3) (pin 7)))
    (net (code 18) (name "Net-(U2-Pad22)")
      (node (ref U2) (pin 22))
      (node (ref U3) (pin 8)))
    (net (code 19) (name "Net-(U2-Pad23)")
      (node (ref U3) (pin 9))
      (node (ref U2) (pin 23)))
    (net (code 20) (name "Net-(U2-Pad24)")
      (node (ref U3) (pin 10))
      (node (ref U2) (pin 24)))
    (net (code 21) (name "Net-(U2-Pad25)")
      (node (ref U2) (pin 25))
      (node (ref U3) (pin 11)))
    (net (code 22) (name "Net-(U2-Pad26)")
      (node (ref U3) (pin 12))
      (node (ref U2) (pin 26)))
    (net (code 23) (name "Net-(U2-Pad27)")
      (node (ref U3) (pin 13))
      (node (ref U2) (pin 27)))
    (net (code 24) (name "Net-(U2-Pad28)")
      (node (ref U3) (pin 14))
      (node (ref U2) (pin 28)))
    (net (code 25) (name "Net-(U2-Pad3)")
      (node (ref U2) (pin 3))
      (node (ref U3) (pin 5)))
    (net (code 26) (name "Net-(U2-Pad32)")
      (node (ref U2) (pin 32)))
    (net (code 27) (name "Net-(SW4-Pad1)")
      (node (ref U2) (pin 37))
      (node (ref SW4) (pin 1)))
    (net (code 28) (name "Net-(SW3-Pad1)")
      (node (ref SW3) (pin 1))
      (node (ref U2) (pin 38)))
    (net (code 29) (name "Net-(U1-Pad10)")
      (node (ref U1) (pin 10)))
    (net (code 30) (name "Net-(U1-Pad11)")
      (node (ref U1) (pin 11)))
    (net (code 31) (name "Net-(U1-Pad12)")
      (node (ref U1) (pin 12)))
    (net (code 32) (name "Net-(U1-Pad13)")
      (node (ref U1) (pin 13)))
    (net (code 33) (name "Net-(U1-Pad14)")
      (node (ref U1) (pin 14)))
    (net (code 34) (name "Net-(U1-Pad2)")
      (node (ref U1) (pin 2)))
    (net (code 35) (name "Net-(U1-Pad22)")
      (node (ref U1) (pin 22)))
    (net (code 36) (name "Net-(U1-Pad23)")
      (node (ref U1) (pin 23)))
    (net (code 37) (name "Net-(U1-Pad27)")
      (node (ref U1) (pin 27)))
    (net (code 38) (name "Net-(U1-Pad28)")
      (node (ref U1) (pin 28)))
    (net (code 39) (name "Net-(U1-Pad3)")
      (node (ref U1) (pin 3)))
    (net (code 40) (name "Net-(U1-Pad6)")
      (node (ref U1) (pin 6)))
    (net (code 41) (name "Net-(U1-Pad9)")
      (node (ref U1) (pin 9)))
    (net (code 42) (name "Net-(C1-Pad2)")
      (node (ref C1) (pin 2))
      (node (ref U1) (pin 17)))
    (net (code 43) (name /100м)
      (node (ref U2) (pin 35))
      (node (ref R1) (pin 1)))
    (net (code 44) (name /400м)
      (node (ref R2) (pin 1))
      (node (ref U2) (pin 34)))
    (net (code 45) (name /1500м)
      (node (ref R3) (pin 1))
      (node (ref U2) (pin 33)))
    (net (code 46) (name /MOSI)
      (node (ref U2) (pin 6))
      (node (ref J2) (pin 4)))
    (net (code 47) (name /MISO)
      (node (ref J2) (pin 1))
      (node (ref U2) (pin 7)))
    (net (code 48) (name /SCK)
      (node (ref J2) (pin 3))
      (node (ref U2) (pin 8)))
    (net (code 49) (name /D+)
      (node (ref U1) (pin 15))
      (node (ref J1) (pin 3)))
    (net (code 50) (name /D-)
      (node (ref U1) (pin 16))
      (node (ref J1) (pin 2)))
    (net (code 51) (name /RXD)
      (node (ref U1) (pin 1))
      (node (ref U2) (pin 10)))
    (net (code 52) (name /TXD)
      (node (ref U1) (pin 5))
      (node (ref U2) (pin 11)))
    (net (code 53) (name /RST)
      (node (ref J2) (pin 5))
      (node (ref U1) (pin 19))
      (node (ref U2) (pin 9))
      (node (ref SW1) (pin 2)))
    (net (code 54) (name "Net-(U2-Pad4)")
      (node (ref U3) (pin 6))
      (node (ref U2) (pin 4)))
    (net (code 55) (name "Net-(SW2-Pad1)")
      (node (ref SW2) (pin 1))
      (node (ref U2) (pin 39)))
    (net (code 56) (name "Net-(SW5-Pad1)")
      (node (ref SW5) (pin 1))
      (node (ref U2) (pin 36)))
    (net (code 57) (name "Net-(C2-Pad1)")
      (node (ref C2) (pin 1))
      (node (ref J3) (pin 1))
      (node (ref U4) (pin 3)))
    (net (code 58) (name "Net-(D2-Pad2)")
      (node (ref R2) (pin 2))
      (node (ref D2) (pin 2)))
    (net (code 59) (name "Net-(D3-Pad2)")
      (node (ref R3) (pin 2))
      (node (ref D3) (pin 2)))
    (net (code 60) (name +5V)
      (node (ref J2) (pin 2))
      (node (ref U4) (pin 2))
      (node (ref C3) (pin 1))
      (node (ref C9) (pin 1))
      (node (ref C8) (pin 1))
      (node (ref J1) (pin 1))
      (node (ref U1) (pin 4))
      (node (ref C7) (pin 2))
      (node (ref U1) (pin 20))
      (node (ref U2) (pin 40))
      (node (ref C6) (pin 2))
      (node (ref U3) (pin 3))
      (node (ref U3) (pin 2)))))