EESchema Schematic File Version 4
EELAYER 30 0
EELAYER END
$Descr A3 16535 11693
encoding utf-8
Sheet 1 1
Title "Схема электрическая \\n принципиальная"
Date "2021-11-02"
Rev ""
Comp "МГТУ им. Н.Э. Баумана \\n группа ИУ6-73Б "
Comment1 "Система мониторинга перемещений \\n человека в помещении"
Comment2 "Кравцов И. К."
Comment3 "Бычков Б. И."
Comment4 ""
$EndDescr
$Comp
L Raspberry_Pi:RPi_GPIO DD7
U 1 1 618279E4
P 4500 7600
F 0 "DD7" H 5250 7887 60  0000 C CNN
F 1 "Raspberry Pi 4 B " H 5250 7781 60  0000 C CNN
F 2 "" H 4500 7600 60  0000 C CNN
F 3 "" H 4500 7600 60  0000 C CNN
	1    4500 7600
	1    0    0    -1  
$EndComp
$Comp
L Device:Buzzer BZ1
U 1 1 61830186
P 6850 9150
F 0 "BZ1" H 7002 9179 50  0000 L CNN
F 1 "Buzzer" H 7002 9088 50  0000 L CNN
F 2 "" V 6825 9250 50  0001 C CNN
F 3 "~" V 6825 9250 50  0001 C CNN
	1    6850 9150
	1    0    0    -1  
$EndComp
$Comp
L esp:ESP8266EX DD5
U 1 1 6186F89A
P 13000 4750
F 0 "DD5" H 12250 5700 60  0000 L CNN
F 1 "ESP8266EX" H 12050 5600 60  0000 L CNN
F 2 "" H 12200 5700 60  0000 C CNN
F 3 "" H 12200 5700 60  0000 C CNN
	1    13000 4750
	1    0    0    -1  
$EndComp
Wire Wire Line
	13450 3700 13450 3650
Wire Wire Line
	13450 3650 14400 3650
Wire Wire Line
	13350 3700 13350 3550
Wire Wire Line
	13350 3550 14400 3550
Wire Wire Line
	12750 3700 12750 3450
Wire Wire Line
	12750 3450 14750 3450
Wire Wire Line
	12650 3700 12650 3450
Wire Wire Line
	12650 3450 12350 3450
Wire Wire Line
	12850 3700 12850 3350
Wire Wire Line
	13250 3700 13250 2950
Wire Wire Line
	12950 2650 12950 3700
Connection ~ 12950 2650
Wire Wire Line
	12950 2650 13050 2650
Wire Wire Line
	13050 2650 13050 3700
$Comp
L Device:R R1
U 1 1 618877D1
P 12850 3200
F 0 "R1" H 12780 3154 50  0000 R CNN
F 1 "12k" H 12780 3245 50  0000 R CNN
F 2 "" V 12780 3200 50  0001 C CNN
F 3 "~" H 12850 3200 50  0001 C CNN
	1    12850 3200
	1    0    0    1   
$EndComp
Wire Wire Line
	12850 3050 12850 3000
Text Label 14850 3450 0    50   ~ 0
RST
Text Label 14300 3550 0    50   ~ 0
TX
Text Label 14300 3650 0    50   ~ 0
RX
Text Label 10300 2650 0    50   ~ 0
VDD33
$Comp
L Device:Antenna WA1
U 1 1 6188B3C4
P 10250 3950
F 0 "WA1" H 10330 3939 50  0000 L CNN
F 1 "Antenna" H 10330 3848 50  0000 L CNN
F 2 "" H 10250 3950 50  0001 C CNN
F 3 "~" H 10250 3950 50  0001 C CNN
	1    10250 3950
	1    0    0    -1  
$EndComp
Wire Wire Line
	14100 5100 14250 5100
Wire Wire Line
	14250 5100 14250 6000
Wire Wire Line
	14100 4500 15000 4500
Wire Wire Line
	14100 4600 15000 4600
Wire Wire Line
	14100 4800 15000 4800
Wire Wire Line
	14100 4900 15000 4900
Wire Wire Line
	14100 5000 15000 5000
Wire Wire Line
	12850 5800 12850 6000
Wire Wire Line
	12850 6000 14250 6000
Connection ~ 14250 6000
Wire Wire Line
	14250 6000 15000 6000
Text Label 14750 6000 0    50   ~ 0
VDD33
Wire Wire Line
	11950 5000 11750 5000
Wire Wire Line
	11750 5000 11750 5400
Wire Wire Line
	11950 4400 11850 4400
Wire Wire Line
	11850 4400 11850 2650
Connection ~ 11850 2650
Wire Wire Line
	11850 2650 12950 2650
Wire Wire Line
	11950 4700 11650 4700
Wire Wire Line
	11650 4700 11650 4600
Wire Wire Line
	11650 3450 11100 3450
Wire Wire Line
	11950 4600 11650 4600
Connection ~ 11650 4600
Wire Wire Line
	11650 4600 11650 3450
$Comp
L Device:C C12
U 1 1 618A70C4
P 10800 4500
F 0 "C12" V 10548 4500 50  0000 C CNN
F 1 "8.6pF" V 10639 4500 50  0000 C CNN
F 2 "" H 10838 4350 50  0001 C CNN
F 3 "~" H 10800 4500 50  0001 C CNN
	1    10800 4500
	0    1    1    0   
$EndComp
Wire Wire Line
	11950 4500 11000 4500
Wire Wire Line
	10650 4500 10600 4500
Wire Wire Line
	10250 4500 10250 4150
$Comp
L Device:L L1
U 1 1 618ADD5C
P 11000 4700
F 0 "L1" H 11052 4746 50  0000 L CNN
F 1 "1.5nH" H 11052 4655 50  0000 L CNN
F 2 "" H 11000 4700 50  0001 C CNN
F 3 "~" H 11000 4700 50  0001 C CNN
	1    11000 4700
	1    0    0    -1  
$EndComp
Wire Wire Line
	11000 4500 11000 4550
Connection ~ 11000 4500
Wire Wire Line
	11000 4500 10950 4500
Wire Wire Line
	10600 4500 10600 4550
Connection ~ 10600 4500
Wire Wire Line
	10600 4500 10250 4500
Wire Wire Line
	10600 4850 10600 4900
Wire Wire Line
	11000 4850 11000 4900
$Comp
L Device:C C7
U 1 1 618B3CC3
P 10750 3650
F 0 "C7" H 10865 3696 50  0000 L CNN
F 1 "10uF" H 10800 3550 50  0000 L CNN
F 2 "" H 10788 3500 50  0001 C CNN
F 3 "~" H 10750 3650 50  0001 C CNN
	1    10750 3650
	1    0    0    -1  
$EndComp
$Comp
L Device:C C8
U 1 1 618B49BD
P 11100 3650
F 0 "C8" H 11215 3696 50  0000 L CNN
F 1 "0.1uF" H 11150 3550 50  0000 L CNN
F 2 "" H 11138 3500 50  0001 C CNN
F 3 "~" H 11100 3650 50  0001 C CNN
	1    11100 3650
	1    0    0    -1  
$EndComp
Wire Wire Line
	10750 3500 10750 3450
Connection ~ 10750 3450
Wire Wire Line
	11100 3500 11100 3450
Connection ~ 11100 3450
Wire Wire Line
	11100 3450 10750 3450
Wire Wire Line
	10750 3850 10750 3800
Wire Wire Line
	11100 3850 11100 3800
Wire Wire Line
	10250 3450 10750 3450
$Comp
L Device:C C6
U 1 1 618BFA57
P 11100 2850
F 0 "C6" H 11215 2896 50  0000 L CNN
F 1 "1uF" H 11215 2805 50  0000 L CNN
F 2 "" H 11138 2700 50  0001 C CNN
F 3 "~" H 11100 2850 50  0001 C CNN
	1    11100 2850
	1    0    0    -1  
$EndComp
Wire Wire Line
	11100 2700 11100 2650
Wire Wire Line
	11100 2650 11850 2650
Wire Wire Line
	11100 3050 11100 3000
Wire Wire Line
	11350 5400 11750 5400
NoConn ~ 11950 4800
Text Label 11600 5400 0    50   ~ 0
EN
Text Label 14750 4500 0    50   ~ 0
SD_D1
Text Label 14750 4600 0    50   ~ 0
SD_D0
Text Label 14750 4700 0    50   ~ 0
SD_CLK
Text Label 14750 4800 0    50   ~ 0
SD_CMD
Text Label 14750 4900 0    50   ~ 0
SD_D3
Text Label 14750 5000 0    50   ~ 0
SD_D2
$Comp
L Device:Crystal_GND2 ZQ1
U 1 1 618E1452
P 13550 2350
F 0 "ZQ1" H 13550 2618 50  0000 C CNN
F 1 "Crystal 26MHz" H 13550 2527 50  0000 C CNN
F 2 "" H 13550 2350 50  0001 C CNN
F 3 "~" H 13550 2350 50  0001 C CNN
	1    13550 2350
	1    0    0    -1  
$EndComp
Wire Wire Line
	13400 2350 13150 2350
Wire Wire Line
	13150 2350 13150 3700
Wire Wire Line
	13700 2350 13950 2350
Wire Wire Line
	13950 2350 13950 2950
Wire Wire Line
	13950 2950 13250 2950
Wire Wire Line
	13550 2550 13550 2600
$Comp
L Device:C C1
U 1 1 6189C106
P 13150 1950
F 0 "C1" H 13265 1996 50  0000 L CNN
F 1 "5.6pF" H 13265 1905 50  0000 L CNN
F 2 "" H 13188 1800 50  0001 C CNN
F 3 "~" H 13150 1950 50  0001 C CNN
	1    13150 1950
	1    0    0    -1  
$EndComp
$Comp
L Device:C C2
U 1 1 6189CD9B
P 13950 1950
F 0 "C2" H 14065 1996 50  0000 L CNN
F 1 "5.6pF" H 14065 1905 50  0000 L CNN
F 2 "" H 13988 1800 50  0001 C CNN
F 3 "~" H 13950 1950 50  0001 C CNN
	1    13950 1950
	1    0    0    -1  
$EndComp
Wire Wire Line
	13950 1700 13950 1800
Wire Wire Line
	13150 1700 13150 1800
Wire Wire Line
	13150 2100 13150 2350
Connection ~ 13150 2350
Wire Wire Line
	13950 2100 13950 2350
Connection ~ 13950 2350
$Comp
L Device:C C9
U 1 1 618B08C0
P 14750 3700
F 0 "C9" H 14865 3746 50  0000 L CNN
F 1 "1uF" H 14865 3655 50  0000 L CNN
F 2 "" H 14788 3550 50  0001 C CNN
F 3 "~" H 14750 3700 50  0001 C CNN
	1    14750 3700
	1    0    0    -1  
$EndComp
$Comp
L Device:R R2
U 1 1 618B14E3
P 14750 3250
F 0 "R2" H 14680 3204 50  0000 R CNN
F 1 "12k" H 14680 3295 50  0000 R CNN
F 2 "" V 14680 3250 50  0001 C CNN
F 3 "~" H 14750 3250 50  0001 C CNN
	1    14750 3250
	1    0    0    1   
$EndComp
Wire Wire Line
	14750 3400 14750 3450
Connection ~ 14750 3450
Wire Wire Line
	14750 3450 15000 3450
Wire Wire Line
	14750 3550 14750 3450
Wire Wire Line
	14750 3950 14750 3850
Wire Wire Line
	14750 3100 14750 2900
Text Label 14750 2900 0    50   ~ 0
VDD33
$Comp
L Device:R R3
U 1 1 618C525B
P 11200 5400
F 0 "R3" V 11250 5650 50  0000 R CNN
F 1 "12k" V 11250 5250 50  0000 R CNN
F 2 "" V 11130 5400 50  0001 C CNN
F 3 "~" H 11200 5400 50  0001 C CNN
	1    11200 5400
	0    -1   -1   0   
$EndComp
Wire Wire Line
	14100 4700 15000 4700
$Comp
L Device:C C13
U 1 1 618D89D8
P 10600 4700
F 0 "C13" H 10300 4750 50  0000 L CNN
F 1 "2.4pF" H 10300 4650 50  0000 L CNN
F 2 "" H 10638 4550 50  0001 C CNN
F 3 "~" H 10600 4700 50  0001 C CNN
	1    10600 4700
	1    0    0    -1  
$EndComp
Wire Wire Line
	8400 4100 8100 4100
Wire Wire Line
	9000 4100 9300 4100
Wire Wire Line
	9000 4200 9300 4200
Wire Wire Line
	9000 4350 9300 4350
Wire Wire Line
	9000 4450 9300 4450
Wire Wire Line
	9000 4550 9300 4550
Wire Wire Line
	9000 4650 9300 4650
Wire Wire Line
	8400 4350 8250 4350
Wire Wire Line
	8250 4350 8250 4450
Text Label 8150 4100 0    50   ~ 0
VDD33
Text Label 9100 4100 0    50   ~ 0
SD_CMD
Text Label 9100 4200 0    50   ~ 0
SD_CLK
Text Label 9100 4350 0    50   ~ 0
SD_D1
Text Label 9100 4450 0    50   ~ 0
SD_D0
Text Label 9100 4550 0    50   ~ 0
SD_D3
Text Label 9100 4650 0    50   ~ 0
SD_D2
Text Label 10300 5400 0    50   ~ 0
VDD33
Wire Wire Line
	8400 2900 8100 2900
Wire Wire Line
	8400 3000 8100 3000
Text Label 8150 2900 0    50   ~ 0
VDD5
Text Label 8150 3000 0    50   ~ 0
GPIO2
Wire Wire Line
	8400 3100 8150 3100
Wire Wire Line
	8150 3100 8150 3200
NoConn ~ 6200 7600
NoConn ~ 6200 7700
NoConn ~ 6200 7800
NoConn ~ 6200 7900
NoConn ~ 6200 8000
NoConn ~ 6200 8100
NoConn ~ 6200 8200
NoConn ~ 6200 8300
NoConn ~ 6200 8400
NoConn ~ 6200 8500
NoConn ~ 6200 8600
NoConn ~ 6200 8700
NoConn ~ 6200 8800
NoConn ~ 6200 8900
NoConn ~ 6200 9000
NoConn ~ 6200 9300
NoConn ~ 4300 7600
NoConn ~ 4300 7700
NoConn ~ 4300 7800
NoConn ~ 4300 7900
NoConn ~ 4300 8000
NoConn ~ 4300 8100
NoConn ~ 4300 8200
NoConn ~ 4300 8300
NoConn ~ 4300 8400
NoConn ~ 4300 8500
NoConn ~ 4300 8600
NoConn ~ 4300 8700
NoConn ~ 4300 8800
NoConn ~ 4300 8900
NoConn ~ 4300 9000
NoConn ~ 4300 9100
NoConn ~ 4300 9200
NoConn ~ 4300 9300
NoConn ~ 4300 9400
NoConn ~ 4300 9500
Wire Wire Line
	5750 5450 5300 5450
Text Label 5700 5450 2    50   ~ 0
TX
Wire Wire Line
	5200 2550 4850 2550
Wire Wire Line
	4400 3050 4850 3050
Wire Wire Line
	5500 3050 5500 2850
$Comp
L Device:CP C3
U 1 1 618E4D0F
P 4850 2800
F 0 "C3" H 4968 2846 50  0000 L CNN
F 1 "100uf" H 4968 2755 50  0000 L CNN
F 2 "" H 4888 2650 50  0001 C CNN
F 3 "~" H 4850 2800 50  0001 C CNN
	1    4850 2800
	1    0    0    -1  
$EndComp
$Comp
L Device:CP C4
U 1 1 618E5EE9
P 6050 2800
F 0 "C4" H 6168 2846 50  0000 L CNN
F 1 "10uF" H 6168 2755 50  0000 L CNN
F 2 "" H 6088 2650 50  0001 C CNN
F 3 "~" H 6050 2800 50  0001 C CNN
	1    6050 2800
	1    0    0    -1  
$EndComp
$Comp
L Device:CP C5
U 1 1 618E6FD6
P 6650 2800
F 0 "C5" H 6768 2846 50  0000 L CNN
F 1 "1uF" H 6768 2755 50  0000 L CNN
F 2 "" H 6688 2650 50  0001 C CNN
F 3 "~" H 6650 2800 50  0001 C CNN
	1    6650 2800
	1    0    0    -1  
$EndComp
Wire Wire Line
	6650 2550 6650 2650
Wire Wire Line
	5800 2550 6050 2550
Wire Wire Line
	6050 2650 6050 2550
Connection ~ 6050 2550
Wire Wire Line
	6050 2550 6650 2550
Wire Wire Line
	6050 2950 6050 3050
Wire Wire Line
	6050 3050 5500 3050
Connection ~ 5500 3050
Wire Wire Line
	6650 2950 6650 3050
Wire Wire Line
	6650 3050 6050 3050
Connection ~ 6050 3050
Wire Wire Line
	4850 2650 4850 2550
Connection ~ 4850 2550
Wire Wire Line
	4850 2950 4850 3050
Connection ~ 4850 3050
Wire Wire Line
	4850 3050 5500 3050
Wire Wire Line
	6650 2350 6650 2550
Connection ~ 6650 2550
Wire Wire Line
	5500 3050 5500 3200
$Comp
L power:+5V #PWR03
U 1 1 61915100
P 6650 2350
F 0 "#PWR03" H 6650 2200 50  0001 C CNN
F 1 "+5V" H 6665 2523 50  0000 C CNN
F 2 "" H 6650 2350 50  0001 C CNN
F 3 "" H 6650 2350 50  0001 C CNN
	1    6650 2350
	1    0    0    -1  
$EndComp
Text Label 6650 2400 0    50   ~ 0
VDD5
$Comp
L Regulator_Linear:LD1117S33TR_SOT223 DD3
U 1 1 6191D445
P 5500 3800
F 0 "DD3" H 5500 4042 50  0000 C CNN
F 1 "LD1117S33TR_SOT223" H 5500 3951 50  0000 C CNN
F 2 "Package_TO_SOT_SMD:SOT-223-3_TabPin2" H 5500 4000 50  0001 C CNN
F 3 "http://www.st.com/st-web-ui/static/active/en/resource/technical/document/datasheet/CD00000544.pdf" H 5600 3550 50  0001 C CNN
	1    5500 3800
	1    0    0    -1  
$EndComp
Wire Wire Line
	4300 2550 4850 2550
Wire Wire Line
	5200 3800 4850 3800
Wire Wire Line
	4400 4300 4850 4300
Wire Wire Line
	5500 4300 5500 4100
Wire Wire Line
	5500 4300 6050 4300
Connection ~ 5500 4300
Wire Wire Line
	6650 3600 6650 3800
$Comp
L Device:CP C10
U 1 1 619812F4
P 4850 4050
F 0 "C10" H 4968 4096 50  0000 L CNN
F 1 "100uf" H 4968 4005 50  0000 L CNN
F 2 "" H 4888 3900 50  0001 C CNN
F 3 "~" H 4850 4050 50  0001 C CNN
	1    4850 4050
	1    0    0    -1  
$EndComp
$Comp
L Device:CP C11
U 1 1 61981BC4
P 6050 4050
F 0 "C11" H 6168 4096 50  0000 L CNN
F 1 "10uF" H 6168 4005 50  0000 L CNN
F 2 "" H 6088 3900 50  0001 C CNN
F 3 "~" H 6050 4050 50  0001 C CNN
	1    6050 4050
	1    0    0    -1  
$EndComp
Wire Wire Line
	5800 3800 6050 3800
Wire Wire Line
	6050 3800 6050 3900
Wire Wire Line
	6650 3800 6050 3800
Connection ~ 6050 3800
Wire Wire Line
	6050 4200 6050 4300
Wire Wire Line
	4850 3900 4850 3800
Connection ~ 4850 3800
Wire Wire Line
	4850 3800 4300 3800
Wire Wire Line
	4850 4200 4850 4300
Connection ~ 4850 4300
Wire Wire Line
	4850 4300 5500 4300
Wire Wire Line
	5500 4450 5500 4300
$Comp
L power:+3.3V #PWR010
U 1 1 619D6222
P 6650 3600
F 0 "#PWR010" H 6650 3450 50  0001 C CNN
F 1 "+3.3V" H 6665 3773 50  0000 C CNN
F 2 "" H 6650 3600 50  0001 C CNN
F 3 "" H 6650 3600 50  0001 C CNN
	1    6650 3600
	1    0    0    -1  
$EndComp
Text Label 6650 3650 0    50   ~ 0
VDD33
Wire Wire Line
	4300 2550 4300 3450
Wire Wire Line
	4200 3450 4300 3450
Connection ~ 4300 3450
Wire Wire Line
	4300 3450 4300 3800
Wire Wire Line
	4200 3550 4400 3550
Wire Wire Line
	4400 3050 4400 3550
Connection ~ 4400 3550
Wire Wire Line
	4400 3550 4400 4300
Wire Notes Line
	15500 1000 15500 6750
Wire Notes Line
	15500 6750 2000 6750
Wire Notes Line
	2000 6750 2000 1000
Wire Notes Line
	2000 1000 15500 1000
Text Notes 2100 1300 0    157  ~ 0
Модуль комнатный x2
Wire Wire Line
	6750 9050 6500 9050
Wire Wire Line
	6500 9050 6500 9100
Wire Wire Line
	6500 9100 6200 9100
Wire Wire Line
	6200 9200 6500 9200
Wire Wire Line
	6500 9200 6500 9250
Wire Wire Line
	6500 9250 6750 9250
NoConn ~ 6200 9400
NoConn ~ 6200 9500
Text Notes 11600 8750 0    79   ~ 0
Разъем USB type C платы Raspberry Pi4 B к блоку питания +5B, 3A\nПереключатель SW1 при программировании перевести в положение 3\nПереключатель SW1 перед запуске ПО перевести в положение 1\n
$Comp
L MyLib:HC-SR501 DD2
U 1 1 619987AB
P 8700 3000
F 0 "DD2" H 8750 3250 50  0000 R CNN
F 1 "HC-SR501" H 8900 2750 50  0000 R CNN
F 2 "" H 8700 3250 50  0001 C CNN
F 3 "" H 8700 3250 50  0001 C CNN
	1    8700 3000
	-1   0    0    -1  
$EndComp
$Comp
L MyLib:Питание XP1
U 1 1 619B4FEE
P 3750 3450
F 0 "XP1" H 3783 3673 50  0000 C CNN
F 1 "Питание" H 3300 3200 50  0001 C CNN
F 2 "" H 3300 3650 50  0001 C CNN
F 3 "" H 3300 3650 50  0001 C CNN
	1    3750 3450
	1    0    0    -1  
$EndComp
$Comp
L MyLib:W25Q32 DD4
U 1 1 61A90F8D
P 8700 4400
F 0 "DD4" H 8700 4965 50  0000 C CNN
F 1 "W25Q32" H 8700 4874 50  0000 C CNN
F 2 "" H 8700 4800 50  0001 C CNN
F 3 "" H 8700 4800 50  0001 C CNN
	1    8700 4400
	1    0    0    -1  
$EndComp
NoConn ~ 14100 4400
NoConn ~ 13350 5800
NoConn ~ 13050 5800
NoConn ~ 12950 5800
NoConn ~ 12750 5800
NoConn ~ 12650 5800
$Comp
L power:Earth #PWR014
U 1 1 61971DA6
P 5500 4450
F 0 "#PWR014" H 5500 4200 50  0001 C CNN
F 1 "Earth" H 5500 4300 50  0001 C CNN
F 2 "" H 5500 4450 50  0001 C CNN
F 3 "~" H 5500 4450 50  0001 C CNN
	1    5500 4450
	1    0    0    -1  
$EndComp
$Comp
L power:Earth #PWR07
U 1 1 619744DF
P 5500 3200
F 0 "#PWR07" H 5500 2950 50  0001 C CNN
F 1 "Earth" H 5500 3050 50  0001 C CNN
F 2 "" H 5500 3200 50  0001 C CNN
F 3 "~" H 5500 3200 50  0001 C CNN
	1    5500 3200
	1    0    0    -1  
$EndComp
$Comp
L power:Earth #PWR08
U 1 1 61974D68
P 8150 3200
F 0 "#PWR08" H 8150 2950 50  0001 C CNN
F 1 "Earth" H 8150 3050 50  0001 C CNN
F 2 "" H 8150 3200 50  0001 C CNN
F 3 "~" H 8150 3200 50  0001 C CNN
	1    8150 3200
	1    0    0    -1  
$EndComp
$Comp
L power:Earth #PWR015
U 1 1 61976DB9
P 8250 4450
F 0 "#PWR015" H 8250 4200 50  0001 C CNN
F 1 "Earth" H 8250 4300 50  0001 C CNN
F 2 "" H 8250 4450 50  0001 C CNN
F 3 "~" H 8250 4450 50  0001 C CNN
	1    8250 4450
	1    0    0    -1  
$EndComp
$Comp
L power:Earth #PWR016
U 1 1 61978250
P 10600 4900
F 0 "#PWR016" H 10600 4650 50  0001 C CNN
F 1 "Earth" H 10600 4750 50  0001 C CNN
F 2 "" H 10600 4900 50  0001 C CNN
F 3 "~" H 10600 4900 50  0001 C CNN
	1    10600 4900
	1    0    0    -1  
$EndComp
$Comp
L power:Earth #PWR017
U 1 1 61979048
P 11000 4900
F 0 "#PWR017" H 11000 4650 50  0001 C CNN
F 1 "Earth" H 11000 4750 50  0001 C CNN
F 2 "" H 11000 4900 50  0001 C CNN
F 3 "~" H 11000 4900 50  0001 C CNN
	1    11000 4900
	1    0    0    -1  
$EndComp
$Comp
L power:Earth #PWR012
U 1 1 6197B74A
P 11100 3850
F 0 "#PWR012" H 11100 3600 50  0001 C CNN
F 1 "Earth" H 11100 3700 50  0001 C CNN
F 2 "" H 11100 3850 50  0001 C CNN
F 3 "~" H 11100 3850 50  0001 C CNN
	1    11100 3850
	1    0    0    -1  
$EndComp
$Comp
L power:Earth #PWR011
U 1 1 6197C32A
P 10750 3850
F 0 "#PWR011" H 10750 3600 50  0001 C CNN
F 1 "Earth" H 10750 3700 50  0001 C CNN
F 2 "" H 10750 3850 50  0001 C CNN
F 3 "~" H 10750 3850 50  0001 C CNN
	1    10750 3850
	1    0    0    -1  
$EndComp
$Comp
L power:Earth #PWR06
U 1 1 6197CC61
P 11100 3050
F 0 "#PWR06" H 11100 2800 50  0001 C CNN
F 1 "Earth" H 11100 2900 50  0001 C CNN
F 2 "" H 11100 3050 50  0001 C CNN
F 3 "~" H 11100 3050 50  0001 C CNN
	1    11100 3050
	1    0    0    -1  
$EndComp
$Comp
L power:Earth #PWR09
U 1 1 6197DA1F
P 12350 3450
F 0 "#PWR09" H 12350 3200 50  0001 C CNN
F 1 "Earth" H 12350 3300 50  0001 C CNN
F 2 "" H 12350 3450 50  0001 C CNN
F 3 "~" H 12350 3450 50  0001 C CNN
	1    12350 3450
	0    1    1    0   
$EndComp
$Comp
L power:Earth #PWR013
U 1 1 6197EC04
P 14750 3950
F 0 "#PWR013" H 14750 3700 50  0001 C CNN
F 1 "Earth" H 14750 3800 50  0001 C CNN
F 2 "" H 14750 3950 50  0001 C CNN
F 3 "~" H 14750 3950 50  0001 C CNN
	1    14750 3950
	1    0    0    -1  
$EndComp
$Comp
L power:Earth #PWR04
U 1 1 6197FDCE
P 13550 2600
F 0 "#PWR04" H 13550 2350 50  0001 C CNN
F 1 "Earth" H 13550 2450 50  0001 C CNN
F 2 "" H 13550 2600 50  0001 C CNN
F 3 "~" H 13550 2600 50  0001 C CNN
	1    13550 2600
	1    0    0    -1  
$EndComp
$Comp
L power:Earth #PWR05
U 1 1 6198089B
P 12850 3000
F 0 "#PWR05" H 12850 2750 50  0001 C CNN
F 1 "Earth" H 12850 2850 50  0001 C CNN
F 2 "" H 12850 3000 50  0001 C CNN
F 3 "~" H 12850 3000 50  0001 C CNN
	1    12850 3000
	-1   0    0    1   
$EndComp
$Comp
L power:Earth #PWR01
U 1 1 61982697
P 13150 1700
F 0 "#PWR01" H 13150 1450 50  0001 C CNN
F 1 "Earth" H 13150 1550 50  0001 C CNN
F 2 "" H 13150 1700 50  0001 C CNN
F 3 "~" H 13150 1700 50  0001 C CNN
	1    13150 1700
	-1   0    0    1   
$EndComp
$Comp
L power:Earth #PWR02
U 1 1 61982F6B
P 13950 1700
F 0 "#PWR02" H 13950 1450 50  0001 C CNN
F 1 "Earth" H 13950 1550 50  0001 C CNN
F 2 "" H 13950 1700 50  0001 C CNN
F 3 "~" H 13950 1700 50  0001 C CNN
	1    13950 1700
	-1   0    0    1   
$EndComp
Connection ~ 11100 2650
Wire Wire Line
	11100 2650 10250 2650
$Comp
L MyLib:Arrow X1
U 1 1 61A1C5B3
P 10200 2650
F 0 "X1" H 10200 2750 50  0001 C CNN
F 1 "Arrow" H 10200 2550 50  0001 C CNN
F 2 "" H 10200 2700 50  0001 C CNN
F 3 "" H 10200 2700 50  0001 C CNN
	1    10200 2650
	-1   0    0    1   
$EndComp
$Comp
L MyLib:Arrow X5
U 1 1 61A22432
P 10200 3450
F 0 "X5" H 10200 3550 50  0001 C CNN
F 1 "Arrow" H 10200 3350 50  0001 C CNN
F 2 "" H 10200 3500 50  0001 C CNN
F 3 "" H 10200 3500 50  0001 C CNN
	1    10200 3450
	-1   0    0    1   
$EndComp
$Comp
L MyLib:Arrow X3
U 1 1 61A230B3
P 8050 2900
F 0 "X3" H 8050 3000 50  0001 C CNN
F 1 "Arrow" H 8050 2800 50  0001 C CNN
F 2 "" H 8050 2950 50  0001 C CNN
F 3 "" H 8050 2950 50  0001 C CNN
	1    8050 2900
	-1   0    0    1   
$EndComp
$Comp
L MyLib:Arrow X4
U 1 1 61A2460A
P 8050 3000
F 0 "X4" H 8050 3100 50  0001 C CNN
F 1 "Arrow" H 8050 2900 50  0001 C CNN
F 2 "" H 8050 3050 50  0001 C CNN
F 3 "" H 8050 3050 50  0001 C CNN
	1    8050 3000
	-1   0    0    1   
$EndComp
$Comp
L MyLib:Arrow X2
U 1 1 61A3105A
P 14750 2850
F 0 "X2" H 14750 2950 50  0001 C CNN
F 1 "Arrow" H 14750 2750 50  0001 C CNN
F 2 "" H 14750 2900 50  0001 C CNN
F 3 "" H 14750 2900 50  0001 C CNN
	1    14750 2850
	0    -1   -1   0   
$EndComp
$Comp
L MyLib:Arrow X7
U 1 1 61A31E6D
P 14450 3550
F 0 "X7" H 14450 3650 50  0001 C CNN
F 1 "Arrow" H 14450 3450 50  0001 C CNN
F 2 "" H 14450 3600 50  0001 C CNN
F 3 "" H 14450 3600 50  0001 C CNN
	1    14450 3550
	1    0    0    -1  
$EndComp
$Comp
L MyLib:Arrow X8
U 1 1 61A328CC
P 14450 3650
F 0 "X8" H 14450 3750 50  0001 C CNN
F 1 "Arrow" H 14450 3550 50  0001 C CNN
F 2 "" H 14450 3700 50  0001 C CNN
F 3 "" H 14450 3700 50  0001 C CNN
	1    14450 3650
	1    0    0    -1  
$EndComp
$Comp
L MyLib:Arrow X14
U 1 1 61A34924
P 15050 4500
F 0 "X14" H 15050 4600 50  0001 C CNN
F 1 "Arrow" H 15050 4400 50  0001 C CNN
F 2 "" H 15050 4550 50  0001 C CNN
F 3 "" H 15050 4550 50  0001 C CNN
	1    15050 4500
	1    0    0    -1  
$EndComp
$Comp
L MyLib:Arrow X16
U 1 1 61A3492A
P 15050 4600
F 0 "X16" H 15050 4700 50  0001 C CNN
F 1 "Arrow" H 15050 4500 50  0001 C CNN
F 2 "" H 15050 4650 50  0001 C CNN
F 3 "" H 15050 4650 50  0001 C CNN
	1    15050 4600
	1    0    0    -1  
$EndComp
$Comp
L MyLib:Arrow X20
U 1 1 61A3CD8A
P 15050 4900
F 0 "X20" H 15050 5000 50  0001 C CNN
F 1 "Arrow" H 15050 4800 50  0001 C CNN
F 2 "" H 15050 4950 50  0001 C CNN
F 3 "" H 15050 4950 50  0001 C CNN
	1    15050 4900
	1    0    0    -1  
$EndComp
$Comp
L MyLib:Arrow X21
U 1 1 61A3CD90
P 15050 5000
F 0 "X21" H 15050 5100 50  0001 C CNN
F 1 "Arrow" H 15050 4900 50  0001 C CNN
F 2 "" H 15050 5050 50  0001 C CNN
F 3 "" H 15050 5050 50  0001 C CNN
	1    15050 5000
	1    0    0    -1  
$EndComp
$Comp
L MyLib:Arrow X18
U 1 1 61A46975
P 15050 4700
F 0 "X18" H 15050 4800 50  0001 C CNN
F 1 "Arrow" H 15050 4600 50  0001 C CNN
F 2 "" H 15050 4750 50  0001 C CNN
F 3 "" H 15050 4750 50  0001 C CNN
	1    15050 4700
	1    0    0    -1  
$EndComp
$Comp
L MyLib:Arrow X19
U 1 1 61A4697B
P 15050 4800
F 0 "X19" H 15050 4900 50  0001 C CNN
F 1 "Arrow" H 15050 4700 50  0001 C CNN
F 2 "" H 15050 4850 50  0001 C CNN
F 3 "" H 15050 4850 50  0001 C CNN
	1    15050 4800
	1    0    0    -1  
$EndComp
$Comp
L MyLib:Arrow X15
U 1 1 61A586F7
P 9350 4550
F 0 "X15" H 9350 4650 50  0001 C CNN
F 1 "Arrow" H 9350 4450 50  0001 C CNN
F 2 "" H 9350 4600 50  0001 C CNN
F 3 "" H 9350 4600 50  0001 C CNN
	1    9350 4550
	1    0    0    -1  
$EndComp
$Comp
L MyLib:Arrow X17
U 1 1 61A586FD
P 9350 4650
F 0 "X17" H 9350 4750 50  0001 C CNN
F 1 "Arrow" H 9350 4550 50  0001 C CNN
F 2 "" H 9350 4700 50  0001 C CNN
F 3 "" H 9350 4700 50  0001 C CNN
	1    9350 4650
	1    0    0    -1  
$EndComp
$Comp
L MyLib:Arrow X12
U 1 1 61A606FF
P 9350 4350
F 0 "X12" H 9350 4450 50  0001 C CNN
F 1 "Arrow" H 9350 4250 50  0001 C CNN
F 2 "" H 9350 4400 50  0001 C CNN
F 3 "" H 9350 4400 50  0001 C CNN
	1    9350 4350
	1    0    0    -1  
$EndComp
$Comp
L MyLib:Arrow X13
U 1 1 61A60705
P 9350 4450
F 0 "X13" H 9350 4550 50  0001 C CNN
F 1 "Arrow" H 9350 4350 50  0001 C CNN
F 2 "" H 9350 4500 50  0001 C CNN
F 3 "" H 9350 4500 50  0001 C CNN
	1    9350 4450
	1    0    0    -1  
$EndComp
$Comp
L MyLib:Arrow X10
U 1 1 61A704C9
P 9350 4100
F 0 "X10" H 9350 4200 50  0001 C CNN
F 1 "Arrow" H 9350 4000 50  0001 C CNN
F 2 "" H 9350 4150 50  0001 C CNN
F 3 "" H 9350 4150 50  0001 C CNN
	1    9350 4100
	1    0    0    -1  
$EndComp
$Comp
L MyLib:Arrow X11
U 1 1 61A704CF
P 9350 4200
F 0 "X11" H 9350 4300 50  0001 C CNN
F 1 "Arrow" H 9350 4100 50  0001 C CNN
F 2 "" H 9350 4250 50  0001 C CNN
F 3 "" H 9350 4250 50  0001 C CNN
	1    9350 4200
	1    0    0    -1  
$EndComp
$Comp
L MyLib:Arrow X24
U 1 1 61A931FD
P 5800 5450
F 0 "X24" H 5800 5550 50  0001 C CNN
F 1 "Arrow" H 5800 5350 50  0001 C CNN
F 2 "" H 5800 5500 50  0001 C CNN
F 3 "" H 5800 5500 50  0001 C CNN
	1    5800 5450
	1    0    0    1   
$EndComp
$Comp
L MyLib:Arrow X9
U 1 1 61A9D5E2
P 8050 4100
F 0 "X9" H 8050 4200 50  0001 C CNN
F 1 "Arrow" H 8050 4000 50  0001 C CNN
F 2 "" H 8050 4150 50  0001 C CNN
F 3 "" H 8050 4150 50  0001 C CNN
	1    8050 4100
	-1   0    0    1   
$EndComp
$Comp
L MyLib:Arrow X23
U 1 1 61AB7C22
P 10200 5400
F 0 "X23" H 10200 5500 50  0001 C CNN
F 1 "Arrow" H 10200 5300 50  0001 C CNN
F 2 "" H 10200 5450 50  0001 C CNN
F 3 "" H 10200 5450 50  0001 C CNN
	1    10200 5400
	-1   0    0    1   
$EndComp
$Comp
L MyLib:Arrow X26
U 1 1 61AC86B4
P 15050 6000
F 0 "X26" H 15050 6100 50  0001 C CNN
F 1 "Arrow" H 15050 5900 50  0001 C CNN
F 2 "" H 15050 6050 50  0001 C CNN
F 3 "" H 15050 6050 50  0001 C CNN
	1    15050 6000
	1    0    0    -1  
$EndComp
$Comp
L MyLib:Arrow X6
U 1 1 61AD1513
P 15050 3450
F 0 "X6" H 15050 3550 50  0001 C CNN
F 1 "Arrow" H 15050 3350 50  0001 C CNN
F 2 "" H 15050 3500 50  0001 C CNN
F 3 "" H 15050 3500 50  0001 C CNN
	1    15050 3450
	1    0    0    -1  
$EndComp
Text Label 10300 3450 0    50   ~ 0
VDD33
$Comp
L Regulator_Linear:L78L05_SOT89 DD1
U 1 1 619C886D
P 5500 2550
F 0 "DD1" H 5500 2792 50  0000 C CNN
F 1 "L78L05_SOT89" H 5500 2701 50  0000 C CNN
F 2 "Package_TO_SOT_SMD:SOT-89-3" H 5500 2750 50  0001 C CIN
F 3 "http://www.st.com/content/ccc/resource/technical/document/datasheet/15/55/e5/aa/23/5b/43/fd/CD00000446.pdf/files/CD00000446.pdf/jcr:content/translations/en.CD00000446.pdf" H 5500 2500 50  0001 C CNN
	1    5500 2550
	1    0    0    -1  
$EndComp
Wire Wire Line
	11050 5400 10250 5400
NoConn ~ 11950 4900
NoConn ~ 11950 5100
$Comp
L MyLib:Arrow X29
U 1 1 61A9A6A2
P 13150 6550
F 0 "X29" H 13150 6650 50  0001 C CNN
F 1 "Arrow" H 13150 6450 50  0001 C CNN
F 2 "" H 13150 6600 50  0001 C CNN
F 3 "" H 13150 6600 50  0001 C CNN
	1    13150 6550
	0    1    1    0   
$EndComp
Wire Wire Line
	13150 5800 13150 6500
Text Label 13150 6450 1    50   ~ 0
GPIO2
$Comp
L Switch:SW_SPDT SW1
U 1 1 61AB73FF
P 14450 6400
F 0 "SW1" H 14450 6685 50  0000 C CNN
F 1 "Переключатель" H 14450 6594 50  0000 C CNN
F 2 "" H 14450 6400 50  0001 C CNN
F 3 "~" H 14450 6400 50  0001 C CNN
	1    14450 6400
	1    0    0    -1  
$EndComp
Text Label 14950 6300 2    50   ~ 0
VDD33
$Comp
L MyLib:Arrow X22
U 1 1 61AD2243
P 15050 6300
F 0 "X22" H 15050 6400 50  0001 C CNN
F 1 "Arrow" H 15050 6200 50  0001 C CNN
F 2 "" H 15050 6350 50  0001 C CNN
F 3 "" H 15050 6350 50  0001 C CNN
	1    15050 6300
	1    0    0    -1  
$EndComp
Wire Wire Line
	14650 6300 15000 6300
Wire Wire Line
	14650 6500 15000 6500
$Comp
L power:Earth #PWR018
U 1 1 61AE8737
P 15000 6500
F 0 "#PWR018" H 15000 6250 50  0001 C CNN
F 1 "Earth" H 15000 6350 50  0001 C CNN
F 2 "" H 15000 6500 50  0001 C CNN
F 3 "~" H 15000 6500 50  0001 C CNN
	1    15000 6500
	0    -1   -1   0   
$EndComp
Wire Wire Line
	5750 5350 5300 5350
Wire Wire Line
	5750 5650 5300 5650
Text Label 5700 5350 2    50   ~ 0
VDD33
$Comp
L MyLib:Arrow X27
U 1 1 61AEE598
P 5800 5350
F 0 "X27" H 5800 5450 50  0001 C CNN
F 1 "Arrow" H 5800 5250 50  0001 C CNN
F 2 "" H 5800 5400 50  0001 C CNN
F 3 "" H 5800 5400 50  0001 C CNN
	1    5800 5350
	1    0    0    1   
$EndComp
$Comp
L power:Earth #PWR0101
U 1 1 61AF46CB
P 5750 5650
F 0 "#PWR0101" H 5750 5400 50  0001 C CNN
F 1 "Earth" H 5750 5500 50  0001 C CNN
F 2 "" H 5750 5650 50  0001 C CNN
F 3 "~" H 5750 5650 50  0001 C CNN
	1    5750 5650
	0    -1   1    0   
$EndComp
Wire Wire Line
	13250 5800 13250 6400
Wire Wire Line
	13250 6400 14250 6400
$Comp
L MyLib:USB_UART XP2
U 1 1 61C82A9B
P 4950 5500
F 0 "XP2" H 5007 5873 50  0000 C CNN
F 1 "USB_UART" H 4950 5250 50  0001 C CNN
F 2 "" H 5050 5800 50  0001 C CNN
F 3 "" H 5150 5850 50  0001 C CNN
	1    4950 5500
	1    0    0    -1  
$EndComp
$Comp
L MyLib:Arrow X25
U 1 1 61A931F7
P 5800 5550
F 0 "X25" H 5800 5650 50  0001 C CNN
F 1 "Arrow" H 5800 5450 50  0001 C CNN
F 2 "" H 5800 5600 50  0001 C CNN
F 3 "" H 5800 5600 50  0001 C CNN
	1    5800 5550
	1    0    0    1   
$EndComp
Text Label 5700 5550 2    50   ~ 0
RX
Wire Wire Line
	5750 5550 5300 5550
$EndSCHEMATC
