EESchema Schematic File Version 4
EELAYER 30 0
EELAYER END
$Descr A3 16535 11693
encoding utf-8
Sheet 1 1
Title "Урок 1"
Date ""
Rev ""
Comp ""
Comment1 ""
Comment2 "Сапарбаев Т.Р."
Comment3 ""
Comment4 ""
$EndDescr
$Comp
L Device:R R2
U 1 1 61752AEC
P 7400 5150
F 0 "R2" V 7607 5150 50  0000 C CNN
F 1 "1 k" V 7516 5150 50  0000 C CNN
F 2 "" V 7330 5150 50  0001 C CNN
F 3 "~" H 7400 5150 50  0001 C CNN
	1    7400 5150
	0    -1   -1   0   
$EndComp
$Comp
L Device:R R1
U 1 1 617535D4
P 7300 6400
F 0 "R1" V 7093 6400 50  0000 C CNN
F 1 "100" V 7184 6400 50  0000 C CNN
F 2 "" V 7230 6400 50  0001 C CNN
F 3 "~" H 7300 6400 50  0001 C CNN
	1    7300 6400
	0    1    1    0   
$EndComp
$Comp
L MCU_Microchip_PIC12:PIC12C508A-ISN U1
U 1 1 61754E34
P 5600 5500
F 0 "U1" H 5900 6000 50  0000 C CNN
F 1 "PIC12C508A-ISN" H 5200 6000 50  0000 C CNN
F 2 "Package_DIP:DIP-8_W7.62mm" H 6200 6150 50  0001 C CNN
F 3 "http://ww1.microchip.com/downloads/en/devicedoc/40139e.pdf" H 5600 5500 50  0001 C CNN
	1    5600 5500
	-1   0    0    -1  
$EndComp
$Comp
L Device:LED D1
U 1 1 61755344
P 6900 5150
F 0 "D1" H 6893 5367 50  0000 C CNN
F 1 "LED" H 6893 5276 50  0000 C CNN
F 2 "" H 6900 5150 50  0001 C CNN
F 3 "~" H 6900 5150 50  0001 C CNN
	1    6900 5150
	1    0    0    -1  
$EndComp
$Comp
L mylib:MYCONN3 J1
U 1 1 6176195F
P 5950 6200
F 0 "J1" H 6000 5800 50  0000 C CNN
F 1 "MYCONN3" H 6000 6200 50  0000 C CNN
F 2 "" H 5950 6200 50  0001 C CNN
F 3 "" H 5950 6200 50  0001 C CNN
	1    5950 6200
	1    0    0    -1  
$EndComp
$Comp
L power:GND #PWR04
U 1 1 6176537E
P 6450 6600
F 0 "#PWR04" H 6450 6350 50  0001 C CNN
F 1 "GND" H 6455 6427 50  0000 C CNN
F 2 "" H 6450 6600 50  0001 C CNN
F 3 "" H 6450 6600 50  0001 C CNN
	1    6450 6600
	1    0    0    -1  
$EndComp
$Comp
L power:VCC #PWR06
U 1 1 617676CF
P 7750 5000
F 0 "#PWR06" H 7750 4850 50  0001 C CNN
F 1 "VCC" H 7765 5173 50  0000 C CNN
F 2 "" H 7750 5000 50  0001 C CNN
F 3 "" H 7750 5000 50  0001 C CNN
	1    7750 5000
	1    0    0    -1  
$EndComp
$Comp
L power:VCC #PWR03
U 1 1 617690DC
P 6450 6150
F 0 "#PWR03" H 6450 6000 50  0001 C CNN
F 1 "VCC" H 6465 6323 50  0000 C CNN
F 2 "" H 6450 6150 50  0001 C CNN
F 3 "" H 6450 6150 50  0001 C CNN
	1    6450 6150
	1    0    0    -1  
$EndComp
$Comp
L power:GND #PWR02
U 1 1 61769B92
P 5600 6400
F 0 "#PWR02" H 5600 6150 50  0001 C CNN
F 1 "GND" H 5605 6227 50  0000 C CNN
F 2 "" H 5600 6400 50  0001 C CNN
F 3 "" H 5600 6400 50  0001 C CNN
	1    5600 6400
	1    0    0    -1  
$EndComp
Wire Wire Line
	6350 6500 6450 6500
Wire Wire Line
	6450 6500 6450 6600
Wire Wire Line
	6350 6300 6450 6300
Wire Wire Line
	6450 6300 6450 6150
Wire Wire Line
	6350 6400 7150 6400
Wire Wire Line
	7550 5150 7750 5150
Wire Wire Line
	7750 5150 7750 5000
Wire Wire Line
	5600 6100 5600 6400
$Comp
L power:VCC #PWR01
U 1 1 6176CD03
P 5600 4700
F 0 "#PWR01" H 5600 4550 50  0001 C CNN
F 1 "VCC" H 5615 4873 50  0000 C CNN
F 2 "" H 5600 4700 50  0001 C CNN
F 3 "" H 5600 4700 50  0001 C CNN
	1    5600 4700
	1    0    0    -1  
$EndComp
Wire Wire Line
	5600 4700 5600 4900
Wire Wire Line
	7450 6400 7900 6400
Text Label 7650 6400 0    50   ~ 0
INPUT
Wire Wire Line
	6200 5400 6500 5400
Wire Wire Line
	6500 5400 6500 5150
Wire Wire Line
	6500 5150 6750 5150
Text Label 6500 5350 0    50   ~ 0
uCtoLED
Wire Wire Line
	7250 5150 7050 5150
Text Label 7100 5150 3    50   ~ 0
LEDtoR
Wire Wire Line
	6200 5500 6800 5500
Text Label 6550 5500 0    50   ~ 0
INPUT
Text Label 6600 6400 0    50   ~ 0
INPUTtoR
NoConn ~ 5000 5600
NoConn ~ 5000 5500
NoConn ~ 5000 5400
NoConn ~ 6200 5600
$Comp
L power:PWR_FLAG #FLG01
U 1 1 61771C95
P 7550 5750
F 0 "#FLG01" H 7550 5825 50  0001 C CNN
F 1 "PWR_FLAG" H 7550 5923 50  0000 C CNN
F 2 "" H 7550 5750 50  0001 C CNN
F 3 "~" H 7550 5750 50  0001 C CNN
	1    7550 5750
	1    0    0    -1  
$EndComp
$Comp
L power:PWR_FLAG #FLG02
U 1 1 61772300
P 8000 5750
F 0 "#FLG02" H 8000 5825 50  0001 C CNN
F 1 "PWR_FLAG" H 8000 5923 50  0000 C CNN
F 2 "" H 8000 5750 50  0001 C CNN
F 3 "~" H 8000 5750 50  0001 C CNN
	1    8000 5750
	1    0    0    -1  
$EndComp
$Comp
L power:VCC #PWR07
U 1 1 617728E8
P 8000 5850
F 0 "#PWR07" H 8000 5700 50  0001 C CNN
F 1 "VCC" H 8015 6023 50  0000 C CNN
F 2 "" H 8000 5850 50  0001 C CNN
F 3 "" H 8000 5850 50  0001 C CNN
	1    8000 5850
	-1   0    0    1   
$EndComp
$Comp
L power:GND #PWR05
U 1 1 61773CFA
P 7550 5850
F 0 "#PWR05" H 7550 5600 50  0001 C CNN
F 1 "GND" H 7555 5677 50  0000 C CNN
F 2 "" H 7550 5850 50  0001 C CNN
F 3 "" H 7550 5850 50  0001 C CNN
	1    7550 5850
	1    0    0    -1  
$EndComp
Wire Wire Line
	7550 5750 7550 5850
Wire Wire Line
	8000 5750 8000 5850
$EndSCHEMATC
