EESchema Schematic File Version 4
EELAYER 30 0
EELAYER END
$Descr A3 16535 11693
encoding utf-8
Sheet 1 1
Title ""
Date ""
Rev ""
Comp "МГТУ им. Баумана"
Comment1 "Курсовая"
Comment2 "Горский Г. Е."
Comment3 "Хохлов С. А."
Comment4 ""
$EndDescr
Wire Wire Line
	4400 3600 5900 3600
Entry Wire Line
	5900 3600 6000 3700
Wire Wire Line
	4400 3700 5900 3700
Entry Wire Line
	5900 3700 6000 3800
Entry Wire Line
	5900 3800 6000 3900
Entry Wire Line
	5900 3900 6000 4000
Wire Wire Line
	4400 3800 5900 3800
Wire Wire Line
	5900 3900 4400 3900
Text Label 5700 3600 0    50   ~ 0
SS
Text Label 5700 3700 0    50   ~ 0
MOSI
Text Label 5700 3800 0    50   ~ 0
MISO
Text Label 5700 3900 0    50   ~ 0
SCK
Wire Wire Line
	4400 5000 5900 5000
Wire Wire Line
	4400 5100 5900 5100
Entry Wire Line
	5900 5000 6000 5100
Entry Wire Line
	5900 5100 6000 5200
Text Label 5700 5000 0    50   ~ 0
RX
Text Label 5700 5100 0    50   ~ 0
TX
Wire Wire Line
	4400 4100 5900 4100
Wire Wire Line
	4400 4200 5900 4200
Entry Wire Line
	5900 4100 6000 4200
Entry Wire Line
	5900 4200 6000 4300
Text Label 5700 4100 0    50   ~ 0
SCL
Text Label 5700 4200 0    50   ~ 0
SDA
$Comp
L Device:Crystal ZQ1
U 1 1 620474D9
P 2900 2600
F 0 "ZQ1" V 2900 2731 50  0000 L CNN
F 1 "Crystal" V 2945 2731 50  0001 L CNN
F 2 "" H 2900 2600 50  0001 C CNN
F 3 "~" H 2900 2600 50  0001 C CNN
	1    2900 2600
	0    1    1    0   
$EndComp
Wire Wire Line
	2900 2450 3150 2450
Wire Wire Line
	3150 2450 3150 2500
Wire Wire Line
	3150 2500 3200 2500
Wire Wire Line
	3150 2750 3150 2700
Wire Wire Line
	3150 2700 3200 2700
$Comp
L Device:C C1
U 1 1 62049444
P 2350 2450
F 0 "C1" V 2098 2450 50  0000 C CNN
F 1 "33pF" V 2189 2450 50  0000 C CNN
F 2 "" H 2388 2300 50  0001 C CNN
F 3 "~" H 2350 2450 50  0001 C CNN
	1    2350 2450
	0    1    1    0   
$EndComp
$Comp
L Device:C C2
U 1 1 6204CD16
P 2350 2850
F 0 "C2" V 2098 2850 50  0000 C CNN
F 1 "33pF" V 2189 2850 50  0000 C CNN
F 2 "" H 2388 2700 50  0001 C CNN
F 3 "~" H 2350 2850 50  0001 C CNN
	1    2350 2850
	0    1    1    0   
$EndComp
Wire Wire Line
	2500 2850 2900 2850
Wire Wire Line
	2900 2850 2900 2750
Connection ~ 2900 2750
Wire Wire Line
	2900 2450 2500 2450
Connection ~ 2900 2450
$Comp
L power:GND #PWR03
U 1 1 6204F254
P 1800 3000
F 0 "#PWR03" H 1800 2750 50  0001 C CNN
F 1 "GND" H 1805 2827 50  0000 C CNN
F 2 "" H 1800 3000 50  0001 C CNN
F 3 "" H 1800 3000 50  0001 C CNN
	1    1800 3000
	1    0    0    -1  
$EndComp
Wire Wire Line
	4400 2300 5900 2300
Wire Wire Line
	4400 2400 5900 2400
Entry Wire Line
	5900 2300 6000 2400
Entry Wire Line
	5900 2400 6000 2500
Text Label 5550 2300 0    50   ~ 0
COOLER1
Text Label 5550 2400 0    50   ~ 0
COOLER2
$Comp
L power:VCC #PWR07
U 1 1 62052130
P 3800 1650
F 0 "#PWR07" H 3800 1500 50  0001 C CNN
F 1 "VCC" H 3815 1823 50  0000 C CNN
F 2 "" H 3800 1650 50  0001 C CNN
F 3 "" H 3800 1650 50  0001 C CNN
	1    3800 1650
	1    0    0    -1  
$EndComp
$Comp
L Switch:SW_DPST_x2 SW1
U 1 1 62057107
P 2250 1750
F 0 "SW1" H 2250 1985 50  0000 C CNN
F 1 "SW_DPST_x2" H 2250 1894 50  0000 C CNN
F 2 "" H 2250 1750 50  0001 C CNN
F 3 "~" H 2250 1750 50  0001 C CNN
	1    2250 1750
	1    0    0    -1  
$EndComp
$Comp
L power:GND #PWR02
U 1 1 62059369
P 1550 1850
F 0 "#PWR02" H 1550 1600 50  0001 C CNN
F 1 "GND" H 1555 1677 50  0000 C CNN
F 2 "" H 1550 1850 50  0001 C CNN
F 3 "" H 1550 1850 50  0001 C CNN
	1    1550 1850
	1    0    0    -1  
$EndComp
Wire Wire Line
	1550 1750 1550 1850
Wire Wire Line
	3200 2300 2950 2300
Wire Wire Line
	2950 2300 2950 1750
$Comp
L Device:R R2
U 1 1 6205ABD3
P 2750 1300
F 0 "R2" H 2820 1346 50  0000 L CNN
F 1 "10k" H 2820 1255 50  0000 L CNN
F 2 "" V 2680 1300 50  0001 C CNN
F 3 "~" H 2750 1300 50  0001 C CNN
	1    2750 1300
	1    0    0    -1  
$EndComp
Wire Wire Line
	2750 1150 3400 1150
Wire Wire Line
	2750 1450 2750 1750
Connection ~ 2750 1750
Wire Wire Line
	2750 1750 2450 1750
Wire Wire Line
	2950 1750 2750 1750
$Comp
L Device:C C3
U 1 1 6205ED95
P 2600 2050
F 0 "C3" V 2348 2050 50  0000 C CNN
F 1 "100uF" V 2439 2050 50  0000 C CNN
F 2 "" H 2638 1900 50  0001 C CNN
F 3 "~" H 2600 2050 50  0001 C CNN
	1    2600 2050
	0    1    1    0   
$EndComp
Wire Wire Line
	2750 2050 2750 1750
$Comp
L Switch:SW_DPST_x2 SW1
U 2 1 620633A7
P 2350 5000
F 0 "SW1" H 2350 5235 50  0000 C CNN
F 1 "SW_DPST_x2" H 2350 5144 50  0000 C CNN
F 2 "" H 2350 5000 50  0001 C CNN
F 3 "~" H 2350 5000 50  0001 C CNN
	2    2350 5000
	1    0    0    -1  
$EndComp
Wire Wire Line
	2550 5000 2650 5000
$Comp
L Device:R R1
U 1 1 62064DDC
P 2650 5250
F 0 "R1" H 2720 5296 50  0000 L CNN
F 1 "1k" H 2720 5205 50  0000 L CNN
F 2 "" V 2580 5250 50  0001 C CNN
F 3 "~" H 2650 5250 50  0001 C CNN
	1    2650 5250
	1    0    0    -1  
$EndComp
Wire Wire Line
	2650 5100 2650 5000
Connection ~ 2650 5000
Wire Wire Line
	2650 5000 3200 5000
Wire Wire Line
	2650 5400 2650 6050
$Comp
L power:VCC #PWR01
U 1 1 62067352
P 1500 4950
F 0 "#PWR01" H 1500 4800 50  0001 C CNN
F 1 "VCC" H 1515 5123 50  0000 C CNN
F 2 "" H 1500 4950 50  0001 C CNN
F 3 "" H 1500 4950 50  0001 C CNN
	1    1500 4950
	1    0    0    -1  
$EndComp
Wire Wire Line
	1500 5000 1500 4950
Wire Wire Line
	1500 5000 2150 5000
Wire Wire Line
	1550 1750 2050 1750
Wire Wire Line
	2450 2050 2150 2050
Wire Wire Line
	2200 2450 2150 2450
Wire Wire Line
	2150 2450 2150 2050
NoConn ~ 3200 5100
NoConn ~ 3200 5200
NoConn ~ 4400 2500
NoConn ~ 4400 2600
NoConn ~ 4400 2700
NoConn ~ 4400 2800
NoConn ~ 4400 2900
NoConn ~ 4400 3000
NoConn ~ 4400 3200
NoConn ~ 4400 3300
NoConn ~ 4400 3400
NoConn ~ 4400 3500
NoConn ~ 4400 4300
NoConn ~ 4400 4400
NoConn ~ 4400 4500
NoConn ~ 4400 4600
NoConn ~ 4400 4700
NoConn ~ 4400 4800
NoConn ~ 4400 5200
NoConn ~ 4400 5300
NoConn ~ 4400 5400
NoConn ~ 4400 5500
NoConn ~ 4400 5600
NoConn ~ 4400 5700
$Comp
L mylib:XP1 D1
U 1 1 6208B72E
P 1500 7600
F 0 "D1" H 1650 7600 50  0001 C CNN
F 1 "XP1" H 1833 7673 50  0000 C CNN
F 2 "" H 1650 7600 50  0001 C CNN
F 3 "" H 1650 7600 50  0001 C CNN
	1    1500 7600
	1    0    0    -1  
$EndComp
Wire Wire Line
	2800 7750 2400 7750
$Comp
L Regulator_Linear:L78L05_SO8 U1
U 1 1 6208E3D6
P 3550 7400
F 0 "U1" H 3550 7642 50  0000 C CNN
F 1 "L78L05_SO8" H 3550 7551 50  0000 C CNN
F 2 "Package_SO:SOIC-8_3.9x4.9mm_P1.27mm" H 3650 7600 50  0001 C CIN
F 3 "http://www.st.com/content/ccc/resource/technical/document/datasheet/15/55/e5/aa/23/5b/43/fd/CD00000446.pdf/files/CD00000446.pdf/jcr:content/translations/en.CD00000446.pdf" H 3750 7400 50  0001 C CNN
	1    3550 7400
	1    0    0    -1  
$EndComp
Wire Wire Line
	3550 7700 3550 7850
Wire Wire Line
	3550 7850 3150 7850
Wire Wire Line
	3250 7400 3150 7400
Wire Wire Line
	2400 7400 2400 7750
Connection ~ 2400 7750
Wire Wire Line
	2400 7750 2150 7750
$Comp
L Device:C C4
U 1 1 62092E03
P 3150 7700
F 0 "C4" H 3035 7654 50  0000 R CNN
F 1 "100uF" H 3035 7745 50  0000 R CNN
F 2 "" H 3188 7550 50  0001 C CNN
F 3 "~" H 3150 7700 50  0001 C CNN
	1    3150 7700
	-1   0    0    1   
$EndComp
Connection ~ 3150 7850
Wire Wire Line
	3150 7850 2150 7850
Wire Wire Line
	3150 7400 3150 7550
Connection ~ 3150 7400
Wire Wire Line
	3150 7400 2400 7400
Wire Wire Line
	4850 7300 4850 7400
Wire Wire Line
	4850 7400 4150 7400
$Comp
L Device:C C6
U 1 1 6209BDE1
P 4150 7650
F 0 "C6" H 4035 7604 50  0000 R CNN
F 1 "10uF" H 4035 7695 50  0000 R CNN
F 2 "" H 4188 7500 50  0001 C CNN
F 3 "~" H 4150 7650 50  0001 C CNN
	1    4150 7650
	-1   0    0    1   
$EndComp
Wire Wire Line
	4150 7800 4150 7850
Wire Wire Line
	4150 7850 3550 7850
Connection ~ 3550 7850
Wire Wire Line
	4150 7500 4150 7400
Connection ~ 4150 7400
Wire Wire Line
	4150 7400 3850 7400
$Comp
L Own_components:ISP6PIN XP1
U 1 1 620A4C73
P 4800 6400
F 0 "XP1" H 4808 6965 50  0000 C CNN
F 1 "ISP6PIN" H 4808 6874 50  0000 C CNN
F 2 "" H 4800 6850 50  0001 C CNN
F 3 "" H 4800 6850 50  0001 C CNN
	1    4800 6400
	1    0    0    -1  
$EndComp
Wire Wire Line
	5100 6150 5900 6150
Entry Wire Line
	5900 6150 6000 6250
Text Label 5700 6150 0    50   ~ 0
MISO
Wire Wire Line
	5100 6350 5900 6350
Wire Wire Line
	5100 6450 5900 6450
Wire Wire Line
	3800 1650 3800 1800
$Comp
L power:VCC #PWR06
U 1 1 620B2527
P 3400 1150
F 0 "#PWR06" H 3400 1000 50  0001 C CNN
F 1 "VCC" H 3415 1323 50  0000 C CNN
F 2 "" H 3400 1150 50  0001 C CNN
F 3 "" H 3400 1150 50  0001 C CNN
	1    3400 1150
	1    0    0    -1  
$EndComp
Wire Wire Line
	2950 1750 3700 1750
Wire Wire Line
	3700 1750 3700 1300
Wire Wire Line
	3700 1300 5650 1300
Wire Wire Line
	5650 1300 5650 2000
Wire Wire Line
	5650 2000 5900 2000
Connection ~ 2950 1750
Entry Wire Line
	5900 2000 6000 2100
Text Label 5650 2000 0    50   ~ 0
RESET
Wire Wire Line
	5100 6550 5900 6550
Entry Wire Line
	5900 6350 6000 6450
Entry Wire Line
	5900 6450 6000 6550
Entry Wire Line
	5900 6550 6000 6650
$Comp
L power:VCC #PWR011
U 1 1 620B7CF8
P 5550 6200
F 0 "#PWR011" H 5550 6050 50  0001 C CNN
F 1 "VCC" H 5565 6373 50  0000 C CNN
F 2 "" H 5550 6200 50  0001 C CNN
F 3 "" H 5550 6200 50  0001 C CNN
	1    5550 6200
	1    0    0    -1  
$EndComp
Wire Wire Line
	5100 6250 5550 6250
Wire Wire Line
	5550 6250 5550 6200
$Comp
L power:+12V #PWR05
U 1 1 620BDEC8
P 2800 7750
F 0 "#PWR05" H 2800 7600 50  0001 C CNN
F 1 "+12V" H 2815 7923 50  0000 C CNN
F 2 "" H 2800 7750 50  0001 C CNN
F 3 "" H 2800 7750 50  0001 C CNN
	1    2800 7750
	1    0    0    -1  
$EndComp
$Comp
L power:VCC #PWR010
U 1 1 620BFDD9
P 4850 7300
F 0 "#PWR010" H 4850 7150 50  0001 C CNN
F 1 "VCC" H 4865 7473 50  0000 C CNN
F 2 "" H 4850 7300 50  0001 C CNN
F 3 "" H 4850 7300 50  0001 C CNN
	1    4850 7300
	1    0    0    -1  
$EndComp
Text Label 5700 6350 0    50   ~ 0
SCK
Text Label 5700 6450 0    50   ~ 0
MOSI
Text Label 5700 6550 0    50   ~ 0
RESET
$Comp
L Sensor_Temperature:DS1621 U5
U 1 1 620C32DE
P 8400 4350
F 0 "U5" H 8944 4396 50  0000 L CNN
F 1 "DS1621" H 8944 4305 50  0000 L CNN
F 2 "Package_DIP:DIP-8_W7.62mm" H 7700 4000 50  0001 C CNN
F 3 "https://datasheets.maximintegrated.com/en/ds/DS1621.pdf" H 8250 4600 50  0001 C CNN
	1    8400 4350
	1    0    0    -1  
$EndComp
$Comp
L Sensor_Temperature:DS1621 U6
U 1 1 620C4751
P 8400 5850
F 0 "U6" H 8944 5896 50  0000 L CNN
F 1 "DS1621" H 8944 5805 50  0000 L CNN
F 2 "Package_DIP:DIP-8_W7.62mm" H 7700 5500 50  0001 C CNN
F 3 "https://datasheets.maximintegrated.com/en/ds/DS1621.pdf" H 8250 6100 50  0001 C CNN
	1    8400 5850
	1    0    0    -1  
$EndComp
$Comp
L power:GND #PWR018
U 1 1 620C5E29
P 7550 4650
F 0 "#PWR018" H 7550 4400 50  0001 C CNN
F 1 "GND" H 7555 4477 50  0000 C CNN
F 2 "" H 7550 4650 50  0001 C CNN
F 3 "" H 7550 4650 50  0001 C CNN
	1    7550 4650
	1    0    0    -1  
$EndComp
$Comp
L power:GND #PWR017
U 1 1 620C6835
P 7500 6250
F 0 "#PWR017" H 7500 6000 50  0001 C CNN
F 1 "GND" H 7505 6077 50  0000 C CNN
F 2 "" H 7500 6250 50  0001 C CNN
F 3 "" H 7500 6250 50  0001 C CNN
	1    7500 6250
	1    0    0    -1  
$EndComp
Wire Wire Line
	7900 4350 7550 4350
Wire Wire Line
	7550 4350 7550 4450
Wire Wire Line
	7900 4550 7550 4550
Connection ~ 7550 4550
Wire Wire Line
	7550 4550 7550 4650
Wire Wire Line
	7900 4450 7550 4450
Connection ~ 7550 4450
Wire Wire Line
	7550 4450 7550 4550
Wire Wire Line
	7900 5850 7500 5850
Wire Wire Line
	7500 5850 7500 5950
Wire Wire Line
	7900 6050 7500 6050
Connection ~ 7500 6050
Wire Wire Line
	7500 6050 7500 6250
Wire Wire Line
	7900 5950 7500 5950
Connection ~ 7500 5950
Wire Wire Line
	7500 5950 7500 6050
$Comp
L power:VCC #PWR023
U 1 1 620D27D3
P 8400 5200
F 0 "#PWR023" H 8400 5050 50  0001 C CNN
F 1 "VCC" H 8550 5250 50  0000 C CNN
F 2 "" H 8400 5200 50  0001 C CNN
F 3 "" H 8400 5200 50  0001 C CNN
	1    8400 5200
	1    0    0    -1  
$EndComp
$Comp
L power:VCC #PWR021
U 1 1 620D2DA9
P 8400 3750
F 0 "#PWR021" H 8400 3600 50  0001 C CNN
F 1 "VCC" H 8415 3923 50  0000 C CNN
F 2 "" H 8400 3750 50  0001 C CNN
F 3 "" H 8400 3750 50  0001 C CNN
	1    8400 3750
	1    0    0    -1  
$EndComp
Wire Wire Line
	8400 3750 8400 3800
Wire Wire Line
	8400 5200 8400 5350
$Comp
L power:GND #PWR022
U 1 1 620D7717
P 8400 4850
F 0 "#PWR022" H 8400 4600 50  0001 C CNN
F 1 "GND" H 8550 4750 50  0000 C CNN
F 2 "" H 8400 4850 50  0001 C CNN
F 3 "" H 8400 4850 50  0001 C CNN
	1    8400 4850
	1    0    0    -1  
$EndComp
Wire Wire Line
	8400 4750 8400 4850
$Comp
L power:GND #PWR024
U 1 1 620DA6D8
P 8400 6450
F 0 "#PWR024" H 8400 6200 50  0001 C CNN
F 1 "GND" H 8405 6277 50  0000 C CNN
F 2 "" H 8400 6450 50  0001 C CNN
F 3 "" H 8400 6450 50  0001 C CNN
	1    8400 6450
	1    0    0    -1  
$EndComp
Wire Wire Line
	8400 6250 8400 6450
NoConn ~ 8900 4350
NoConn ~ 8900 5850
Wire Wire Line
	7900 4150 7300 4150
Entry Wire Line
	6000 4050 6100 4150
Wire Wire Line
	7900 4250 7600 4250
Entry Wire Line
	6000 4150 6100 4250
Text Label 6150 4150 0    50   ~ 0
SDA
Text Label 6150 4250 0    50   ~ 0
SCL
$Comp
L power:GND #PWR04
U 1 1 620FF90B
P 2650 6050
F 0 "#PWR04" H 2650 5800 50  0001 C CNN
F 1 "GND" H 2655 5877 50  0000 C CNN
F 2 "" H 2650 6050 50  0001 C CNN
F 3 "" H 2650 6050 50  0001 C CNN
	1    2650 6050
	1    0    0    -1  
$EndComp
$Comp
L MCU_Microchip_ATmega:ATmega8515L-8PU U2
U 1 1 620332E7
P 3800 4000
F 0 "U2" H 4050 6050 50  0000 C CNN
F 1 "ATmega8515L-8PU" H 4250 5950 50  0000 C CNN
F 2 "Package_DIP:DIP-40_W15.24mm" H 3800 4000 50  0001 C CIN
F 3 "http://ww1.microchip.com/downloads/en/DeviceDoc/doc2512.pdf" H 3800 4000 50  0001 C CNN
	1    3800 4000
	1    0    0    -1  
$EndComp
$Comp
L power:GND #PWR08
U 1 1 6210684C
P 3800 6200
F 0 "#PWR08" H 3800 5950 50  0001 C CNN
F 1 "GND" H 3805 6027 50  0000 C CNN
F 2 "" H 3800 6200 50  0001 C CNN
F 3 "" H 3800 6200 50  0001 C CNN
	1    3800 6200
	1    0    0    -1  
$EndComp
Wire Wire Line
	3800 6000 3800 6200
$Comp
L power:GND #PWR012
U 1 1 6210B1A7
P 5550 6700
F 0 "#PWR012" H 5550 6450 50  0001 C CNN
F 1 "GND" H 5555 6527 50  0000 C CNN
F 2 "" H 5550 6700 50  0001 C CNN
F 3 "" H 5550 6700 50  0001 C CNN
	1    5550 6700
	1    0    0    -1  
$EndComp
Wire Wire Line
	5100 6650 5550 6650
Wire Wire Line
	5550 6650 5550 6700
Text Label 1650 1750 0    50   ~ 0
GND
Text Label 5300 6650 0    50   ~ 0
GND
Text Label 3550 7800 0    50   ~ 0
GND
Text Label 2200 7750 0    50   ~ 0
VCC
Text Label 3800 6150 0    50   ~ 0
GND
Text Label 2050 2050 0    50   ~ 0
GND
Wire Wire Line
	2150 2050 1800 2050
Connection ~ 2150 2050
Wire Wire Line
	1800 2050 1800 2850
Wire Wire Line
	2200 2850 1800 2850
Connection ~ 1800 2850
Wire Wire Line
	1800 2850 1800 3000
Entry Wire Line
	6000 2750 6100 2850
Entry Wire Line
	6000 2850 6100 2950
Entry Wire Line
	6000 2950 6100 3050
Text Label 6150 2850 0    50   ~ 0
SS
Text Label 6150 2950 0    50   ~ 0
SCK
Text Label 6150 3050 0    50   ~ 0
MOSI
$Comp
L Display_Character:LTS-6980HR AFF1
U 1 1 62145557
P 9400 1300
F 0 "AFF1" H 9400 1967 50  0000 C CNN
F 1 "LTS-6980HR" H 9400 1876 50  0000 C CNN
F 2 "Display_7Segment:7SegmentLED_LTS6760_LTS6780" H 9400 700 50  0001 C CNN
F 3 "http://datasheet.octopart.com/LTS-6960HR-Lite-On-datasheet-11803242.pdf" H 9400 1300 50  0001 C CNN
	1    9400 1300
	1    0    0    -1  
$EndComp
$Comp
L Display_Character:LTS-6980HR AFF3
U 1 1 62146EA7
P 10850 1300
F 0 "AFF3" H 10850 1967 50  0000 C CNN
F 1 "LTS-6980HR" H 10850 1876 50  0000 C CNN
F 2 "Display_7Segment:7SegmentLED_LTS6760_LTS6780" H 10850 700 50  0001 C CNN
F 3 "http://datasheet.octopart.com/LTS-6960HR-Lite-On-datasheet-11803242.pdf" H 10850 1300 50  0001 C CNN
	1    10850 1300
	1    0    0    -1  
$EndComp
Wire Wire Line
	2900 2750 3150 2750
Wire Wire Line
	7100 3250 7100 3450
$Comp
L power:GND #PWR015
U 1 1 6213521A
P 7100 3450
F 0 "#PWR015" H 7100 3200 50  0001 C CNN
F 1 "GND" H 7105 3277 50  0000 C CNN
F 2 "" H 7100 3450 50  0001 C CNN
F 3 "" H 7100 3450 50  0001 C CNN
	1    7100 3450
	1    0    0    -1  
$EndComp
$Comp
L Driver_LED:MAX7219 U4
U 1 1 6210E26E
P 7100 2250
F 0 "U4" H 7100 3431 50  0000 C CNN
F 1 "MAX7219" H 7100 3340 50  0000 C CNN
F 2 "" H 7050 2300 50  0001 C CNN
F 3 "https://datasheets.maximintegrated.com/en/ds/MAX7219-MAX7221.pdf" H 7150 2100 50  0001 C CNN
	1    7100 2250
	1    0    0    -1  
$EndComp
$Comp
L power:VCC #PWR013
U 1 1 621103F0
P 5700 1300
F 0 "#PWR013" H 5700 1150 50  0001 C CNN
F 1 "VCC" H 5715 1473 50  0000 C CNN
F 2 "" H 5700 1300 50  0001 C CNN
F 3 "" H 5700 1300 50  0001 C CNN
	1    5700 1300
	1    0    0    -1  
$EndComp
$Comp
L Device:R R3
U 1 1 621135BE
P 6100 1500
F 0 "R3" V 5893 1500 50  0000 C CNN
F 1 "27k" V 5984 1500 50  0000 C CNN
F 2 "" V 6030 1500 50  0001 C CNN
F 3 "~" H 6100 1500 50  0001 C CNN
	1    6100 1500
	0    1    1    0   
$EndComp
Wire Wire Line
	6700 1450 6250 1450
Wire Wire Line
	6250 1450 6250 1500
Wire Wire Line
	5950 1500 5800 1500
Wire Wire Line
	5800 1500 5800 1300
Wire Wire Line
	5800 1300 5700 1300
Wire Wire Line
	6700 2850 6100 2850
Wire Wire Line
	6700 2950 6100 2950
Wire Wire Line
	6700 3050 6100 3050
Wire Wire Line
	7100 1250 7100 1150
Wire Wire Line
	7100 1150 5800 1150
Wire Wire Line
	5800 1150 5800 1300
Connection ~ 5800 1300
Connection ~ 8700 550 
Wire Wire Line
	7500 1450 8000 1450
Wire Wire Line
	7500 1550 8000 1550
Wire Wire Line
	7500 1650 8000 1650
Wire Wire Line
	7500 1750 8000 1750
Wire Wire Line
	7500 1850 8000 1850
Entry Wire Line
	8000 1450 8100 1550
Entry Wire Line
	8000 1550 8100 1650
Entry Wire Line
	8000 1650 8100 1750
Entry Wire Line
	8000 1750 8100 1850
Entry Wire Line
	8000 1850 8100 1950
Wire Wire Line
	7500 1950 8000 1950
Wire Wire Line
	7500 2050 8000 2050
Wire Wire Line
	7500 2150 8000 2150
Entry Wire Line
	8000 1950 8100 2050
Entry Wire Line
	8000 2050 8100 2150
Entry Wire Line
	8000 2150 8100 2250
Text Label 7950 1450 0    50   ~ 0
a
Text Label 7950 1550 0    50   ~ 0
b
Text Label 7950 1650 0    50   ~ 0
c
Text Label 7950 1750 0    50   ~ 0
d
Text Label 7950 1850 0    50   ~ 0
e
Text Label 7950 1950 0    50   ~ 0
f
Text Label 7950 2050 0    50   ~ 0
g
Text Label 7900 2150 0    50   ~ 0
DP
Entry Wire Line
	8700 800  8800 900 
Entry Wire Line
	8700 900  8800 1000
Entry Wire Line
	8700 1000 8800 1100
Entry Wire Line
	8700 1100 8800 1200
Entry Wire Line
	8700 1200 8800 1300
Entry Wire Line
	8700 1300 8800 1400
Entry Wire Line
	8700 1400 8800 1500
Wire Wire Line
	8800 900  8900 900 
Wire Wire Line
	8800 1000 8900 1000
Wire Wire Line
	8800 1100 8900 1100
Wire Wire Line
	8800 1200 8900 1200
Wire Wire Line
	8800 1300 8900 1300
Wire Wire Line
	8800 1400 8900 1400
Wire Wire Line
	8800 1500 8900 1500
Text Label 8850 900  0    50   ~ 0
a
Text Label 8850 1000 0    50   ~ 0
b
Text Label 8850 1100 0    50   ~ 0
c
Text Label 8850 1200 0    50   ~ 0
d
Text Label 8850 1300 0    50   ~ 0
e
Text Label 8850 1400 0    50   ~ 0
f
Text Label 8850 1500 0    50   ~ 0
g
Entry Wire Line
	8600 1400 8700 1500
Wire Wire Line
	9900 1600 9900 1850
Wire Wire Line
	9900 1850 8600 1850
Wire Wire Line
	8600 1850 8600 1400
Text Label 8650 1850 0    50   ~ 0
DP
Wire Wire Line
	9900 1000 9950 1000
Wire Wire Line
	9950 1000 9950 2250
Wire Wire Line
	9950 2250 8200 2250
Wire Wire Line
	8200 2250 8200 2300
Wire Wire Line
	8200 2300 7800 2300
Wire Wire Line
	7800 2300 7800 2250
Wire Wire Line
	7800 2250 7500 2250
Wire Wire Line
	9900 900  9950 900 
Wire Wire Line
	9950 900  9950 1000
Connection ~ 9950 1000
Entry Wire Line
	10050 800  10150 900 
Entry Wire Line
	10050 900  10150 1000
Entry Wire Line
	10050 1000 10150 1100
Entry Wire Line
	10050 1100 10150 1200
Entry Wire Line
	10050 1200 10150 1300
Entry Wire Line
	10050 1300 10150 1400
Entry Wire Line
	10050 1400 10150 1500
Wire Wire Line
	10350 900  10150 900 
Wire Wire Line
	10350 1000 10150 1000
Wire Wire Line
	10350 1100 10150 1100
Wire Wire Line
	10350 1200 10150 1200
Wire Wire Line
	10350 1300 10150 1300
Wire Wire Line
	10350 1400 10150 1400
Wire Wire Line
	10350 1500 10150 1500
Text Label 10200 900  0    50   ~ 0
a
Text Label 10200 1000 0    50   ~ 0
b
Text Label 10200 1100 0    50   ~ 0
c
Text Label 10200 1200 0    50   ~ 0
d
Text Label 10200 1300 0    50   ~ 0
e
Text Label 10200 1400 0    50   ~ 0
f
Text Label 10200 1500 0    50   ~ 0
g
Entry Wire Line
	10050 1500 10150 1600
Wire Wire Line
	11350 1850 10150 1850
Wire Wire Line
	10150 1850 10150 1600
Text Label 10200 1850 0    50   ~ 0
DP
Wire Wire Line
	11350 1600 11350 1850
Wire Wire Line
	11350 1000 11450 1000
Wire Wire Line
	11450 1000 11450 2350
Wire Wire Line
	11450 2350 7500 2350
Wire Wire Line
	11350 900  11450 900 
Wire Wire Line
	11450 900  11450 1000
Connection ~ 11450 1000
$Comp
L Display_Character:LTS-6980HR AFF5
U 1 1 62256FBF
P 12500 1300
F 0 "AFF5" H 12500 1967 50  0000 C CNN
F 1 "LTS-6980HR" H 12500 1876 50  0000 C CNN
F 2 "Display_7Segment:7SegmentLED_LTS6760_LTS6780" H 12500 700 50  0001 C CNN
F 3 "http://datasheet.octopart.com/LTS-6960HR-Lite-On-datasheet-11803242.pdf" H 12500 1300 50  0001 C CNN
	1    12500 1300
	1    0    0    -1  
$EndComp
Text Label 11850 1850 0    50   ~ 0
DP
Connection ~ 10050 550 
Entry Wire Line
	11650 800  11750 900 
Entry Wire Line
	11650 900  11750 1000
Entry Wire Line
	11650 1000 11750 1100
Entry Wire Line
	11650 1100 11750 1200
Entry Wire Line
	11650 1200 11750 1300
Entry Wire Line
	11650 1300 11750 1400
Entry Wire Line
	11650 1400 11750 1500
Entry Wire Line
	11650 1550 11750 1650
Wire Wire Line
	11750 900  12000 900 
Wire Wire Line
	11750 1000 12000 1000
Wire Wire Line
	11750 1100 12000 1100
Wire Wire Line
	11750 1200 12000 1200
Wire Wire Line
	11750 1300 12000 1300
Wire Wire Line
	11750 1400 12000 1400
Wire Wire Line
	11750 1500 12000 1500
Wire Wire Line
	11750 1650 11750 1850
Wire Wire Line
	13000 1600 13100 1600
Wire Wire Line
	13100 1600 13100 1850
Wire Wire Line
	11750 1850 13100 1850
Wire Wire Line
	13000 1000 13200 1000
Wire Wire Line
	13200 1000 13200 2450
Wire Wire Line
	13200 2450 7500 2450
Wire Wire Line
	13000 900  13200 900 
Wire Wire Line
	13200 900  13200 1000
Connection ~ 13200 1000
$Comp
L Display_Character:LTS-6980HR AFF7
U 1 1 622AF72E
P 14200 1300
F 0 "AFF7" H 14200 1967 50  0000 C CNN
F 1 "LTS-6980HR" H 14200 1876 50  0000 C CNN
F 2 "Display_7Segment:7SegmentLED_LTS6760_LTS6780" H 14200 700 50  0001 C CNN
F 3 "http://datasheet.octopart.com/LTS-6960HR-Lite-On-datasheet-11803242.pdf" H 14200 1300 50  0001 C CNN
	1    14200 1300
	1    0    0    -1  
$EndComp
Connection ~ 11650 550 
Entry Wire Line
	13450 800  13550 900 
Entry Wire Line
	13450 900  13550 1000
Entry Wire Line
	13450 1000 13550 1100
Entry Wire Line
	13450 1100 13550 1200
Entry Wire Line
	13450 1200 13550 1300
Entry Wire Line
	13450 1300 13550 1400
Entry Wire Line
	13450 1400 13550 1500
Wire Wire Line
	13700 900  13550 900 
Wire Wire Line
	13700 1000 13550 1000
Wire Wire Line
	13700 1100 13550 1100
Wire Wire Line
	13550 1200 13700 1200
Wire Wire Line
	13700 1300 13550 1300
Wire Wire Line
	13700 1400 13550 1400
Wire Wire Line
	13700 1500 13550 1500
Entry Wire Line
	13450 1550 13550 1650
Wire Wire Line
	13550 1650 13550 1850
Wire Wire Line
	13550 1850 14800 1850
Wire Wire Line
	14700 1600 14800 1600
Wire Wire Line
	14800 1600 14800 1850
Wire Wire Line
	7500 2550 14850 2550
Wire Wire Line
	14850 2550 14850 1000
Wire Wire Line
	14850 1000 14700 1000
Wire Wire Line
	14700 900  14850 900 
Wire Wire Line
	14850 900  14850 1000
Connection ~ 14850 1000
$Comp
L Display_Character:LTS-6980HR AFF2
U 1 1 62320136
P 10250 3650
F 0 "AFF2" H 10250 4317 50  0000 C CNN
F 1 "LTS-6980HR" H 10250 4226 50  0000 C CNN
F 2 "Display_7Segment:7SegmentLED_LTS6760_LTS6780" H 10250 3050 50  0001 C CNN
F 3 "http://datasheet.octopart.com/LTS-6960HR-Lite-On-datasheet-11803242.pdf" H 10250 3650 50  0001 C CNN
	1    10250 3650
	1    0    0    -1  
$EndComp
$Comp
L Display_Character:LTS-6980HR AFF4
U 1 1 62329010
P 12100 3650
F 0 "AFF4" H 12100 4317 50  0000 C CNN
F 1 "LTS-6980HR" H 12100 4226 50  0000 C CNN
F 2 "Display_7Segment:7SegmentLED_LTS6760_LTS6780" H 12100 3050 50  0001 C CNN
F 3 "http://datasheet.octopart.com/LTS-6960HR-Lite-On-datasheet-11803242.pdf" H 12100 3650 50  0001 C CNN
	1    12100 3650
	1    0    0    -1  
$EndComp
Wire Wire Line
	11350 4200 12700 4200
$Comp
L Display_Character:LTS-6980HR AFF6
U 1 1 62331DFD
P 13800 3650
F 0 "AFF6" H 13800 4317 50  0000 C CNN
F 1 "LTS-6980HR" H 13800 4226 50  0000 C CNN
F 2 "Display_7Segment:7SegmentLED_LTS6760_LTS6780" H 13800 3050 50  0001 C CNN
F 3 "http://datasheet.octopart.com/LTS-6960HR-Lite-On-datasheet-11803242.pdf" H 13800 3650 50  0001 C CNN
	1    13800 3650
	1    0    0    -1  
$EndComp
Wire Wire Line
	13050 4200 14400 4200
$Comp
L Display_Character:LTS-6980HR AFF8
U 1 1 6233AE7E
P 15450 3650
F 0 "AFF8" H 15450 4317 50  0000 C CNN
F 1 "LTS-6980HR" H 15450 4226 50  0000 C CNN
F 2 "Display_7Segment:7SegmentLED_LTS6760_LTS6780" H 15450 3050 50  0001 C CNN
F 3 "http://datasheet.octopart.com/LTS-6960HR-Lite-On-datasheet-11803242.pdf" H 15450 3650 50  0001 C CNN
	1    15450 3650
	1    0    0    -1  
$EndComp
Wire Wire Line
	14700 4200 16050 4200
Wire Bus Line
	13450 550  16100 550 
Wire Bus Line
	16100 550  16100 2850
Wire Bus Line
	16100 2850 14550 2850
Connection ~ 13450 550 
Entry Wire Line
	9550 3150 9650 3250
Entry Wire Line
	9550 3250 9650 3350
Entry Wire Line
	9550 3350 9650 3450
Entry Wire Line
	9550 3450 9650 3550
Entry Wire Line
	9550 3550 9650 3650
Entry Wire Line
	9550 3650 9650 3750
Entry Wire Line
	9550 3750 9650 3850
Entry Wire Line
	9550 3900 9650 4000
Wire Wire Line
	9650 4000 9650 4200
Wire Wire Line
	9650 4200 10850 4200
Wire Wire Line
	9750 3250 9650 3250
Wire Wire Line
	9750 3350 9650 3350
Wire Wire Line
	9750 3450 9650 3450
Wire Wire Line
	9750 3550 9650 3550
Wire Wire Line
	9750 3650 9650 3650
Wire Wire Line
	9650 3750 9750 3750
Wire Wire Line
	9750 3850 9650 3850
Wire Wire Line
	10750 3950 10850 3950
Wire Wire Line
	10850 3950 10850 4200
Connection ~ 11250 2850
Entry Wire Line
	11250 3150 11350 3250
Entry Wire Line
	11250 3250 11350 3350
Entry Wire Line
	11250 3350 11350 3450
Entry Wire Line
	11250 3450 11350 3550
Entry Wire Line
	11250 3550 11350 3650
Entry Wire Line
	11250 3650 11350 3750
Entry Wire Line
	11250 3750 11350 3850
Wire Wire Line
	11600 3250 11350 3250
Wire Wire Line
	11600 3350 11350 3350
Wire Wire Line
	11600 3450 11350 3450
Wire Wire Line
	11350 3550 11600 3550
Wire Wire Line
	11600 3650 11350 3650
Wire Wire Line
	11350 3750 11600 3750
Wire Wire Line
	11600 3850 11350 3850
Entry Wire Line
	11250 3900 11350 4000
Wire Wire Line
	11350 4000 11350 4200
Wire Wire Line
	12600 3950 12700 3950
Wire Wire Line
	12700 3950 12700 4200
Wire Wire Line
	14300 3950 14400 3950
Wire Wire Line
	14400 3950 14400 4200
Wire Wire Line
	15950 3950 16050 3950
Wire Wire Line
	16050 3950 16050 4200
Entry Bus Bus
	13350 550  13450 650 
Entry Bus Bus
	11550 550  11650 650 
Entry Bus Bus
	9950 550  10050 650 
Entry Bus Bus
	8600 550  8700 650 
Entry Bus Bus
	11150 2850 11250 2950
Connection ~ 12950 2850
Connection ~ 14550 2850
Entry Bus Bus
	12850 2850 12950 2950
Entry Bus Bus
	14450 2850 14550 2950
Entry Wire Line
	12950 3150 13050 3250
Entry Wire Line
	12950 3250 13050 3350
Entry Wire Line
	12950 3350 13050 3450
Entry Wire Line
	12950 3450 13050 3550
Entry Wire Line
	12950 3550 13050 3650
Entry Wire Line
	12950 3650 13050 3750
Entry Wire Line
	12950 3750 13050 3850
Entry Wire Line
	12950 3900 13050 4000
Entry Wire Line
	14550 3150 14650 3250
Entry Wire Line
	14550 3250 14650 3350
Entry Wire Line
	14550 3350 14650 3450
Entry Wire Line
	14550 3450 14650 3550
Entry Wire Line
	14550 3550 14650 3650
Entry Wire Line
	14550 3650 14650 3750
Entry Wire Line
	14550 3750 14650 3850
Entry Wire Line
	14550 3900 14650 4000
Wire Wire Line
	14650 4000 14700 4000
Wire Wire Line
	14700 4000 14700 4200
Wire Wire Line
	13050 4000 13050 4200
Wire Wire Line
	13300 3250 13050 3250
Wire Wire Line
	13300 3350 13050 3350
Wire Wire Line
	13300 3450 13050 3450
Wire Wire Line
	13300 3550 13050 3550
Wire Wire Line
	13300 3650 13050 3650
Wire Wire Line
	13300 3750 13050 3750
Wire Wire Line
	13300 3850 13050 3850
Wire Wire Line
	14950 3250 14650 3250
Wire Wire Line
	14950 3350 14650 3350
Wire Wire Line
	14950 3450 14650 3450
Wire Wire Line
	14950 3550 14650 3550
Wire Wire Line
	14950 3650 14650 3650
Wire Wire Line
	14950 3750 14650 3750
Wire Wire Line
	14950 3850 14650 3850
Wire Wire Line
	10750 3350 10900 3350
Wire Wire Line
	10900 3350 10900 4250
Wire Wire Line
	10900 4250 9400 4250
Wire Wire Line
	9400 4250 9400 2650
Wire Wire Line
	9400 2650 7500 2650
Wire Wire Line
	12600 3350 12750 3350
Wire Wire Line
	12750 3350 12750 4300
Wire Wire Line
	12750 4300 9300 4300
Wire Wire Line
	9300 4300 9300 2750
Wire Wire Line
	9300 2750 7500 2750
Wire Wire Line
	14300 3350 14450 3350
Wire Wire Line
	14450 3350 14450 4350
Wire Wire Line
	14450 4350 9200 4350
Wire Wire Line
	9200 4350 9200 2850
Wire Wire Line
	9200 2850 7500 2850
Wire Wire Line
	15950 3350 16150 3350
Wire Wire Line
	16150 3350 16150 4400
Wire Wire Line
	16150 4400 9050 4400
Wire Wire Line
	9050 4400 9050 2950
Wire Wire Line
	9050 2950 7500 2950
Wire Wire Line
	10750 3250 10900 3250
Wire Wire Line
	10900 3250 10900 3350
Connection ~ 10900 3350
Wire Wire Line
	12600 3250 12750 3250
Wire Wire Line
	12750 3250 12750 3350
Connection ~ 12750 3350
Wire Wire Line
	14300 3250 14450 3250
Wire Wire Line
	14450 3250 14450 3350
Connection ~ 14450 3350
Wire Wire Line
	15950 3250 16150 3250
Wire Wire Line
	16150 3250 16150 3350
Connection ~ 16150 3350
Text Label 11800 900  0    50   ~ 0
a
Text Label 11800 1000 0    50   ~ 0
b
Text Label 11800 1100 0    50   ~ 0
c
Text Label 11800 1200 0    50   ~ 0
d
Text Label 11800 1300 0    50   ~ 0
e
Text Label 11800 1400 0    50   ~ 0
f
Text Label 11800 1500 0    50   ~ 0
g
Text Label 13700 1850 0    50   ~ 0
DP
Text Label 13600 900  0    50   ~ 0
a
Text Label 13600 1000 0    50   ~ 0
b
Text Label 13600 1100 0    50   ~ 0
c
Text Label 13600 1200 0    50   ~ 0
d
Text Label 13600 1300 0    50   ~ 0
e
Text Label 13600 1400 0    50   ~ 0
f
Text Label 13600 1500 0    50   ~ 0
g
Text Label 9650 3250 0    50   ~ 0
a
Text Label 9650 3350 0    50   ~ 0
b
Text Label 9650 3450 0    50   ~ 0
c
Text Label 9650 3550 0    50   ~ 0
d
Text Label 9650 3650 0    50   ~ 0
e
Text Label 9650 3750 0    50   ~ 0
f
Text Label 9650 3850 0    50   ~ 0
g
Text Label 9700 4200 0    50   ~ 0
DP
Text Label 11450 4200 0    50   ~ 0
DP
Text Label 11450 3250 0    50   ~ 0
a
Text Label 11450 3350 0    50   ~ 0
b
Text Label 11450 3450 0    50   ~ 0
c
Text Label 11450 3550 0    50   ~ 0
d
Text Label 11450 3650 0    50   ~ 0
e
Text Label 11450 3750 0    50   ~ 0
f
Text Label 11450 3850 0    50   ~ 0
g
Text Label 13100 3250 0    50   ~ 0
a
Text Label 13100 3350 0    50   ~ 0
b
Text Label 13100 3450 0    50   ~ 0
c
Text Label 13100 3550 0    50   ~ 0
d
Text Label 13100 3650 0    50   ~ 0
e
Text Label 13100 3750 0    50   ~ 0
f
Text Label 13100 3850 0    50   ~ 0
g
Text Label 13100 4200 0    50   ~ 0
DP
Text Label 14850 4200 0    50   ~ 0
DP
Text Label 14700 3250 0    50   ~ 0
a
Text Label 14700 3350 0    50   ~ 0
b
Text Label 14700 3450 0    50   ~ 0
c
Text Label 14700 3550 0    50   ~ 0
d
Text Label 14700 3650 0    50   ~ 0
e
Text Label 14700 3750 0    50   ~ 0
f
Text Label 14700 3850 0    50   ~ 0
g
NoConn ~ 7500 3050
Wire Wire Line
	7900 5650 7150 5650
Wire Wire Line
	7150 5650 7150 4150
Connection ~ 7150 4150
Wire Wire Line
	7150 4150 6100 4150
Wire Wire Line
	7900 5750 7000 5750
Wire Wire Line
	7000 5750 7000 4250
Connection ~ 7000 4250
Wire Wire Line
	7000 4250 6100 4250
$Comp
L Device:R R4
U 1 1 6262458C
P 7300 3900
F 0 "R4" H 7370 3946 50  0000 L CNN
F 1 "4,7k" H 7370 3855 50  0000 L CNN
F 2 "" V 7230 3900 50  0001 C CNN
F 3 "~" H 7300 3900 50  0001 C CNN
	1    7300 3900
	1    0    0    -1  
$EndComp
$Comp
L Device:R R5
U 1 1 62624C82
P 7600 3900
F 0 "R5" H 7670 3946 50  0000 L CNN
F 1 "4,7k" H 7670 3855 50  0000 L CNN
F 2 "" V 7530 3900 50  0001 C CNN
F 3 "~" H 7600 3900 50  0001 C CNN
	1    7600 3900
	1    0    0    -1  
$EndComp
$Comp
L power:VCC #PWR016
U 1 1 626252CD
P 7450 3550
F 0 "#PWR016" H 7450 3400 50  0001 C CNN
F 1 "VCC" H 7465 3723 50  0000 C CNN
F 2 "" H 7450 3550 50  0001 C CNN
F 3 "" H 7450 3550 50  0001 C CNN
	1    7450 3550
	1    0    0    -1  
$EndComp
Wire Wire Line
	7450 3550 7450 3650
Wire Wire Line
	7450 3650 7600 3650
Wire Wire Line
	7600 3650 7600 3750
Wire Wire Line
	7450 3650 7300 3650
Wire Wire Line
	7300 3650 7300 3750
Connection ~ 7450 3650
Wire Wire Line
	7300 4050 7300 4150
Connection ~ 7300 4150
Wire Wire Line
	7300 4150 7150 4150
Wire Wire Line
	7600 4050 7600 4250
Connection ~ 7600 4250
Wire Wire Line
	7600 4250 7000 4250
$Comp
L Transistor_Array:ULN2003 U7
U 1 1 626728B3
P 10500 6300
F 0 "U7" H 10500 6967 50  0000 C CNN
F 1 "ULN2003" H 10500 6876 50  0000 C CNN
F 2 "" H 10550 5750 50  0001 L CNN
F 3 "http://www.ti.com/lit/ds/symlink/uln2003a.pdf" H 10600 6100 50  0001 C CNN
	1    10500 6300
	1    0    0    -1  
$EndComp
Wire Wire Line
	10100 6600 8550 6600
Wire Wire Line
	8550 6600 8550 6750
Wire Wire Line
	8550 6750 6600 6750
Wire Wire Line
	6600 6750 6600 6300
Entry Wire Line
	6000 6200 6100 6300
Wire Wire Line
	6100 6300 6600 6300
Entry Wire Line
	6000 6300 6100 6400
Wire Wire Line
	6100 6400 6550 6400
Wire Wire Line
	6550 6400 6550 6800
Wire Wire Line
	6550 6800 9950 6800
Wire Wire Line
	9950 6800 9950 6700
Wire Wire Line
	9950 6700 10100 6700
$Comp
L power:GND #PWR025
U 1 1 6270C298
P 10500 7050
F 0 "#PWR025" H 10500 6800 50  0001 C CNN
F 1 "GND" H 10505 6877 50  0000 C CNN
F 2 "" H 10500 7050 50  0001 C CNN
F 3 "" H 10500 7050 50  0001 C CNN
	1    10500 7050
	1    0    0    -1  
$EndComp
NoConn ~ 10900 5900
NoConn ~ 10900 6100
NoConn ~ 10900 6200
NoConn ~ 10900 6300
NoConn ~ 10900 6400
NoConn ~ 10900 6500
NoConn ~ 10100 6500
NoConn ~ 10100 6400
NoConn ~ 10100 6300
NoConn ~ 10100 6200
NoConn ~ 10100 6100
Wire Wire Line
	10500 6900 10500 7050
Text Label 6250 6300 0    50   ~ 0
COOLER1
Text Label 6250 6400 0    50   ~ 0
COOLER2
$Comp
L Interface_UART:MAX232 U3
U 1 1 6283AD6C
P 5700 9350
F 0 "U3" H 5700 10731 50  0000 C CNN
F 1 "MAX232" H 5700 10640 50  0000 C CNN
F 2 "" H 5750 8300 50  0001 L CNN
F 3 "http://www.ti.com/lit/ds/symlink/max232.pdf" H 5700 9450 50  0001 C CNN
	1    5700 9350
	1    0    0    -1  
$EndComp
$Comp
L Device:CP C5
U 1 1 62856FA0
P 4100 8400
F 0 "C5" V 3845 8400 50  0000 C CNN
F 1 "1uF" V 3936 8400 50  0000 C CNN
F 2 "" H 4138 8250 50  0001 C CNN
F 3 "~" H 4100 8400 50  0001 C CNN
	1    4100 8400
	0    1    1    0   
$EndComp
$Comp
L Device:CP C9
U 1 1 6286D320
P 7250 8450
F 0 "C9" V 6995 8450 50  0000 C CNN
F 1 "1uF" V 7086 8450 50  0000 C CNN
F 2 "" H 7288 8300 50  0001 C CNN
F 3 "~" H 7250 8450 50  0001 C CNN
	1    7250 8450
	0    -1   1    0   
$EndComp
Wire Wire Line
	7100 8450 6500 8450
Wire Wire Line
	7400 8450 7400 8750
Wire Wire Line
	7400 8750 6500 8750
Wire Wire Line
	4250 8400 4850 8400
Wire Wire Line
	4850 8400 4850 8450
Wire Wire Line
	4850 8450 4900 8450
Wire Wire Line
	4900 8750 3800 8750
Wire Wire Line
	3800 8750 3800 8400
Wire Wire Line
	3800 8400 3950 8400
$Comp
L power:GND #PWR09
U 1 1 62920DB8
P 4400 10700
F 0 "#PWR09" H 4400 10450 50  0001 C CNN
F 1 "GND" H 4405 10527 50  0000 C CNN
F 2 "" H 4400 10700 50  0001 C CNN
F 3 "" H 4400 10700 50  0001 C CNN
	1    4400 10700
	1    0    0    -1  
$EndComp
Wire Wire Line
	5700 10550 5700 10650
Wire Wire Line
	5700 10650 4400 10650
Wire Wire Line
	4400 10650 4400 10700
Entry Wire Line
	6000 7200 6100 7300
Entry Wire Line
	6000 7400 6100 7500
Wire Wire Line
	4900 9850 2650 9850
Wire Wire Line
	2650 9850 2650 8000
Wire Wire Line
	2650 8000 6100 8000
Wire Wire Line
	6100 8000 6100 7500
Wire Wire Line
	6100 7300 6250 7300
Wire Wire Line
	6250 7300 6250 8100
Wire Wire Line
	6250 8100 3650 8100
Wire Wire Line
	3650 8100 3650 9450
Wire Wire Line
	3650 9450 4900 9450
Text Label 4050 9450 0    50   ~ 0
TX
Text Label 4050 9850 0    50   ~ 0
RX
$Comp
L Own_components:XS DB1
U 1 1 62A48B5C
P 8200 8850
F 0 "DB1" H 8300 8900 50  0000 L CNN
F 1 "XS" H 8000 8900 50  0000 L CNN
F 2 "" H 8250 8850 50  0001 C CNN
F 3 "" H 8250 8850 50  0001 C CNN
	1    8200 8850
	1    0    0    -1  
$EndComp
Wire Wire Line
	7600 9450 7600 9150
Wire Wire Line
	7600 9150 7900 9150
Wire Wire Line
	6500 9450 7600 9450
Wire Wire Line
	7700 9850 7700 9250
Wire Wire Line
	7700 9250 7900 9250
Wire Wire Line
	6500 9850 7700 9850
NoConn ~ 7900 9050
NoConn ~ 7900 9350
NoConn ~ 7900 9550
NoConn ~ 7900 9650
NoConn ~ 7900 9750
NoConn ~ 7900 9850
$Comp
L power:GND #PWR019
U 1 1 62B4CCF2
P 7750 10100
F 0 "#PWR019" H 7750 9850 50  0001 C CNN
F 1 "GND" H 7755 9927 50  0000 C CNN
F 2 "" H 7750 10100 50  0001 C CNN
F 3 "" H 7750 10100 50  0001 C CNN
	1    7750 10100
	1    0    0    -1  
$EndComp
Wire Wire Line
	7900 9450 7750 9450
Wire Wire Line
	7750 9450 7750 10100
$Comp
L power:VCC #PWR020
U 1 1 62B6AB87
P 7900 7900
F 0 "#PWR020" H 7900 7750 50  0001 C CNN
F 1 "VCC" H 7915 8073 50  0000 C CNN
F 2 "" H 7900 7900 50  0001 C CNN
F 3 "" H 7900 7900 50  0001 C CNN
	1    7900 7900
	1    0    0    -1  
$EndComp
$Comp
L power:GND #PWR014
U 1 1 62B6B33E
P 7000 9300
F 0 "#PWR014" H 7000 9050 50  0001 C CNN
F 1 "GND" H 7005 9127 50  0000 C CNN
F 2 "" H 7000 9300 50  0001 C CNN
F 3 "" H 7000 9300 50  0001 C CNN
	1    7000 9300
	1    0    0    -1  
$EndComp
$Comp
L Device:C C7
U 1 1 62B6CC05
P 6800 9250
F 0 "C7" V 6548 9250 50  0000 C CNN
F 1 "1uF" V 6639 9250 50  0000 C CNN
F 2 "" H 6838 9100 50  0001 C CNN
F 3 "~" H 6800 9250 50  0001 C CNN
	1    6800 9250
	0    1    1    0   
$EndComp
Wire Wire Line
	6500 9250 6650 9250
Wire Wire Line
	6950 9250 7000 9250
Wire Wire Line
	7000 9250 7000 9300
$Comp
L Device:C C8
U 1 1 62BE4E48
P 7150 8950
F 0 "C8" V 6898 8950 50  0000 C CNN
F 1 "1uF" V 6989 8950 50  0000 C CNN
F 2 "" H 7188 8800 50  0001 C CNN
F 3 "~" H 7150 8950 50  0001 C CNN
	1    7150 8950
	0    1    1    0   
$EndComp
Wire Wire Line
	6500 8950 7000 8950
Wire Wire Line
	7900 7900 7900 8150
Wire Wire Line
	7900 8950 7300 8950
Wire Wire Line
	5700 8150 6700 8150
Connection ~ 7900 8150
Wire Wire Line
	7900 8150 7900 8950
NoConn ~ 4900 9650
NoConn ~ 4900 10050
NoConn ~ 6500 9650
NoConn ~ 6500 10050
Wire Wire Line
	10900 6600 12000 6600
Wire Wire Line
	10900 6700 12000 6700
Text Label 11350 6600 0    50   ~ 0
to_COOLER1
Text Label 11350 6700 0    50   ~ 0
to_COOLER2
$Comp
L Own_components:to_COOLER XS1
U 1 1 62F06FB7
P 12300 6500
F 0 "XS1" H 12100 6650 50  0000 L CNN
F 1 "to_COOLER" H 12500 6650 50  0000 L CNN
F 2 "" H 12300 6500 50  0001 C CNN
F 3 "" H 12300 6500 50  0001 C CNN
	1    12300 6500
	1    0    0    -1  
$EndComp
$Comp
L Device:C C11
U 1 1 621AB3CD
P 6950 8000
F 0 "C11" V 6698 8000 50  0000 C CNN
F 1 "100nF" V 6789 8000 50  0000 C CNN
F 2 "" H 6988 7850 50  0001 C CNN
F 3 "~" H 6950 8000 50  0001 C CNN
	1    6950 8000
	0    1    1    0   
$EndComp
$Comp
L power:GND #PWR027
U 1 1 621C939A
P 7500 8000
F 0 "#PWR027" H 7500 7750 50  0001 C CNN
F 1 "GND" H 7505 7827 50  0000 C CNN
F 2 "" H 7500 8000 50  0001 C CNN
F 3 "" H 7500 8000 50  0001 C CNN
	1    7500 8000
	0    -1   -1   0   
$EndComp
Wire Wire Line
	7100 8000 7500 8000
Wire Wire Line
	6800 8000 6700 8000
Wire Wire Line
	6700 8000 6700 8150
Connection ~ 6700 8150
Wire Wire Line
	6700 8150 7900 8150
$Comp
L power:GND #PWR026
U 1 1 6227BDAC
P 6550 1750
F 0 "#PWR026" H 6550 1500 50  0001 C CNN
F 1 "GND" H 6555 1577 50  0000 C CNN
F 2 "" H 6550 1750 50  0001 C CNN
F 3 "" H 6550 1750 50  0001 C CNN
	1    6550 1750
	0    -1   -1   0   
$EndComp
Wire Wire Line
	6150 1750 6550 1750
Wire Wire Line
	5850 1750 5800 1750
Wire Wire Line
	5800 1500 5800 1750
Connection ~ 5800 1500
$Comp
L Device:C C10
U 1 1 6227BDA6
P 6000 1750
F 0 "C10" V 5748 1750 50  0000 C CNN
F 1 "100nF" V 5839 1750 50  0000 C CNN
F 2 "" H 6038 1600 50  0001 C CNN
F 3 "~" H 6000 1750 50  0001 C CNN
	1    6000 1750
	0    1    1    0   
$EndComp
$Comp
L power:GND #PWR028
U 1 1 62317921
P 4750 1800
F 0 "#PWR028" H 4750 1550 50  0001 C CNN
F 1 "GND" H 4755 1627 50  0000 C CNN
F 2 "" H 4750 1800 50  0001 C CNN
F 3 "" H 4750 1800 50  0001 C CNN
	1    4750 1800
	0    -1   -1   0   
$EndComp
Wire Wire Line
	4350 1800 4750 1800
$Comp
L Device:C C12
U 1 1 62317928
P 4200 1800
F 0 "C12" V 3948 1800 50  0000 C CNN
F 1 "100nF" V 4039 1800 50  0000 C CNN
F 2 "" H 4238 1650 50  0001 C CNN
F 3 "~" H 4200 1800 50  0001 C CNN
	1    4200 1800
	0    1    1    0   
$EndComp
Wire Wire Line
	4050 1800 3800 1800
Connection ~ 3800 1800
Wire Wire Line
	3800 1800 3800 2000
$Comp
L power:GND #PWR029
U 1 1 620E1609
P 8700 3400
F 0 "#PWR029" H 8700 3150 50  0001 C CNN
F 1 "GND" H 8705 3227 50  0000 C CNN
F 2 "" H 8700 3400 50  0001 C CNN
F 3 "" H 8700 3400 50  0001 C CNN
	1    8700 3400
	0    -1   -1   0   
$EndComp
Wire Wire Line
	8300 3400 8700 3400
$Comp
L Device:C C13
U 1 1 620E1610
P 8150 3400
F 0 "C13" V 7898 3400 50  0000 C CNN
F 1 "100nF" V 7989 3400 50  0000 C CNN
F 2 "" H 8188 3250 50  0001 C CNN
F 3 "~" H 8150 3400 50  0001 C CNN
	1    8150 3400
	0    1    1    0   
$EndComp
Wire Wire Line
	8000 3400 8000 3800
Wire Wire Line
	8000 3800 8400 3800
Connection ~ 8400 3800
Wire Wire Line
	8400 3800 8400 3950
Connection ~ 8400 5350
Wire Wire Line
	8400 5350 8400 5450
$Comp
L power:GND #PWR030
U 1 1 6212123A
P 9200 5350
F 0 "#PWR030" H 9200 5100 50  0001 C CNN
F 1 "GND" H 9205 5177 50  0000 C CNN
F 2 "" H 9200 5350 50  0001 C CNN
F 3 "" H 9200 5350 50  0001 C CNN
	1    9200 5350
	0    -1   -1   0   
$EndComp
$Comp
L Device:C C14
U 1 1 62121241
P 8900 5350
F 0 "C14" V 8648 5350 50  0000 C CNN
F 1 "100nF" V 8739 5350 50  0000 C CNN
F 2 "" H 8938 5200 50  0001 C CNN
F 3 "~" H 8900 5350 50  0001 C CNN
	1    8900 5350
	0    1    1    0   
$EndComp
Wire Wire Line
	8400 5350 8750 5350
Wire Wire Line
	9050 5350 9200 5350
Wire Bus Line
	12950 2850 14550 2850
Wire Bus Line
	11250 2850 12950 2850
Wire Bus Line
	9550 2850 11250 2850
Wire Bus Line
	8100 550  8700 550 
Wire Bus Line
	8700 550  10050 550 
Wire Bus Line
	10050 550  11650 550 
Wire Bus Line
	11650 550  13450 550 
Wire Bus Line
	14550 2850 14550 3900
Wire Bus Line
	12950 2850 12950 3900
Wire Bus Line
	11250 2850 11250 4000
Wire Bus Line
	9550 2850 9550 3900
Wire Bus Line
	13450 550  13450 1600
Wire Bus Line
	11650 550  11650 1550
Wire Bus Line
	10050 550  10050 1500
Wire Bus Line
	8700 550  8700 1500
Wire Bus Line
	8100 550  8100 2250
Wire Bus Line
	6000 1900 6000 7550
$EndSCHEMATC
