M48
; DRILL file {KiCad (5.1.10)-1} date 11/12/21 20:52:41
; FORMAT={-:-/ absolute / inch / decimal}
; #@! TF.CreationDate,2021-11-12T20:52:41+02:00
; #@! TF.GenerationSoftware,Kicad,Pcbnew,(5.1.10)-1
; #@! TF.FileFunction,Plated,1,4,PTH
FMAT,2
INCH
T1C0.0157
T2C0.0315
T3C0.0354
T4C0.2402
%
G90
G05
T1
X8.4Y-5.15
T2
X8.0Y-4.85
X8.1Y-4.85
X8.35Y-5.65
X8.45Y-5.65
T3
X8.75Y-4.85
X8.85Y-4.85
T4
X7.9Y-6.0
X8.4902Y-6.0
X9.0799Y-6.0
T0
M30
