%TF.GenerationSoftware,KiCad,Pcbnew,(5.1.10)-1*%
%TF.CreationDate,2021-11-12T20:48:55+02:00*%
%TF.ProjectId,lab3,6c616233-2e6b-4696-9361-645f70636258,rev?*%
%TF.SameCoordinates,Original*%
%TF.FileFunction,Soldermask,Bot*%
%TF.FilePolarity,Negative*%
%FSLAX46Y46*%
G04 Gerber Fmt 4.6, Leading zero omitted, Abs format (unit mm)*
G04 Created by KiCad (PCBNEW (5.1.10)-1) date 2021-11-12 20:48:55*
%MOMM*%
%LPD*%
G01*
G04 APERTURE LIST*
%ADD10R,1.800000X1.800000*%
%ADD11C,1.800000*%
%ADD12C,1.600000*%
%ADD13O,1.600000X1.600000*%
%ADD14C,10.160000*%
G04 APERTURE END LIST*
D10*
%TO.C,D1*%
X222250000Y-123190000D03*
D11*
X224790000Y-123190000D03*
%TD*%
D12*
%TO.C,R1*%
X203200000Y-123190000D03*
D13*
X205740000Y-123190000D03*
%TD*%
%TO.C,R2*%
X214630000Y-143510000D03*
D12*
X212090000Y-143510000D03*
%TD*%
D14*
%TO.C,X1*%
X200660000Y-152400000D03*
X230630000Y-152400000D03*
X215650000Y-152400000D03*
%TD*%
M02*
