M48
; DRILL file {KiCad (5.1.10)-1} date 12/24/21 19:58:42
; FORMAT={-:-/ absolute / inch / decimal}
; #@! TF.CreationDate,2021-12-24T19:58:42+03:00
; #@! TF.GenerationSoftware,Kicad,Pcbnew,(5.1.10)-1
; #@! TF.FileFunction,Plated,1,2,PTH
FMAT,2
INCH
T1C0.0157
T2C0.0197
T3C0.0236
T4C0.0276
T5C0.0315
T6C0.0394
T7C0.0433
T8C0.0472
T9C0.0591
T10C0.1063
T11C0.2402
%
G90
G05
T1
X5.5Y-8.1
X6.4Y-6.25
X6.95Y-6.3
X7.75Y-7.4
X7.75Y-7.75
T2
X6.3Y-6.85
X6.4Y-6.85
T4
X7.2409Y-6.3547
X7.2409Y-6.4335
X7.2409Y-6.5122
X7.2409Y-6.5909
X7.2409Y-6.6697
X7.3Y-6.3744
X7.3Y-6.4728
X7.3Y-6.5516
X7.3Y-6.65
T5
X4.8Y-8.85
X4.8Y-8.95
X4.8Y-9.05
X5.1Y-8.85
X5.1Y-8.95
X5.1Y-9.05
X5.35Y-7.95
X5.35Y-8.05
X6.3Y-6.5
X6.4Y-6.5
T6
X5.95Y-7.05
X5.95Y-7.4437
X6.35Y-8.65
X6.4Y-7.9
X6.7437Y-8.65
X6.75Y-7.05
X6.75Y-7.4437
X6.7937Y-7.9
X7.1Y-8.2
X7.4937Y-8.2
T7
X5.5228Y-8.35
X5.5228Y-8.6059
X5.7Y-8.35
X5.7Y-8.6059
T8
X4.35Y-6.75
X4.35Y-6.85
X4.35Y-6.95
X4.35Y-7.05
X4.35Y-7.15
X4.35Y-7.25
X4.35Y-7.35
X4.35Y-7.45
X4.35Y-7.55
X4.35Y-7.65
X4.35Y-7.75
X4.35Y-7.85
X4.35Y-7.95
X4.35Y-8.05
T9
X6.35Y-8.3
X6.5656Y-8.3
X6.7811Y-8.3
T10
X2.8752Y-5.2429
X2.8752Y-8.3531
X4.2925Y-5.302
X4.2925Y-8.2941
T11
X5.95Y-9.1
X7.1299Y-9.1
T3
G00X7.2488Y-6.2602
M15
G01X7.2921Y-6.2602
M16
G05
G00X7.2488Y-6.7642
M15
G01X7.2921Y-6.7642
M16
G05
G00X7.5894Y-6.2602
M15
G01X7.6209Y-6.2602
M16
G05
G00X7.5894Y-6.7642
M15
G01X7.6209Y-6.7642
M16
G05
T0
M30
