M48
; DRILL file {KiCad (5.1.10)-1} date 01/10/22 15:34:55
; FORMAT={-:-/ absolute / inch / decimal}
; #@! TF.CreationDate,2022-01-10T15:34:55+03:00
; #@! TF.GenerationSoftware,Kicad,Pcbnew,(5.1.10)-1
; #@! TF.FileFunction,NonPlated,1,4,NPTH
FMAT,2
INCH
%
G90
G05
T0
M30
