M48
; DRILL file {KiCad (5.1.10)-1} date 12/23/21 16:00:27
; FORMAT={-:-/ absolute / inch / decimal}
; #@! TF.CreationDate,2021-12-23T16:00:27+03:00
; #@! TF.GenerationSoftware,Kicad,Pcbnew,(5.1.10)-1
; #@! TF.FileFunction,NonPlated,1,4,NPTH
FMAT,2
INCH
%
G90
G05
T0
M30
