EESchema Schematic File Version 4
EELAYER 30 0
EELAYER END
$Descr A3 16535 11693
encoding utf-8
Sheet 1 1
Title "Схема электрическая\\nпринципиальная"
Date "2021-12-06"
Rev ""
Comp "МГТУ им. Н. Э. Баумана\\nГруппа ИУ6-71Б"
Comment1 "Контроллер для\\nмедицинского тренажера"
Comment2 "Рыбкин Ю. А."
Comment3 "Хартов В. Я."
Comment4 ""
$EndDescr
$Comp
L MCU_Microchip_ATmega:ATmega328P-MU U1
U 1 1 61AE3492
P 5700 5900
F 0 "U1" H 5500 7400 50  0000 C CNN
F 1 "ATmega328P-MU" H 6200 7400 50  0000 C CNN
F 2 "Package_DFN_QFN:QFN-32-1EP_5x5mm_P0.5mm_EP3.1x3.1mm" H 5700 5900 50  0001 C CIN
F 3 "http://ww1.microchip.com/downloads/en/DeviceDoc/ATmega328_P%20AVR%20MCU%20with%20picoPower%20Technology%20Data%20Sheet%2040001984A.pdf" H 5700 5900 50  0001 C CNN
	1    5700 5900
	1    0    0    -1  
$EndComp
$Comp
L Interface_UART:MAX232 U3
U 1 1 61AE64BC
P 9000 6400
F 0 "U3" H 8750 7500 50  0000 C CNN
F 1 "MAX232" H 9200 7500 50  0000 C CNN
F 2 "" H 9050 5350 50  0001 L CNN
F 3 "http://www.ti.com/lit/ds/symlink/max232.pdf" H 9000 6500 50  0001 C CNN
	1    9000 6400
	1    0    0    -1  
$EndComp
NoConn ~ 8200 7100
NoConn ~ 8200 6700
NoConn ~ 9800 6700
NoConn ~ 9800 7100
Wire Wire Line
	8200 5500 7900 5500
Wire Wire Line
	8200 5800 7900 5800
Wire Wire Line
	9800 5500 10100 5500
Wire Wire Line
	9800 5800 10100 5800
Wire Wire Line
	10650 5800 10650 6000
Wire Wire Line
	10650 6000 9800 6000
Wire Wire Line
	10650 5500 10650 5100
Wire Wire Line
	10650 5100 9000 5100
Connection ~ 9000 5100
Wire Wire Line
	9000 5100 9000 5200
Wire Wire Line
	9800 6300 10250 6300
Wire Wire Line
	10250 6300 10250 6100
Wire Wire Line
	10250 6100 11450 6100
Wire Wire Line
	11450 6100 11450 7350
Wire Wire Line
	11450 7650 11450 7750
Wire Wire Line
	11450 7750 9000 7750
Connection ~ 9000 7750
Wire Wire Line
	9000 7750 9000 7600
NoConn ~ 5800 4400
NoConn ~ 5100 4900
NoConn ~ 5100 5000
NoConn ~ 5100 4700
NoConn ~ 6300 6100
NoConn ~ 6300 6000
NoConn ~ 6300 5900
NoConn ~ 6300 5800
NoConn ~ 6300 5700
NoConn ~ 6300 5600
NoConn ~ 6300 4700
NoConn ~ 6300 6600
NoConn ~ 6300 6700
NoConn ~ 6300 6900
NoConn ~ 6300 7000
NoConn ~ 6300 7100
Wire Wire Line
	6300 6500 8200 6500
Wire Wire Line
	6300 6400 7900 6400
Wire Wire Line
	7900 6400 7900 6900
Wire Wire Line
	7900 6900 8200 6900
$Comp
L Driver_Motor:L298HN U2
U 1 1 61B2ED5C
P 8200 3400
F 0 "U2" H 7950 4100 50  0000 C CNN
F 1 "L298HN" H 8500 4100 50  0000 C CNN
F 2 "Package_TO_SOT_THT:TO-220-15_P2.54x2.54mm_StaggerOdd_Lead4.58mm_Vertical" H 8250 2750 50  0001 L CNN
F 3 "http://www.st.com/st-web-ui/static/active/en/resource/technical/document/datasheet/CD00000240.pdf" H 8350 3650 50  0001 C CNN
	1    8200 3400
	1    0    0    -1  
$EndComp
NoConn ~ 7600 3500
NoConn ~ 7600 3400
NoConn ~ 7600 3300
NoConn ~ 8800 3500
NoConn ~ 8800 3600
Wire Wire Line
	6300 4800 6900 4800
Wire Wire Line
	6900 4800 6900 2900
Wire Wire Line
	6900 2900 7600 2900
Wire Wire Line
	6300 4900 7000 4900
Wire Wire Line
	7000 4900 7000 3000
Wire Wire Line
	7000 3000 7600 3000
Wire Wire Line
	7600 3100 7400 3100
Wire Wire Line
	7400 3100 7400 2550
Wire Wire Line
	7400 2550 8200 2550
Connection ~ 8200 2550
Wire Wire Line
	8200 2550 8200 2700
Wire Wire Line
	7900 4100 7900 4250
Wire Wire Line
	7900 4250 8000 4250
Connection ~ 8200 4250
Wire Wire Line
	8200 4250 8200 4100
Wire Wire Line
	8000 4100 8000 4250
Connection ~ 8000 4250
Wire Wire Line
	8000 4250 8200 4250
$Comp
L Device:Crystal Y1
U 1 1 61B3C843
P 11350 4300
F 0 "Y1" V 11304 4431 50  0000 L CNN
F 1 "8MHz" V 11395 4431 50  0000 L CNN
F 2 "" H 11350 4300 50  0001 C CNN
F 3 "~" H 11350 4300 50  0001 C CNN
	1    11350 4300
	0    1    1    0   
$EndComp
$Comp
L Device:C C1
U 1 1 61B3E590
P 11850 4050
F 0 "C1" V 11600 4050 50  0000 C CNN
F 1 "22pF" V 11700 4050 50  0000 C CNN
F 2 "" H 11888 3900 50  0001 C CNN
F 3 "~" H 11850 4050 50  0001 C CNN
	1    11850 4050
	0    1    1    0   
$EndComp
$Comp
L Device:C C2
U 1 1 61B3ED04
P 11850 4550
F 0 "C2" V 11600 4550 50  0000 C CNN
F 1 "22pF" V 11700 4550 50  0000 C CNN
F 2 "" H 11888 4400 50  0001 C CNN
F 3 "~" H 11850 4550 50  0001 C CNN
	1    11850 4550
	0    1    1    0   
$EndComp
Wire Wire Line
	11700 4050 11350 4050
Wire Wire Line
	11350 4050 11350 4150
Wire Wire Line
	11700 4550 11350 4550
Wire Wire Line
	11350 4550 11350 4450
Wire Wire Line
	12000 4550 12200 4550
Wire Wire Line
	12200 4550 12200 4050
Wire Wire Line
	12200 4050 12000 4050
Connection ~ 11350 4050
Connection ~ 11350 4550
Connection ~ 12200 4550
$Comp
L mylib:CONN_MOT XP2
U 1 1 61B4C18F
P 10500 3250
F 0 "XP2" H 10122 3296 50  0000 R CNN
F 1 "CONN_MOT" H 10122 3205 50  0000 R CNN
F 2 "" H 10500 3500 50  0001 C CNN
F 3 "" H 10500 3500 50  0001 C CNN
	1    10500 3250
	-1   0    0    -1  
$EndComp
$Comp
L mylib:CONN_POW XP1
U 1 1 61B4C9C5
P 4350 2950
F 0 "XP1" H 4358 3315 50  0000 C CNN
F 1 "CONN_POW" H 4358 3224 50  0000 C CNN
F 2 "" H 4350 3200 50  0001 C CNN
F 3 "" H 4350 3200 50  0001 C CNN
	1    4350 2950
	1    0    0    -1  
$EndComp
Text Label 6450 6800 0    50   ~ 0
ENC
Text Label 9750 3400 0    50   ~ 0
ENC
Wire Wire Line
	5700 4400 5700 4150
Wire Wire Line
	5700 7400 5700 7700
Wire Wire Line
	12200 4550 12200 4850
Wire Wire Line
	9000 7750 9000 8050
Wire Wire Line
	9000 4800 9000 5100
Wire Wire Line
	8300 2700 8300 2550
$Comp
L Device:D D1
U 1 1 61B87169
P 9000 2900
F 0 "D1" V 8954 2980 50  0000 L CNN
F 1 " " V 9045 2980 50  0000 L CNN
F 2 "" H 9000 2900 50  0001 C CNN
F 3 "~" H 9000 2900 50  0001 C CNN
	1    9000 2900
	0    1    1    0   
$EndComp
$Comp
L Device:D D2
U 1 1 61B879B2
P 9000 3650
F 0 "D2" V 8954 3730 50  0000 L CNN
F 1 " " V 9045 3730 50  0000 L CNN
F 2 "" H 9000 3650 50  0001 C CNN
F 3 "~" H 9000 3650 50  0001 C CNN
	1    9000 3650
	0    1    1    0   
$EndComp
$Comp
L Device:D D3
U 1 1 61B88181
P 9300 2900
F 0 "D3" V 9254 2980 50  0000 L CNN
F 1 " " V 9345 2980 50  0000 L CNN
F 2 "" H 9300 2900 50  0001 C CNN
F 3 "~" H 9300 2900 50  0001 C CNN
	1    9300 2900
	0    1    1    0   
$EndComp
$Comp
L Device:D D4
U 1 1 61B887B1
P 9300 3650
F 0 "D4" V 9254 3730 50  0000 L CNN
F 1 " " V 9345 3730 50  0000 L CNN
F 2 "" H 9300 3650 50  0001 C CNN
F 3 "~" H 9300 3650 50  0001 C CNN
	1    9300 3650
	0    1    1    0   
$EndComp
Wire Wire Line
	8800 3200 9000 3200
Wire Wire Line
	8800 3300 9300 3300
Wire Wire Line
	10050 3400 9650 3400
Wire Wire Line
	9000 3050 9000 3200
Connection ~ 9000 3200
Wire Wire Line
	9000 3200 10050 3200
Wire Wire Line
	9000 3500 9000 3200
Wire Wire Line
	9300 3050 9300 3300
Connection ~ 9300 3300
Wire Wire Line
	9300 3300 10050 3300
Wire Wire Line
	9300 3500 9300 3300
Wire Wire Line
	9300 2750 9300 2550
Wire Wire Line
	9300 2550 9000 2550
Connection ~ 8300 2550
Wire Wire Line
	9000 2750 9000 2550
Connection ~ 9000 2550
Wire Wire Line
	9000 2550 8300 2550
Wire Wire Line
	9000 3800 9000 4250
Wire Wire Line
	9000 4250 8200 4250
Wire Wire Line
	9300 4250 9000 4250
Wire Wire Line
	9300 3800 9300 4250
Connection ~ 9000 4250
$Comp
L Device:CP C9
U 1 1 61AFC244
P 7900 5650
F 0 "C9" H 8018 5696 50  0000 L CNN
F 1 "1uF" H 8018 5605 50  0000 L CNN
F 2 "" H 7938 5500 50  0001 C CNN
F 3 "~" H 7900 5650 50  0001 C CNN
	1    7900 5650
	1    0    0    -1  
$EndComp
$Comp
L Device:CP C10
U 1 1 61AFCAAB
P 10100 5650
F 0 "C10" H 10218 5696 50  0000 L CNN
F 1 "1uF" H 10218 5605 50  0000 L CNN
F 2 "" H 10138 5500 50  0001 C CNN
F 3 "~" H 10100 5650 50  0001 C CNN
	1    10100 5650
	1    0    0    -1  
$EndComp
$Comp
L Device:CP C11
U 1 1 61AFD13D
P 10650 5650
F 0 "C11" H 10532 5604 50  0000 R CNN
F 1 "1uF" H 10532 5695 50  0000 R CNN
F 2 "" H 10688 5500 50  0001 C CNN
F 3 "~" H 10650 5650 50  0001 C CNN
	1    10650 5650
	-1   0    0    1   
$EndComp
$Comp
L Device:CP C12
U 1 1 61AFD859
P 11450 7500
F 0 "C12" H 11332 7454 50  0000 R CNN
F 1 "1uF" H 11332 7545 50  0000 R CNN
F 2 "" H 11488 7350 50  0001 C CNN
F 3 "~" H 11450 7500 50  0001 C CNN
	1    11450 7500
	-1   0    0    1   
$EndComp
$Comp
L mylib:CONN_RS232 XP4
U 1 1 61B17F36
P 10850 6900
F 0 "XP4" H 10572 6946 50  0000 R CNN
F 1 "CONN_RS232" H 10572 6855 50  0000 R CNN
F 2 "" H 10850 7450 50  0001 C CNN
F 3 "" H 10850 7450 50  0001 C CNN
	1    10850 6900
	-1   0    0    -1  
$EndComp
Wire Wire Line
	9800 6500 10150 6500
Wire Wire Line
	10150 6500 10150 6650
Wire Wire Line
	10150 6650 10600 6650
Wire Wire Line
	9800 6900 10150 6900
Wire Wire Line
	10150 6900 10150 6750
Wire Wire Line
	10600 6750 10150 6750
NoConn ~ 10600 7350
Wire Wire Line
	10600 6550 10500 6550
Wire Wire Line
	10500 6550 10500 6850
Wire Wire Line
	10500 6850 10600 6850
Wire Wire Line
	10600 7050 10500 7050
Wire Wire Line
	10500 7050 10500 6850
Connection ~ 10500 6850
Wire Wire Line
	10600 7250 10500 7250
Wire Wire Line
	10500 7250 10500 7150
Wire Wire Line
	10500 7150 10600 7150
Wire Wire Line
	10600 6950 10300 6950
Wire Wire Line
	6950 8200 7200 8200
Wire Wire Line
	6950 8400 7200 8400
Wire Wire Line
	6950 8500 7200 8500
Wire Wire Line
	6950 8600 7200 8600
Text Label 7000 8600 0    50   ~ 0
RESET
Text Label 7000 8500 0    50   ~ 0
MOSI
Text Label 7000 8400 0    50   ~ 0
SCK
Text Label 7000 8200 0    50   ~ 0
MISO
Text Label 6400 5400 0    50   ~ 0
XTAL2
Wire Wire Line
	6300 5400 6650 5400
Wire Wire Line
	6300 5300 6650 5300
Wire Wire Line
	6300 5200 6650 5200
Wire Wire Line
	6300 5100 6650 5100
Text Label 6400 5300 0    50   ~ 0
XTAL1
Text Label 6450 5200 0    50   ~ 0
SCK
Text Label 6450 5100 0    50   ~ 0
MISO
Text Label 6450 5000 0    50   ~ 0
MOSI
Wire Wire Line
	6300 6200 6450 6200
Text Label 6550 6300 0    50   ~ 0
RESET
Wire Wire Line
	10950 4050 11350 4050
Text Label 11000 4050 0    50   ~ 0
XTAL1
Text Label 11000 4550 0    50   ~ 0
XTAL2
Wire Wire Line
	10950 4550 11350 4550
Wire Wire Line
	6300 6800 6650 6800
$Comp
L Switch:SW_Push SW1
U 1 1 61BAE1F5
P 6850 6200
F 0 "SW1" H 6850 6450 50  0000 C CNN
F 1 "RESET_SW" H 6900 6350 50  0000 C CNN
F 2 "" H 6850 6400 50  0001 C CNN
F 3 "~" H 6850 6400 50  0001 C CNN
	1    6850 6200
	1    0    0    -1  
$EndComp
Wire Wire Line
	6450 6200 6450 6300
Connection ~ 6450 6200
Wire Wire Line
	6450 6200 6650 6200
Wire Wire Line
	6450 6300 6800 6300
$Comp
L Device:C C5
U 1 1 61BBD259
P 5400 4150
F 0 "C5" V 5650 4150 50  0000 C CNN
F 1 "100nF" V 5550 4150 50  0000 C CNN
F 2 "" H 5438 4000 50  0001 C CNN
F 3 "~" H 5400 4150 50  0001 C CNN
	1    5400 4150
	0    -1   -1   0   
$EndComp
Wire Wire Line
	5550 4150 5700 4150
Wire Wire Line
	5700 4150 6000 4150
Connection ~ 5700 4150
$Comp
L Device:C C7
U 1 1 61BD4540
P 8700 4800
F 0 "C7" V 8950 4800 50  0000 C CNN
F 1 "100nF" V 8850 4800 50  0000 C CNN
F 2 "" H 8738 4650 50  0001 C CNN
F 3 "~" H 8700 4800 50  0001 C CNN
	1    8700 4800
	0    -1   -1   0   
$EndComp
Wire Wire Line
	9000 4800 8850 4800
Wire Wire Line
	9000 4800 9250 4800
Connection ~ 9000 4800
$Comp
L Device:C C6
U 1 1 61BE4936
P 7900 2250
F 0 "C6" V 8150 2250 50  0000 C CNN
F 1 "100nF" V 8050 2250 50  0000 C CNN
F 2 "" H 7938 2100 50  0001 C CNN
F 3 "~" H 7900 2250 50  0001 C CNN
	1    7900 2250
	0    -1   -1   0   
$EndComp
Wire Wire Line
	8050 2250 8200 2250
Wire Wire Line
	8200 2250 8200 2550
$Comp
L Device:C C8
U 1 1 61BED4E7
P 8600 2250
F 0 "C8" V 8850 2250 50  0000 C CNN
F 1 "100nF" V 8750 2250 50  0000 C CNN
F 2 "" H 8638 2100 50  0001 C CNN
F 3 "~" H 8600 2250 50  0001 C CNN
	1    8600 2250
	0    -1   -1   0   
$EndComp
Wire Wire Line
	8450 2250 8300 2250
Wire Wire Line
	8300 2250 8300 2550
$Comp
L Regulator_Linear:NCP1117-5.0_SOT223 U4
U 1 1 61C77201
P 5650 3000
F 0 "U4" H 5650 3242 50  0000 C CNN
F 1 "NCP1117-5.0_SOT223" H 5650 3151 50  0000 C CNN
F 2 "Package_TO_SOT_SMD:SOT-223-3_TabPin2" H 5650 3200 50  0001 C CNN
F 3 "http://www.onsemi.com/pub_link/Collateral/NCP1117-D.PDF" H 5750 2750 50  0001 C CNN
	1    5650 3000
	1    0    0    -1  
$EndComp
$Comp
L Device:CP C3
U 1 1 61C9ED60
P 5250 3300
F 0 "C3" H 5368 3346 50  0000 L CNN
F 1 "10mF" H 5368 3255 50  0000 L CNN
F 2 "" H 5288 3150 50  0001 C CNN
F 3 "~" H 5250 3300 50  0001 C CNN
	1    5250 3300
	1    0    0    -1  
$EndComp
$Comp
L Device:CP C4
U 1 1 61C9F2FA
P 6050 3300
F 0 "C4" H 6168 3346 50  0000 L CNN
F 1 "10mF" H 6168 3255 50  0000 L CNN
F 2 "" H 6088 3150 50  0001 C CNN
F 3 "~" H 6050 3300 50  0001 C CNN
	1    6050 3300
	1    0    0    -1  
$EndComp
Wire Wire Line
	4700 3000 5250 3000
Wire Wire Line
	5950 3000 6050 3000
Wire Wire Line
	6050 3150 6050 3000
Connection ~ 6050 3000
Wire Wire Line
	6050 3000 6200 3000
Wire Wire Line
	5250 3150 5250 3000
Connection ~ 5250 3000
Wire Wire Line
	5250 3000 5350 3000
Wire Wire Line
	6050 3450 6050 3650
Wire Wire Line
	5250 3450 5250 3650
Wire Wire Line
	5650 3300 5650 3650
$Comp
L power_GOST:+5V #PWR0101
U 1 1 61CF9FC6
P 6200 3000
F 0 "#PWR0101" H 6200 2900 79  0001 C CNN
F 1 "+5V" V 6200 3153 79  0000 L CNN
F 2 "" V 6200 3125 98  0000 C CNN
F 3 "" H 6200 3125 98  0001 C CNN
	1    6200 3000
	0    1    1    0   
$EndComp
$Comp
L power_GOST:+5V #PWR0102
U 1 1 61CFFBE4
P 8100 1900
F 0 "#PWR0102" H 8100 1800 79  0001 C CNN
F 1 "+5V" H 8050 2100 79  0000 C CNN
F 2 "" V 8100 2025 98  0000 C CNN
F 3 "" H 8100 2025 98  0001 C CNN
	1    8100 1900
	1    0    0    -1  
$EndComp
$Comp
L power_GOST:+5V #PWR0103
U 1 1 61D166A5
P 9250 4800
F 0 "#PWR0103" H 9250 4700 79  0001 C CNN
F 1 "+5V" V 9250 4953 79  0000 L CNN
F 2 "" V 9250 4925 98  0000 C CNN
F 3 "" H 9250 4925 98  0001 C CNN
	1    9250 4800
	0    1    1    0   
$EndComp
$Comp
L power_GOST:+5V #PWR0104
U 1 1 61D16CEB
P 6000 4150
F 0 "#PWR0104" H 6000 4050 79  0001 C CNN
F 1 "+5V" V 6000 4303 79  0000 L CNN
F 2 "" V 6000 4275 98  0000 C CNN
F 3 "" H 6000 4275 98  0001 C CNN
	1    6000 4150
	0    1    1    0   
$EndComp
$Comp
L power_GOST:Chassis #PWR0105
U 1 1 61D19687
P 5700 7700
F 0 "#PWR0105" H 5700 7750 60  0001 C CNN
F 1 "Chassis" H 5700 7450 79  0001 C CNN
F 2 "" H 5700 7700 60  0000 C CNN
F 3 "" H 5700 7700 60  0001 C CNN
	1    5700 7700
	1    0    0    -1  
$EndComp
$Comp
L power_GOST:Chassis #PWR0106
U 1 1 61D1A989
P 9000 8050
F 0 "#PWR0106" H 9000 8100 60  0001 C CNN
F 1 "Chassis" H 9000 7800 79  0001 C CNN
F 2 "" H 9000 8050 60  0000 C CNN
F 3 "" H 9000 8050 60  0001 C CNN
	1    9000 8050
	1    0    0    -1  
$EndComp
$Comp
L power_GOST:Chassis #PWR0107
U 1 1 61D1B80B
P 7300 8800
F 0 "#PWR0107" H 7300 8850 60  0001 C CNN
F 1 "Chassis" H 7300 8550 79  0001 C CNN
F 2 "" H 7300 8800 60  0000 C CNN
F 3 "" H 7300 8800 60  0001 C CNN
	1    7300 8800
	1    0    0    -1  
$EndComp
Wire Wire Line
	7300 8800 7300 8700
Wire Wire Line
	6950 8700 7300 8700
Wire Wire Line
	10300 6950 10300 7300
$Comp
L power_GOST:Chassis #PWR0108
U 1 1 61D22BDD
P 10300 7300
F 0 "#PWR0108" H 10300 7350 60  0001 C CNN
F 1 "Chassis" H 10300 7050 79  0001 C CNN
F 2 "" H 10300 7300 60  0000 C CNN
F 3 "" H 10300 7300 60  0001 C CNN
	1    10300 7300
	1    0    0    -1  
$EndComp
$Comp
L power_GOST:Chassis #PWR0109
U 1 1 61D23401
P 8200 4350
F 0 "#PWR0109" H 8200 4400 60  0001 C CNN
F 1 "Chassis" H 8200 4100 79  0001 C CNN
F 2 "" H 8200 4350 60  0000 C CNN
F 3 "" H 8200 4350 60  0001 C CNN
	1    8200 4350
	1    0    0    -1  
$EndComp
Wire Wire Line
	8200 4250 8200 4350
$Comp
L power_GOST:Chassis #PWR0110
U 1 1 61D2969F
P 5250 3650
F 0 "#PWR0110" H 5250 3700 60  0001 C CNN
F 1 "Chassis" H 5250 3400 79  0001 C CNN
F 2 "" H 5250 3650 60  0000 C CNN
F 3 "" H 5250 3650 60  0001 C CNN
	1    5250 3650
	1    0    0    -1  
$EndComp
$Comp
L power_GOST:Chassis #PWR0111
U 1 1 61D2A441
P 5650 3650
F 0 "#PWR0111" H 5650 3700 60  0001 C CNN
F 1 "Chassis" H 5650 3400 79  0001 C CNN
F 2 "" H 5650 3650 60  0000 C CNN
F 3 "" H 5650 3650 60  0001 C CNN
	1    5650 3650
	1    0    0    -1  
$EndComp
$Comp
L power_GOST:Chassis #PWR0112
U 1 1 61D2AAD9
P 6050 3650
F 0 "#PWR0112" H 6050 3700 60  0001 C CNN
F 1 "Chassis" H 6050 3400 79  0001 C CNN
F 2 "" H 6050 3650 60  0000 C CNN
F 3 "" H 6050 3650 60  0001 C CNN
	1    6050 3650
	1    0    0    -1  
$EndComp
$Comp
L power_GOST:Chassis #PWR0113
U 1 1 61D2B2A6
P 5150 2750
F 0 "#PWR0113" H 5150 2800 60  0001 C CNN
F 1 "Chassis" H 5150 2500 79  0001 C CNN
F 2 "" H 5150 2750 60  0000 C CNN
F 3 "" H 5150 2750 60  0001 C CNN
	1    5150 2750
	1    0    0    -1  
$EndComp
Wire Wire Line
	4700 2900 4850 2900
Wire Wire Line
	4850 2900 4850 2700
Wire Wire Line
	4850 2700 5150 2700
Wire Wire Line
	5150 2700 5150 2750
$Comp
L power_GOST:Chassis #PWR0114
U 1 1 61D31CDD
P 12200 4850
F 0 "#PWR0114" H 12200 4900 60  0001 C CNN
F 1 "Chassis" H 12200 4600 79  0001 C CNN
F 2 "" H 12200 4850 60  0000 C CNN
F 3 "" H 12200 4850 60  0001 C CNN
	1    12200 4850
	1    0    0    -1  
$EndComp
$Comp
L power_GOST:Chassis #PWR0115
U 1 1 61D32AF0
P 8150 4900
F 0 "#PWR0115" H 8150 4950 60  0001 C CNN
F 1 "Chassis" H 8150 4650 79  0001 C CNN
F 2 "" H 8150 4900 60  0000 C CNN
F 3 "" H 8150 4900 60  0001 C CNN
	1    8150 4900
	1    0    0    -1  
$EndComp
Wire Wire Line
	8150 4900 8150 4800
Wire Wire Line
	8150 4800 8550 4800
$Comp
L power_GOST:Chassis #PWR0116
U 1 1 61D3B2B9
P 7400 2300
F 0 "#PWR0116" H 7400 2350 60  0001 C CNN
F 1 "Chassis" H 7400 2050 79  0001 C CNN
F 2 "" H 7400 2300 60  0000 C CNN
F 3 "" H 7400 2300 60  0001 C CNN
	1    7400 2300
	1    0    0    -1  
$EndComp
Wire Wire Line
	7400 2300 7400 2250
Wire Wire Line
	7400 2250 7750 2250
$Comp
L power_GOST:Chassis #PWR0117
U 1 1 61D42446
P 4900 4250
F 0 "#PWR0117" H 4900 4300 60  0001 C CNN
F 1 "Chassis" H 4900 4000 79  0001 C CNN
F 2 "" H 4900 4250 60  0000 C CNN
F 3 "" H 4900 4250 60  0001 C CNN
	1    4900 4250
	1    0    0    -1  
$EndComp
Wire Wire Line
	4900 4250 4900 4150
Wire Wire Line
	4900 4150 5250 4150
$Comp
L power_GOST:+5V #PWR0118
U 1 1 61D4978E
P 7450 8200
F 0 "#PWR0118" H 7450 8100 79  0001 C CNN
F 1 "+5V" H 7450 8421 79  0000 C CNN
F 2 "" V 7450 8325 98  0000 C CNN
F 3 "" H 7450 8325 98  0001 C CNN
	1    7450 8200
	-1   0    0    -1  
$EndComp
Wire Wire Line
	7450 8300 7450 8200
Wire Wire Line
	6950 8300 7450 8300
$Comp
L mylib:CONN_PROG XP3
U 1 1 61D5760F
P 6650 8400
F 0 "XP3" H 6658 8915 50  0000 C CNN
F 1 "CONN_PROG" H 6658 8824 50  0000 C CNN
F 2 "" H 6650 8800 50  0001 C CNN
F 3 "" H 6650 8800 50  0001 C CNN
	1    6650 8400
	1    0    0    -1  
$EndComp
$Comp
L power_GOST:Chassis #PWR0119
U 1 1 61D5D51A
P 7300 6150
F 0 "#PWR0119" H 7300 6200 60  0001 C CNN
F 1 "Chassis" H 7300 5900 79  0001 C CNN
F 2 "" H 7300 6150 60  0000 C CNN
F 3 "" H 7300 6150 60  0001 C CNN
	1    7300 6150
	1    0    0    -1  
$EndComp
Wire Wire Line
	7050 6200 7150 6200
Wire Wire Line
	7150 6200 7150 6050
Wire Wire Line
	7150 6050 7300 6050
Wire Wire Line
	7300 6050 7300 6150
$Comp
L power_GOST:Chassis #PWR0120
U 1 1 61D69E43
P 9150 2300
F 0 "#PWR0120" H 9150 2350 60  0001 C CNN
F 1 "Chassis" H 9150 2050 79  0001 C CNN
F 2 "" H 9150 2300 60  0000 C CNN
F 3 "" H 9150 2300 60  0001 C CNN
	1    9150 2300
	1    0    0    -1  
$EndComp
Wire Wire Line
	9150 2250 9150 2300
Wire Wire Line
	8750 2250 9150 2250
$Comp
L Device:R R1
U 1 1 61D713E1
P 6450 5950
F 0 "R1" H 6520 5996 50  0000 L CNN
F 1 "10k" H 6520 5905 50  0000 L CNN
F 2 "" V 6380 5950 50  0001 C CNN
F 3 "~" H 6450 5950 50  0001 C CNN
	1    6450 5950
	1    0    0    -1  
$EndComp
Wire Wire Line
	6450 6100 6450 6200
$Comp
L power_GOST:+5V #PWR0121
U 1 1 61D784FE
P 6450 5800
F 0 "#PWR0121" H 6450 5700 79  0001 C CNN
F 1 "+5V" H 6450 6021 79  0000 C CNN
F 2 "" V 6450 5925 98  0000 C CNN
F 3 "" H 6450 5925 98  0001 C CNN
	1    6450 5800
	1    0    0    -1  
$EndComp
$Comp
L power_GOST:+42V #PWR0122
U 1 1 61D8D302
P 8400 1900
F 0 "#PWR0122" H 8400 1800 79  0001 C CNN
F 1 "+42V" H 8500 2100 79  0000 C CNN
F 2 "" V 8400 2025 98  0000 C CNN
F 3 "" H 8400 2025 98  0001 C CNN
	1    8400 1900
	1    0    0    -1  
$EndComp
Wire Wire Line
	8400 1900 8400 2000
Wire Wire Line
	8400 2000 8300 2000
Wire Wire Line
	8300 2000 8300 2250
Connection ~ 8300 2250
Wire Wire Line
	8100 1900 8100 2000
Wire Wire Line
	8100 2000 8200 2000
Wire Wire Line
	8200 2000 8200 2250
Connection ~ 8200 2250
$Comp
L power_GOST:+42V #PWR0123
U 1 1 61D9B8F1
P 4800 3100
F 0 "#PWR0123" H 4800 3000 79  0001 C CNN
F 1 "+42V" V 4750 3300 79  0000 C CNN
F 2 "" V 4800 3225 98  0000 C CNN
F 3 "" H 4800 3225 98  0001 C CNN
	1    4800 3100
	0    1    1    0   
$EndComp
Wire Wire Line
	4700 3100 4800 3100
Wire Wire Line
	6300 5000 6650 5000
$Comp
L power_GOST:+1.25V #PWR0124
U 1 1 61E4CB3D
P 6650 5000
F 0 "#PWR0124" H 6650 4900 79  0001 C CNN
F 1 "+1.25V" H 6650 5200 79  0001 C CNN
F 2 "" V 6650 5125 98  0001 C CNN
F 3 "" H 6650 5125 98  0001 C CNN
	1    6650 5000
	0    1    1    0   
$EndComp
$Comp
L power_GOST:+1.25V #PWR0125
U 1 1 61E4D643
P 7200 8500
F 0 "#PWR0125" H 7200 8400 79  0001 C CNN
F 1 "+1.25V" H 7200 8700 79  0001 C CNN
F 2 "" V 7200 8625 98  0001 C CNN
F 3 "" H 7200 8625 98  0001 C CNN
	1    7200 8500
	0    1    1    0   
$EndComp
$Comp
L power_GOST:+1.65V #PWR0126
U 1 1 61E4E154
P 6650 5100
F 0 "#PWR0126" H 6650 5000 79  0001 C CNN
F 1 "+1.65V" H 6650 5300 79  0001 C CNN
F 2 "" V 6650 5225 98  0001 C CNN
F 3 "" H 6650 5225 98  0001 C CNN
	1    6650 5100
	0    1    1    0   
$EndComp
$Comp
L power_GOST:+1.65V #PWR0127
U 1 1 61E4EC57
P 7200 8200
F 0 "#PWR0127" H 7200 8100 79  0001 C CNN
F 1 "+1.65V" H 7200 8400 79  0001 C CNN
F 2 "" V 7200 8325 98  0001 C CNN
F 3 "" H 7200 8325 98  0001 C CNN
	1    7200 8200
	0    1    1    0   
$EndComp
$Comp
L power_GOST:+3.3V #PWR0128
U 1 1 61E4FCD5
P 7200 8400
F 0 "#PWR0128" H 7200 8300 79  0001 C CNN
F 1 "+3.3V" H 7200 8600 79  0001 C CNN
F 2 "" V 7200 8525 98  0001 C CNN
F 3 "" H 7200 8525 98  0001 C CNN
	1    7200 8400
	0    1    1    0   
$EndComp
$Comp
L power_GOST:+3.3V #PWR0129
U 1 1 61E5020C
P 6650 5200
F 0 "#PWR0129" H 6650 5100 79  0001 C CNN
F 1 "+3.3V" H 6650 5400 79  0001 C CNN
F 2 "" V 6650 5325 98  0001 C CNN
F 3 "" H 6650 5325 98  0001 C CNN
	1    6650 5200
	0    1    1    0   
$EndComp
$Comp
L power_GOST:+3.3V1 #PWR0130
U 1 1 61E50E5A
P 7200 8600
F 0 "#PWR0130" H 7200 8500 79  0001 C CNN
F 1 "+3.3V1" H 7200 8800 79  0001 C CNN
F 2 "" V 7200 8725 98  0001 C CNN
F 3 "" H 7200 8725 98  0001 C CNN
	1    7200 8600
	0    1    1    0   
$EndComp
$Comp
L power_GOST:+3.3V1 #PWR0131
U 1 1 61E57A4C
P 6800 6300
F 0 "#PWR0131" H 6800 6200 79  0001 C CNN
F 1 "+3.3V1" H 6800 6500 79  0001 C CNN
F 2 "" V 6800 6425 98  0001 C CNN
F 3 "" H 6800 6425 98  0001 C CNN
	1    6800 6300
	0    1    1    0   
$EndComp
$Comp
L power_GOST:+3.3V2 #PWR0132
U 1 1 61E58E88
P 6650 5300
F 0 "#PWR0132" H 6650 5200 79  0001 C CNN
F 1 "+3.3V2" H 6650 5500 79  0001 C CNN
F 2 "" V 6650 5425 98  0001 C CNN
F 3 "" H 6650 5425 98  0001 C CNN
	1    6650 5300
	0    1    1    0   
$EndComp
$Comp
L power_GOST:+3.3V2 #PWR0133
U 1 1 61E5992F
P 10950 4050
F 0 "#PWR0133" H 10950 3950 79  0001 C CNN
F 1 "+3.3V2" H 10950 4250 79  0001 C CNN
F 2 "" V 10950 4175 98  0001 C CNN
F 3 "" H 10950 4175 98  0001 C CNN
	1    10950 4050
	0    -1   -1   0   
$EndComp
$Comp
L power_GOST:+3.3VA #PWR0134
U 1 1 61E5AB0C
P 10950 4550
F 0 "#PWR0134" H 10950 4450 79  0001 C CNN
F 1 "+3.3VA" H 10950 4750 79  0001 C CNN
F 2 "" V 10950 4675 98  0001 C CNN
F 3 "" H 10950 4675 98  0001 C CNN
	1    10950 4550
	0    -1   -1   0   
$EndComp
$Comp
L power_GOST:+3.3VA #PWR0135
U 1 1 61E5B50B
P 6650 5400
F 0 "#PWR0135" H 6650 5300 79  0001 C CNN
F 1 "+3.3VA" H 6650 5600 79  0001 C CNN
F 2 "" V 6650 5525 98  0001 C CNN
F 3 "" H 6650 5525 98  0001 C CNN
	1    6650 5400
	0    1    1    0   
$EndComp
$Comp
L power_GOST:+3V #PWR0136
U 1 1 61E5C2A8
P 6650 6800
F 0 "#PWR0136" H 6650 6700 79  0001 C CNN
F 1 "+3V" H 6650 7000 79  0001 C CNN
F 2 "" V 6650 6925 98  0001 C CNN
F 3 "" H 6650 6925 98  0001 C CNN
	1    6650 6800
	0    1    1    0   
$EndComp
$Comp
L power_GOST:+3V #PWR0137
U 1 1 61E5CC5C
P 9650 3400
F 0 "#PWR0137" H 9650 3300 79  0001 C CNN
F 1 "+3V" H 9650 3600 79  0001 C CNN
F 2 "" V 9650 3525 98  0001 C CNN
F 3 "" H 9650 3525 98  0001 C CNN
	1    9650 3400
	0    -1   -1   0   
$EndComp
$EndSCHEMATC
