EESchema Schematic File Version 4
EELAYER 30 0
EELAYER END
$Descr A3 16535 11693
encoding utf-8
Sheet 1 1
Title "Урок 1"
Date ""
Rev ""
Comp ""
Comment1 ""
Comment2 ""
Comment3 ""
Comment4 ""
$EndDescr
$Comp
L Device:R R2
U 1 1 616D42D2
P 9050 3450
F 0 "R2" V 8843 3450 50  0000 C CNN
F 1 "1k" V 8934 3450 50  0000 C CNN
F 2 "Resistor_THT:R_Axial_DIN0207_L6.3mm_D2.5mm_P2.54mm_Vertical" V 8980 3450 50  0001 C CNN
F 3 "~" H 9050 3450 50  0001 C CNN
F 4 "Резисторы" H 9050 3450 60  0001 C CNN "Группа"
	1    9050 3450
	0    1    1    0   
$EndComp
$Comp
L Device:R R1
U 1 1 616D4C8F
P 8650 5000
F 0 "R1" V 8443 5000 50  0000 C CNN
F 1 "100" V 8534 5000 50  0000 C CNN
F 2 "Resistor_THT:R_Axial_DIN0207_L6.3mm_D2.5mm_P2.54mm_Vertical" V 8580 5000 50  0001 C CNN
F 3 "~" H 8650 5000 50  0001 C CNN
F 4 "Резисторы" H 8650 5000 60  0001 C CNN "Группа"
	1    8650 5000
	0    1    1    0   
$EndComp
$Comp
L Device:LED D1
U 1 1 616D7B82
P 8250 3450
F 0 "D1" H 8243 3667 50  0000 C CNN
F 1 "LED" H 8243 3576 50  0000 C CNN
F 2 "LED_THT:LED_D5.0mm" H 8250 3450 50  0001 C CNN
F 3 "~" H 8250 3450 50  0001 C CNN
F 4 "Диоды" H 8250 3450 60  0001 C CNN "Группа"
	1    8250 3450
	1    0    0    -1  
$EndComp
$Comp
L power:VCC #PWR07
U 1 1 61707068
P 9350 3300
F 0 "#PWR07" H 9350 3150 50  0001 C CNN
F 1 "VCC" H 9365 3473 50  0000 C CNN
F 2 "" H 9350 3300 50  0001 C CNN
F 3 "" H 9350 3300 50  0001 C CNN
	1    9350 3300
	1    0    0    -1  
$EndComp
$Comp
L power:VCC #PWR03
U 1 1 6170C5BA
P 7150 5100
F 0 "#PWR03" H 7150 4950 50  0001 C CNN
F 1 "VCC" H 7165 5273 50  0000 C CNN
F 2 "" H 7150 5100 50  0001 C CNN
F 3 "" H 7150 5100 50  0001 C CNN
	1    7150 5100
	1    0    0    -1  
$EndComp
$Comp
L power:GND #PWR04
U 1 1 6170CD01
P 6900 5100
F 0 "#PWR04" H 6900 4850 50  0001 C CNN
F 1 "GND" H 6905 4927 50  0000 C CNN
F 2 "" H 6900 5100 50  0001 C CNN
F 3 "" H 6900 5100 50  0001 C CNN
	1    6900 5100
	1    0    0    1   
$EndComp
Wire Wire Line
	8100 3700 8100 3450
Wire Wire Line
	8400 3450 8900 3450
Wire Wire Line
	9200 3450 9350 3450
Wire Wire Line
	9350 3450 9350 3300
Wire Wire Line
	6900 5200 6900 5100
Wire Wire Line
	7850 5400 7850 5000
Wire Wire Line
	7850 5000 8500 5000
Wire Wire Line
	8800 5000 9500 5000
Text Label 7400 3800 0    50   ~ 0
INPUT
Text Label 9000 5000 0    50   ~ 0
INPUT
Text Label 7600 3700 0    50   ~ 0
uCtoLED
Text Label 8500 3450 0    50   ~ 0
LEDtoR
Text Label 7300 5400 0    50   ~ 0
INPUTtoR
$Comp
L power:PWR_FLAG #FLG01
U 1 1 617104FF
P 8650 4050
F 0 "#FLG01" H 8650 4125 50  0001 C CNN
F 1 "PWR_FLAG" H 8650 4223 50  0000 C CNN
F 2 "" H 8650 4050 50  0001 C CNN
F 3 "~" H 8650 4050 50  0001 C CNN
	1    8650 4050
	1    0    0    -1  
$EndComp
$Comp
L power:PWR_FLAG #FLG02
U 1 1 61710B08
P 9100 4050
F 0 "#FLG02" H 9100 4125 50  0001 C CNN
F 1 "PWR_FLAG" H 9100 4223 50  0000 C CNN
F 2 "" H 9100 4050 50  0001 C CNN
F 3 "~" H 9100 4050 50  0001 C CNN
	1    9100 4050
	1    0    0    -1  
$EndComp
$Comp
L power:GND #PWR05
U 1 1 61711228
P 8650 4200
F 0 "#PWR05" H 8650 3950 50  0001 C CNN
F 1 "GND" H 8655 4027 50  0000 C CNN
F 2 "" H 8650 4200 50  0001 C CNN
F 3 "" H 8650 4200 50  0001 C CNN
	1    8650 4200
	1    0    0    -1  
$EndComp
$Comp
L power:VCC #PWR06
U 1 1 61711842
P 9100 4200
F 0 "#PWR06" H 9100 4050 50  0001 C CNN
F 1 "VCC" H 9115 4373 50  0000 C CNN
F 2 "" H 9100 4200 50  0001 C CNN
F 3 "" H 9100 4200 50  0001 C CNN
	1    9100 4200
	1    0    0    1   
$EndComp
Wire Wire Line
	8650 4050 8650 4200
Wire Wire Line
	9100 4050 9100 4200
Text Notes 7600 2600 0    50   ~ 0
Большакова Екатерина ИУ6-73Б
$Comp
L MCU_Microchip_PIC18:PIC18F23K20_ISS U1
U 1 1 61767A5A
P 4650 4500
F 0 "U1" H 4650 5681 50  0000 C CNN
F 1 "PIC18F23K20_ISS" H 4650 5590 50  0000 C CNN
F 2 "Package_SO:SSOP-28_5.3x10.2mm_P0.65mm" H 4150 4000 50  0001 C CNN
F 3 "http://ww1.microchip.com/downloads/en/DeviceDoc/40001303H.pdf" H 4650 4450 50  0001 C CNN
F 4 "Микросхемы" H 4650 4500 60  0001 C CNN "Группа"
	1    4650 4500
	1    0    0    -1  
$EndComp
Wire Wire Line
	5450 3700 8100 3700
Wire Wire Line
	5450 3800 7850 3800
$Comp
L myLib:XP XP1
U 1 1 61782213
P 6300 5000
F 0 "XP1" H 6300 5000 50  0000 C CNN
F 1 "XP" H 6358 5024 50  0001 C CNN
F 2 "Connector:Banana_Jack_3Pin" H 6300 5000 50  0001 C CNN
F 3 "" H 6300 5000 50  0001 C CNN
	1    6300 5000
	1    0    0    -1  
$EndComp
Wire Wire Line
	6700 5200 6900 5200
Wire Wire Line
	6700 5400 7850 5400
Wire Wire Line
	6700 5300 7150 5300
Wire Wire Line
	7150 5100 7150 5300
$Comp
L power:VCC #PWR02
U 1 1 617885ED
P 4550 3250
F 0 "#PWR02" H 4550 3100 50  0001 C CNN
F 1 "VCC" H 4565 3423 50  0000 C CNN
F 2 "" H 4550 3250 50  0001 C CNN
F 3 "" H 4550 3250 50  0001 C CNN
	1    4550 3250
	1    0    0    -1  
$EndComp
Wire Wire Line
	4550 3250 4550 3500
$Comp
L power:GND #PWR01
U 1 1 61789153
P 4250 5850
F 0 "#PWR01" H 4250 5600 50  0001 C CNN
F 1 "GND" H 4255 5677 50  0000 C CNN
F 2 "" H 4250 5850 50  0001 C CNN
F 3 "" H 4250 5850 50  0001 C CNN
	1    4250 5850
	1    0    0    -1  
$EndComp
Wire Wire Line
	4550 5500 4550 5650
Wire Wire Line
	4550 5650 4450 5650
Wire Wire Line
	4250 5650 4250 5850
Wire Wire Line
	4450 5500 4450 5650
Connection ~ 4450 5650
Wire Wire Line
	4450 5650 4250 5650
NoConn ~ 3850 3700
NoConn ~ 3850 3800
NoConn ~ 3850 3900
NoConn ~ 3850 4000
NoConn ~ 3850 4100
NoConn ~ 3850 4200
NoConn ~ 3850 4400
NoConn ~ 3850 4600
NoConn ~ 3850 4700
NoConn ~ 5450 3900
NoConn ~ 5450 4000
NoConn ~ 5450 4100
NoConn ~ 5450 4200
NoConn ~ 5450 4300
NoConn ~ 5450 4400
NoConn ~ 5450 4600
NoConn ~ 5450 4700
NoConn ~ 5450 4800
NoConn ~ 5450 4900
NoConn ~ 5450 5000
NoConn ~ 5450 5100
NoConn ~ 5450 5200
NoConn ~ 5450 5300
$EndSCHEMATC
