EESchema Schematic File Version 4
LIBS:lab2-cache
EELAYER 26 0
EELAYER END
$Descr A3 16535 11693
encoding utf-8
Sheet 1 1
Title ""
Date "2021-10-24"
Rev ""
Comp ""
Comment1 ""
Comment2 ""
Comment3 ""
Comment4 ""
$EndDescr
$Comp
L MCU_Microchip_PIC18:PIC18F25K80_ISS U1
U 1 1 61753831
P 8300 4850
F 0 "U1" H 8300 5917 50  0000 C CNN
F 1 "PIC18F25K80_ISS" H 8300 5826 50  0000 C CNN
F 2 "Package_SO:SSOP-28_5.3x10.2mm_P0.65mm" H 8300 4600 50  0001 C CNN
F 3 "http://ww1.microchip.com/downloads/en/DeviceDoc/39977f.pdf" H 8300 4800 50  0001 C CNN
F 4 "Микроконтроллеры" H 8300 4850 60  0001 C CNN "Группа"
	1    8300 4850
	1    0    0    -1  
$EndComp
$Comp
L myLib:ConnectorGOST X1
U 1 1 61753A3B
P 10300 5800
F 0 "X1" H 9800 6150 50  0000 C CNN
F 1 "ConnectorGOST" H 10250 6150 50  0000 C CNN
F 2 "Connector:Banana_Jack_3Pin" H 10300 5800 50  0001 C CNN
F 3 "" H 10300 5800 50  0001 C CNN
F 4 "Соединители" H 10300 5800 60  0001 C CNN "Группа"
	1    10300 5800
	1    0    0    -1  
$EndComp
$Comp
L Device:LED D1
U 1 1 61753B7A
P 9650 3750
F 0 "D1" H 9641 3966 50  0000 C CNN
F 1 "LED" H 9641 3875 50  0000 C CNN
F 2 "LED_THT:LED_D5.0mm" H 9650 3750 50  0001 C CNN
F 3 "~" H 9650 3750 50  0001 C CNN
F 4 "Диоды" H 9650 3750 60  0001 C CNN "Группа"
	1    9650 3750
	1    0    0    -1  
$EndComp
$Comp
L Device:R R1
U 1 1 61753C4D
P 10050 3750
F 0 "R1" V 9843 3750 50  0000 C CNN
F 1 "1k" V 9934 3750 50  0000 C CNN
F 2 "Resistor_THT:R_Axial_DIN0207_L6.3mm_D2.5mm_P2.54mm_Vertical" V 9980 3750 50  0001 C CNN
F 3 "~" H 10050 3750 50  0001 C CNN
F 4 "Резисторы" H 10050 3750 60  0001 C CNN "Группа"
	1    10050 3750
	0    1    1    0   
$EndComp
$Comp
L Device:R R2
U 1 1 61753C8A
P 11200 5750
F 0 "R2" V 10993 5750 50  0000 C CNN
F 1 "100" V 11084 5750 50  0000 C CNN
F 2 "Resistor_THT:R_Axial_DIN0207_L6.3mm_D2.5mm_P2.54mm_Vertical" V 11130 5750 50  0001 C CNN
F 3 "~" H 11200 5750 50  0001 C CNN
	1    11200 5750
	0    1    -1   0   
$EndComp
$Comp
L power:GND #PWR01
U 1 1 61753E0C
P 7350 5150
F 0 "#PWR01" H 7350 4900 50  0001 C CNN
F 1 "GND" V 7355 5022 50  0000 R CNN
F 2 "" H 7350 5150 50  0001 C CNN
F 3 "" H 7350 5150 50  0001 C CNN
	1    7350 5150
	0    1    1    0   
$EndComp
$Comp
L power:GND #PWR07
U 1 1 61753E3D
P 10800 6000
F 0 "#PWR07" H 10800 5750 50  0001 C CNN
F 1 "GND" H 10805 5827 50  0000 C CNN
F 2 "" H 10800 6000 50  0001 C CNN
F 3 "" H 10800 6000 50  0001 C CNN
	1    10800 6000
	-1   0    0    -1  
$EndComp
$Comp
L power:VCC #PWR06
U 1 1 61753EAD
P 10800 5550
F 0 "#PWR06" H 10800 5400 50  0001 C CNN
F 1 "VCC" H 10817 5723 50  0000 C CNN
F 2 "" H 10800 5550 50  0001 C CNN
F 3 "" H 10800 5550 50  0001 C CNN
	1    10800 5550
	-1   0    0    -1  
$EndComp
$Comp
L power:VCC #PWR02
U 1 1 61753F4A
P 7350 5500
F 0 "#PWR02" H 7350 5350 50  0001 C CNN
F 1 "VCC" V 7368 5627 50  0000 L CNN
F 2 "" H 7350 5500 50  0001 C CNN
F 3 "" H 7350 5500 50  0001 C CNN
	1    7350 5500
	0    -1   -1   0   
$EndComp
$Comp
L power:VCC #PWR04
U 1 1 61753FD8
P 10300 3650
F 0 "#PWR04" H 10300 3500 50  0001 C CNN
F 1 "VCC" H 10317 3823 50  0000 C CNN
F 2 "" H 10300 3650 50  0001 C CNN
F 3 "" H 10300 3650 50  0001 C CNN
	1    10300 3650
	1    0    0    -1  
$EndComp
Wire Wire Line
	10650 5750 11050 5750
Wire Wire Line
	11350 5750 11950 5750
Wire Wire Line
	7500 5450 7450 5450
Wire Wire Line
	7450 5450 7450 5500
Wire Wire Line
	7450 5500 7350 5500
Wire Wire Line
	7500 5550 7450 5550
Wire Wire Line
	7450 5550 7450 5500
Connection ~ 7450 5500
Wire Wire Line
	9900 3750 9800 3750
Wire Wire Line
	10200 3750 10300 3750
Wire Wire Line
	10300 3750 10300 3650
Wire Wire Line
	9500 3750 9300 3750
Wire Wire Line
	9300 3750 9300 4050
Wire Wire Line
	9300 4050 9100 4050
Wire Wire Line
	9100 4150 9900 4150
$Comp
L power:VCC #PWR03
U 1 1 61754F51
P 9900 4650
F 0 "#PWR03" H 9900 4500 50  0001 C CNN
F 1 "VCC" H 9918 4823 50  0000 C CNN
F 2 "" H 9900 4650 50  0001 C CNN
F 3 "" H 9900 4650 50  0001 C CNN
	1    9900 4650
	-1   0    0    1   
$EndComp
$Comp
L power:GND #PWR05
U 1 1 61754FC1
P 10300 4650
F 0 "#PWR05" H 10300 4400 50  0001 C CNN
F 1 "GND" H 10305 4477 50  0000 C CNN
F 2 "" H 10300 4650 50  0001 C CNN
F 3 "" H 10300 4650 50  0001 C CNN
	1    10300 4650
	1    0    0    -1  
$EndComp
$Comp
L power:PWR_FLAG #FLG01
U 1 1 61755068
P 9900 4550
F 0 "#FLG01" H 9900 4625 50  0001 C CNN
F 1 "PWR_FLAG" H 9900 4724 50  0000 C CNN
F 2 "" H 9900 4550 50  0001 C CNN
F 3 "~" H 9900 4550 50  0001 C CNN
	1    9900 4550
	1    0    0    -1  
$EndComp
$Comp
L power:PWR_FLAG #FLG02
U 1 1 61755099
P 10300 4550
F 0 "#FLG02" H 10300 4625 50  0001 C CNN
F 1 "PWR_FLAG" H 10300 4724 50  0000 C CNN
F 2 "" H 10300 4550 50  0001 C CNN
F 3 "~" H 10300 4550 50  0001 C CNN
	1    10300 4550
	1    0    0    -1  
$EndComp
Wire Wire Line
	10300 4550 10300 4650
Wire Wire Line
	9900 4550 9900 4650
Wire Wire Line
	7500 5150 7350 5150
NoConn ~ 9100 5650
NoConn ~ 9100 5550
NoConn ~ 9100 5450
NoConn ~ 9100 5350
NoConn ~ 9100 5250
NoConn ~ 9100 5150
NoConn ~ 9100 5050
NoConn ~ 9100 4950
NoConn ~ 9100 4750
NoConn ~ 9100 4650
NoConn ~ 9100 4550
NoConn ~ 9100 4450
NoConn ~ 9100 4350
NoConn ~ 9100 4250
NoConn ~ 7500 4050
NoConn ~ 7500 4150
NoConn ~ 7500 4250
NoConn ~ 7500 4350
NoConn ~ 7500 4450
NoConn ~ 7500 4650
NoConn ~ 7500 4850
NoConn ~ 7500 4950
NoConn ~ 7500 5250
Text Label 11600 5750 0    50   ~ 0
INPUT
Text Label 9500 4150 0    50   ~ 0
INPUT
Text Label 10700 5750 0    50   ~ 0
INPUTtoR
Text Label 9300 4000 0    50   ~ 0
uCtoLED
Text Label 9850 3750 3    50   ~ 0
LEDtoR
Wire Wire Line
	10650 5650 10800 5650
Wire Wire Line
	10800 5650 10800 5550
Wire Wire Line
	10650 5850 10800 5850
Wire Wire Line
	10800 5850 10800 6000
$EndSCHEMATC
