(export (version D)
  (design
    (source /home/Qio/N7/Uchoba/trsvt/Khrustal/Lab2/lab2.sch)
    (date "Сб 06 ноя 2021 14:49:52")
    (tool "Eeschema 5.0.2+dfsg1-1")
    (sheet (number 1) (name /) (tstamps /)
      (title_block
        (title)
        (company)
        (rev)
        (date 2021-10-24)
        (source lab2.sch)
        (comment (number 1) (value ""))
        (comment (number 2) (value ""))
        (comment (number 3) (value ""))
        (comment (number 4) (value "")))))
  (components
    (comp (ref U1)
      (value PIC18F25K80_ISS)
      (footprint Package_SO:SSOP-28_5.3x10.2mm_P0.65mm)
      (datasheet http://ww1.microchip.com/downloads/en/DeviceDoc/39977f.pdf)
      (fields
        (field (name Группа) Микроконтроллеры))
      (libsource (lib MCU_Microchip_PIC18) (part PIC18F25K80_ISS) (description "32K Flash, 3.5K RAM, 1K EEPROM, PIC18 Microcontroller ADC PWM CAN SPI I2C USART in SSOP28 package"))
      (sheetpath (names /) (tstamps /))
      (tstamp 61753831))
    (comp (ref X1)
      (value ConnectorGOST)
      (footprint Connector:Banana_Jack_3Pin)
      (fields
        (field (name Группа) Соединители))
      (libsource (lib myLib) (part ConnectorGOST) (description ""))
      (sheetpath (names /) (tstamps /))
      (tstamp 61753A3B))
    (comp (ref D1)
      (value LED)
      (footprint LED_THT:LED_D5.0mm)
      (datasheet ~)
      (fields
        (field (name Группа) Диоды))
      (libsource (lib Device) (part LED) (description "Light emitting diode"))
      (sheetpath (names /) (tstamps /))
      (tstamp 61753B7A))
    (comp (ref R1)
      (value 1k)
      (footprint Resistor_THT:R_Axial_DIN0207_L6.3mm_D2.5mm_P2.54mm_Vertical)
      (datasheet ~)
      (fields
        (field (name Группа) Резисторы))
      (libsource (lib Device) (part R) (description Resistor))
      (sheetpath (names /) (tstamps /))
      (tstamp 61753C4D))
    (comp (ref R2)
      (value 100)
      (footprint Resistor_THT:R_Axial_DIN0207_L6.3mm_D2.5mm_P2.54mm_Vertical)
      (datasheet ~)
      (libsource (lib Device) (part R) (description Resistor))
      (sheetpath (names /) (tstamps /))
      (tstamp 61753C8A)))
  (libparts
    (libpart (lib Device) (part LED)
      (description "Light emitting diode")
      (docs ~)
      (footprints
        (fp LED*)
        (fp LED_SMD:*)
        (fp LED_THT:*))
      (fields
        (field (name Reference) D)
        (field (name Value) LED))
      (pins
        (pin (num 1) (name K) (type passive))
        (pin (num 2) (name A) (type passive))))
    (libpart (lib Device) (part R)
      (description Resistor)
      (docs ~)
      (footprints
        (fp R_*))
      (fields
        (field (name Reference) R)
        (field (name Value) R))
      (pins
        (pin (num 1) (name ~) (type passive))
        (pin (num 2) (name ~) (type passive))))
    (libpart (lib MCU_Microchip_PIC18) (part PIC18F25K80_ISS)
      (aliases
        (alias PIC18F26K80_ISS)
        (alias PIC18LF25K80_ISS)
        (alias PIC18LF26K80_ISS))
      (description "32K Flash, 3.5K RAM, 1K EEPROM, PIC18 Microcontroller ADC PWM CAN SPI I2C USART in SSOP28 package")
      (docs http://ww1.microchip.com/downloads/en/DeviceDoc/39977f.pdf)
      (footprints
        (fp SSOP*5.3x10.2mm*P0.65mm*))
      (fields
        (field (name Reference) U)
        (field (name Value) PIC18F25K80_ISS)
        (field (name Footprint) Package_SO:SSOP-28_5.3x10.2mm_P0.65mm))
      (pins
        (pin (num 1) (name ~MCLR~/RE3) (type BiDi))
        (pin (num 2) (name RA0/AN0) (type BiDi))
        (pin (num 3) (name RA1/AN1) (type BiDi))
        (pin (num 4) (name RA2/Vref-/AN2) (type BiDi))
        (pin (num 5) (name RA3/Vref+/AN3) (type BiDi))
        (pin (num 6) (name Vcap) (type power_in))
        (pin (num 7) (name RA5/AN4) (type BiDi))
        (pin (num 8) (name Vss) (type power_in))
        (pin (num 9) (name OSC1/CLKIN) (type input))
        (pin (num 10) (name OSC2/CLKOUT) (type input))
        (pin (num 11) (name SOSCO/RC0) (type BiDi))
        (pin (num 12) (name SOSCI/RC1) (type BiDi))
        (pin (num 13) (name CCP2/RC2) (type BiDi))
        (pin (num 14) (name SCL/SCK/RC3) (type BiDi))
        (pin (num 15) (name SDA/SDI/RC4) (type BiDi))
        (pin (num 16) (name SDO/RC5) (type BiDi))
        (pin (num 17) (name CANTX/TX1/CCP3/RC6) (type BiDi))
        (pin (num 18) (name CANRX/RX1/CCP4/RC7) (type BiDi))
        (pin (num 19) (name Vss) (type power_in))
        (pin (num 20) (name Vdd) (type power_in))
        (pin (num 21) (name AN10/INT0/RB0) (type BiDi))
        (pin (num 22) (name AN8/INT1/RB1) (type BiDi))
        (pin (num 23) (name CANTX/INT2/RB2) (type BiDi))
        (pin (num 24) (name CANRX/INT3/RB3) (type BiDi))
        (pin (num 25) (name AN9/ECCP1/RB4) (type BiDi))
        (pin (num 26) (name CCP5/RB5) (type BiDi))
        (pin (num 27) (name PGC/TX2/RB6) (type BiDi))
        (pin (num 28) (name PGD/RX2/RB7) (type BiDi))))
    (libpart (lib myLib) (part ConnectorGOST)
      (fields
        (field (name Reference) X)
        (field (name Value) ConnectorGOST))
      (pins
        (pin (num 1) (name INPUT) (type power_in))
        (pin (num 2) (name INPUT) (type passive))
        (pin (num 3) (name GND) (type passive)))))
  (libraries
    (library (logical Device)
      (uri /usr/share/kicad/library/Device.lib))
    (library (logical MCU_Microchip_PIC18)
      (uri /usr/share/kicad/library/MCU_Microchip_PIC18.lib))
    (library (logical myLib)
      (uri /home/Qio/N7/Uchoba/lab2/library/myLib.lib)))
  (nets
    (net (code 1) (name GND)
      (node (ref U1) (pin 20))
      (node (ref X1) (pin 3)))
    (net (code 2) (name "Net-(U1-Pad13)")
      (node (ref U1) (pin 13)))
    (net (code 3) (name "Net-(U1-Pad14)")
      (node (ref U1) (pin 14)))
    (net (code 4) (name "Net-(U1-Pad15)")
      (node (ref U1) (pin 15)))
    (net (code 5) (name "Net-(U1-Pad16)")
      (node (ref U1) (pin 16)))
    (net (code 6) (name "Net-(U1-Pad17)")
      (node (ref U1) (pin 17)))
    (net (code 7) (name "Net-(U1-Pad18)")
      (node (ref U1) (pin 18)))
    (net (code 8) (name VCC)
      (node (ref U1) (pin 19))
      (node (ref U1) (pin 8))
      (node (ref R1) (pin 1))
      (node (ref X1) (pin 1)))
    (net (code 9) (name "Net-(U1-Pad12)")
      (node (ref U1) (pin 12)))
    (net (code 10) (name "Net-(U1-Pad1)")
      (node (ref U1) (pin 1)))
    (net (code 11) (name /LEDtoR)
      (node (ref D1) (pin 2))
      (node (ref R1) (pin 2)))
    (net (code 12) (name /uCtoLED)
      (node (ref U1) (pin 21))
      (node (ref D1) (pin 1)))
    (net (code 13) (name /INPUTtoR)
      (node (ref R2) (pin 2))
      (node (ref X1) (pin 2)))
    (net (code 14) (name /INPUT)
      (node (ref U1) (pin 22))
      (node (ref R2) (pin 1)))
    (net (code 15) (name "Net-(U1-Pad6)")
      (node (ref U1) (pin 6)))
    (net (code 16) (name "Net-(U1-Pad9)")
      (node (ref U1) (pin 9)))
    (net (code 17) (name "Net-(U1-Pad10)")
      (node (ref U1) (pin 10)))
    (net (code 18) (name "Net-(U1-Pad7)")
      (node (ref U1) (pin 7)))
    (net (code 19) (name "Net-(U1-Pad5)")
      (node (ref U1) (pin 5)))
    (net (code 20) (name "Net-(U1-Pad4)")
      (node (ref U1) (pin 4)))
    (net (code 21) (name "Net-(U1-Pad3)")
      (node (ref U1) (pin 3)))
    (net (code 22) (name "Net-(U1-Pad2)")
      (node (ref U1) (pin 2)))
    (net (code 23) (name "Net-(U1-Pad23)")
      (node (ref U1) (pin 23)))
    (net (code 24) (name "Net-(U1-Pad24)")
      (node (ref U1) (pin 24)))
    (net (code 25) (name "Net-(U1-Pad25)")
      (node (ref U1) (pin 25)))
    (net (code 26) (name "Net-(U1-Pad26)")
      (node (ref U1) (pin 26)))
    (net (code 27) (name "Net-(U1-Pad27)")
      (node (ref U1) (pin 27)))
    (net (code 28) (name "Net-(U1-Pad28)")
      (node (ref U1) (pin 28)))
    (net (code 29) (name "Net-(U1-Pad11)")
      (node (ref U1) (pin 11)))))