EESchema Schematic File Version 4
EELAYER 30 0
EELAYER END
$Descr A3 16535 11693
encoding utf-8
Sheet 1 1
Title "Схема электрическая\\nпринципиальная"
Date ""
Rev ""
Comp "МГТУ им. Н.Э. Баумана\\nгруппа ИУ6-71Б"
Comment1 "Контроллер для сбора показаний\\nбытовых приборов учета"
Comment2 "Астраханцев А.Д."
Comment3 "Бычков Б.И."
Comment4 ""
$EndDescr
$Comp
L Device:R R6
U 1 1 614712A1
P 11350 1400
F 0 "R6" H 11420 1446 50  0000 L CNN
F 1 "220 Ом" H 11420 1355 50  0000 L CNN
F 2 "Resistor_SMD:R_0603_1608Metric" V 11280 1400 50  0001 C CNN
F 3 "~" H 11350 1400 50  0001 C CNN
	1    11350 1400
	1    0    0    -1  
$EndComp
$Comp
L Device:C C24
U 1 1 614727DD
P 12350 2300
F 0 "C24" H 12465 2346 50  0000 L CNN
F 1 "100нФ" H 12465 2255 50  0000 L CNN
F 2 "Capacitor_SMD:C_0603_1608Metric" H 12388 2150 50  0001 C CNN
F 3 "~" H 12350 2300 50  0001 C CNN
	1    12350 2300
	1    0    0    -1  
$EndComp
$Comp
L Device:D D2
U 1 1 614733E2
P 11850 1650
F 0 "D2" H 11850 1750 50  0000 C CNN
F 1 "D" H 11850 1776 50  0001 C CNN
F 2 "Diode_SMD:D_0603_1608Metric" H 11850 1650 50  0001 C CNN
F 3 "~" H 11850 1650 50  0001 C CNN
	1    11850 1650
	-1   0    0    -1  
$EndComp
Wire Wire Line
	11150 2400 11050 2400
Wire Wire Line
	11050 2400 11050 2500
Wire Wire Line
	11700 2000 11350 2000
Wire Wire Line
	11050 2000 11050 2300
Wire Wire Line
	11050 2300 11150 2300
Wire Wire Line
	11350 1550 11350 1650
Wire Wire Line
	11350 1650 11700 1650
Wire Wire Line
	11350 1650 11350 2000
Connection ~ 11350 1650
Connection ~ 11350 2000
Wire Wire Line
	11350 2000 11050 2000
Wire Wire Line
	12000 2000 12350 2000
Wire Wire Line
	12350 2000 12350 2150
Wire Wire Line
	12000 1650 12350 1650
Wire Wire Line
	12350 1650 12350 2000
Connection ~ 12350 2000
Wire Wire Line
	12350 2000 12800 2000
Wire Wire Line
	12350 2550 12350 2450
$Comp
L Device:R R7
U 1 1 6149CAEE
P 11350 3350
F 0 "R7" H 11420 3396 50  0000 L CNN
F 1 "220 Ом" H 11420 3305 50  0000 L CNN
F 2 "Resistor_SMD:R_0603_1608Metric" V 11280 3350 50  0001 C CNN
F 3 "~" H 11350 3350 50  0001 C CNN
	1    11350 3350
	1    0    0    -1  
$EndComp
$Comp
L Device:C C25
U 1 1 6149CAF4
P 12350 4250
F 0 "C25" H 12465 4296 50  0000 L CNN
F 1 "100нФ" H 12465 4205 50  0000 L CNN
F 2 "Capacitor_SMD:C_0603_1608Metric" H 12388 4100 50  0001 C CNN
F 3 "~" H 12350 4250 50  0001 C CNN
	1    12350 4250
	1    0    0    -1  
$EndComp
$Comp
L Device:D D3
U 1 1 6149CAFA
P 11850 3600
F 0 "D3" H 11850 3700 50  0000 C CNN
F 1 "D" H 11850 3726 50  0001 C CNN
F 2 "Diode_SMD:D_0603_1608Metric" H 11850 3600 50  0001 C CNN
F 3 "~" H 11850 3600 50  0001 C CNN
	1    11850 3600
	-1   0    0    -1  
$EndComp
Wire Wire Line
	11150 4350 11050 4350
Wire Wire Line
	11050 4350 11050 4450
Wire Wire Line
	11700 3950 11350 3950
Wire Wire Line
	11050 3950 11050 4250
Wire Wire Line
	11050 4250 11150 4250
Wire Wire Line
	11350 3500 11350 3600
Wire Wire Line
	11350 3600 11700 3600
Wire Wire Line
	11350 3600 11350 3950
Connection ~ 11350 3600
Connection ~ 11350 3950
Wire Wire Line
	11350 3950 11050 3950
Wire Wire Line
	12000 3950 12350 3950
Wire Wire Line
	12350 3950 12350 4100
Wire Wire Line
	12000 3600 12350 3600
Wire Wire Line
	12350 3600 12350 3950
Connection ~ 12350 3950
Wire Wire Line
	12350 3950 12800 3950
Wire Wire Line
	12350 4500 12350 4400
Wire Wire Line
	5500 4750 4250 4750
Connection ~ 3350 2900
Wire Wire Line
	5500 5050 4100 5050
Wire Wire Line
	4100 5050 4100 4950
Wire Wire Line
	5500 4950 4100 4950
Connection ~ 4100 4950
Wire Wire Line
	3350 3350 3350 3300
Wire Wire Line
	3350 3000 3350 2900
$Comp
L Device:C C10
U 1 1 616F400B
P 3350 3150
F 0 "C10" H 3465 3196 50  0000 L CNN
F 1 "0,1мкФ" H 3465 3105 50  0000 L CNN
F 2 "Capacitor_SMD:C_0603_1608Metric" H 3388 3000 50  0001 C CNN
F 3 "~" H 3350 3150 50  0001 C CNN
	1    3350 3150
	1    0    0    -1  
$EndComp
$Comp
L Device:C C5
U 1 1 617093E5
P 2650 4150
F 0 "C5" H 2765 4196 50  0000 L CNN
F 1 "0,1мкФ" H 2765 4105 50  0000 L CNN
F 2 "Capacitor_SMD:C_0603_1608Metric" H 2688 4000 50  0001 C CNN
F 3 "~" H 2650 4150 50  0001 C CNN
	1    2650 4150
	1    0    0    -1  
$EndComp
$Comp
L Device:C C1
U 1 1 61709641
P 2150 4150
F 0 "C1" H 2265 4196 50  0000 L CNN
F 1 "0,1мкФ" H 2265 4105 50  0000 L CNN
F 2 "Capacitor_SMD:C_0603_1608Metric" H 2188 4000 50  0001 C CNN
F 3 "~" H 2150 4150 50  0001 C CNN
	1    2150 4150
	1    0    0    -1  
$EndComp
Wire Wire Line
	2150 4000 2150 3900
Wire Wire Line
	2650 4000 2650 3900
Wire Wire Line
	3150 4000 3150 3900
Wire Wire Line
	2150 4400 2150 4300
Wire Wire Line
	2650 4300 2650 4400
Wire Wire Line
	3150 4300 3150 4400
Wire Wire Line
	3650 4000 3650 3900
$Comp
L Device:C C8
U 1 1 61709223
P 3150 4150
F 0 "C8" H 3265 4196 50  0000 L CNN
F 1 "0,1мкФ" H 3265 4105 50  0000 L CNN
F 2 "Capacitor_SMD:C_0603_1608Metric" H 3188 4000 50  0001 C CNN
F 3 "~" H 3150 4150 50  0001 C CNN
	1    3150 4150
	1    0    0    -1  
$EndComp
Wire Wire Line
	4100 3900 4100 4950
Wire Wire Line
	4250 2900 4250 4750
Wire Wire Line
	3350 2900 4250 2900
$Comp
L ESP32:PCB_ANT WA1
U 1 1 616FEBD4
P 1300 4900
F 0 "WA1" H 1358 5215 50  0000 C CNN
F 1 "PCB_ANT" H 1358 5124 50  0000 C CNN
F 2 "RF_Antenna:Texas_SWRA117D_2.4GHz_Left" H 1300 5050 50  0001 C CNN
F 3 "" H 1300 5050 50  0001 C CNN
	1    1300 4900
	1    0    0    -1  
$EndComp
Wire Wire Line
	1500 4950 1650 4950
Wire Wire Line
	1650 4950 1650 5250
Wire Wire Line
	1500 4850 2250 4850
$Comp
L Device:C C3
U 1 1 61709352
P 2250 5150
F 0 "C3" H 2365 5196 50  0000 L CNN
F 1 "10мкФ" H 2365 5105 50  0000 L CNN
F 2 "Capacitor_SMD:C_0805_2012Metric" H 2288 5000 50  0001 C CNN
F 3 "~" H 2250 5150 50  0001 C CNN
	1    2250 5150
	1    0    0    -1  
$EndComp
Wire Wire Line
	2250 5000 2250 4850
Wire Wire Line
	2250 5400 2250 5300
$Comp
L Device:C C13
U 1 1 61715A11
P 3600 5550
F 0 "C13" H 3715 5596 50  0000 L CNN
F 1 "270пФ" H 3715 5505 50  0000 L CNN
F 2 "Capacitor_SMD:C_0603_1608Metric" H 3638 5400 50  0001 C CNN
F 3 "~" H 3600 5550 50  0001 C CNN
	1    3600 5550
	1    0    0    -1  
$EndComp
Wire Wire Line
	5500 5150 4000 5150
Wire Wire Line
	4000 5300 4000 5250
Wire Wire Line
	4000 5250 5500 5250
Wire Wire Line
	4050 5450 5500 5450
$Comp
L Device:C C12
U 1 1 617153B6
P 3600 5100
F 0 "C12" H 3715 5146 50  0000 L CNN
F 1 "270пФ" H 3715 5055 50  0000 L CNN
F 2 "Capacitor_SMD:C_0603_1608Metric" H 3638 4950 50  0001 C CNN
F 3 "~" H 3600 5100 50  0001 C CNN
	1    3600 5100
	1    0    0    -1  
$EndComp
Wire Wire Line
	4000 5300 3600 5300
Wire Wire Line
	3600 5300 3600 5250
Wire Wire Line
	3600 4950 3600 4900
Wire Wire Line
	3600 4900 4000 4900
Wire Wire Line
	4000 4900 4000 5150
Wire Wire Line
	3600 5400 3600 5350
Wire Wire Line
	3600 5350 5500 5350
Wire Wire Line
	4050 5450 4050 5750
Wire Wire Line
	4050 5750 3600 5750
Wire Wire Line
	3600 5750 3600 5700
Wire Wire Line
	5950 4250 5950 4100
Wire Wire Line
	5950 4100 5450 4100
Wire Wire Line
	5450 4100 5450 4200
$Comp
L Device:C C18
U 1 1 6174E76A
P 6150 3650
F 0 "C18" V 6000 3600 50  0000 L CNN
F 1 "3.3нФ" V 6300 3550 50  0000 L CNN
F 2 "Capacitor_SMD:C_0603_1608Metric" H 6188 3500 50  0001 C CNN
F 3 "~" H 6150 3650 50  0001 C CNN
	1    6150 3650
	0    1    1    0   
$EndComp
$Comp
L Device:R R4
U 1 1 617586FD
P 6150 3400
F 0 "R4" V 5943 3400 50  0000 C CNN
F 1 "20кОм" V 6034 3400 50  0000 C CNN
F 2 "Resistor_SMD:R_0603_1608Metric" V 6080 3400 50  0001 C CNN
F 3 "~" H 6150 3400 50  0001 C CNN
	1    6150 3400
	0    1    1    0   
$EndComp
Wire Wire Line
	5550 3850 5250 3850
Wire Wire Line
	5250 3850 5250 3950
Wire Wire Line
	6300 4250 6300 3850
Wire Wire Line
	6000 3650 5950 3650
Wire Wire Line
	5950 3650 5950 3850
Wire Wire Line
	5850 3850 5950 3850
Connection ~ 5950 3850
Wire Wire Line
	5950 3850 6300 3850
Wire Wire Line
	6000 3400 5950 3400
Wire Wire Line
	5950 3400 5950 3650
Connection ~ 5950 3650
Wire Wire Line
	6300 3400 6400 3400
Wire Wire Line
	6400 3400 6400 3650
Wire Wire Line
	6300 3650 6400 3650
Connection ~ 6400 3650
Wire Wire Line
	6400 3650 6400 4250
Wire Wire Line
	6500 4250 6500 2250
Wire Wire Line
	6500 2250 3450 2250
$Comp
L Device:C C7
U 1 1 617B53CA
P 2950 2450
F 0 "C7" H 3065 2496 50  0000 L CNN
F 1 "100пФ" H 3065 2405 50  0000 L CNN
F 2 "Capacitor_SMD:C_0603_1608Metric" H 2988 2300 50  0001 C CNN
F 3 "~" H 2950 2450 50  0001 C CNN
	1    2950 2450
	1    0    0    -1  
$EndComp
Wire Wire Line
	6500 2250 6800 2250
Wire Wire Line
	6800 2250 6800 4250
Connection ~ 6500 2250
Wire Wire Line
	2950 2300 2950 2250
Connection ~ 2950 2250
Wire Wire Line
	2950 2600 2950 2650
$Comp
L Device:C C11
U 1 1 617D4A0F
P 3450 2450
F 0 "C11" H 3565 2496 50  0000 L CNN
F 1 "1мкФ" H 3565 2405 50  0000 L CNN
F 2 "Capacitor_SMD:C_0603_1608Metric" H 3488 2300 50  0001 C CNN
F 3 "~" H 3450 2450 50  0001 C CNN
	1    3450 2450
	1    0    0    -1  
$EndComp
Wire Wire Line
	3450 2600 3450 2650
Wire Wire Line
	3450 2300 3450 2250
$Comp
L ESP32:CRYSTAL ZQ2
U 1 1 617E702F
P 7150 1450
F 0 "ZQ2" V 7196 1222 50  0000 R CNN
F 1 "40МГц" V 7105 1222 50  0000 R CNN
F 2 "Crystal:Crystal_SMD_3225-4Pin_3.2x2.5mm" H 7150 1450 50  0001 C CNN
F 3 "https://www.diodes.com/assets/Datasheets/FL.pdf" H 7150 1450 50  0001 C CNN
	1    7150 1450
	0    -1   -1   0   
$EndComp
Wire Wire Line
	6600 4250 6600 2050
Wire Wire Line
	6600 2050 7100 2050
Wire Wire Line
	7100 2050 7100 1800
$Comp
L Device:C C19
U 1 1 61803FEA
P 6600 1700
F 0 "C19" H 6715 1746 50  0000 L CNN
F 1 "22пФ" H 6715 1655 50  0000 L CNN
F 2 "Capacitor_SMD:C_0603_1608Metric" H 6638 1550 50  0001 C CNN
F 3 "~" H 6600 1700 50  0001 C CNN
	1    6600 1700
	1    0    0    -1  
$EndComp
Wire Wire Line
	6600 1550 6600 1450
Wire Wire Line
	6600 1450 6300 1450
Wire Wire Line
	6300 1450 6300 1550
Wire Wire Line
	6600 1850 6600 2050
Connection ~ 6600 2050
Wire Wire Line
	7250 1800 7250 1950
Wire Wire Line
	7100 1100 7100 1000
Wire Wire Line
	7100 1000 6800 1000
Wire Wire Line
	6800 1000 6800 1050
$Comp
L Device:C C21
U 1 1 61815F13
P 7900 1700
F 0 "C21" H 8015 1746 50  0000 L CNN
F 1 "22пФ" H 8015 1655 50  0000 L CNN
F 2 "Capacitor_SMD:C_0603_1608Metric" H 7938 1550 50  0001 C CNN
F 3 "~" H 7900 1700 50  0001 C CNN
	1    7900 1700
	1    0    0    -1  
$EndComp
Wire Wire Line
	7900 1550 7900 1450
Wire Wire Line
	7900 1450 8350 1450
Wire Wire Line
	8350 1450 8350 1550
Wire Wire Line
	7250 1100 7250 1000
Wire Wire Line
	7250 1000 7750 1000
Wire Wire Line
	7750 1000 7750 1950
Wire Wire Line
	7750 1950 7900 1950
Wire Wire Line
	7900 1950 7900 1850
Wire Wire Line
	6700 4250 6700 2300
Wire Wire Line
	6700 2300 7900 2300
Wire Wire Line
	7900 2300 7900 1950
Connection ~ 7900 1950
$Comp
L ESP32:FLASH DD3
U 1 1 6170E5D0
P 9700 5700
F 0 "DD3" H 9950 6150 50  0000 C CNN
F 1 "FLASH" H 9500 5450 50  0000 C CNN
F 2 "Package_DIP:DIP-8_W8.89mm_SMDSocket_LongPads" H 9700 5700 50  0001 C CNN
F 3 "" H 9700 5700 50  0001 C CNN
	1    9700 5700
	1    0    0    -1  
$EndComp
Wire Wire Line
	9700 6150 9700 6000
Text Label 10150 5600 0    50   ~ 0
SDO_SD0
Text Label 10150 5450 0    50   ~ 0
SDI_SD1
Text Label 10150 5750 0    50   ~ 0
SWP_SD3
Text Label 8900 5450 0    50   ~ 0
SCS_CMD
Text Label 8900 5600 0    50   ~ 0
SCK_CLK
Text Label 8900 5750 0    50   ~ 0
SHD_SD2
Wire Wire Line
	8800 5450 9300 5450
Wire Wire Line
	8800 5600 9300 5600
Wire Wire Line
	8800 5750 9300 5750
Wire Wire Line
	10100 5450 10550 5450
Wire Wire Line
	10100 5600 10550 5600
Wire Wire Line
	10100 5750 10550 5750
Text Label 7850 5250 0    50   ~ 0
SDI_SD1
Text Label 7850 5350 0    50   ~ 0
SDO_SD0
Text Label 7850 5450 0    50   ~ 0
SCK_CLK
Text Label 7850 5550 0    50   ~ 0
SCS_CMD
Text Label 7850 5650 0    50   ~ 0
SWP_SD3
Text Label 7850 5750 0    50   ~ 0
SHD_SD2
$Comp
L Device:Battery_Cell G1
U 1 1 617B0921
P 1450 10350
F 0 "G1" H 1568 10446 50  0000 L CNN
F 1 "+3.7В" H 1568 10355 50  0000 L CNN
F 2 "Battery:BatteryHolder_MPD_BH-18650-PC2" V 1450 10410 50  0001 C CNN
F 3 "~" V 1450 10410 50  0001 C CNN
	1    1450 10350
	1    0    0    -1  
$EndComp
Wire Wire Line
	1450 10450 1450 10750
$Comp
L Regulator_Linear:MCP1700-3302E_SOT23 DD1
U 1 1 617B8E78
P 2700 9100
F 0 "DD1" H 2700 9342 50  0000 C CNN
F 1 "MCP1700-3302E_SOT23" H 2700 9251 50  0000 C CNN
F 2 "Package_TO_SOT_SMD:SOT-23" H 2700 9325 50  0001 C CNN
F 3 "http://ww1.microchip.com/downloads/en/DeviceDoc/20001826D.pdf" H 2700 9100 50  0001 C CNN
	1    2700 9100
	1    0    0    -1  
$EndComp
Wire Wire Line
	2700 9550 2700 9400
Wire Wire Line
	1450 9100 2150 9100
Text Label 3550 9100 0    50   ~ 0
VDD_3V3
Wire Wire Line
	1450 9900 2400 9900
Connection ~ 1450 9900
Wire Wire Line
	1450 9900 1450 9100
$Comp
L Device:R R2
U 1 1 617EC85B
P 2400 10300
F 0 "R2" H 2470 10346 50  0000 L CNN
F 1 "27кОм" H 2470 10255 50  0000 L CNN
F 2 "Resistor_SMD:R_1206_3216Metric" V 2330 10300 50  0001 C CNN
F 3 "~" H 2400 10300 50  0001 C CNN
	1    2400 10300
	1    0    0    -1  
$EndComp
$Comp
L Device:R R3
U 1 1 617ECD2D
P 2400 10800
F 0 "R3" H 2470 10846 50  0000 L CNN
F 1 "100кОм" H 2470 10755 50  0000 L CNN
F 2 "Resistor_SMD:R_1206_3216Metric" V 2330 10800 50  0001 C CNN
F 3 "~" H 2400 10800 50  0001 C CNN
	1    2400 10800
	1    0    0    -1  
$EndComp
Wire Wire Line
	2400 10450 2400 10550
Wire Wire Line
	2400 10950 2400 11050
Connection ~ 2400 10550
Wire Wire Line
	2400 10550 2400 10650
Text Label 2650 10550 0    50   ~ 0
VDD_SENS
Wire Wire Line
	1450 9900 1450 10150
Text Label 1600 2250 0    50   ~ 0
VDD_3V3
Text Label 1600 2900 0    50   ~ 0
VDD_3V3
Text Label 1600 3900 0    50   ~ 0
VDD_3V3
Text Label 5000 5550 0    50   ~ 0
EN_CHIP_PU
$Comp
L Device:R R1
U 1 1 6184C560
P 2050 6450
F 0 "R1" V 1843 6450 50  0000 C CNN
F 1 "10кОм" V 1934 6450 50  0000 C CNN
F 2 "Resistor_SMD:R_0603_1608Metric" V 1980 6450 50  0001 C CNN
F 3 "~" H 2050 6450 50  0001 C CNN
	1    2050 6450
	0    1    1    0   
$EndComp
$Comp
L Device:C C4
U 1 1 6184C9C1
P 2450 6750
F 0 "C4" H 2565 6796 50  0000 L CNN
F 1 "1пФ" H 2565 6705 50  0000 L CNN
F 2 "Capacitor_SMD:C_0603_1608Metric" H 2488 6600 50  0001 C CNN
F 3 "~" H 2450 6750 50  0001 C CNN
	1    2450 6750
	1    0    0    -1  
$EndComp
Wire Wire Line
	2200 6450 2450 6450
Wire Wire Line
	2450 6450 2450 6600
Connection ~ 2450 6450
Text Label 2700 6450 0    50   ~ 0
EN_CHIP_PU
Text Label 1400 6450 0    50   ~ 0
VDD_3V3
Wire Wire Line
	2450 6900 2450 7000
Text Label 2800 7900 0    50   ~ 0
TxD_U0RxD
Text Label 7000 4200 1    50   ~ 0
TxD_U0RxD
Text Label 7100 4200 1    50   ~ 0
RxD_U0TxD
Text Label 8600 4850 0    50   ~ 0
VDD_3V3
Wire Wire Line
	7800 4850 8550 4850
$Comp
L Device:C C22
U 1 1 61931B1F
P 8550 5000
F 0 "C22" H 8665 5046 50  0000 L CNN
F 1 "0,1мкФ" H 8665 4955 50  0000 L CNN
F 2 "Capacitor_SMD:C_0603_1608Metric" H 8588 4850 50  0001 C CNN
F 3 "~" H 8550 5000 50  0001 C CNN
	1    8550 5000
	1    0    0    -1  
$EndComp
Connection ~ 8550 4850
Wire Wire Line
	8550 5150 8550 5200
Text Label 8150 7450 0    50   ~ 0
VDD_3V3
Wire Wire Line
	7800 5950 8550 5950
Wire Wire Line
	8550 5950 8550 5952
Wire Wire Line
	8550 6450 8550 6550
Text Label 8700 5952 0    50   ~ 0
VDD_3V3
Text Label 9700 5150 1    50   ~ 0
VDD_3V3
$Comp
L Device:R R9
U 1 1 619C6B47
P 11850 3950
F 0 "R9" V 11750 3950 50  0000 C CNN
F 1 "220 Ом" V 11950 3950 50  0000 C CNN
F 2 "Resistor_SMD:R_0603_1608Metric" V 11780 3950 50  0001 C CNN
F 3 "~" H 11850 3950 50  0001 C CNN
	1    11850 3950
	0    1    1    0   
$EndComp
$Comp
L Device:R R8
U 1 1 619E451B
P 11850 2000
F 0 "R8" V 11750 2000 50  0000 C CNN
F 1 "220 Ом" V 11950 2000 50  0000 C CNN
F 2 "Resistor_SMD:R_0603_1608Metric" V 11780 2000 50  0001 C CNN
F 3 "~" H 11850 2000 50  0001 C CNN
	1    11850 2000
	0    1    1    0   
$EndComp
Text Label 13550 2000 0    50   ~ 0
METER1_DEBOUNCED
Text Label 13550 3950 0    50   ~ 0
METER2_DEBOUNCED
Wire Wire Line
	12800 5900 12650 5900
$Comp
L Device:R R10
U 1 1 61A6C406
P 12400 5900
F 0 "R10" V 12300 5900 50  0000 C CNN
F 1 "10кОм" V 12500 5900 50  0000 C CNN
F 2 "Resistor_SMD:R_0603_1608Metric" V 12330 5900 50  0001 C CNN
F 3 "~" H 12400 5900 50  0001 C CNN
	1    12400 5900
	0    1    1    0   
$EndComp
Wire Wire Line
	12250 5900 12150 5900
Wire Wire Line
	12800 5700 12150 5700
Wire Wire Line
	12150 5700 12150 5900
Connection ~ 12150 5900
Wire Wire Line
	12650 5900 12650 6000
Connection ~ 12650 5900
Wire Wire Line
	12650 5900 12550 5900
$Comp
L Device:C C26
U 1 1 61A8A252
P 12650 6150
F 0 "C26" H 12765 6196 50  0000 L CNN
F 1 "100нФ" H 12765 6105 50  0000 L CNN
F 2 "Capacitor_SMD:C_0603_1608Metric" H 12688 6000 50  0001 C CNN
F 3 "~" H 12650 6150 50  0001 C CNN
	1    12650 6150
	1    0    0    -1  
$EndComp
Text Label 11200 5900 0    50   ~ 0
METER1_DEBOUNCED
Text Label 13600 5800 0    50   ~ 0
METER1_PULSES
Wire Wire Line
	12800 7250 12650 7250
Wire Wire Line
	12250 7250 12150 7250
Wire Wire Line
	12800 7050 12150 7050
Wire Wire Line
	12150 7050 12150 7250
Connection ~ 12150 7250
Wire Wire Line
	12650 7250 12650 7350
Connection ~ 12650 7250
Wire Wire Line
	12650 7250 12550 7250
$Comp
L Device:C C27
U 1 1 61AE5B36
P 12650 7500
F 0 "C27" H 12765 7546 50  0000 L CNN
F 1 "100нФ" H 12765 7455 50  0000 L CNN
F 2 "Capacitor_SMD:C_0603_1608Metric" H 12688 7350 50  0001 C CNN
F 3 "~" H 12650 7500 50  0001 C CNN
	1    12650 7500
	1    0    0    -1  
$EndComp
Wire Wire Line
	12650 7800 12650 7650
Text Label 11200 7250 0    50   ~ 0
METER2_DEBOUNCED
Text Label 13550 7150 0    50   ~ 0
METER2_PULSES
Text Label 15200 5950 1    50   ~ 0
VDD_3V3
$Comp
L Device:R R11
U 1 1 61AE5B29
P 12400 7250
F 0 "R11" V 12300 7250 50  0000 C CNN
F 1 "10кОм" V 12500 7250 50  0000 C CNN
F 2 "Resistor_SMD:R_0603_1608Metric" V 12330 7250 50  0001 C CNN
F 3 "~" H 12400 7250 50  0001 C CNN
	1    12400 7250
	0    1    1    0   
$EndComp
Text Label 15200 2450 1    50   ~ 0
VDD_3V3
Text Label 11350 1200 1    50   ~ 0
VDD_3V3
Text Label 11350 3150 1    50   ~ 0
VDD_3V3
Text Label 7150 7200 1    50   ~ 0
METER1_PULSES
Text Label 7050 7200 1    50   ~ 0
METER2_PULSES
NoConn ~ 7800 6050
NoConn ~ 7800 5850
NoConn ~ 7800 5150
NoConn ~ 7800 5050
NoConn ~ 7800 4950
NoConn ~ 7800 4750
Text Label 5000 6050 0    50   ~ 0
VDD_SENS
NoConn ~ 5500 5750
NoConn ~ 5500 5650
NoConn ~ 7200 4250
NoConn ~ 6250 6550
NoConn ~ 6350 6550
NoConn ~ 6450 6550
NoConn ~ 6750 6550
NoConn ~ 6850 6550
NoConn ~ 6950 6550
$Comp
L ESP32:ESP32-D0WDQ6 DD2
U 1 1 616EF36F
P 6650 5400
F 0 "DD2" H 7600 6500 50  0000 C CNN
F 1 "ESP32-D0WDQ6" H 5750 4300 50  0000 C CNN
F 2 "Package_DFN_QFN:QFN-48-1EP_6x6mm_P0.4mm_EP4.3x4.3mm" H 6900 5500 50  0001 C CNN
F 3 "" H 6900 5500 50  0001 C CNN
	1    6650 5400
	1    0    0    -1  
$EndComp
Wire Wire Line
	6550 6550 6550 6650
$Comp
L Device:Crystal ZQ1
U 1 1 61DAADD0
P 6100 9700
F 0 "ZQ1" V 6054 9831 50  0000 L CNN
F 1 "32.768кГц" V 6145 9831 50  0000 L CNN
F 2 "Crystal:Crystal_SMD_3215-2Pin_3.2x1.5mm" H 6100 9700 50  0001 C CNN
F 3 "https://static.chipdip.ru/lib/014/DOC004014433.pdf" H 6100 9700 50  0001 C CNN
	1    6100 9700
	0    1    1    0   
$EndComp
Wire Wire Line
	6100 9550 6100 9150
$Comp
L Device:C C15
U 1 1 61DC2423
P 5550 9150
F 0 "C15" V 5298 9150 50  0000 C CNN
F 1 "4пФ" V 5389 9150 50  0000 C CNN
F 2 "Capacitor_SMD:C_0603_1608Metric" H 5588 9000 50  0001 C CNN
F 3 "~" H 5550 9150 50  0001 C CNN
	1    5550 9150
	0    1    1    0   
$EndComp
$Comp
L Device:C C16
U 1 1 61DC282F
P 5550 10250
F 0 "C16" V 5298 10250 50  0000 C CNN
F 1 "4пФ" V 5389 10250 50  0000 C CNN
F 2 "Capacitor_SMD:C_0603_1608Metric" H 5588 10100 50  0001 C CNN
F 3 "~" H 5550 10250 50  0001 C CNN
	1    5550 10250
	0    1    1    0   
$EndComp
Wire Wire Line
	6100 9850 6100 10250
Wire Wire Line
	6100 10250 5700 10250
Wire Wire Line
	6100 9150 5700 9150
Wire Wire Line
	5400 10250 5100 10250
Wire Wire Line
	5100 10250 5100 10350
Wire Wire Line
	5400 9150 5100 9150
Wire Wire Line
	5100 9150 5100 9250
Connection ~ 6100 9150
Wire Wire Line
	6100 10250 6800 10250
Connection ~ 6100 10250
Wire Wire Line
	6100 9150 6800 9150
$Comp
L Device:R R5
U 1 1 61E3C494
P 6800 9700
F 0 "R5" H 6870 9746 50  0000 L CNN
F 1 "10МОм" H 6870 9655 50  0000 L CNN
F 2 "Resistor_SMD:R_0603_1608Metric" V 6730 9700 50  0001 C CNN
F 3 "~" H 6800 9700 50  0001 C CNN
	1    6800 9700
	1    0    0    -1  
$EndComp
Wire Wire Line
	6800 9550 6800 9150
Connection ~ 6800 9150
Wire Wire Line
	6800 9850 6800 10250
Connection ~ 6800 10250
Text Label 7100 9150 0    50   ~ 0
RTCXP_XP
Text Label 7100 10250 0    50   ~ 0
RTCXN_XN
Text Label 5000 5850 0    50   ~ 0
RTCXP_XP
Text Label 5000 5950 0    50   ~ 0
RTCXN_XN
NoConn ~ 6900 4250
Connection ~ 2250 4850
$Comp
L Device:C C6
U 1 1 617E3ED9
P 2850 5150
F 0 "C6" H 2965 5196 50  0000 L CNN
F 1 "10мкФ" H 2965 5105 50  0000 L CNN
F 2 "Capacitor_SMD:C_0805_2012Metric" H 2888 5000 50  0001 C CNN
F 3 "~" H 2850 5150 50  0001 C CNN
	1    2850 5150
	1    0    0    -1  
$EndComp
$Comp
L Device:L L1
U 1 1 617E4550
P 2550 4850
F 0 "L1" V 2650 4850 50  0000 C CNN
F 1 "1мкГн" V 2500 4850 50  0000 C CNN
F 2 "Inductor_SMD:L_0805_2012Metric" H 2550 4850 50  0001 C CNN
F 3 "~" H 2550 4850 50  0001 C CNN
	1    2550 4850
	0    -1   -1   0   
$EndComp
Wire Wire Line
	2250 4850 2400 4850
Wire Wire Line
	2700 4850 2850 4850
Wire Wire Line
	2850 4850 2850 5000
Wire Wire Line
	2850 4850 5500 4850
Connection ~ 2850 4850
Wire Wire Line
	2850 5300 2850 5400
$Comp
L Diode:ESD9B3.3ST5G D1
U 1 1 618661D4
P 3550 9350
F 0 "D1" V 3596 9271 50  0000 R CNN
F 1 "ESD9B3.3ST5G" V 3505 9271 50  0000 R CNN
F 2 "Diode_SMD:D_SOD-923" H 3550 9350 50  0001 C CNN
F 3 "https://www.onsemi.com/pub/Collateral/ESD9B-D.PDF" H 3550 9350 50  0001 C CNN
	1    3550 9350
	0    -1   -1   0   
$EndComp
Wire Wire Line
	3550 9200 3550 9100
Wire Wire Line
	3550 9550 3550 9500
$Comp
L ESP32:MeterConnectorGOST X3
U 1 1 6181EF15
P 11500 4250
F 0 "X3" H 11250 4450 50  0000 L CNN
F 1 "MeterConnectorGOST" H 11250 4050 50  0001 L CNN
F 2 "TerminalBlock:TerminalBlock_Altech_AK300-2_P5.00mm" H 11500 4250 50  0001 C CNN
F 3 "" H 11500 4250 50  0001 C CNN
	1    11500 4250
	1    0    0    -1  
$EndComp
$Comp
L ESP32:MeterConnectorGOST X2
U 1 1 6181F634
P 11500 2300
F 0 "X2" H 11250 2500 50  0000 L CNN
F 1 "MeterConnectorGOST" H 11250 2100 50  0001 L CNN
F 2 "TerminalBlock:TerminalBlock_Altech_AK300-2_P5.00mm" H 11500 2300 50  0001 C CNN
F 3 "" H 11500 2300 50  0001 C CNN
	1    11500 2300
	1    0    0    -1  
$EndComp
$Comp
L ESP32:DD_XOR2_1 DD5
U 1 1 6189231E
P 13150 5800
F 0 "DD5" H 13150 6313 50  0000 C CNN
F 1 "74HC86" H 13150 6192 50  0000 C CNN
F 2 "Package_DIP:DIP-14_W8.89mm_SMDSocket_LongPads" H 13150 5800 70  0001 C CNN
F 3 "https://static.chipdip.ru/lib/254/DOC000254342.pdf" H 13150 5800 70  0001 C CNN
	1    13150 5800
	1    0    0    -1  
$EndComp
$Comp
L ESP32:DD_XOR2_1 DD5
U 2 1 618929F7
P 13150 7150
F 0 "DD5" H 13150 7663 50  0000 C CNN
F 1 "74HC86" H 13150 7542 50  0000 C CNN
F 2 "Package_DIP:DIP-14_W8.89mm_SMDSocket_LongPads" H 13150 7150 70  0001 C CNN
F 3 "https://static.chipdip.ru/lib/254/DOC000254342.pdf" H 13150 7150 70  0001 C CNN
	2    13150 7150
	1    0    0    -1  
$EndComp
$Comp
L ESP32:DD_XOR2_1 DD5
U 5 1 618C1564
P 15200 6500
F 0 "DD5" H 15431 6561 50  0000 L CNN
F 1 "74HC86" H 15431 6440 50  0000 L CNN
F 2 "Package_DIP:DIP-14_W8.89mm_SMDSocket_LongPads" H 15200 6500 70  0001 C CNN
F 3 "https://static.chipdip.ru/lib/254/DOC000254342.pdf" H 15200 6500 70  0001 C CNN
	5    15200 6500
	1    0    0    -1  
$EndComp
Wire Wire Line
	15200 6950 15200 7200
$Comp
L ESP32:ConnectorUART_GOST X1
U 1 1 61940DC9
P 2000 8000
F 0 "X1" H 1500 8300 50  0000 C CNN
F 1 "ConnectorUART_GOST" H 1800 7400 50  0001 C CNN
F 2 "Connector_PinHeader_2.54mm:PinHeader_1x03_P2.54mm_Vertical" H 2000 7950 50  0001 C CNN
F 3 "" H 2000 7950 50  0001 C CNN
	1    2000 8000
	-1   0    0    -1  
$EndComp
Text Label 2800 8000 0    50   ~ 0
RxD_U0TxD
$Comp
L ESP32:74HC14 DD4
U 2 1 61864C20
P 13150 3950
F 0 "DD4" H 13150 4462 50  0000 C CNN
F 1 "74HC14" H 13150 4341 50  0000 C CNN
F 2 "Package_DIP:DIP-14_W8.89mm_SMDSocket_LongPads" H 13275 3920 70  0001 C CNN
F 3 "" H 13275 3920 70  0001 C CNN
	2    13150 3950
	1    0    0    -1  
$EndComp
$Comp
L ESP32:74HC14 DD4
U 7 1 618A1F5E
P 15200 3000
F 0 "DD4" H 15430 3061 50  0000 L CNN
F 1 "74HC14" H 15430 2940 50  0000 L CNN
F 2 "Package_DIP:DIP-14_W8.89mm_SMDSocket_LongPads" H 15325 2970 70  0001 C CNN
F 3 "" H 15325 2970 70  0001 C CNN
	7    15200 3000
	1    0    0    -1  
$EndComp
Wire Wire Line
	15200 3450 15200 3600
$Comp
L ESP32:GND #PWR037
U 1 1 619BEF57
P 12650 7800
F 0 "#PWR037" H 12650 7550 50  0001 C CNN
F 1 "GND" H 12655 7627 50  0000 C CNN
F 2 "" H 12650 7800 50  0001 C CNN
F 3 "~" H 12650 7800 50  0001 C CNN
	1    12650 7800
	1    0    0    -1  
$EndComp
$Comp
L ESP32:GND #PWR039
U 1 1 619BF407
P 15200 7200
F 0 "#PWR039" H 15200 6950 50  0001 C CNN
F 1 "GND" H 15205 7027 50  0000 C CNN
F 2 "" H 15200 7200 50  0001 C CNN
F 3 "~" H 15200 7200 50  0001 C CNN
	1    15200 7200
	1    0    0    -1  
$EndComp
Wire Wire Line
	12650 6450 12650 6300
$Comp
L ESP32:GND #PWR036
U 1 1 619C1941
P 12650 6450
F 0 "#PWR036" H 12650 6200 50  0001 C CNN
F 1 "GND" H 12655 6277 50  0000 C CNN
F 2 "" H 12650 6450 50  0001 C CNN
F 3 "~" H 12650 6450 50  0001 C CNN
	1    12650 6450
	1    0    0    -1  
$EndComp
$Comp
L ESP32:GND #PWR033
U 1 1 619C6221
P 11050 4450
F 0 "#PWR033" H 11050 4200 50  0001 C CNN
F 1 "GND" H 11055 4277 50  0000 C CNN
F 2 "" H 11050 4450 50  0001 C CNN
F 3 "~" H 11050 4450 50  0001 C CNN
	1    11050 4450
	1    0    0    -1  
$EndComp
$Comp
L ESP32:GND #PWR035
U 1 1 619C6F50
P 12350 4500
F 0 "#PWR035" H 12350 4250 50  0001 C CNN
F 1 "GND" H 12355 4327 50  0000 C CNN
F 2 "" H 12350 4500 50  0001 C CNN
F 3 "~" H 12350 4500 50  0001 C CNN
	1    12350 4500
	1    0    0    -1  
$EndComp
$Comp
L ESP32:GND #PWR024
U 1 1 619CE7B4
P 6550 6650
F 0 "#PWR024" H 6550 6400 50  0001 C CNN
F 1 "GND" H 6555 6477 50  0000 C CNN
F 2 "" H 6550 6650 50  0001 C CNN
F 3 "~" H 6550 6650 50  0001 C CNN
	1    6550 6650
	1    0    0    -1  
$EndComp
$Comp
L ESP32:GND #PWR019
U 1 1 619D0881
P 5100 9250
F 0 "#PWR019" H 5100 9000 50  0001 C CNN
F 1 "GND" H 5105 9077 50  0000 C CNN
F 2 "" H 5100 9250 50  0001 C CNN
F 3 "~" H 5100 9250 50  0001 C CNN
	1    5100 9250
	1    0    0    -1  
$EndComp
$Comp
L ESP32:GND #PWR020
U 1 1 619D0E87
P 5100 10350
F 0 "#PWR020" H 5100 10100 50  0001 C CNN
F 1 "GND" H 5105 10177 50  0000 C CNN
F 2 "" H 5100 10350 50  0001 C CNN
F 3 "~" H 5100 10350 50  0001 C CNN
	1    5100 10350
	1    0    0    -1  
$EndComp
$Comp
L ESP32:GND #PWR01
U 1 1 619D221D
P 1450 10750
F 0 "#PWR01" H 1450 10500 50  0001 C CNN
F 1 "GND" H 1455 10577 50  0000 C CNN
F 2 "" H 1450 10750 50  0001 C CNN
F 3 "~" H 1450 10750 50  0001 C CNN
	1    1450 10750
	1    0    0    -1  
$EndComp
$Comp
L ESP32:GND #PWR06
U 1 1 619D27C2
P 2400 11050
F 0 "#PWR06" H 2400 10800 50  0001 C CNN
F 1 "GND" H 2405 10877 50  0000 C CNN
F 2 "" H 2400 11050 50  0001 C CNN
F 3 "~" H 2400 11050 50  0001 C CNN
	1    2400 11050
	1    0    0    -1  
$EndComp
$Comp
L ESP32:GND #PWR017
U 1 1 619D36B3
P 3550 9550
F 0 "#PWR017" H 3550 9300 50  0001 C CNN
F 1 "GND" H 3555 9377 50  0000 C CNN
F 2 "" H 3550 9550 50  0001 C CNN
F 3 "~" H 3550 9550 50  0001 C CNN
	1    3550 9550
	1    0    0    -1  
$EndComp
$Comp
L ESP32:GND #PWR09
U 1 1 619D3CBB
P 2700 9550
F 0 "#PWR09" H 2700 9300 50  0001 C CNN
F 1 "GND" H 2705 9377 50  0000 C CNN
F 2 "" H 2700 9550 50  0001 C CNN
F 3 "~" H 2700 9550 50  0001 C CNN
	1    2700 9550
	1    0    0    -1  
$EndComp
$Comp
L ESP32:GND #PWR07
U 1 1 619D6C37
P 2450 7000
F 0 "#PWR07" H 2450 6750 50  0001 C CNN
F 1 "GND" H 2455 6827 50  0000 C CNN
F 2 "" H 2450 7000 50  0001 C CNN
F 3 "~" H 2450 7000 50  0001 C CNN
	1    2450 7000
	1    0    0    -1  
$EndComp
$Comp
L ESP32:GND #PWR010
U 1 1 619D857F
P 2850 5400
F 0 "#PWR010" H 2850 5150 50  0001 C CNN
F 1 "GND" H 2855 5227 50  0000 C CNN
F 2 "" H 2850 5400 50  0001 C CNN
F 3 "~" H 2850 5400 50  0001 C CNN
	1    2850 5400
	1    0    0    -1  
$EndComp
$Comp
L ESP32:GND #PWR05
U 1 1 619D8ADD
P 2250 5400
F 0 "#PWR05" H 2250 5150 50  0001 C CNN
F 1 "GND" H 2255 5227 50  0000 C CNN
F 2 "" H 2250 5400 50  0001 C CNN
F 3 "~" H 2250 5400 50  0001 C CNN
	1    2250 5400
	1    0    0    -1  
$EndComp
$Comp
L ESP32:GND #PWR02
U 1 1 619D8F60
P 1650 5250
F 0 "#PWR02" H 1650 5000 50  0001 C CNN
F 1 "GND" H 1655 5077 50  0000 C CNN
F 2 "" H 1650 5250 50  0001 C CNN
F 3 "~" H 1650 5250 50  0001 C CNN
	1    1650 5250
	1    0    0    -1  
$EndComp
$Comp
L ESP32:GND #PWR03
U 1 1 619DA674
P 2150 4400
F 0 "#PWR03" H 2150 4150 50  0001 C CNN
F 1 "GND" H 2155 4227 50  0000 C CNN
F 2 "" H 2150 4400 50  0001 C CNN
F 3 "~" H 2150 4400 50  0001 C CNN
	1    2150 4400
	1    0    0    -1  
$EndComp
$Comp
L ESP32:GND #PWR08
U 1 1 619DAC81
P 2650 4400
F 0 "#PWR08" H 2650 4150 50  0001 C CNN
F 1 "GND" H 2655 4227 50  0000 C CNN
F 2 "" H 2650 4400 50  0001 C CNN
F 3 "~" H 2650 4400 50  0001 C CNN
	1    2650 4400
	1    0    0    -1  
$EndComp
$Comp
L ESP32:GND #PWR013
U 1 1 619DB26A
P 3150 4400
F 0 "#PWR013" H 3150 4150 50  0001 C CNN
F 1 "GND" H 3155 4227 50  0000 C CNN
F 2 "" H 3150 4400 50  0001 C CNN
F 3 "~" H 3150 4400 50  0001 C CNN
	1    3150 4400
	1    0    0    -1  
$EndComp
$Comp
L ESP32:GND #PWR021
U 1 1 619DCD8A
P 5250 3950
F 0 "#PWR021" H 5250 3700 50  0001 C CNN
F 1 "GND" H 5255 3777 50  0000 C CNN
F 2 "" H 5250 3950 50  0001 C CNN
F 3 "~" H 5250 3950 50  0001 C CNN
	1    5250 3950
	1    0    0    -1  
$EndComp
$Comp
L ESP32:GND #PWR022
U 1 1 619DD3F4
P 5450 4200
F 0 "#PWR022" H 5450 3950 50  0001 C CNN
F 1 "GND" H 5455 4027 50  0000 C CNN
F 2 "" H 5450 4200 50  0001 C CNN
F 3 "~" H 5450 4200 50  0001 C CNN
	1    5450 4200
	1    0    0    -1  
$EndComp
$Comp
L ESP32:GND #PWR030
U 1 1 619DE77F
P 8550 6550
F 0 "#PWR030" H 8550 6300 50  0001 C CNN
F 1 "GND" H 8555 6377 50  0000 C CNN
F 2 "" H 8550 6550 50  0001 C CNN
F 3 "~" H 8550 6550 50  0001 C CNN
	1    8550 6550
	1    0    0    -1  
$EndComp
$Comp
L ESP32:GND #PWR029
U 1 1 619DF128
P 8550 5200
F 0 "#PWR029" H 8550 4950 50  0001 C CNN
F 1 "GND" H 8555 5027 50  0000 C CNN
F 2 "" H 8550 5200 50  0001 C CNN
F 3 "~" H 8550 5200 50  0001 C CNN
	1    8550 5200
	1    0    0    -1  
$EndComp
$Comp
L ESP32:GND #PWR031
U 1 1 619E0035
P 9700 6150
F 0 "#PWR031" H 9700 5900 50  0001 C CNN
F 1 "GND" H 9705 5977 50  0000 C CNN
F 2 "" H 9700 6150 50  0001 C CNN
F 3 "~" H 9700 6150 50  0001 C CNN
	1    9700 6150
	1    0    0    -1  
$EndComp
$Comp
L ESP32:GND #PWR015
U 1 1 619E3FB2
P 3350 3350
F 0 "#PWR015" H 3350 3100 50  0001 C CNN
F 1 "GND" H 3355 3177 50  0000 C CNN
F 2 "" H 3350 3350 50  0001 C CNN
F 3 "~" H 3350 3350 50  0001 C CNN
	1    3350 3350
	1    0    0    -1  
$EndComp
$Comp
L ESP32:GND #PWR012
U 1 1 619E4AF7
P 2950 2650
F 0 "#PWR012" H 2950 2400 50  0001 C CNN
F 1 "GND" H 2955 2477 50  0000 C CNN
F 2 "" H 2950 2650 50  0001 C CNN
F 3 "~" H 2950 2650 50  0001 C CNN
	1    2950 2650
	1    0    0    -1  
$EndComp
$Comp
L ESP32:GND #PWR016
U 1 1 619E5342
P 3450 2650
F 0 "#PWR016" H 3450 2400 50  0001 C CNN
F 1 "GND" H 3455 2477 50  0000 C CNN
F 2 "" H 3450 2650 50  0001 C CNN
F 3 "~" H 3450 2650 50  0001 C CNN
	1    3450 2650
	1    0    0    -1  
$EndComp
$Comp
L ESP32:GND #PWR028
U 1 1 619E7617
P 8350 1550
F 0 "#PWR028" H 8350 1300 50  0001 C CNN
F 1 "GND" H 8355 1377 50  0000 C CNN
F 2 "" H 8350 1550 50  0001 C CNN
F 3 "~" H 8350 1550 50  0001 C CNN
	1    8350 1550
	1    0    0    -1  
$EndComp
$Comp
L ESP32:GND #PWR025
U 1 1 619E8084
P 6800 1050
F 0 "#PWR025" H 6800 800 50  0001 C CNN
F 1 "GND" H 6805 877 50  0000 C CNN
F 2 "" H 6800 1050 50  0001 C CNN
F 3 "~" H 6800 1050 50  0001 C CNN
	1    6800 1050
	1    0    0    -1  
$EndComp
$Comp
L ESP32:GND #PWR023
U 1 1 619E862F
P 6300 1550
F 0 "#PWR023" H 6300 1300 50  0001 C CNN
F 1 "GND" H 6305 1377 50  0000 C CNN
F 2 "" H 6300 1550 50  0001 C CNN
F 3 "~" H 6300 1550 50  0001 C CNN
	1    6300 1550
	1    0    0    -1  
$EndComp
$Comp
L ESP32:GND #PWR026
U 1 1 619E8B6C
P 7250 1950
F 0 "#PWR026" H 7250 1700 50  0001 C CNN
F 1 "GND" H 7255 1777 50  0000 C CNN
F 2 "" H 7250 1950 50  0001 C CNN
F 3 "~" H 7250 1950 50  0001 C CNN
	1    7250 1950
	1    0    0    -1  
$EndComp
$Comp
L ESP32:GND #PWR038
U 1 1 619ED171
P 15200 3600
F 0 "#PWR038" H 15200 3350 50  0001 C CNN
F 1 "GND" H 15205 3427 50  0000 C CNN
F 2 "" H 15200 3600 50  0001 C CNN
F 3 "~" H 15200 3600 50  0001 C CNN
	1    15200 3600
	1    0    0    -1  
$EndComp
$Comp
L ESP32:GND #PWR034
U 1 1 619F0194
P 12350 2550
F 0 "#PWR034" H 12350 2300 50  0001 C CNN
F 1 "GND" H 12355 2377 50  0000 C CNN
F 2 "" H 12350 2550 50  0001 C CNN
F 3 "~" H 12350 2550 50  0001 C CNN
	1    12350 2550
	1    0    0    -1  
$EndComp
$Comp
L ESP32:GND #PWR032
U 1 1 619F0B5B
P 11050 2500
F 0 "#PWR032" H 11050 2250 50  0001 C CNN
F 1 "GND" H 11055 2327 50  0000 C CNN
F 2 "" H 11050 2500 50  0001 C CNN
F 3 "~" H 11050 2500 50  0001 C CNN
	1    11050 2500
	1    0    0    -1  
$EndComp
Connection ~ 2650 3900
Wire Wire Line
	2650 3900 3150 3900
Connection ~ 3150 3900
Wire Wire Line
	3150 3900 3650 3900
$Comp
L ESP32:GND #PWR018
U 1 1 619DB8BE
P 3650 4400
F 0 "#PWR018" H 3650 4150 50  0001 C CNN
F 1 "GND" H 3655 4227 50  0000 C CNN
F 2 "" H 3650 4400 50  0001 C CNN
F 3 "~" H 3650 4400 50  0001 C CNN
	1    3650 4400
	1    0    0    -1  
$EndComp
Wire Wire Line
	3650 4300 3650 4400
$Comp
L Device:C C14
U 1 1 61708D78
P 3650 4150
F 0 "C14" H 3765 4196 50  0000 L CNN
F 1 "0,1мкФ" H 3765 4105 50  0000 L CNN
F 2 "Capacitor_SMD:C_0603_1608Metric" H 3688 4000 50  0001 C CNN
F 3 "~" H 3650 4150 50  0001 C CNN
	1    3650 4150
	1    0    0    -1  
$EndComp
Connection ~ 3650 3900
Wire Wire Line
	3650 3900 4100 3900
Connection ~ 2150 3900
Wire Wire Line
	2150 3900 2650 3900
Connection ~ 3450 2250
Wire Wire Line
	2950 2250 3450 2250
$Comp
L Device:C C17
U 1 1 617492FD
P 5700 3850
F 0 "C17" V 5550 3800 50  0000 L CNN
F 1 "10нФ" V 5850 3750 50  0000 L CNN
F 2 "Capacitor_SMD:C_0603_1608Metric" H 5738 3700 50  0001 C CNN
F 3 "~" H 5700 3850 50  0001 C CNN
	1    5700 3850
	0    1    1    0   
$EndComp
$Comp
L Device:C C23
U 1 1 619811B1
P 8550 6300
F 0 "C23" H 8665 6346 50  0000 L CNN
F 1 "1мкФ" H 8665 6255 50  0000 L CNN
F 2 "Capacitor_SMD:C_0603_1608Metric" H 8588 6150 50  0001 C CNN
F 3 "~" H 8550 6300 50  0001 C CNN
	1    8550 6300
	1    0    0    -1  
$EndComp
Wire Wire Line
	2850 8100 2850 8200
$Comp
L ESP32:GND #PWR011
U 1 1 619D5769
P 2850 8200
F 0 "#PWR011" H 2850 7950 50  0001 C CNN
F 1 "GND" H 2855 8027 50  0000 C CNN
F 2 "" H 2850 8200 50  0001 C CNN
F 3 "~" H 2850 8200 50  0001 C CNN
	1    2850 8200
	1    0    0    -1  
$EndComp
Wire Wire Line
	2700 8100 2850 8100
Wire Notes Line style solid rgb(0, 132, 0)
	8674 7450 8626 7474
Wire Notes Line style solid rgb(0, 132, 0)
	8674 7450 8624 7428
Wire Wire Line
	11100 7250 12150 7250
Wire Notes Line style solid rgb(0, 132, 0)
	11100 7250 11148 7226
Wire Notes Line style solid rgb(0, 132, 0)
	11100 7250 11150 7272
Wire Wire Line
	11090 5900 12150 5900
Wire Notes Line style solid rgb(0, 132, 0)
	11088 5900 11136 5876
Wire Notes Line style solid rgb(0, 132, 0)
	11088 5900 11138 5922
Wire Wire Line
	6800 10250 7750 10250
Wire Wire Line
	6800 9150 7750 9150
Wire Wire Line
	2400 10550 3250 10550
Wire Wire Line
	2700 7900 3400 7900
Wire Wire Line
	2700 8000 3400 8000
Wire Wire Line
	2450 6450 3300 6450
Wire Wire Line
	1300 6450 1900 6450
Wire Wire Line
	4800 6050 5500 6050
Wire Wire Line
	4800 5950 5500 5950
Wire Wire Line
	4800 5850 5500 5850
$Comp
L ESP32:GND #PWR027
U 1 1 619BCBB6
P 7850 7900
F 0 "#PWR027" H 7850 7650 50  0001 C CNN
F 1 "GND" H 7855 7727 50  0000 C CNN
F 2 "" H 7850 7900 50  0001 C CNN
F 3 "~" H 7850 7900 50  0001 C CNN
	1    7850 7900
	1    0    0    -1  
$EndComp
Wire Wire Line
	7850 7800 7850 7900
$Comp
L Device:C C20
U 1 1 619480CC
P 7850 7650
F 0 "C20" H 7965 7696 50  0000 L CNN
F 1 "0,1мкФ" H 7965 7605 50  0000 L CNN
F 2 "Capacitor_SMD:C_0603_1608Metric" H 7888 7500 50  0001 C CNN
F 3 "~" H 7850 7650 50  0001 C CNN
	1    7850 7650
	1    0    0    -1  
$EndComp
Wire Wire Line
	7850 7500 7850 7450
Wire Wire Line
	6650 6550 6650 7450
Wire Wire Line
	6650 7450 7850 7450
Connection ~ 7850 7450
Wire Wire Line
	7850 7450 8674 7450
Wire Wire Line
	7050 6550 7050 7350
Wire Wire Line
	7150 6550 7150 7350
Wire Wire Line
	8550 4850 9050 4850
Wire Wire Line
	8550 5952 9200 5952
Wire Wire Line
	7000 3650 7000 4250
Wire Wire Line
	7100 3650 7100 4250
Wire Wire Line
	1450 3900 2150 3900
Wire Wire Line
	1450 2900 3350 2900
Wire Wire Line
	1450 2250 2950 2250
Wire Wire Line
	11350 750  11350 1250
Wire Wire Line
	13500 2000 14500 2000
Wire Wire Line
	11350 2700 11350 3200
Wire Wire Line
	13500 3950 14500 3950
Wire Wire Line
	13500 5800 14350 5800
Wire Wire Line
	13500 7150 14350 7150
Wire Wire Line
	15200 5500 15200 6050
Wire Wire Line
	15200 2000 15200 2550
Wire Notes Line style solid rgb(0, 132, 0)
	14352 7150 14304 7174
Wire Notes Line style solid rgb(0, 132, 0)
	14352 7150 14302 7128
Wire Notes Line style solid rgb(0, 132, 0)
	14350 5800 14302 5824
Wire Notes Line style solid rgb(0, 132, 0)
	14350 5800 14300 5778
Wire Notes Line style solid rgb(0, 132, 0)
	15200 5498 15224 5546
Wire Notes Line style solid rgb(0, 132, 0)
	15200 5498 15178 5548
Wire Notes Line style solid rgb(0, 132, 0)
	15200 2000 15224 2048
Wire Notes Line style solid rgb(0, 132, 0)
	15200 2000 15178 2050
Wire Notes Line style solid rgb(0, 132, 0)
	14504 2000 14456 2024
Wire Notes Line style solid rgb(0, 132, 0)
	14504 2000 14454 1978
Wire Notes Line style solid rgb(0, 132, 0)
	14500 3950 14452 3974
Wire Notes Line style solid rgb(0, 132, 0)
	14500 3950 14450 3928
Wire Notes Line style solid rgb(0, 132, 0)
	9052 4850 9004 4874
Wire Notes Line style solid rgb(0, 132, 0)
	9052 4850 9002 4828
Wire Notes Line style solid rgb(0, 132, 0)
	9200 5952 9152 5976
Wire Notes Line style solid rgb(0, 132, 0)
	9200 5952 9150 5930
Wire Notes Line style solid rgb(0, 132, 0)
	10554 5750 10506 5774
Wire Notes Line style solid rgb(0, 132, 0)
	10554 5750 10504 5728
Wire Notes Line style solid rgb(0, 132, 0)
	10552 5600 10504 5624
Wire Notes Line style solid rgb(0, 132, 0)
	10552 5600 10502 5578
Wire Notes Line style solid rgb(0, 132, 0)
	10556 5450 10508 5474
Wire Notes Line style solid rgb(0, 132, 0)
	10556 5450 10506 5428
Wire Wire Line
	9700 4700 9700 5200
Wire Notes Line style solid rgb(0, 132, 0)
	9700 4700 9724 4748
Wire Notes Line style solid rgb(0, 132, 0)
	9700 4700 9678 4750
Wire Notes Line style solid rgb(0, 132, 0)
	8800 5450 8848 5426
Wire Notes Line style solid rgb(0, 132, 0)
	8800 5450 8850 5472
Wire Notes Line style solid rgb(0, 132, 0)
	8800 5600 8848 5576
Wire Notes Line style solid rgb(0, 132, 0)
	8800 5600 8850 5622
Wire Notes Line style solid rgb(0, 132, 0)
	8800 5750 8848 5726
Wire Notes Line style solid rgb(0, 132, 0)
	8800 5750 8850 5772
Wire Notes Line style solid rgb(0, 132, 0)
	7050 7350 7026 7302
Wire Notes Line style solid rgb(0, 132, 0)
	7050 7350 7072 7300
Wire Notes Line style solid rgb(0, 132, 0)
	7150 7350 7126 7302
Wire Notes Line style solid rgb(0, 132, 0)
	7150 7350 7172 7300
Wire Notes Line style solid rgb(0, 132, 0)
	4800 6050 4848 6026
Wire Notes Line style solid rgb(0, 132, 0)
	4800 6050 4850 6072
Wire Notes Line style solid rgb(0, 132, 0)
	4800 5950 4848 5926
Wire Notes Line style solid rgb(0, 132, 0)
	4800 5950 4850 5972
Wire Notes Line style solid rgb(0, 132, 0)
	4800 5850 4848 5826
Wire Notes Line style solid rgb(0, 132, 0)
	4800 5850 4850 5872
Wire Wire Line
	4800 5550 5500 5550
Wire Notes Line style solid rgb(0, 132, 0)
	4800 5550 4848 5526
Wire Notes Line style solid rgb(0, 132, 0)
	4800 5550 4850 5572
Wire Notes Line style solid rgb(0, 132, 0)
	7000 3650 7024 3698
Wire Notes Line style solid rgb(0, 132, 0)
	7000 3650 6978 3700
Wire Notes Line style solid rgb(0, 132, 0)
	7100 3650 7124 3698
Wire Notes Line style solid rgb(0, 132, 0)
	7100 3650 7078 3700
Wire Notes Line style solid rgb(0, 132, 0)
	1450 2250 1498 2226
Wire Notes Line style solid rgb(0, 132, 0)
	1450 2250 1500 2272
Wire Notes Line style solid rgb(0, 132, 0)
	1450 2900 1498 2876
Wire Notes Line style solid rgb(0, 132, 0)
	1450 2900 1500 2922
Wire Notes Line style solid rgb(0, 132, 0)
	1450 3900 1498 3876
Wire Notes Line style solid rgb(0, 132, 0)
	1450 3900 1500 3922
Wire Notes Line style solid rgb(0, 132, 0)
	1300 6450 1348 6426
Wire Notes Line style solid rgb(0, 132, 0)
	1300 6450 1350 6472
Wire Notes Line style solid rgb(0, 132, 0)
	3300 6450 3252 6474
Wire Notes Line style solid rgb(0, 132, 0)
	3300 6450 3250 6428
Wire Notes Line style solid rgb(0, 132, 0)
	3400 7900 3352 7924
Wire Notes Line style solid rgb(0, 132, 0)
	3400 7900 3350 7878
Wire Notes Line style solid rgb(0, 132, 0)
	3400 8000 3352 8024
Wire Notes Line style solid rgb(0, 132, 0)
	3400 8000 3350 7978
Wire Notes Line style solid rgb(0, 132, 0)
	4100 9100 4052 9124
Wire Notes Line style solid rgb(0, 132, 0)
	4100 9100 4050 9078
Wire Notes Line style solid rgb(0, 132, 0)
	3250 10550 3202 10574
Wire Notes Line style solid rgb(0, 132, 0)
	3250 10550 3200 10528
Wire Notes Line style solid rgb(0, 132, 0)
	7750 10250 7702 10274
Wire Notes Line style solid rgb(0, 132, 0)
	7750 10250 7700 10228
Wire Notes Line style solid rgb(0, 132, 0)
	7750 9150 7702 9174
Wire Notes Line style solid rgb(0, 132, 0)
	7750 9150 7700 9128
Wire Notes Line style solid rgb(0, 132, 0)
	11350 2700 11374 2748
Wire Notes Line style solid rgb(0, 132, 0)
	11350 2700 11328 2750
Wire Notes Line style solid rgb(0, 132, 0)
	11350 750  11374 798 
Wire Notes Line style solid rgb(0, 132, 0)
	11350 750  11328 800 
Wire Wire Line
	7800 5250 8300 5250
Wire Wire Line
	7800 5350 8300 5350
Wire Wire Line
	7800 5450 8300 5450
Wire Wire Line
	7800 5550 8300 5550
Wire Wire Line
	7800 5650 8300 5650
Wire Wire Line
	7800 5750 8300 5750
Wire Notes Line style solid rgb(0, 132, 0)
	8300 5250 8252 5274
Wire Notes Line style solid rgb(0, 132, 0)
	8300 5250 8250 5228
Wire Notes Line style solid rgb(0, 132, 0)
	8300 5350 8252 5374
Wire Notes Line style solid rgb(0, 132, 0)
	8300 5350 8250 5328
Wire Notes Line style solid rgb(0, 132, 0)
	8300 5450 8252 5474
Wire Notes Line style solid rgb(0, 132, 0)
	8300 5450 8250 5428
Wire Notes Line style solid rgb(0, 132, 0)
	8300 5550 8252 5574
Wire Notes Line style solid rgb(0, 132, 0)
	8300 5550 8250 5528
Wire Notes Line style solid rgb(0, 132, 0)
	8300 5650 8252 5674
Wire Notes Line style solid rgb(0, 132, 0)
	8300 5650 8250 5628
Wire Notes Line style solid rgb(0, 132, 0)
	8300 5750 8252 5774
Wire Notes Line style solid rgb(0, 132, 0)
	8300 5750 8250 5728
$Comp
L ESP32:74HC14 DD4
U 1 1 6183333C
P 13150 2000
F 0 "DD4" H 13150 2512 50  0000 C CNN
F 1 "74HC14" H 13150 2391 50  0000 C CNN
F 2 "Package_DIP:DIP-14_W8.89mm_SMDSocket_LongPads" H 13275 1970 70  0001 C CNN
F 3 "" H 13275 1970 70  0001 C CNN
	1    13150 2000
	1    0    0    -1  
$EndComp
Connection ~ 8550 5952
Wire Wire Line
	8550 5952 8550 6150
Wire Wire Line
	2400 9900 2400 10150
$Comp
L ESP32:GND #PWR04
U 1 1 61AB63B8
P 2150 9550
F 0 "#PWR04" H 2150 9300 50  0001 C CNN
F 1 "GND" H 2155 9377 50  0000 C CNN
F 2 "" H 2150 9550 50  0001 C CNN
F 3 "~" H 2150 9550 50  0001 C CNN
	1    2150 9550
	1    0    0    -1  
$EndComp
Wire Wire Line
	3000 9100 3150 9100
$Comp
L ESP32:GND #PWR014
U 1 1 61AC9B2D
P 3150 9550
F 0 "#PWR014" H 3150 9300 50  0001 C CNN
F 1 "GND" H 3155 9377 50  0000 C CNN
F 2 "" H 3150 9550 50  0001 C CNN
F 3 "~" H 3150 9550 50  0001 C CNN
	1    3150 9550
	1    0    0    -1  
$EndComp
$Comp
L Device:C C2
U 1 1 61ACA0F1
P 2150 9300
F 0 "C2" H 2265 9346 50  0000 L CNN
F 1 "1мкФ" H 2265 9255 50  0000 L CNN
F 2 "Capacitor_SMD:C_0603_1608Metric" H 2188 9150 50  0001 C CNN
F 3 "~" H 2150 9300 50  0001 C CNN
	1    2150 9300
	1    0    0    -1  
$EndComp
$Comp
L Device:C C9
U 1 1 61ACA5CC
P 3150 9300
F 0 "C9" H 3265 9346 50  0000 L CNN
F 1 "1мкФ" H 3265 9255 50  0000 L CNN
F 2 "Capacitor_SMD:C_0603_1608Metric" H 3188 9150 50  0001 C CNN
F 3 "~" H 3150 9300 50  0001 C CNN
	1    3150 9300
	1    0    0    -1  
$EndComp
Wire Wire Line
	2150 9150 2150 9100
Connection ~ 2150 9100
Wire Wire Line
	2150 9100 2400 9100
Wire Wire Line
	2150 9450 2150 9550
Wire Wire Line
	3150 9450 3150 9550
Wire Wire Line
	3150 9150 3150 9100
Connection ~ 3150 9100
Connection ~ 3550 9100
Wire Wire Line
	3550 9100 4100 9100
Wire Wire Line
	3150 9100 3550 9100
$Comp
L power:PWR_FLAG #FLG0101
U 1 1 61B295E4
P 1450 8950
F 0 "#FLG0101" H 1450 9025 50  0001 C CNN
F 1 "PWR_FLAG" H 1450 9123 50  0000 C CNN
F 2 "" H 1450 8950 50  0001 C CNN
F 3 "~" H 1450 8950 50  0001 C CNN
	1    1450 8950
	1    0    0    -1  
$EndComp
Wire Wire Line
	1450 8950 1450 9100
Connection ~ 1450 9100
$Comp
L power:PWR_FLAG #FLG0102
U 1 1 61B62AA8
P 1050 8950
F 0 "#FLG0102" H 1050 9025 50  0001 C CNN
F 1 "PWR_FLAG" H 1050 9123 50  0000 C CNN
F 2 "" H 1050 8950 50  0001 C CNN
F 3 "~" H 1050 8950 50  0001 C CNN
	1    1050 8950
	1    0    0    -1  
$EndComp
$Comp
L ESP32:GND #PWR0101
U 1 1 61B62E24
P 1050 9100
F 0 "#PWR0101" H 1050 8850 50  0001 C CNN
F 1 "GND" H 1055 8927 50  0000 C CNN
F 2 "" H 1050 9100 50  0001 C CNN
F 3 "~" H 1050 9100 50  0001 C CNN
	1    1050 9100
	1    0    0    -1  
$EndComp
Wire Wire Line
	1050 8950 1050 9100
$EndSCHEMATC
