EESchema Schematic File Version 4
EELAYER 30 0
EELAYER END
$Descr A3 16535 11693
encoding utf-8
Sheet 1 1
Title "Урок 3"
Date ""
Rev ""
Comp ""
Comment1 ""
Comment2 ""
Comment3 ""
Comment4 ""
$EndDescr
$Comp
L Device:R R2
U 1 1 616CB3FA
P 8950 4250
F 0 "R2" V 9157 4250 50  0000 C CNN
F 1 "1 k" V 9066 4250 50  0000 C CNN
F 2 "Resistor_THT:R_Axial_DIN0207_L6.3mm_D2.5mm_P2.54mm_Vertical" V 8880 4250 50  0001 C CNN
F 3 "~" H 8950 4250 50  0001 C CNN
F 4 "Резисторы" H 8950 4250 60  0001 C CNN "Группа"
	1    8950 4250
	0    -1   -1   0   
$EndComp
$Comp
L Device:R R1
U 1 1 616CCD1C
P 9900 6000
F 0 "R1" V 9693 6000 50  0000 C CNN
F 1 "100" V 9784 6000 50  0000 C CNN
F 2 "Resistor_THT:R_Axial_DIN0207_L6.3mm_D2.5mm_P2.54mm_Vertical" V 9830 6000 50  0001 C CNN
F 3 "~" H 9900 6000 50  0001 C CNN
F 4 "Резисторы" H 9900 6000 60  0001 C CNN "Группа"
	1    9900 6000
	0    1    1    0   
$EndComp
$Comp
L Device:LED D1
U 1 1 616CE0F6
P 8550 4250
F 0 "D1" H 8543 4467 50  0000 C CNN
F 1 "LED" H 8543 4376 50  0000 C CNN
F 2 "LED_THT:LED_D5.0mm" H 8550 4250 50  0001 C CNN
F 3 "~" H 8550 4250 50  0001 C CNN
F 4 "Диоды" H 8550 4250 60  0001 C CNN "Группа"
	1    8550 4250
	1    0    0    -1  
$EndComp
$Comp
L power:VCC #PWR03
U 1 1 616D23C5
P 9300 5800
F 0 "#PWR03" H 9300 5650 50  0001 C CNN
F 1 "VCC" H 9315 5973 50  0000 C CNN
F 2 "" H 9300 5800 50  0001 C CNN
F 3 "" H 9300 5800 50  0001 C CNN
	1    9300 5800
	1    0    0    -1  
$EndComp
$Comp
L power:VCC #PWR01
U 1 1 616D2928
P 6950 4050
F 0 "#PWR01" H 6950 3900 50  0001 C CNN
F 1 "VCC" H 6965 4223 50  0000 C CNN
F 2 "" H 6950 4050 50  0001 C CNN
F 3 "" H 6950 4050 50  0001 C CNN
	1    6950 4050
	1    0    0    -1  
$EndComp
$Comp
L power:VCC #PWR05
U 1 1 616D30B0
P 9200 4150
F 0 "#PWR05" H 9200 4000 50  0001 C CNN
F 1 "VCC" H 9215 4323 50  0000 C CNN
F 2 "" H 9200 4150 50  0001 C CNN
F 3 "" H 9200 4150 50  0001 C CNN
	1    9200 4150
	1    0    0    -1  
$EndComp
$Comp
L power:GND #PWR04
U 1 1 616D3CBA
P 9300 6200
F 0 "#PWR04" H 9300 5950 50  0001 C CNN
F 1 "GND" H 9305 6027 50  0000 C CNN
F 2 "" H 9300 6200 50  0001 C CNN
F 3 "" H 9300 6200 50  0001 C CNN
	1    9300 6200
	1    0    0    -1  
$EndComp
Wire Wire Line
	8150 4550 8150 4250
Wire Wire Line
	8150 4250 8400 4250
Wire Wire Line
	8700 4250 8800 4250
Wire Wire Line
	9100 4250 9200 4250
Wire Wire Line
	9200 4250 9200 4150
Wire Wire Line
	9300 5900 9300 5800
Wire Wire Line
	9300 6200 9300 6100
Wire Wire Line
	10050 6000 10400 6000
Text Label 8250 4650 0    50   ~ 0
INPUT
Text Label 10100 6000 0    50   ~ 0
INPUT
Text Label 8150 4450 0    50   ~ 0
uCtoLED
Text Label 8750 4250 3    50   ~ 0
LEDtoR
Text Label 9350 6000 0    50   ~ 0
INPUTtoR
$Comp
L power:PWR_FLAG #FLG01
U 1 1 616DA293
P 9350 4750
F 0 "#FLG01" H 9350 4825 50  0001 C CNN
F 1 "PWR_FLAG" H 9350 4923 50  0000 C CNN
F 2 "" H 9350 4750 50  0001 C CNN
F 3 "~" H 9350 4750 50  0001 C CNN
	1    9350 4750
	1    0    0    -1  
$EndComp
$Comp
L power:PWR_FLAG #FLG02
U 1 1 616DAAF0
P 9750 4700
F 0 "#FLG02" H 9750 4775 50  0001 C CNN
F 1 "PWR_FLAG" H 9750 4873 50  0000 C CNN
F 2 "" H 9750 4700 50  0001 C CNN
F 3 "~" H 9750 4700 50  0001 C CNN
	1    9750 4700
	1    0    0    -1  
$EndComp
$Comp
L power:GND #PWR06
U 1 1 616DB116
P 9350 4850
F 0 "#PWR06" H 9350 4600 50  0001 C CNN
F 1 "GND" H 9355 4677 50  0000 C CNN
F 2 "" H 9350 4850 50  0001 C CNN
F 3 "" H 9350 4850 50  0001 C CNN
	1    9350 4850
	1    0    0    -1  
$EndComp
$Comp
L power:VCC #PWR07
U 1 1 616DB75F
P 9750 4850
F 0 "#PWR07" H 9750 4700 50  0001 C CNN
F 1 "VCC" H 9765 5023 50  0000 C CNN
F 2 "" H 9750 4850 50  0001 C CNN
F 3 "" H 9750 4850 50  0001 C CNN
	1    9750 4850
	-1   0    0    1   
$EndComp
Wire Wire Line
	9350 4750 9350 4850
Text Notes 5750 3900 0    50   ~ 0
Комментарий\nна\nчетыре\nстроки\n
Wire Wire Line
	9750 4850 9750 4700
$Comp
L myLib:MYCONN3_GOST J1
U 1 1 6172D6A7
P 8900 5700
F 0 "J1" H 8892 5815 50  0000 C CNN
F 1 "MYCONN3_GOST" H 8892 5724 50  0000 C CNN
F 2 "Connector:Banana_Jack_3Pin" H 8900 5700 50  0001 C CNN
F 3 "" H 8900 5700 50  0001 C CNN
	1    8900 5700
	-1   0    0    -1  
$EndComp
Wire Wire Line
	9200 5900 9300 5900
Wire Wire Line
	9200 6000 9750 6000
Wire Wire Line
	9200 6100 9300 6100
Wire Wire Line
	7950 4650 8600 4650
Wire Wire Line
	7950 4550 8150 4550
$Comp
L MCU_Microchip_PIC18:PIC18F24K50-xML U1
U 1 1 6172A59A
P 6950 5450
F 0 "U1" H 7150 6700 50  0000 C CNN
F 1 "PIC18F24K50-xML" H 6400 6700 50  0000 C CNN
F 2 "Package_DFN_QFN:QFN-28-1EP_6x6mm_P0.65mm_EP4.8x4.8mm" H 6950 5450 50  0001 C CIN
F 3 "http://ww1.microchip.com/downloads/en/devicedoc/30000684B.pdf" H 4050 4100 50  0001 C CNN
	1    6950 5450
	1    0    0    -1  
$EndComp
Wire Wire Line
	6950 6650 6950 6750
Wire Wire Line
	6850 6650 6850 6750
Connection ~ 6900 6750
Wire Wire Line
	6950 6750 6900 6750
Wire Wire Line
	6900 6750 6900 6800
Wire Wire Line
	6850 6750 6900 6750
$Comp
L power:GND #PWR02
U 1 1 61732419
P 6900 6800
F 0 "#PWR02" H 6900 6550 50  0001 C CNN
F 1 "GND" H 6905 6627 50  0000 C CNN
F 2 "" H 6900 6800 50  0001 C CNN
F 3 "" H 6900 6800 50  0001 C CNN
	1    6900 6800
	1    0    0    -1  
$EndComp
Wire Wire Line
	6950 4050 6950 4150
NoConn ~ 7950 4750
NoConn ~ 7950 4850
NoConn ~ 7950 4950
NoConn ~ 7950 5050
NoConn ~ 7950 5150
NoConn ~ 7950 5250
NoConn ~ 7950 5650
NoConn ~ 7950 5750
NoConn ~ 7950 5850
NoConn ~ 7950 6250
NoConn ~ 5950 6050
NoConn ~ 5950 5950
NoConn ~ 5950 5850
NoConn ~ 5950 5750
NoConn ~ 5950 5650
NoConn ~ 5950 5250
NoConn ~ 5950 5150
NoConn ~ 5950 5050
NoConn ~ 5950 4950
NoConn ~ 5950 4850
NoConn ~ 5950 4750
NoConn ~ 5950 4650
NoConn ~ 5950 4550
$EndSCHEMATC
