EESchema Schematic File Version 4
EELAYER 30 0
EELAYER END
$Descr A3 16535 11693
encoding utf-8
Sheet 1 1
Title "Урок 1"
Date ""
Rev ""
Comp "ИУ6-72Б"
Comment1 ""
Comment2 "Аганова А.В."
Comment3 ""
Comment4 ""
$EndDescr
$Comp
L Device:R R1
U 1 1 617CEC2A
P 9950 3550
F 0 "R1" H 10020 3596 50  0000 L CNN
F 1 "1 k" H 10020 3505 50  0000 L CNN
F 2 "Resistor_THT:R_Axial_DIN0207_L6.3mm_D2.5mm_P2.54mm_Vertical" V 9880 3550 50  0001 C CNN
F 3 "~" H 9950 3550 50  0001 C CNN
	1    9950 3550
	0    -1   -1   0   
$EndComp
$Comp
L Device:R R2
U 1 1 617CFBB1
P 10100 6100
F 0 "R2" V 9893 6100 50  0000 C CNN
F 1 "100" V 9984 6100 50  0000 C CNN
F 2 "Resistor_THT:R_Axial_DIN0207_L6.3mm_D2.5mm_P2.54mm_Vertical" V 10030 6100 50  0001 C CNN
F 3 "~" H 10100 6100 50  0001 C CNN
	1    10100 6100
	0    1    1    0   
$EndComp
$Comp
L Device:LED D1
U 1 1 617D18B6
P 9550 3550
F 0 "D1" H 9543 3767 50  0000 C CNN
F 1 "LED" H 9543 3676 50  0000 C CNN
F 2 "LED_THT:LED_D5.0mm" H 9550 3550 50  0001 C CNN
F 3 "~" H 9550 3550 50  0001 C CNN
	1    9550 3550
	1    0    0    -1  
$EndComp
$Comp
L power:VCC #PWR05
U 1 1 617DA65F
P 9350 6000
F 0 "#PWR05" H 9350 5850 50  0001 C CNN
F 1 "VCC" H 9365 6173 50  0000 C CNN
F 2 "" H 9350 6000 50  0001 C CNN
F 3 "" H 9350 6000 50  0001 C CNN
	1    9350 6000
	1    0    0    -1  
$EndComp
$Comp
L power:VCC #PWR01
U 1 1 617DB224
P 8000 3800
F 0 "#PWR01" H 8000 3650 50  0001 C CNN
F 1 "VCC" H 8000 3950 50  0000 C CNN
F 2 "" H 8000 3800 50  0001 C CNN
F 3 "" H 8000 3800 50  0001 C CNN
	1    8000 3800
	1    0    0    -1  
$EndComp
$Comp
L power:GND #PWR02
U 1 1 617DD916
P 8000 5200
F 0 "#PWR02" H 8000 4950 50  0001 C CNN
F 1 "GND" H 8005 5027 50  0000 C CNN
F 2 "" H 8000 5200 50  0001 C CNN
F 3 "" H 8000 5200 50  0001 C CNN
	1    8000 5200
	1    0    0    -1  
$EndComp
$Comp
L power:GND #PWR06
U 1 1 617DED8B
P 9350 6200
F 0 "#PWR06" H 9350 5950 50  0001 C CNN
F 1 "GND" H 9355 6027 50  0000 C CNN
F 2 "" H 9350 6200 50  0001 C CNN
F 3 "" H 9350 6200 50  0001 C CNN
	1    9350 6200
	1    0    0    -1  
$EndComp
$Comp
L power:VCC #PWR07
U 1 1 617DF553
P 10450 3300
F 0 "#PWR07" H 10450 3150 50  0001 C CNN
F 1 "VCC" H 10465 3473 50  0000 C CNN
F 2 "" H 10450 3300 50  0001 C CNN
F 3 "" H 10450 3300 50  0001 C CNN
	1    10450 3300
	1    0    0    -1  
$EndComp
Wire Wire Line
	8800 4000 9100 4000
Wire Wire Line
	9100 4000 9100 3550
Wire Wire Line
	9100 3550 9400 3550
Wire Wire Line
	9350 6100 9950 6100
Wire Wire Line
	9700 3550 9800 3550
Wire Wire Line
	10100 3550 10450 3550
Wire Wire Line
	10450 3550 10450 3300
Wire Wire Line
	8800 4100 9600 4100
Wire Wire Line
	10250 6100 10600 6100
Text Label 9600 4100 0    50   ~ 0
INPUT
Text Label 10600 6100 0    50   ~ 0
INPUT
Text Label 9100 3850 0    50   ~ 0
uCtoLED
Text Label 9750 3550 3    50   ~ 0
LEDtoR
Text Label 9550 6100 0    50   ~ 0
INPUTtoR
NoConn ~ 8800 4200
$Comp
L power:PWR_FLAG #FLG01
U 1 1 617E1E39
P 7550 5800
F 0 "#FLG01" H 7550 5875 50  0001 C CNN
F 1 "PWR_FLAG" H 7550 5973 50  0000 C CNN
F 2 "" H 7550 5800 50  0001 C CNN
F 3 "~" H 7550 5800 50  0001 C CNN
	1    7550 5800
	1    0    0    -1  
$EndComp
$Comp
L power:PWR_FLAG #FLG02
U 1 1 617E2749
P 7950 5800
F 0 "#FLG02" H 7950 5875 50  0001 C CNN
F 1 "PWR_FLAG" H 7950 5973 50  0000 C CNN
F 2 "" H 7950 5800 50  0001 C CNN
F 3 "~" H 7950 5800 50  0001 C CNN
	1    7950 5800
	1    0    0    -1  
$EndComp
$Comp
L power:VCC #PWR04
U 1 1 617E2EF4
P 7950 5950
F 0 "#PWR04" H 7950 5800 50  0001 C CNN
F 1 "VCC" H 7965 6123 50  0000 C CNN
F 2 "" H 7950 5950 50  0001 C CNN
F 3 "" H 7950 5950 50  0001 C CNN
	1    7950 5950
	-1   0    0    1   
$EndComp
$Comp
L power:GND #PWR03
U 1 1 617E386A
P 7550 5950
F 0 "#PWR03" H 7550 5700 50  0001 C CNN
F 1 "GND" H 7555 5777 50  0000 C CNN
F 2 "" H 7550 5950 50  0001 C CNN
F 3 "" H 7550 5950 50  0001 C CNN
	1    7550 5950
	1    0    0    -1  
$EndComp
Wire Wire Line
	7550 5800 7550 5950
Wire Wire Line
	7950 5800 7950 5950
Text Notes 10100 6650 0    50   ~ 0
Аганова ИУ6-72Б
$Comp
L MCU_Microchip_PIC16:PIC16F18346-P U1
U 1 1 618BA678
P 8000 4500
F 0 "U1" H 6900 5300 50  0000 C CNN
F 1 "PIC16F18346-P" H 6950 5200 50  0000 C CNN
F 2 "Package_DIP:DIP-20_W7.62mm" H 8000 3720 50  0001 C CNN
F 3 "http://ww1.microchip.com/downloads/en/DeviceDoc/40001839B.pdf" H 8000 3800 50  0001 C CNN
	1    8000 4500
	1    0    0    -1  
$EndComp
NoConn ~ 8800 4300
NoConn ~ 8800 4400
NoConn ~ 8800 4500
NoConn ~ 8800 4600
NoConn ~ 8800 4700
NoConn ~ 7200 4000
NoConn ~ 7200 4100
NoConn ~ 7200 4200
NoConn ~ 7200 4300
NoConn ~ 7200 4400
NoConn ~ 7200 4500
NoConn ~ 7200 4700
NoConn ~ 7200 4800
NoConn ~ 7200 4900
NoConn ~ 7200 5000
$Comp
L New_Library:Connector J1
U 1 1 618D50FA
P 8950 6050
F 0 "J1" H 8983 6415 50  0000 C CNN
F 1 "Connector" H 8983 6324 50  0000 C CNN
F 2 "Connector:Banana_Jack_3Pin" H 9150 6300 50  0001 C CNN
F 3 "" H 9150 6300 50  0001 C CNN
	1    8950 6050
	1    0    0    -1  
$EndComp
$EndSCHEMATC
