EESchema Schematic File Version 4
EELAYER 30 0
EELAYER END
$Descr A3 16535 11693
encoding utf-8
Sheet 1 1
Title "Урок 1"
Date ""
Rev ""
Comp ""
Comment1 ""
Comment2 "Межанскас Д."
Comment3 ""
Comment4 ""
$EndDescr
$Comp
L Device:R R1
U 1 1 6175C9C2
P 7800 5300
F 0 "R1" V 7593 5300 50  0000 C CNN
F 1 "1k" V 7684 5300 50  0000 C CNN
F 2 "" V 7730 5300 50  0001 C CNN
F 3 "~" H 7800 5300 50  0001 C CNN
	1    7800 5300
	0    1    1    0   
$EndComp
$Comp
L Device:R R2
U 1 1 6175D395
P 7850 6550
F 0 "R2" V 7643 6550 50  0000 C CNN
F 1 "100" V 7734 6550 50  0000 C CNN
F 2 "" V 7780 6550 50  0001 C CNN
F 3 "~" H 7850 6550 50  0001 C CNN
	1    7850 6550
	0    1    1    0   
$EndComp
$Comp
L microchip_pic12mcu:PIC12C508A-ISN U1
U 1 1 6175E42C
P 6150 5750
F 0 "U1" H 6450 6250 50  0000 C CNN
F 1 "PIC12C508A-ISN" H 5800 6250 50  0000 C CNN
F 2 "Package_DIP:DIP-8_W7.62mm" H 6750 6400 50  0001 C CNN
F 3 "http://ww1.microchip.com/downloads/en/devicedoc/40139e.pdf" H 6150 5750 50  0001 C CNN
	1    6150 5750
	-1   0    0    -1  
$EndComp
$Comp
L Device:LED D1
U 1 1 6175F2D1
P 7300 5300
F 0 "D1" H 7293 5517 50  0000 C CNN
F 1 "LED" H 7293 5426 50  0000 C CNN
F 2 "" H 7300 5300 50  0001 C CNN
F 3 "~" H 7300 5300 50  0001 C CNN
	1    7300 5300
	1    0    0    -1  
$EndComp
$Comp
L myLib:MYCONN3 J1
U 1 1 6175DD87
P 7050 6550
F 0 "J1" H 6900 6350 50  0000 C CNN
F 1 "MYCONN3" H 6900 6750 50  0000 C CNN
F 2 "" H 6900 6350 50  0001 C CNN
F 3 "" H 6900 6350 50  0001 C CNN
	1    7050 6550
	1    0    0    -1  
$EndComp
$Comp
L power:VCC #PWR07
U 1 1 61760393
P 8150 5250
F 0 "#PWR07" H 8150 5100 50  0001 C CNN
F 1 "VCC" H 8165 5423 50  0000 C CNN
F 2 "" H 8150 5250 50  0001 C CNN
F 3 "" H 8150 5250 50  0001 C CNN
	1    8150 5250
	1    0    0    -1  
$EndComp
$Comp
L power:VCC #PWR05
U 1 1 61761712
P 7300 6350
F 0 "#PWR05" H 7300 6200 50  0001 C CNN
F 1 "VCC" H 7315 6523 50  0000 C CNN
F 2 "" H 7300 6350 50  0001 C CNN
F 3 "" H 7300 6350 50  0001 C CNN
	1    7300 6350
	1    0    0    -1  
$EndComp
$Comp
L power:GND #PWR06
U 1 1 61761DE4
P 7300 6800
F 0 "#PWR06" H 7300 6550 50  0001 C CNN
F 1 "GND" H 7305 6627 50  0000 C CNN
F 2 "" H 7300 6800 50  0001 C CNN
F 3 "" H 7300 6800 50  0001 C CNN
	1    7300 6800
	1    0    0    -1  
$EndComp
$Comp
L power:GND #PWR04
U 1 1 61762844
P 6150 6450
F 0 "#PWR04" H 6150 6200 50  0001 C CNN
F 1 "GND" H 6155 6277 50  0000 C CNN
F 2 "" H 6150 6450 50  0001 C CNN
F 3 "" H 6150 6450 50  0001 C CNN
	1    6150 6450
	1    0    0    -1  
$EndComp
$Comp
L power:VCC #PWR03
U 1 1 61762DCF
P 6150 5050
F 0 "#PWR03" H 6150 4900 50  0001 C CNN
F 1 "VCC" H 6165 5223 50  0000 C CNN
F 2 "" H 6150 5050 50  0001 C CNN
F 3 "" H 6150 5050 50  0001 C CNN
	1    6150 5050
	1    0    0    -1  
$EndComp
Wire Wire Line
	7150 5300 6850 5300
Wire Wire Line
	6850 5300 6850 5650
Wire Wire Line
	6850 5650 6750 5650
Wire Wire Line
	7450 5300 7650 5300
Wire Wire Line
	7950 5300 8150 5300
Wire Wire Line
	8150 5300 8150 5250
Wire Wire Line
	7200 6450 7300 6450
Wire Wire Line
	7300 6450 7300 6350
Wire Wire Line
	7200 6550 7700 6550
Wire Wire Line
	7300 6800 7300 6650
Wire Wire Line
	7300 6650 7200 6650
Wire Wire Line
	6150 6350 6150 6450
Wire Wire Line
	6150 5050 6150 5150
Text Label 8300 6550 2    50   ~ 0
INPUT
Wire Wire Line
	8000 6550 8300 6550
Text Label 7150 5750 2    50   ~ 0
INPUT
Wire Wire Line
	6750 5750 7150 5750
Text Label 7150 5300 2    50   ~ 0
uCtoLED
Text Label 7550 5300 3    50   ~ 0
LEDtoR
Text Label 7650 6550 2    50   ~ 0
INPUTtoR
NoConn ~ 5550 5650
NoConn ~ 5550 5750
NoConn ~ 5550 5850
NoConn ~ 6750 5850
$Comp
L power:PWR_FLAG #FLG01
U 1 1 61765F5F
P 5100 6550
F 0 "#FLG01" H 5100 6625 50  0001 C CNN
F 1 "PWR_FLAG" H 5100 6723 50  0000 C CNN
F 2 "" H 5100 6550 50  0001 C CNN
F 3 "~" H 5100 6550 50  0001 C CNN
	1    5100 6550
	1    0    0    -1  
$EndComp
$Comp
L power:PWR_FLAG #FLG02
U 1 1 61766397
P 5500 6550
F 0 "#FLG02" H 5500 6625 50  0001 C CNN
F 1 "PWR_FLAG" H 5500 6723 50  0000 C CNN
F 2 "" H 5500 6550 50  0001 C CNN
F 3 "~" H 5500 6550 50  0001 C CNN
	1    5500 6550
	1    0    0    -1  
$EndComp
$Comp
L power:GND #PWR01
U 1 1 617668F8
P 5100 6650
F 0 "#PWR01" H 5100 6400 50  0001 C CNN
F 1 "GND" H 5105 6477 50  0000 C CNN
F 2 "" H 5100 6650 50  0001 C CNN
F 3 "" H 5100 6650 50  0001 C CNN
	1    5100 6650
	1    0    0    -1  
$EndComp
$Comp
L power:VCC #PWR02
U 1 1 617671B7
P 5500 6650
F 0 "#PWR02" H 5500 6500 50  0001 C CNN
F 1 "VCC" H 5515 6823 50  0000 C CNN
F 2 "" H 5500 6650 50  0001 C CNN
F 3 "" H 5500 6650 50  0001 C CNN
	1    5500 6650
	-1   0    0    1   
$EndComp
Wire Wire Line
	5500 6650 5500 6550
Wire Wire Line
	5100 6650 5100 6550
$EndSCHEMATC
