EESchema Schematic File Version 4
EELAYER 30 0
EELAYER END
$Descr A 11000 8500
encoding utf-8
Sheet 1 1
Title ""
Date "2021-10-21"
Rev ""
Comp "МГТУ им. Н.Э. Баумана"
Comment1 ""
Comment2 "Хотин Д.Ю."
Comment3 "Хохлов С.А."
Comment4 ""
$EndDescr
$Comp
L Device:R R1
U 1 1 617299FE
P 6350 2450
F 0 "R1" V 6143 2450 50  0000 C CNN
F 1 "1 k" V 6234 2450 50  0000 C CNN
F 2 "Resistor_THT:R_Axial_DIN0207_L6.3mm_D2.5mm_P2.54mm_Vertical" V 6280 2450 50  0001 C CNN
F 3 "~" H 6350 2450 50  0001 C CNN
	1    6350 2450
	0    1    1    0   
$EndComp
$Comp
L Device:R R2
U 1 1 6172BC68
P 6525 4650
F 0 "R2" V 6318 4650 50  0000 C CNN
F 1 "100" V 6409 4650 50  0000 C CNN
F 2 "Resistor_THT:R_Axial_DIN0207_L6.3mm_D2.5mm_P2.54mm_Vertical" V 6455 4650 50  0001 C CNN
F 3 "~" H 6525 4650 50  0001 C CNN
	1    6525 4650
	0    1    1    0   
$EndComp
$Comp
L Device:LED D1
U 1 1 6172F26C
P 5925 2450
F 0 "D1" H 5918 2667 50  0000 C CNN
F 1 "LED" H 5918 2576 50  0000 C CNN
F 2 "LED_THT:LED_D5.0mm" H 5925 2450 50  0001 C CNN
F 3 "~" H 5925 2450 50  0001 C CNN
	1    5925 2450
	1    0    0    -1  
$EndComp
$Comp
L power:VCC #PWR05
U 1 1 618761BA
P 6700 2200
F 0 "#PWR05" H 6700 2050 50  0001 C CNN
F 1 "VCC" H 6715 2373 50  0000 C CNN
F 2 "" H 6700 2200 50  0001 C CNN
F 3 "" H 6700 2200 50  0001 C CNN
	1    6700 2200
	1    0    0    -1  
$EndComp
$Comp
L power:VCC #PWR01
U 1 1 61876D08
P 4100 1675
F 0 "#PWR01" H 4100 1525 50  0001 C CNN
F 1 "VCC" H 4115 1848 50  0000 C CNN
F 2 "" H 4100 1675 50  0001 C CNN
F 3 "" H 4100 1675 50  0001 C CNN
	1    4100 1675
	1    0    0    -1  
$EndComp
$Comp
L power:VCC #PWR04
U 1 1 618772B4
P 5375 4400
F 0 "#PWR04" H 5375 4250 50  0001 C CNN
F 1 "VCC" H 5390 4573 50  0000 C CNN
F 2 "" H 5375 4400 50  0001 C CNN
F 3 "" H 5375 4400 50  0001 C CNN
	1    5375 4400
	1    0    0    -1  
$EndComp
$Comp
L power:GND #PWR03
U 1 1 61877818
P 5300 4775
F 0 "#PWR03" H 5300 4525 50  0001 C CNN
F 1 "GND" H 5305 4602 50  0000 C CNN
F 2 "" H 5300 4775 50  0001 C CNN
F 3 "" H 5300 4775 50  0001 C CNN
	1    5300 4775
	1    0    0    -1  
$EndComp
$Comp
L power:GND #PWR02
U 1 1 618780CA
P 4325 3775
F 0 "#PWR02" H 4325 3525 50  0001 C CNN
F 1 "GND" H 4330 3602 50  0000 C CNN
F 2 "" H 4325 3775 50  0001 C CNN
F 3 "" H 4325 3775 50  0001 C CNN
	1    4325 3775
	1    0    0    -1  
$EndComp
Wire Wire Line
	6500 2450 6700 2450
Wire Wire Line
	6700 2450 6700 2200
Wire Wire Line
	5775 2425 5775 2450
Wire Wire Line
	6075 2450 6200 2450
Wire Wire Line
	6675 4650 6875 4650
Text Label 5500 2525 0    50   ~ 0
INPUT
Text Label 6725 4650 0    50   ~ 0
INPUT
Text Label 5500 2425 0    50   ~ 0
uCtoLED
Text Label 6125 2450 1    50   ~ 0
LEDtoR
Text Label 5625 4650 0    50   ~ 0
INPUTtoR
Text Notes 6000 2250 0    50   ~ 0
Comment
Wire Wire Line
	5300 4750 5300 4775
Wire Wire Line
	4100 1675 4100 1825
Wire Wire Line
	4100 1825 4325 1825
$Comp
L MCU_Microchip_PIC16:PIC16F18344-SS U2
U 1 1 61A4E7ED
P 4325 2925
F 0 "U2" H 4325 3806 50  0000 C CNN
F 1 "PIC16F18344-SS" H 4325 3715 50  0000 C CNN
F 2 "Package_SO:SSOP-20_5.3x7.2mm_P0.65mm" H 4325 2145 50  0001 C CNN
F 3 "http://ww1.microchip.com/downloads/en/devicedoc/40001800a.pdf" H 4325 2225 50  0001 C CNN
	1    4325 2925
	1    0    0    -1  
$EndComp
NoConn ~ 3525 3425
NoConn ~ 3525 3325
NoConn ~ 3525 3225
NoConn ~ 3525 3125
NoConn ~ 3525 2925
NoConn ~ 3525 2825
NoConn ~ 3525 2725
NoConn ~ 3525 2425
NoConn ~ 3525 2525
NoConn ~ 3525 2625
Wire Wire Line
	4325 3625 4325 3775
Wire Wire Line
	4325 2225 4325 1825
Wire Wire Line
	5125 2425 5775 2425
Wire Wire Line
	5125 2525 6150 2525
NoConn ~ 5125 2625
NoConn ~ 5125 2725
NoConn ~ 5125 2825
NoConn ~ 5125 2925
NoConn ~ 5125 3025
NoConn ~ 5125 3125
$Comp
L power:GND #PWR0101
U 1 1 61AA08C8
P 2975 4750
F 0 "#PWR0101" H 2975 4500 50  0001 C CNN
F 1 "GND" H 2980 4577 50  0000 C CNN
F 2 "" H 2975 4750 50  0001 C CNN
F 3 "" H 2975 4750 50  0001 C CNN
	1    2975 4750
	1    0    0    -1  
$EndComp
$Comp
L power:VCC #PWR0102
U 1 1 61AA1198
P 3300 4750
F 0 "#PWR0102" H 3300 4600 50  0001 C CNN
F 1 "VCC" H 3315 4923 50  0000 C CNN
F 2 "" H 3300 4750 50  0001 C CNN
F 3 "" H 3300 4750 50  0001 C CNN
	1    3300 4750
	-1   0    0    1   
$EndComp
$Comp
L power:PWR_FLAG #FLG0101
U 1 1 61AA31C2
P 3300 4575
F 0 "#FLG0101" H 3300 4650 50  0001 C CNN
F 1 "PWR_FLAG" H 3300 4748 50  0000 C CNN
F 2 "" H 3300 4575 50  0001 C CNN
F 3 "~" H 3300 4575 50  0001 C CNN
	1    3300 4575
	1    0    0    -1  
$EndComp
$Comp
L power:PWR_FLAG #FLG0102
U 1 1 61AA3B7A
P 2975 4550
F 0 "#FLG0102" H 2975 4625 50  0001 C CNN
F 1 "PWR_FLAG" H 2975 4723 50  0000 C CNN
F 2 "" H 2975 4550 50  0001 C CNN
F 3 "~" H 2975 4550 50  0001 C CNN
	1    2975 4550
	1    0    0    -1  
$EndComp
Wire Wire Line
	3300 4575 3300 4750
Wire Wire Line
	2975 4550 2975 4750
$Comp
L myLib:Connector X1
U 1 1 61A543EC
P 4600 4350
F 0 "X1" H 4850 4350 50  0000 L CNN
F 1 "Connector" H 4200 4350 50  0000 L CNN
F 2 "Connector:Banana_Jack_3Pin" H 4900 4350 50  0001 C CNN
F 3 "" H 4900 4350 50  0001 C CNN
	1    4600 4350
	1    0    0    -1  
$EndComp
Wire Wire Line
	5050 4550 5375 4550
Wire Wire Line
	5375 4550 5375 4400
Wire Wire Line
	5050 4650 6375 4650
Wire Wire Line
	5300 4750 5050 4750
$EndSCHEMATC
