EESchema Schematic File Version 4
EELAYER 30 0
EELAYER END
$Descr A3 16535 11693
encoding utf-8
Sheet 1 1
Title "Урок1"
Date ""
Rev ""
Comp ""
Comment1 ""
Comment2 "Прасолова"
Comment3 "Хохлов"
Comment4 ""
$EndDescr
$Comp
L Device:R R2
U 1 1 616EDF74
P 8050 4200
F 0 "R2" V 7843 4200 50  0000 C CNN
F 1 "1k" V 7934 4200 50  0000 C CNN
F 2 "Resistor_THT:R_Axial_DIN0204_L3.6mm_D1.6mm_P2.54mm_Vertical" V 7980 4200 50  0001 C CNN
F 3 "~" H 8050 4200 50  0001 C CNN
	1    8050 4200
	0    1    1    0   
$EndComp
$Comp
L Device:R R1
U 1 1 616EE51A
P 7300 5500
F 0 "R1" V 7093 5500 50  0000 C CNN
F 1 "100" V 7184 5500 50  0000 C CNN
F 2 "Resistor_THT:R_Axial_DIN0207_L6.3mm_D2.5mm_P2.54mm_Vertical" V 7230 5500 50  0001 C CNN
F 3 "~" H 7300 5500 50  0001 C CNN
	1    7300 5500
	0    1    1    0   
$EndComp
$Comp
L Device:LED D1
U 1 1 616EF685
P 7600 4200
F 0 "D1" H 7593 4417 50  0000 C CNN
F 1 "LED" H 7593 4326 50  0000 C CNN
F 2 "LED_THT:LED_D5.0mm" H 7600 4200 50  0001 C CNN
F 3 "~" H 7600 4200 50  0001 C CNN
	1    7600 4200
	1    0    0    -1  
$EndComp
$Comp
L power:VCC #PWR05
U 1 1 616EF5BE
P 6950 5300
F 0 "#PWR05" H 6950 5150 50  0001 C CNN
F 1 "VCC" H 6965 5473 50  0000 C CNN
F 2 "" H 6950 5300 50  0001 C CNN
F 3 "" H 6950 5300 50  0001 C CNN
	1    6950 5300
	1    0    0    -1  
$EndComp
$Comp
L power:VCC #PWR07
U 1 1 616F080D
P 8350 4100
F 0 "#PWR07" H 8350 3950 50  0001 C CNN
F 1 "VCC" H 8365 4273 50  0000 C CNN
F 2 "" H 8350 4100 50  0001 C CNN
F 3 "" H 8350 4100 50  0001 C CNN
	1    8350 4100
	1    0    0    -1  
$EndComp
$Comp
L power:GND #PWR06
U 1 1 616F18F1
P 6950 5750
F 0 "#PWR06" H 6950 5500 50  0001 C CNN
F 1 "GND" H 6955 5577 50  0000 C CNN
F 2 "" H 6950 5750 50  0001 C CNN
F 3 "" H 6950 5750 50  0001 C CNN
	1    6950 5750
	1    0    0    -1  
$EndComp
Wire Wire Line
	8350 4100 8350 4200
Wire Wire Line
	8350 4200 8200 4200
Wire Wire Line
	7900 4200 7750 4200
Wire Wire Line
	7450 4200 6700 4200
Wire Wire Line
	6800 5400 6950 5400
Wire Wire Line
	6950 5400 6950 5300
Wire Wire Line
	6800 5600 6950 5600
Wire Wire Line
	6950 5600 6950 5750
Wire Wire Line
	6800 5500 7150 5500
Wire Wire Line
	7450 5500 8000 5500
$Comp
L power:GND #PWR01
U 1 1 616F6344
P 5650 6100
F 0 "#PWR01" H 5650 5850 50  0001 C CNN
F 1 "GND" H 5655 5927 50  0000 C CNN
F 2 "" H 5650 6100 50  0001 C CNN
F 3 "" H 5650 6100 50  0001 C CNN
	1    5650 6100
	1    0    0    -1  
$EndComp
$Comp
L power:VCC #PWR02
U 1 1 616F6A29
P 5950 6150
F 0 "#PWR02" H 5950 6000 50  0001 C CNN
F 1 "VCC" H 5965 6323 50  0000 C CNN
F 2 "" H 5950 6150 50  0001 C CNN
F 3 "" H 5950 6150 50  0001 C CNN
	1    5950 6150
	1    0    0    -1  
$EndComp
$Comp
L power:PWR_FLAG #FLG02
U 1 1 616F6E9E
P 5950 6150
F 0 "#FLG02" H 5950 6225 50  0001 C CNN
F 1 "PWR_FLAG" H 5950 6323 50  0000 C CNN
F 2 "" H 5950 6150 50  0001 C CNN
F 3 "~" H 5950 6150 50  0001 C CNN
	1    5950 6150
	-1   0    0    1   
$EndComp
$Comp
L power:PWR_FLAG #FLG01
U 1 1 616F7546
P 5650 5900
F 0 "#FLG01" H 5650 5975 50  0001 C CNN
F 1 "PWR_FLAG" H 5650 6073 50  0000 C CNN
F 2 "" H 5650 5900 50  0001 C CNN
F 3 "~" H 5650 5900 50  0001 C CNN
	1    5650 5900
	1    0    0    -1  
$EndComp
Wire Wire Line
	5650 5900 5650 6100
Text Label 5450 4150 0    50   ~ 0
INPUT
Text Label 6800 5500 0    50   ~ 0
INPUTtoR
Text Label 7650 5500 0    50   ~ 0
INPUT
Text Label 6700 4100 0    50   ~ 0
uCtoLED
Text Label 7800 4200 1    50   ~ 0
LEDtoR
Wire Wire Line
	5350 4150 5450 4150
Wire Wire Line
	5350 4050 6700 4050
Wire Wire Line
	6700 4050 6700 4200
$Comp
L power:GND #PWR04
U 1 1 61789515
P 3850 5400
F 0 "#PWR04" H 3850 5150 50  0001 C CNN
F 1 "GND" H 3855 5227 50  0000 C CNN
F 2 "" H 3850 5400 50  0001 C CNN
F 3 "" H 3850 5400 50  0001 C CNN
	1    3850 5400
	1    0    0    -1  
$EndComp
$Comp
L power:VCC #PWR03
U 1 1 61789FB4
P 3850 3700
F 0 "#PWR03" H 3850 3550 50  0001 C CNN
F 1 "VCC" H 3865 3873 50  0000 C CNN
F 2 "" H 3850 3700 50  0001 C CNN
F 3 "" H 3850 3700 50  0001 C CNN
	1    3850 3700
	1    0    0    -1  
$EndComp
Wire Wire Line
	3850 3750 3850 3700
Wire Wire Line
	3850 5350 3850 5400
NoConn ~ 5350 4250
NoConn ~ 5350 4350
NoConn ~ 5350 4450
NoConn ~ 5350 4550
NoConn ~ 5350 4650
NoConn ~ 5350 4750
NoConn ~ 5350 4950
NoConn ~ 2350 5050
NoConn ~ 2350 4950
NoConn ~ 2350 4850
NoConn ~ 2350 4750
NoConn ~ 2350 4450
NoConn ~ 2350 4350
NoConn ~ 2350 4250
NoConn ~ 2350 4150
NoConn ~ 2350 4050
$Comp
L myLib:GostConnector X1
U 1 1 61791735
P 6550 5500
F 0 "X1" H 6742 5915 50  0000 C CNN
F 1 "GostConnector" H 6742 5824 50  0000 C CNN
F 2 "Connector:Banana_Jack_3Pin" H 6550 5500 50  0001 C CNN
F 3 "" H 6550 5500 50  0001 C CNN
	1    6550 5500
	-1   0    0    -1  
$EndComp
$Comp
L MCU_Microchip_PIC18:PIC18F13K50-ESS U1
U 1 1 6179B288
P 3850 4550
F 0 "U1" H 3850 5531 50  0000 C CNN
F 1 "PIC18F13K50-ESS" H 3850 5440 50  0000 C CNN
F 2 "Package_SO:SSOP-20_5.3x7.2mm_P0.65mm" H 3850 4550 50  0001 C CIN
F 3 "http://ww1.microchip.com/downloads/en/devicedoc/41350c.pdf" H 3850 4650 50  0001 C CNN
	1    3850 4550
	1    0    0    -1  
$EndComp
$EndSCHEMATC
