%TF.GenerationSoftware,KiCad,Pcbnew,(5.1.10)-1*%
%TF.CreationDate,2021-11-12T16:07:22+03:00*%
%TF.ProjectId,lab3,6c616233-2e6b-4696-9361-645f70636258,rev?*%
%TF.SameCoordinates,Original*%
%TF.FileFunction,Copper,L2,Inr*%
%TF.FilePolarity,Positive*%
%FSLAX46Y46*%
G04 Gerber Fmt 4.6, Leading zero omitted, Abs format (unit mm)*
G04 Created by KiCad (PCBNEW (5.1.10)-1) date 2021-11-12 16:07:22*
%MOMM*%
%LPD*%
G01*
G04 APERTURE LIST*
%TA.AperFunction,ComponentPad*%
%ADD10R,1.800000X1.800000*%
%TD*%
%TA.AperFunction,ComponentPad*%
%ADD11C,1.800000*%
%TD*%
%TA.AperFunction,ComponentPad*%
%ADD12C,10.160000*%
%TD*%
%TA.AperFunction,ComponentPad*%
%ADD13C,1.600000*%
%TD*%
%TA.AperFunction,ComponentPad*%
%ADD14O,1.600000X1.600000*%
%TD*%
%TA.AperFunction,ViaPad*%
%ADD15C,0.600000*%
%TD*%
G04 APERTURE END LIST*
D10*
%TO.N,/uCtoLED*%
%TO.C,D1*%
X107950000Y-90170000D03*
D11*
%TO.N,/LEDtoR*%
X105410000Y-90170000D03*
%TD*%
D12*
%TO.N,VCC*%
%TO.C,J1*%
X108200000Y-113030000D03*
%TO.N,GND*%
X138170000Y-113030000D03*
%TO.N,/INPUTtoR*%
X123190000Y-113030000D03*
%TD*%
D13*
%TO.N,/INPUT*%
%TO.C,R1*%
X137160000Y-92710000D03*
D14*
%TO.N,/INPUTtoR*%
X137160000Y-95250000D03*
%TD*%
D13*
%TO.N,/LEDtoR*%
%TO.C,R2*%
X105410000Y-99060000D03*
D14*
%TO.N,VCC*%
X107950000Y-99060000D03*
%TD*%
D15*
%TO.N,GND*%
X126238000Y-97028000D03*
X117348000Y-96520000D03*
%TD*%
M02*
