%TF.GenerationSoftware,KiCad,Pcbnew,(5.1.10)-1*%
%TF.CreationDate,2021-11-12T16:07:40+03:00*%
%TF.ProjectId,KiCad_lab3,4b694361-645f-46c6-9162-332e6b696361,rev?*%
%TF.SameCoordinates,Original*%
%TF.FileFunction,Soldermask,Top*%
%TF.FilePolarity,Negative*%
%FSLAX46Y46*%
G04 Gerber Fmt 4.6, Leading zero omitted, Abs format (unit mm)*
G04 Created by KiCad (PCBNEW (5.1.10)-1) date 2021-11-12 16:07:40*
%MOMM*%
%LPD*%
G01*
G04 APERTURE LIST*
%ADD10R,1.800000X1.800000*%
%ADD11C,1.800000*%
%ADD12C,1.600000*%
%ADD13O,1.600000X1.600000*%
%ADD14R,1.600000X1.600000*%
%ADD15C,10.160000*%
G04 APERTURE END LIST*
D10*
%TO.C,D1*%
X162800000Y-113525000D03*
D11*
X160260000Y-113525000D03*
%TD*%
D12*
%TO.C,R1*%
X160250000Y-126500000D03*
D13*
X162790000Y-126500000D03*
%TD*%
%TO.C,R2*%
X171850000Y-122640000D03*
D12*
X171850000Y-120100000D03*
%TD*%
D14*
%TO.C,U1*%
X184275000Y-99200000D03*
D13*
X191895000Y-119520000D03*
X184275000Y-101740000D03*
X191895000Y-116980000D03*
X184275000Y-104280000D03*
X191895000Y-114440000D03*
X184275000Y-106820000D03*
X191895000Y-111900000D03*
X184275000Y-109360000D03*
X191895000Y-109360000D03*
X184275000Y-111900000D03*
X191895000Y-106820000D03*
X184275000Y-114440000D03*
X191895000Y-104280000D03*
X184275000Y-116980000D03*
X191895000Y-101740000D03*
X184275000Y-119520000D03*
X191895000Y-99200000D03*
%TD*%
D15*
%TO.C,X1*%
X173710000Y-140900000D03*
X203680000Y-140900000D03*
X188700000Y-140900000D03*
%TD*%
M02*
