EESchema Schematic File Version 4
EELAYER 30 0
EELAYER END
$Descr A3 16535 11693
encoding utf-8
Sheet 1 1
Title "Урок 1"
Date ""
Rev ""
Comp ""
Comment1 ""
Comment2 ""
Comment3 ""
Comment4 ""
$EndDescr
$Comp
L Device:LED D1
U 1 1 616C42EE
P 8200 4500
F 0 "D1" H 8193 4717 50  0000 C CNN
F 1 "LED" H 8193 4626 50  0000 C CNN
F 2 "LED_THT:LED_D5.0mm" H 8200 4500 50  0001 C CNN
F 3 "~" H 8200 4500 50  0001 C CNN
F 4 "Диоды" H 8200 4500 60  0001 C CNN "Группа"
	1    8200 4500
	1    0    0    -1  
$EndComp
$Comp
L Device:R R1
U 1 1 616C2766
P 8700 4500
F 0 "R1" V 8907 4500 50  0000 C CNN
F 1 "1k" V 8816 4500 50  0000 C CNN
F 2 "Resistor_THT:R_Axial_DIN0207_L6.3mm_D2.5mm_P2.54mm_Vertical" V 8630 4500 50  0001 C CNN
F 3 "~" H 8700 4500 50  0001 C CNN
F 4 "Резисторы" H 8700 4500 60  0001 C CNN "Группа"
	1    8700 4500
	0    -1   -1   0   
$EndComp
$Comp
L Device:R R2
U 1 1 6169D54C
P 9350 5800
F 0 "R2" V 9557 5800 50  0000 C CNN
F 1 "100" V 9466 5800 50  0000 C CNN
F 2 "Resistor_THT:R_Axial_DIN0207_L6.3mm_D2.5mm_P2.54mm_Vertical" V 9280 5800 50  0001 C CNN
F 3 "~" H 9350 5800 50  0001 C CNN
F 4 "Резисторы" H 9350 5800 60  0001 C CNN "Группа"
	1    9350 5800
	0    1    -1   0   
$EndComp
$Comp
L power:VCC #PWR05
U 1 1 616C95E0
P 8750 5600
F 0 "#PWR05" H 8750 5450 50  0001 C CNN
F 1 "VCC" H 8765 5773 50  0000 C CNN
F 2 "" H 8750 5600 50  0001 C CNN
F 3 "" H 8750 5600 50  0001 C CNN
	1    8750 5600
	1    0    0    -1  
$EndComp
$Comp
L power:GND #PWR06
U 1 1 616CA566
P 8750 6000
F 0 "#PWR06" H 8750 5750 50  0001 C CNN
F 1 "GND" H 8755 5827 50  0000 C CNN
F 2 "" H 8750 6000 50  0001 C CNN
F 3 "" H 8750 6000 50  0001 C CNN
	1    8750 6000
	1    0    0    -1  
$EndComp
$Comp
L power:VCC #PWR01
U 1 1 616CB24F
P 6300 3800
F 0 "#PWR01" H 6300 3650 50  0001 C CNN
F 1 "VCC" H 6315 3973 50  0000 C CNN
F 2 "" H 6300 3800 50  0001 C CNN
F 3 "" H 6300 3800 50  0001 C CNN
	1    6300 3800
	1    0    0    -1  
$EndComp
$Comp
L power:VCC #PWR07
U 1 1 616CB80C
P 8950 4400
F 0 "#PWR07" H 8950 4250 50  0001 C CNN
F 1 "VCC" H 8965 4573 50  0000 C CNN
F 2 "" H 8950 4400 50  0001 C CNN
F 3 "" H 8950 4400 50  0001 C CNN
	1    8950 4400
	1    0    0    -1  
$EndComp
$Comp
L power:GND #PWR02
U 1 1 616CC644
P 6300 6100
F 0 "#PWR02" H 6300 5850 50  0001 C CNN
F 1 "GND" H 6305 5927 50  0000 C CNN
F 2 "" H 6300 6100 50  0001 C CNN
F 3 "" H 6300 6100 50  0001 C CNN
	1    6300 6100
	1    0    0    -1  
$EndComp
Wire Wire Line
	8050 4500 7950 4500
Wire Wire Line
	7950 4500 7950 4900
Wire Wire Line
	8750 5600 8750 5700
Wire Wire Line
	8750 5700 8450 5700
Wire Wire Line
	8750 6000 8750 5900
Wire Wire Line
	8750 5900 8450 5900
Wire Wire Line
	8550 4500 8350 4500
Wire Wire Line
	8950 4400 8950 4500
Wire Wire Line
	8950 4500 8850 4500
Text Label 8100 5000 0    50   ~ 0
INPUT
Text Label 9600 5800 0    50   ~ 0
INPUT
Text Label 7950 4750 0    50   ~ 0
uCtoLED
Text Label 8450 4500 3    50   ~ 0
LEDtoR
Text Label 8800 5800 0    50   ~ 0
INPUTtoR
Wire Wire Line
	8450 5800 9200 5800
Wire Wire Line
	9500 5800 10000 5800
$Comp
L power:VCC #PWR03
U 1 1 616D2F9A
P 7200 3900
F 0 "#PWR03" H 7200 3750 50  0001 C CNN
F 1 "VCC" H 7215 4073 50  0000 C CNN
F 2 "" H 7200 3900 50  0001 C CNN
F 3 "" H 7200 3900 50  0001 C CNN
	1    7200 3900
	-1   0    0    1   
$EndComp
$Comp
L power:GND #PWR04
U 1 1 616D3537
P 7650 3900
F 0 "#PWR04" H 7650 3650 50  0001 C CNN
F 1 "GND" H 7655 3727 50  0000 C CNN
F 2 "" H 7650 3900 50  0001 C CNN
F 3 "" H 7650 3900 50  0001 C CNN
	1    7650 3900
	1    0    0    -1  
$EndComp
$Comp
L power:PWR_FLAG #FLG01
U 1 1 616D4756
P 7200 3650
F 0 "#FLG01" H 7200 3725 50  0001 C CNN
F 1 "PWR_FLAG" H 7200 3823 50  0000 C CNN
F 2 "" H 7200 3650 50  0001 C CNN
F 3 "~" H 7200 3650 50  0001 C CNN
	1    7200 3650
	1    0    0    -1  
$EndComp
Wire Wire Line
	7200 3650 7200 3900
$Comp
L power:PWR_FLAG #FLG02
U 1 1 616D5460
P 7650 3650
F 0 "#FLG02" H 7650 3725 50  0001 C CNN
F 1 "PWR_FLAG" H 7650 3823 50  0000 C CNN
F 2 "" H 7650 3650 50  0001 C CNN
F 3 "~" H 7650 3650 50  0001 C CNN
	1    7650 3650
	1    0    0    -1  
$EndComp
Wire Wire Line
	7650 3650 7650 3900
Wire Wire Line
	7100 5000 8350 5000
Wire Wire Line
	7950 4900 7100 4900
$Comp
L mylib:MYCONN3_GOST X1
U 1 1 617A9C49
P 8050 5550
F 0 "X1" H 8300 5600 50  0000 C CNN
F 1 "MYCONN3_GOST" H 7950 5600 50  0000 C CNN
F 2 "Connector:Banana_Jack_3Pin" H 8050 5100 50  0001 C CNN
F 3 "" H 8050 5100 50  0001 C CNN
F 4 "Разъёмы" H 8050 5550 60  0001 C CNN "Группа"
	1    8050 5550
	1    0    0    -1  
$EndComp
$Comp
L MCU_Microchip_PIC16:PIC16F54-IP U1
U 1 1 617ADF7D
P 6300 5000
F 0 "U1" H 6300 6081 50  0000 C CNN
F 1 "PIC16F54-IP" H 6300 5990 50  0000 C CNN
F 2 "Package_DIP:DIP-18_W7.62mm" H 6300 5000 50  0001 C CIN
F 3 "http://ww1.microchip.com/downloads/en/DeviceDoc/41213D.pdf" H 6300 5000 50  0001 C CNN
F 4 "Микросхемы" H 6300 5000 60  0001 C CNN "Группа"
	1    6300 5000
	1    0    0    -1  
$EndComp
Wire Wire Line
	6300 5900 6300 6100
Wire Wire Line
	6300 3800 6300 4100
NoConn ~ 5500 4400
NoConn ~ 5500 4600
NoConn ~ 5500 4800
NoConn ~ 5500 5100
NoConn ~ 7100 4400
NoConn ~ 7100 4500
NoConn ~ 7100 4600
NoConn ~ 7100 4700
NoConn ~ 7100 5100
NoConn ~ 7100 5200
NoConn ~ 7100 5300
NoConn ~ 7100 5400
NoConn ~ 7100 5500
NoConn ~ 7100 5600
$EndSCHEMATC
