%TF.GenerationSoftware,KiCad,Pcbnew,(5.1.10)-1*%
%TF.CreationDate,2021-11-12T16:07:40+03:00*%
%TF.ProjectId,KiCad_lab3,4b694361-645f-46c6-9162-332e6b696361,rev?*%
%TF.SameCoordinates,Original*%
%TF.FileFunction,Profile,NP*%
%FSLAX46Y46*%
G04 Gerber Fmt 4.6, Leading zero omitted, Abs format (unit mm)*
G04 Created by KiCad (PCBNEW (5.1.10)-1) date 2021-11-12 16:07:40*
%MOMM*%
%LPD*%
G01*
G04 APERTURE LIST*
%TA.AperFunction,Profile*%
%ADD10C,0.050000*%
%TD*%
G04 APERTURE END LIST*
D10*
X152400000Y-85090000D02*
X152400000Y-149860000D01*
X229870000Y-85090000D02*
X152400000Y-85090000D01*
X229870000Y-149860000D02*
X229870000Y-85090000D01*
X152400000Y-149860000D02*
X229870000Y-149860000D01*
M02*
