EESchema Schematic File Version 4
EELAYER 30 0
EELAYER END
$Descr A3 16535 11693
encoding utf-8
Sheet 1 1
Title "Урок 1"
Date ""
Rev ""
Comp ""
Comment1 ""
Comment2 "Подлевский В. П."
Comment3 "Хохлов С. А."
Comment4 ""
$EndDescr
$Comp
L Device:R R1
U 1 1 6169666F
P 9050 4400
F 0 "R1" V 8843 4400 50  0000 C CNN
F 1 "1 k" V 8934 4400 50  0000 C CNN
F 2 "Resistor_THT:R_Array_SIP4" V 8980 4400 50  0001 C CNN
F 3 "~" H 9050 4400 50  0001 C CNN
	1    9050 4400
	0    1    1    0   
$EndComp
$Comp
L power:VCC #PWR07
U 1 1 6169AE69
P 9350 4200
F 0 "#PWR07" H 9350 4050 50  0001 C CNN
F 1 "VCC" H 9365 4373 50  0000 C CNN
F 2 "" H 9350 4200 50  0001 C CNN
F 3 "" H 9350 4200 50  0001 C CNN
	1    9350 4200
	1    0    0    -1  
$EndComp
$Comp
L power:VCC #PWR03
U 1 1 6169B4C4
P 7000 3250
F 0 "#PWR03" H 7000 3100 50  0001 C CNN
F 1 "VCC" H 7015 3423 50  0000 C CNN
F 2 "" H 7000 3250 50  0001 C CNN
F 3 "" H 7000 3250 50  0001 C CNN
	1    7000 3250
	1    0    0    -1  
$EndComp
$Comp
L power:VCC #PWR05
U 1 1 6169B903
P 4800 5300
F 0 "#PWR05" H 4800 5150 50  0001 C CNN
F 1 "VCC" H 4815 5473 50  0000 C CNN
F 2 "" H 4800 5300 50  0001 C CNN
F 3 "" H 4800 5300 50  0001 C CNN
	1    4800 5300
	1    0    0    -1  
$EndComp
$Comp
L power:GND #PWR06
U 1 1 6169C03C
P 4800 5900
F 0 "#PWR06" H 4800 5650 50  0001 C CNN
F 1 "GND" H 4805 5727 50  0000 C CNN
F 2 "" H 4800 5900 50  0001 C CNN
F 3 "" H 4800 5900 50  0001 C CNN
	1    4800 5900
	1    0    0    -1  
$EndComp
$Comp
L power:GND #PWR04
U 1 1 6169C71F
P 6900 6050
F 0 "#PWR04" H 6900 5800 50  0001 C CNN
F 1 "GND" H 6905 5877 50  0000 C CNN
F 2 "" H 6900 6050 50  0001 C CNN
F 3 "" H 6900 6050 50  0001 C CNN
	1    6900 6050
	1    0    0    -1  
$EndComp
Wire Wire Line
	8000 4500 8200 4500
Wire Wire Line
	8200 4500 8200 4400
Wire Wire Line
	8200 4400 8450 4400
Wire Wire Line
	9350 4200 9350 4400
Wire Wire Line
	9350 4400 9200 4400
Wire Wire Line
	6900 5900 6900 6050
Wire Wire Line
	8000 4100 8750 4100
Text Label 8400 4100 0    50   ~ 0
INPUT
Text Label 8200 4400 0    50   ~ 0
uCtoLED
Text Label 8850 4400 1    50   ~ 0
LEDtoR
Wire Wire Line
	8900 4400 8750 4400
$Comp
L Device:LED D1
U 1 1 616980F1
P 8600 4400
F 0 "D1" H 8593 4617 50  0000 C CNN
F 1 "LED" H 8593 4526 50  0000 C CNN
F 2 "LED_SMD:LED_1W_3W_R8" H 8600 4400 50  0001 C CNN
F 3 "~" H 8600 4400 50  0001 C CNN
	1    8600 4400
	1    0    0    -1  
$EndComp
$Comp
L power:PWR_FLAG #FLG01
U 1 1 616A271F
P 1850 5550
F 0 "#FLG01" H 1850 5625 50  0001 C CNN
F 1 "PWR_FLAG" H 1850 5723 50  0000 C CNN
F 2 "" H 1850 5550 50  0001 C CNN
F 3 "~" H 1850 5550 50  0001 C CNN
	1    1850 5550
	1    0    0    -1  
$EndComp
$Comp
L power:PWR_FLAG #FLG02
U 1 1 616A3120
P 2300 5500
F 0 "#FLG02" H 2300 5575 50  0001 C CNN
F 1 "PWR_FLAG" H 2300 5673 50  0000 C CNN
F 2 "" H 2300 5500 50  0001 C CNN
F 3 "~" H 2300 5500 50  0001 C CNN
	1    2300 5500
	1    0    0    -1  
$EndComp
$Comp
L power:GND #PWR01
U 1 1 616A3731
P 1850 5700
F 0 "#PWR01" H 1850 5450 50  0001 C CNN
F 1 "GND" H 1855 5527 50  0000 C CNN
F 2 "" H 1850 5700 50  0001 C CNN
F 3 "" H 1850 5700 50  0001 C CNN
	1    1850 5700
	1    0    0    -1  
$EndComp
$Comp
L power:VCC #PWR02
U 1 1 616A3C84
P 2300 5700
F 0 "#PWR02" H 2300 5550 50  0001 C CNN
F 1 "VCC" H 2315 5873 50  0000 C CNN
F 2 "" H 2300 5700 50  0001 C CNN
F 3 "" H 2300 5700 50  0001 C CNN
	1    2300 5700
	1    0    0    1   
$EndComp
Wire Wire Line
	1850 5550 1850 5700
Wire Wire Line
	2300 5500 2300 5700
Wire Wire Line
	7000 3250 7000 3400
$Comp
L myLib:Разъем X1
U 1 1 61737B39
P 3950 5400
F 0 "X1" H 4067 5723 50  0000 C CNN
F 1 "Разъем" H 3450 5700 50  0001 C CNN
F 2 "Connector:Banana_Jack_3Pin" H 3950 5700 50  0001 C CNN
F 3 "" H 3950 5700 50  0001 C CNN
	1    3950 5400
	-1   0    0    -1  
$EndComp
Wire Wire Line
	4400 5700 4800 5700
Wire Wire Line
	4400 5400 4800 5400
Text Label 5450 5550 0    50   ~ 0
INPUT
Wire Wire Line
	5300 5550 5700 5550
$Comp
L Device:R R2
U 1 1 61696B34
P 5150 5550
F 0 "R2" V 4943 5550 50  0000 C CNN
F 1 "100" V 5034 5550 50  0000 C CNN
F 2 "Resistor_THT:R_Array_SIP4" V 5080 5550 50  0001 C CNN
F 3 "~" H 5150 5550 50  0001 C CNN
	1    5150 5550
	0    1    1    0   
$EndComp
Wire Wire Line
	4400 5550 5000 5550
Text Label 4550 5550 0    50   ~ 0
INPUTtoR
Wire Wire Line
	4800 5700 4800 5900
Wire Wire Line
	4800 5300 4800 5400
$Comp
L MCU_Microchip_PIC18:PIC18F24K50-xSO U1
U 1 1 6173A050
P 7000 4700
F 0 "U1" H 7000 6181 50  0000 C CNN
F 1 "PIC18F24K50-xSO" H 7000 6090 50  0000 C CNN
F 2 "Package_SO:SOIC-28W_7.5x17.9mm_P1.27mm" H 7000 4700 50  0001 C CIN
F 3 "http://ww1.microchip.com/downloads/en/devicedoc/30000684B.pdf" H 4100 3350 50  0001 C CNN
	1    7000 4700
	1    0    0    -1  
$EndComp
NoConn ~ 8000 3800
NoConn ~ 8000 3900
NoConn ~ 8000 4000
NoConn ~ 8000 4200
NoConn ~ 8000 4300
NoConn ~ 8000 4400
NoConn ~ 8000 5000
NoConn ~ 8000 5100
NoConn ~ 8000 4900
NoConn ~ 8000 5500
NoConn ~ 7000 5900
NoConn ~ 6000 5300
NoConn ~ 6000 5200
NoConn ~ 6000 5100
NoConn ~ 6000 5000
NoConn ~ 6000 4900
NoConn ~ 6000 4500
NoConn ~ 6000 4400
NoConn ~ 6000 4300
NoConn ~ 6000 4200
NoConn ~ 6000 4100
NoConn ~ 6000 4000
NoConn ~ 6000 3900
NoConn ~ 6000 3800
$EndSCHEMATC
