EESchema Schematic File Version 4
EELAYER 30 0
EELAYER END
$Descr A3 16535 11693
encoding utf-8
Sheet 1 1
Title "Урок 1"
Date ""
Rev ""
Comp ""
Comment1 ""
Comment2 ""
Comment3 ""
Comment4 ""
$EndDescr
$Comp
L Device:LED D1
U 1 1 616C42EE
P 7500 4500
F 0 "D1" H 7493 4717 50  0000 C CNN
F 1 "LED" H 7493 4626 50  0000 C CNN
F 2 "" H 7500 4500 50  0001 C CNN
F 3 "~" H 7500 4500 50  0001 C CNN
	1    7500 4500
	1    0    0    -1  
$EndComp
$Comp
L Device:R R1
U 1 1 616C2766
P 8000 4500
F 0 "R1" V 8207 4500 50  0000 C CNN
F 1 "1k" V 8116 4500 50  0000 C CNN
F 2 "" V 7930 4500 50  0001 C CNN
F 3 "~" H 8000 4500 50  0001 C CNN
	1    8000 4500
	0    -1   -1   0   
$EndComp
$Comp
L Device:R R2
U 1 1 6169D54C
P 8150 5850
F 0 "R2" V 8357 5850 50  0000 C CNN
F 1 "100" V 8266 5850 50  0000 C CNN
F 2 "" V 8080 5850 50  0001 C CNN
F 3 "~" H 8150 5850 50  0001 C CNN
	1    8150 5850
	0    1    -1   0   
$EndComp
$Comp
L New_Library:MYCONN3 J1
U 1 1 616C66ED
P 7050 5650
F 0 "J1" H 7200 5250 50  0000 C CNN
F 1 "MYCONN3" H 7050 5650 50  0000 C CNN
F 2 "" H 7050 5250 50  0001 C CNN
F 3 "" H 7050 5250 50  0001 C CNN
	1    7050 5650
	1    0    0    -1  
$EndComp
$Comp
L MCU_Microchip_PIC12:PIC12C508A-ISN U1
U 1 1 616C36F9
P 6550 5000
F 0 "U1" H 6550 5781 50  0000 C CNN
F 1 "PIC12C508A-ISN" H 6550 5690 50  0000 C CNN
F 2 "Package_DIP:DIP-8_W7.62mm" H 7150 5650 50  0001 C CNN
F 3 "http://ww1.microchip.com/downloads/en/devicedoc/40139e.pdf" H 6550 5000 50  0001 C CNN
	1    6550 5000
	-1   0    0    -1  
$EndComp
$Comp
L power:VCC #PWR05
U 1 1 616C95E0
P 7550 5650
F 0 "#PWR05" H 7550 5500 50  0001 C CNN
F 1 "VCC" H 7565 5823 50  0000 C CNN
F 2 "" H 7550 5650 50  0001 C CNN
F 3 "" H 7550 5650 50  0001 C CNN
	1    7550 5650
	1    0    0    -1  
$EndComp
$Comp
L power:GND #PWR06
U 1 1 616CA566
P 7550 6050
F 0 "#PWR06" H 7550 5800 50  0001 C CNN
F 1 "GND" H 7555 5877 50  0000 C CNN
F 2 "" H 7550 6050 50  0001 C CNN
F 3 "" H 7550 6050 50  0001 C CNN
	1    7550 6050
	1    0    0    -1  
$EndComp
$Comp
L power:VCC #PWR01
U 1 1 616CB24F
P 6550 4050
F 0 "#PWR01" H 6550 3900 50  0001 C CNN
F 1 "VCC" H 6565 4223 50  0000 C CNN
F 2 "" H 6550 4050 50  0001 C CNN
F 3 "" H 6550 4050 50  0001 C CNN
	1    6550 4050
	1    0    0    -1  
$EndComp
$Comp
L power:VCC #PWR07
U 1 1 616CB80C
P 8250 4400
F 0 "#PWR07" H 8250 4250 50  0001 C CNN
F 1 "VCC" H 8265 4573 50  0000 C CNN
F 2 "" H 8250 4400 50  0001 C CNN
F 3 "" H 8250 4400 50  0001 C CNN
	1    8250 4400
	1    0    0    -1  
$EndComp
$Comp
L power:GND #PWR02
U 1 1 616CC644
P 6550 5750
F 0 "#PWR02" H 6550 5500 50  0001 C CNN
F 1 "GND" H 6555 5577 50  0000 C CNN
F 2 "" H 6550 5750 50  0001 C CNN
F 3 "" H 6550 5750 50  0001 C CNN
	1    6550 5750
	1    0    0    -1  
$EndComp
Wire Wire Line
	7350 4500 7250 4500
Wire Wire Line
	7250 4500 7250 4900
Wire Wire Line
	7250 4900 7150 4900
Wire Wire Line
	6550 4050 6550 4400
Wire Wire Line
	6550 5600 6550 5750
Wire Wire Line
	7550 5650 7550 5750
Wire Wire Line
	7550 5750 7350 5750
Wire Wire Line
	7550 6050 7550 5950
Wire Wire Line
	7550 5950 7350 5950
Wire Wire Line
	7150 5000 7650 5000
Wire Wire Line
	7850 4500 7650 4500
Wire Wire Line
	8250 4400 8250 4500
Wire Wire Line
	8250 4500 8150 4500
Text Label 7400 5000 0    50   ~ 0
INPUT
Text Label 8400 5850 0    50   ~ 0
INPUT
Text Label 7250 4750 0    50   ~ 0
uCtoLED
Text Label 7750 4500 3    50   ~ 0
LEDtoR
Text Label 7600 5850 0    50   ~ 0
INPUTtoR
Wire Wire Line
	7350 5850 8000 5850
Wire Wire Line
	8300 5850 8800 5850
NoConn ~ 5950 4900
NoConn ~ 5950 5000
NoConn ~ 5950 5100
NoConn ~ 7150 5100
$Comp
L power:VCC #PWR03
U 1 1 616D2F9A
P 6750 3550
F 0 "#PWR03" H 6750 3400 50  0001 C CNN
F 1 "VCC" H 6765 3723 50  0000 C CNN
F 2 "" H 6750 3550 50  0001 C CNN
F 3 "" H 6750 3550 50  0001 C CNN
	1    6750 3550
	-1   0    0    1   
$EndComp
$Comp
L power:GND #PWR04
U 1 1 616D3537
P 7200 3550
F 0 "#PWR04" H 7200 3300 50  0001 C CNN
F 1 "GND" H 7205 3377 50  0000 C CNN
F 2 "" H 7200 3550 50  0001 C CNN
F 3 "" H 7200 3550 50  0001 C CNN
	1    7200 3550
	1    0    0    -1  
$EndComp
$Comp
L power:PWR_FLAG #FLG01
U 1 1 616D4756
P 6750 3300
F 0 "#FLG01" H 6750 3375 50  0001 C CNN
F 1 "PWR_FLAG" H 6750 3473 50  0000 C CNN
F 2 "" H 6750 3300 50  0001 C CNN
F 3 "~" H 6750 3300 50  0001 C CNN
	1    6750 3300
	1    0    0    -1  
$EndComp
Wire Wire Line
	6750 3300 6750 3550
$Comp
L power:PWR_FLAG #FLG02
U 1 1 616D5460
P 7200 3300
F 0 "#FLG02" H 7200 3375 50  0001 C CNN
F 1 "PWR_FLAG" H 7200 3473 50  0000 C CNN
F 2 "" H 7200 3300 50  0001 C CNN
F 3 "~" H 7200 3300 50  0001 C CNN
	1    7200 3300
	1    0    0    -1  
$EndComp
Wire Wire Line
	7200 3300 7200 3550
$EndSCHEMATC
