EESchema Schematic File Version 4
EELAYER 30 0
EELAYER END
$Descr A3 16535 11693
encoding utf-8
Sheet 1 1
Title "Урок 1"
Date ""
Rev ""
Comp ""
Comment1 ""
Comment2 ""
Comment3 ""
Comment4 ""
$EndDescr
$Comp
L Microchip_pic12mcu:PIC12C508A-ISN U1
U 1 1 61720B3C
P 8150 4300
F 0 "U1" H 8150 5081 50  0000 C CNN
F 1 "PIC12C508A-ISN" H 8550 4850 50  0000 C CNN
F 2 "Package_DIP:DIP-8_W7.62mm" H 8750 4950 50  0001 C CNN
F 3 "http://ww1.microchip.com/downloads/en/devicedoc/40139e.pdf" H 8150 4300 50  0001 C CNN
	1    8150 4300
	-1   0    0    -1  
$EndComp
$Comp
L Device:LED D1
U 1 1 617223BA
P 9400 4100
F 0 "D1" H 9393 4317 50  0000 C CNN
F 1 "LED" H 9393 4226 50  0000 C CNN
F 2 "" H 9400 4100 50  0001 C CNN
F 3 "~" H 9400 4100 50  0001 C CNN
	1    9400 4100
	1    0    0    -1  
$EndComp
$Comp
L power:VCC #PWR02
U 1 1 6172C82A
P 8250 3650
F 0 "#PWR02" H 8250 3500 50  0001 C CNN
F 1 "VCC" H 8265 3823 50  0000 C CNN
F 2 "" H 8250 3650 50  0001 C CNN
F 3 "" H 8250 3650 50  0001 C CNN
	1    8250 3650
	1    0    0    -1  
$EndComp
$Comp
L power:VCC #PWR05
U 1 1 6172CCC6
P 10250 4550
F 0 "#PWR05" H 10250 4400 50  0001 C CNN
F 1 "VCC" H 10265 4723 50  0000 C CNN
F 2 "" H 10250 4550 50  0001 C CNN
F 3 "" H 10250 4550 50  0001 C CNN
	1    10250 4550
	1    0    0    -1  
$EndComp
$Comp
L power:GND #PWR01
U 1 1 6172D01F
P 8200 4950
F 0 "#PWR01" H 8200 4700 50  0001 C CNN
F 1 "GND" H 8205 4777 50  0000 C CNN
F 2 "" H 8200 4950 50  0001 C CNN
F 3 "" H 8200 4950 50  0001 C CNN
	1    8200 4950
	1    0    0    -1  
$EndComp
Wire Wire Line
	8750 4200 9000 4200
Wire Wire Line
	9000 4200 9000 4100
Wire Wire Line
	9000 4100 9250 4100
Wire Wire Line
	9850 4100 9550 4100
Wire Wire Line
	9350 4300 8750 4300
Text Label 11250 4650 0    50   ~ 0
input
Text Label 9350 4300 0    50   ~ 0
input
Text Label 9000 4150 0    50   ~ 0
uCtoLED
Text Label 9600 4100 1    50   ~ 0
LEDtoR
Wire Wire Line
	8150 3700 8250 3700
Wire Wire Line
	8250 3700 8250 3650
Wire Wire Line
	8150 4900 8150 4950
Wire Wire Line
	8150 4950 8200 4950
$Comp
L Device:R R1
U 1 1 6171B20A
P 10000 4100
F 0 "R1" H 10070 4146 50  0000 L CNN
F 1 "1 k" H 10070 4055 50  0000 L CNN
F 2 "" V 9930 4100 50  0001 C CNN
F 3 "~" H 10000 4100 50  0001 C CNN
	1    10000 4100
	0    -1   -1   0   
$EndComp
$Comp
L power:VCC #PWR06
U 1 1 617354EB
P 10300 4050
F 0 "#PWR06" H 10300 3900 50  0001 C CNN
F 1 "VCC" H 10315 4223 50  0000 C CNN
F 2 "" H 10300 4050 50  0001 C CNN
F 3 "" H 10300 4050 50  0001 C CNN
	1    10300 4050
	1    0    0    -1  
$EndComp
Wire Wire Line
	10300 4050 10300 4100
Wire Wire Line
	10300 4100 10150 4100
$Comp
L power:GND #PWR07
U 1 1 61735D11
P 10350 4900
F 0 "#PWR07" H 10350 4650 50  0001 C CNN
F 1 "GND" H 10355 4727 50  0000 C CNN
F 2 "" H 10350 4900 50  0001 C CNN
F 3 "" H 10350 4900 50  0001 C CNN
	1    10350 4900
	1    0    0    -1  
$EndComp
Wire Wire Line
	10350 4750 10350 4900
NoConn ~ 7550 4200
NoConn ~ 7550 4300
NoConn ~ 7550 4400
NoConn ~ 8750 4400
NoConn ~ 9450 5000
$Comp
L power:PWR_FLAG #FLG01
U 1 1 61736D50
P 9000 5350
F 0 "#FLG01" H 9000 5425 50  0001 C CNN
F 1 "PWR_FLAG" H 9000 5523 50  0000 C CNN
F 2 "" H 9000 5350 50  0001 C CNN
F 3 "~" H 9000 5350 50  0001 C CNN
	1    9000 5350
	1    0    0    -1  
$EndComp
$Comp
L power:PWR_FLAG #FLG02
U 1 1 617372E1
P 9450 5350
F 0 "#FLG02" H 9450 5425 50  0001 C CNN
F 1 "PWR_FLAG" H 9450 5523 50  0000 C CNN
F 2 "" H 9450 5350 50  0001 C CNN
F 3 "~" H 9450 5350 50  0001 C CNN
	1    9450 5350
	1    0    0    -1  
$EndComp
$Comp
L power:GND #PWR03
U 1 1 617376D0
P 9000 5550
F 0 "#PWR03" H 9000 5300 50  0001 C CNN
F 1 "GND" H 9005 5377 50  0000 C CNN
F 2 "" H 9000 5550 50  0001 C CNN
F 3 "" H 9000 5550 50  0001 C CNN
	1    9000 5550
	1    0    0    -1  
$EndComp
$Comp
L power:VCC #PWR04
U 1 1 617383E4
P 9450 5600
F 0 "#PWR04" H 9450 5450 50  0001 C CNN
F 1 "VCC" H 9465 5773 50  0000 C CNN
F 2 "" H 9450 5600 50  0001 C CNN
F 3 "" H 9450 5600 50  0001 C CNN
	1    9450 5600
	-1   0    0    1   
$EndComp
Wire Wire Line
	9000 5550 9000 5350
Wire Wire Line
	9450 5350 9450 5600
Text Notes 9750 5350 0    50   ~ 0
Зеленкий ИУ6-72Б
Wire Wire Line
	10200 4750 10350 4750
Wire Wire Line
	10200 4550 10250 4550
Wire Wire Line
	11100 4650 11250 4650
$Comp
L Zel_Art_Lab1-rescue:MYCONN3-myLib J1
U 1 1 61728176
P 9950 4400
F 0 "J1" H 10000 3950 50  0000 C CNN
F 1 "MYCONN3" H 10008 4384 50  0000 C CNN
F 2 "" H 9950 4400 50  0001 C CNN
F 3 "" H 9950 4400 50  0001 C CNN
	1    9950 4400
	1    0    0    -1  
$EndComp
$Comp
L Device:R R2
U 1 1 6171ECB1
P 10950 4650
F 0 "R2" V 10750 4650 50  0000 C CNN
F 1 "100" V 10834 4650 50  0000 C CNN
F 2 "" V 10880 4650 50  0001 C CNN
F 3 "~" H 10950 4650 50  0001 C CNN
	1    10950 4650
	0    1    1    0   
$EndComp
Wire Wire Line
	10200 4650 10800 4650
Text Label 10350 4650 0    50   ~ 0
INPUTtoR
$Comp
L MCU_Microchip_PIC18:PIC18F24K50-xSS U?
U 1 1 61730EEF
P 6150 4950
F 0 "U?" H 5500 6300 50  0000 C CNN
F 1 "PIC18F24K50-xSS" H 5650 6150 50  0000 C CNN
F 2 "Package_SO:SSOP-28_5.3x10.2mm_P0.65mm" H 6150 4950 50  0001 C CNN
F 3 "http://ww1.microchip.com/downloads/en/devicedoc/30000684B.pdf" H 3250 3600 50  0001 C CNN
	1    6150 4950
	1    0    0    -1  
$EndComp
NoConn ~ 5150 4050
NoConn ~ 5150 4150
NoConn ~ 5150 4250
NoConn ~ 5150 4350
NoConn ~ 5150 4450
NoConn ~ 5150 4550
NoConn ~ 5150 4650
NoConn ~ 5150 4750
NoConn ~ 5150 5150
NoConn ~ 5150 5250
NoConn ~ 5150 5350
NoConn ~ 5150 5450
NoConn ~ 5150 5550
NoConn ~ 7150 5750
NoConn ~ 7150 5350
NoConn ~ 7150 5250
NoConn ~ 7150 5150
NoConn ~ 7150 4050
NoConn ~ 7150 4150
NoConn ~ 7150 4250
NoConn ~ 7150 4350
NoConn ~ 7150 4450
NoConn ~ 7150 4550
NoConn ~ 7150 4650
NoConn ~ 7150 4750
$Comp
L power:VCC #PWR?
U 1 1 61737045
P 6350 3500
F 0 "#PWR?" H 6350 3350 50  0001 C CNN
F 1 "VCC" H 6365 3673 50  0000 C CNN
F 2 "" H 6350 3500 50  0001 C CNN
F 3 "" H 6350 3500 50  0001 C CNN
	1    6350 3500
	1    0    0    -1  
$EndComp
$Comp
L power:GND #PWR?
U 1 1 61737D3D
P 6150 6350
F 0 "#PWR?" H 6150 6100 50  0001 C CNN
F 1 "GND" H 6155 6177 50  0000 C CNN
F 2 "" H 6150 6350 50  0001 C CNN
F 3 "" H 6150 6350 50  0001 C CNN
	1    6150 6350
	1    0    0    -1  
$EndComp
$Comp
L power:GND #PWR?
U 1 1 617382F0
P 6050 6350
F 0 "#PWR?" H 6050 6100 50  0001 C CNN
F 1 "GND" H 6055 6177 50  0000 C CNN
F 2 "" H 6050 6350 50  0001 C CNN
F 3 "" H 6050 6350 50  0001 C CNN
	1    6050 6350
	1    0    0    -1  
$EndComp
Wire Wire Line
	6350 3500 6350 3550
Wire Wire Line
	6350 3550 6150 3550
Wire Wire Line
	6150 3550 6150 3650
Wire Wire Line
	6050 6150 6050 6350
Wire Wire Line
	6150 6150 6150 6350
$EndSCHEMATC
