EESchema Schematic File Version 4
EELAYER 30 0
EELAYER END
$Descr A3 16535 11693
encoding utf-8
Sheet 1 1
Title "Урок 1"
Date ""
Rev ""
Comp ""
Comment1 ""
Comment2 ""
Comment3 ""
Comment4 ""
$EndDescr
$Comp
L Device:R R1
U 1 1 616A2D84
P 10050 3100
F 0 "R1" V 9843 3100 50  0000 C CNN
F 1 "1k" V 9934 3100 50  0000 C CNN
F 2 "" V 9980 3100 50  0001 C CNN
F 3 "~" H 10050 3100 50  0001 C CNN
	1    10050 3100
	0    1    1    0   
$EndComp
$Comp
L Device:R R2
U 1 1 616A382E
P 10200 4350
F 0 "R2" V 9993 4350 50  0000 C CNN
F 1 "100" V 10084 4350 50  0000 C CNN
F 2 "" V 10130 4350 50  0001 C CNN
F 3 "~" H 10200 4350 50  0001 C CNN
	1    10200 4350
	0    1    1    0   
$EndComp
$Comp
L microchip_pic12mcu:PIC12C508A-ISN U1
U 1 1 616A4211
P 8350 3700
F 0 "U1" H 8700 4200 50  0000 C CNN
F 1 "PIC12C508A-ISN" H 8000 4200 50  0000 C CNN
F 2 "Package_DIP:DIP-8_W7.62mm" H 8950 4350 50  0001 C CNN
F 3 "http://ww1.microchip.com/downloads/en/devicedoc/40139e.pdf" H 8350 3700 50  0001 C CNN
	1    8350 3700
	-1   0    0    -1  
$EndComp
$Comp
L Device:LED D1
U 1 1 616A4FA9
P 9450 3100
F 0 "D1" H 9443 3317 50  0000 C CNN
F 1 "LED" H 9443 3226 50  0000 C CNN
F 2 "" H 9450 3100 50  0001 C CNN
F 3 "~" H 9450 3100 50  0001 C CNN
	1    9450 3100
	1    0    0    -1  
$EndComp
$Comp
L power:VCC #PWR06
U 1 1 6170ABD0
P 10400 3000
F 0 "#PWR06" H 10400 2850 50  0001 C CNN
F 1 "VCC" H 10415 3173 50  0000 C CNN
F 2 "" H 10400 3000 50  0001 C CNN
F 3 "" H 10400 3000 50  0001 C CNN
	1    10400 3000
	1    0    0    -1  
$EndComp
$Comp
L power:VCC #PWR01
U 1 1 6170B43A
P 8350 2750
F 0 "#PWR01" H 8350 2600 50  0001 C CNN
F 1 "VCC" H 8365 2923 50  0000 C CNN
F 2 "" H 8350 2750 50  0001 C CNN
F 3 "" H 8350 2750 50  0001 C CNN
	1    8350 2750
	1    0    0    -1  
$EndComp
$Comp
L power:VCC #PWR03
U 1 1 6170BD66
P 9400 4200
F 0 "#PWR03" H 9400 4050 50  0001 C CNN
F 1 "VCC" H 9415 4373 50  0000 C CNN
F 2 "" H 9400 4200 50  0001 C CNN
F 3 "" H 9400 4200 50  0001 C CNN
	1    9400 4200
	1    0    0    -1  
$EndComp
$Comp
L power:GND #PWR04
U 1 1 6170C656
P 9400 4600
F 0 "#PWR04" H 9400 4350 50  0001 C CNN
F 1 "GND" H 9405 4427 50  0000 C CNN
F 2 "" H 9400 4600 50  0001 C CNN
F 3 "" H 9400 4600 50  0001 C CNN
	1    9400 4600
	1    0    0    -1  
$EndComp
$Comp
L power:GND #PWR02
U 1 1 6170CD27
P 8350 4550
F 0 "#PWR02" H 8350 4300 50  0001 C CNN
F 1 "GND" H 8355 4377 50  0000 C CNN
F 2 "" H 8350 4550 50  0001 C CNN
F 3 "" H 8350 4550 50  0001 C CNN
	1    8350 4550
	1    0    0    -1  
$EndComp
Wire Wire Line
	8350 4300 8350 4550
Wire Wire Line
	8350 2750 8350 3100
Wire Wire Line
	10200 3100 10400 3100
Wire Wire Line
	10400 3100 10400 3000
Wire Wire Line
	8950 3600 9150 3600
Wire Wire Line
	9150 3600 9150 3100
Wire Wire Line
	9150 3100 9300 3100
Wire Wire Line
	9600 3100 9900 3100
Wire Wire Line
	10350 4350 10900 4350
Wire Wire Line
	8950 3700 9950 3700
Text Label 9400 3700 0    50   ~ 0
INPUT
Text Label 10550 4350 0    50   ~ 0
INPUT
Text Label 9150 3400 0    50   ~ 0
uCtoLED
Text Label 9650 3100 0    50   ~ 0
LEDtoR
Text Label 9600 4350 0    50   ~ 0
INPUTtoR
NoConn ~ 7750 3800
NoConn ~ 7750 3700
NoConn ~ 7750 3600
NoConn ~ 8950 3800
$Comp
L power:PWR_FLAG #FLG01
U 1 1 617111C9
P 10300 3550
F 0 "#FLG01" H 10300 3625 50  0001 C CNN
F 1 "PWR_FLAG" H 10300 3723 50  0000 C CNN
F 2 "" H 10300 3550 50  0001 C CNN
F 3 "~" H 10300 3550 50  0001 C CNN
	1    10300 3550
	1    0    0    -1  
$EndComp
$Comp
L power:PWR_FLAG #FLG02
U 1 1 61712DE8
P 10500 3550
F 0 "#FLG02" H 10500 3625 50  0001 C CNN
F 1 "PWR_FLAG" H 10500 3723 50  0000 C CNN
F 2 "" H 10500 3550 50  0001 C CNN
F 3 "~" H 10500 3550 50  0001 C CNN
	1    10500 3550
	1    0    0    -1  
$EndComp
$Comp
L power:GND #PWR05
U 1 1 617132A8
P 10300 3750
F 0 "#PWR05" H 10300 3500 50  0001 C CNN
F 1 "GND" H 10305 3577 50  0000 C CNN
F 2 "" H 10300 3750 50  0001 C CNN
F 3 "" H 10300 3750 50  0001 C CNN
	1    10300 3750
	1    0    0    -1  
$EndComp
$Comp
L power:VCC #PWR07
U 1 1 6171368C
P 10500 3750
F 0 "#PWR07" H 10500 3600 50  0001 C CNN
F 1 "VCC" H 10515 3923 50  0000 C CNN
F 2 "" H 10500 3750 50  0001 C CNN
F 3 "" H 10500 3750 50  0001 C CNN
	1    10500 3750
	-1   0    0    1   
$EndComp
Wire Wire Line
	10300 3550 10300 3750
Wire Wire Line
	10500 3550 10500 3750
Text Notes 10600 3650 0    50   ~ 0
<-- Некоторая очень полезная приблуда
$Comp
L myLib:MYCONN3 J1
U 1 1 61705ADF
P 9000 4100
F 0 "J1" H 9000 4150 50  0000 C CNN
F 1 "MYCONN3" H 9012 4084 50  0000 C CNN
F 2 "" H 9000 4100 50  0001 C CNN
F 3 "" H 9000 4100 50  0001 C CNN
	1    9000 4100
	1    0    0    -1  
$EndComp
Wire Wire Line
	9300 4250 9400 4250
Wire Wire Line
	9400 4250 9400 4200
Wire Wire Line
	9300 4350 10050 4350
Wire Wire Line
	9300 4450 9400 4450
Wire Wire Line
	9400 4450 9400 4600
$EndSCHEMATC
