EESchema Schematic File Version 4
EELAYER 30 0
EELAYER END
$Descr A3 16535 11693
encoding utf-8
Sheet 1 1
Title ""
Date ""
Rev ""
Comp "МГТУ им. Баумана"
Comment1 "ЛР2"
Comment2 "Горский Г. Е."
Comment3 "Хохлов С. А."
Comment4 ""
$EndDescr
$Comp
L Device:R R1
U 1 1 616D800E
P 8800 1700
F 0 "R1" V 9007 1700 50  0000 C CNN
F 1 "1k" V 8916 1700 50  0000 C CNN
F 2 "Resistor_THT:R_Axial_DIN0207_L6.3mm_D2.5mm_P2.54mm_Vertical" V 8730 1700 50  0001 C CNN
F 3 "~" H 8800 1700 50  0001 C CNN
	1    8800 1700
	0    -1   -1   0   
$EndComp
$Comp
L Device:LED D1
U 1 1 616DA777
P 8300 1700
F 0 "D1" H 8293 1917 50  0000 C CNN
F 1 "LED" H 8293 1826 50  0000 C CNN
F 2 "LED_THT:LED_D5.0mm" H 8300 1700 50  0001 C CNN
F 3 "~" H 8300 1700 50  0001 C CNN
	1    8300 1700
	1    0    0    -1  
$EndComp
$Comp
L power:VCC #PWR05
U 1 1 616E0C10
P 9250 1700
F 0 "#PWR05" H 9250 1550 50  0001 C CNN
F 1 "VCC" H 9265 1873 50  0000 C CNN
F 2 "" H 9250 1700 50  0001 C CNN
F 3 "" H 9250 1700 50  0001 C CNN
	1    9250 1700
	1    0    0    -1  
$EndComp
$Comp
L power:GND #PWR02
U 1 1 616E197B
P 6450 3600
F 0 "#PWR02" H 6450 3350 50  0001 C CNN
F 1 "GND" H 6455 3427 50  0000 C CNN
F 2 "" H 6450 3600 50  0001 C CNN
F 3 "" H 6450 3600 50  0001 C CNN
	1    6450 3600
	1    0    0    -1  
$EndComp
Wire Wire Line
	8150 1700 7800 1700
Wire Wire Line
	7800 1700 7800 1900
Wire Wire Line
	6450 3400 6450 3500
Wire Wire Line
	8650 1700 8450 1700
Wire Wire Line
	8950 1700 9250 1700
$Comp
L power:VCC #PWR01
U 1 1 616E452D
P 6450 1300
F 0 "#PWR01" H 6450 1150 50  0001 C CNN
F 1 "VCC" H 6465 1473 50  0000 C CNN
F 2 "" H 6450 1300 50  0001 C CNN
F 3 "" H 6450 1300 50  0001 C CNN
	1    6450 1300
	1    0    0    -1  
$EndComp
Wire Wire Line
	6450 1300 6450 1350
Text Label 8250 2000 0    50   ~ 0
INPUT
Text Label 7800 1850 0    50   ~ 0
uCtoLED
Text Label 8600 1700 3    50   ~ 0
LEDtoR
$Comp
L power:PWR_FLAG #FLG01
U 1 1 616E6CBA
P 9600 1650
F 0 "#FLG01" H 9600 1725 50  0001 C CNN
F 1 "PWR_FLAG" H 9600 1823 50  0000 C CNN
F 2 "" H 9600 1650 50  0001 C CNN
F 3 "~" H 9600 1650 50  0001 C CNN
	1    9600 1650
	1    0    0    -1  
$EndComp
$Comp
L power:VCC #PWR06
U 1 1 616E84F9
P 9600 1800
F 0 "#PWR06" H 9600 1650 50  0001 C CNN
F 1 "VCC" H 9615 1973 50  0000 C CNN
F 2 "" H 9600 1800 50  0001 C CNN
F 3 "" H 9600 1800 50  0001 C CNN
	1    9600 1800
	-1   0    0    1   
$EndComp
Wire Wire Line
	9600 1650 9600 1800
$Comp
L power:GND #PWR07
U 1 1 616E8FBC
P 9800 1800
F 0 "#PWR07" H 9800 1550 50  0001 C CNN
F 1 "GND" H 9805 1627 50  0000 C CNN
F 2 "" H 9800 1800 50  0001 C CNN
F 3 "" H 9800 1800 50  0001 C CNN
	1    9800 1800
	1    0    0    -1  
$EndComp
$Comp
L power:PWR_FLAG #FLG02
U 1 1 616E9609
P 9800 1650
F 0 "#FLG02" H 9800 1725 50  0001 C CNN
F 1 "PWR_FLAG" H 9800 1823 50  0000 C CNN
F 2 "" H 9800 1650 50  0001 C CNN
F 3 "~" H 9800 1650 50  0001 C CNN
	1    9800 1650
	1    0    0    -1  
$EndComp
Wire Wire Line
	9800 1650 9800 1800
$Comp
L mylib:XP1 D2
U 1 1 617F4AE5
P 4350 3300
F 0 "D2" H 4500 3300 50  0001 C CNN
F 1 "XP1" H 4683 3373 50  0000 C CNN
F 2 "Connector:Banana_Jack_3Pin" H 4500 3300 50  0001 C CNN
F 3 "" H 4500 3300 50  0001 C CNN
	1    4350 3300
	1    0    0    -1  
$EndComp
Wire Wire Line
	6450 1350 6350 1350
Wire Wire Line
	6350 1350 6350 1600
Connection ~ 6450 1350
Wire Wire Line
	6450 1350 6450 1600
Wire Wire Line
	6350 3400 6350 3500
Wire Wire Line
	6350 3500 6450 3500
Connection ~ 6450 3500
Wire Wire Line
	6450 3500 6450 3600
Wire Wire Line
	6350 1350 5200 1350
Wire Wire Line
	5200 1350 5200 3450
Wire Wire Line
	5200 3450 5000 3450
Connection ~ 6350 1350
Wire Wire Line
	6350 3500 5200 3500
Wire Wire Line
	5200 3500 5200 3550
Wire Wire Line
	5200 3550 5000 3550
Connection ~ 6350 3500
$Comp
L MCU_Microchip_PIC16:PIC16F54-ISS U1
U 1 1 617F22A8
P 6450 2500
F 0 "U1" H 6450 3581 50  0000 C CNN
F 1 "PIC16F54-ISS" H 6450 3490 50  0000 C CNN
F 2 "Package_SO:SSOP-20_3.9x8.7mm_P0.635mm" H 6450 2500 50  0001 C CIN
F 3 "http://ww1.microchip.com/downloads/en/DeviceDoc/41213D.pdf" H 6450 2500 50  0001 C CNN
	1    6450 2500
	1    0    0    -1  
$EndComp
Wire Wire Line
	7250 1900 7800 1900
Wire Wire Line
	7250 2000 8600 2000
NoConn ~ 7250 2100
NoConn ~ 7250 2200
NoConn ~ 7250 2400
NoConn ~ 7250 2500
NoConn ~ 7250 2600
NoConn ~ 7250 2700
NoConn ~ 7250 2800
NoConn ~ 7250 2900
NoConn ~ 7250 3000
NoConn ~ 7250 3100
NoConn ~ 5650 2600
NoConn ~ 5650 2300
NoConn ~ 5650 2100
$Comp
L Device:R R2
U 1 1 61805F3D
P 5600 3750
F 0 "R2" V 5393 3750 50  0000 C CNN
F 1 "100" V 5484 3750 50  0000 C CNN
F 2 "Resistor_THT:R_Axial_DIN0207_L6.3mm_D2.5mm_P2.54mm_Vertical" V 5530 3750 50  0001 C CNN
F 3 "~" H 5600 3750 50  0001 C CNN
	1    5600 3750
	0    1    1    0   
$EndComp
Wire Wire Line
	5000 3650 5000 3750
Wire Wire Line
	5000 3750 5450 3750
Wire Wire Line
	5750 3750 8200 3750
NoConn ~ 5650 1900
Text Label 7900 3750 0    50   ~ 0
INPUT
Text Label 5050 3750 0    50   ~ 0
INPUTtoR
$EndSCHEMATC
