EESchema Schematic File Version 4
EELAYER 30 0
EELAYER END
$Descr A3 16535 11693
encoding utf-8
Sheet 1 1
Title "Лабораторная 1"
Date "19.10.2021"
Rev ""
Comp ""
Comment1 ""
Comment2 "Гапонов В.Р."
Comment3 "Хохлов С.А."
Comment4 ""
$EndDescr
$Comp
L Device:R R2
U 1 1 616ECE98
P 6050 2150
F 0 "R2" V 5843 2150 50  0000 C CNN
F 1 "1k" V 5934 2150 50  0000 C CNN
F 2 "Resistor_THT:R_Axial_DIN0207_L6.3mm_D2.5mm_P2.54mm_Vertical" V 5980 2150 50  0001 C CNN
F 3 "~" H 6050 2150 50  0001 C CNN
	1    6050 2150
	0    1    1    0   
$EndComp
$Comp
L Device:R R1
U 1 1 616EDC61
P 6450 3550
F 0 "R1" V 6243 3550 50  0000 C CNN
F 1 "100" V 6334 3550 50  0000 C CNN
F 2 "Resistor_THT:R_Axial_DIN0204_L3.6mm_D1.6mm_P2.54mm_Vertical" V 6380 3550 50  0001 C CNN
F 3 "~" H 6450 3550 50  0001 C CNN
	1    6450 3550
	0    1    1    0   
$EndComp
$Comp
L Device:LED D1
U 1 1 616EF7D5
P 5500 2150
F 0 "D1" H 5493 2367 50  0000 C CNN
F 1 "LED" H 5493 2276 50  0000 C CNN
F 2 "LED_THT:LED_D5.0mm" H 5500 2150 50  0001 C CNN
F 3 "~" H 5500 2150 50  0001 C CNN
	1    5500 2150
	1    0    0    -1  
$EndComp
$Comp
L power:VCC #PWR07
U 1 1 616F6EA6
P 6450 1950
F 0 "#PWR07" H 6450 1800 50  0001 C CNN
F 1 "VCC" H 6465 2123 50  0000 C CNN
F 2 "" H 6450 1950 50  0001 C CNN
F 3 "" H 6450 1950 50  0001 C CNN
	1    6450 1950
	1    0    0    -1  
$EndComp
$Comp
L power:VCC #PWR02
U 1 1 616F804A
P 3000 1350
F 0 "#PWR02" H 3000 1200 50  0001 C CNN
F 1 "VCC" H 3015 1523 50  0000 C CNN
F 2 "" H 3000 1350 50  0001 C CNN
F 3 "" H 3000 1350 50  0001 C CNN
	1    3000 1350
	1    0    0    -1  
$EndComp
$Comp
L power:GND #PWR03
U 1 1 616F9054
P 3000 3500
F 0 "#PWR03" H 3000 3250 50  0001 C CNN
F 1 "GND" H 3005 3327 50  0000 C CNN
F 2 "" H 3000 3500 50  0001 C CNN
F 3 "" H 3000 3500 50  0001 C CNN
	1    3000 3500
	1    0    0    -1  
$EndComp
Wire Wire Line
	4950 2150 5350 2150
Wire Wire Line
	5650 3850 5650 3650
Wire Wire Line
	3000 1350 3000 1700
Wire Wire Line
	5650 2150 5900 2150
Wire Wire Line
	6450 1950 6450 2150
Wire Wire Line
	6450 2150 6200 2150
Wire Wire Line
	6600 3550 7100 3550
Text Label 4700 2100 0    50   ~ 0
INPUT
Text Label 7100 3550 0    50   ~ 0
INPUT
Text Label 4950 2000 0    50   ~ 0
uCtoLED
Text Label 5750 2150 3    50   ~ 0
LEDtoR
Text Label 5900 3550 0    50   ~ 0
INPUTtoR
$Comp
L power:GND #PWR06
U 1 1 616F8C23
P 5650 3850
F 0 "#PWR06" H 5650 3600 50  0001 C CNN
F 1 "GND" H 5655 3677 50  0000 C CNN
F 2 "" H 5650 3850 50  0001 C CNN
F 3 "" H 5650 3850 50  0001 C CNN
	1    5650 3850
	1    0    0    -1  
$EndComp
$Comp
L power:GND #PWR01
U 1 1 616FC8B1
P 3800 4050
F 0 "#PWR01" H 3800 3800 50  0001 C CNN
F 1 "GND" H 3805 3877 50  0000 C CNN
F 2 "" H 3800 4050 50  0001 C CNN
F 3 "" H 3800 4050 50  0001 C CNN
	1    3800 4050
	1    0    0    -1  
$EndComp
$Comp
L power:VCC #PWR04
U 1 1 616FCDC8
P 4250 3950
F 0 "#PWR04" H 4250 3800 50  0001 C CNN
F 1 "VCC" H 4265 4123 50  0000 C CNN
F 2 "" H 4250 3950 50  0001 C CNN
F 3 "" H 4250 3950 50  0001 C CNN
	1    4250 3950
	1    0    0    -1  
$EndComp
$Comp
L power:PWR_FLAG #FLG01
U 1 1 616FD50D
P 3800 4000
F 0 "#FLG01" H 3800 4075 50  0001 C CNN
F 1 "PWR_FLAG" H 3800 4173 50  0000 C CNN
F 2 "" H 3800 4000 50  0001 C CNN
F 3 "~" H 3800 4000 50  0001 C CNN
	1    3800 4000
	1    0    0    -1  
$EndComp
$Comp
L power:PWR_FLAG #FLG02
U 1 1 616FDA9F
P 4250 4050
F 0 "#FLG02" H 4250 4125 50  0001 C CNN
F 1 "PWR_FLAG" H 4250 4223 50  0000 C CNN
F 2 "" H 4250 4050 50  0001 C CNN
F 3 "~" H 4250 4050 50  0001 C CNN
	1    4250 4050
	-1   0    0    1   
$EndComp
Wire Wire Line
	4250 4050 4250 3950
Wire Wire Line
	3800 4000 3800 4050
Wire Wire Line
	4500 2100 4700 2100
Wire Wire Line
	4950 2150 4950 2000
Wire Wire Line
	4950 2000 4500 2000
Wire Wire Line
	3000 3300 3000 3500
NoConn ~ 4500 2200
NoConn ~ 4500 2300
NoConn ~ 4500 2400
NoConn ~ 4500 2500
NoConn ~ 4500 2600
NoConn ~ 4500 2700
NoConn ~ 4500 2900
NoConn ~ 1500 3000
NoConn ~ 1500 2900
NoConn ~ 1500 2800
NoConn ~ 1500 2700
NoConn ~ 1500 2400
NoConn ~ 1500 2300
NoConn ~ 1500 2200
NoConn ~ 1500 2100
NoConn ~ 1500 2000
Wire Wire Line
	4950 3650 5650 3650
Wire Wire Line
	4950 3550 6300 3550
Wire Wire Line
	5650 3450 4950 3450
Wire Wire Line
	5650 3450 5650 3300
Wire Wire Line
	5650 3300 5350 3300
$Comp
L power:GND #PWR0101
U 1 1 6178B2C9
P 5350 3050
F 0 "#PWR0101" H 5350 2800 50  0001 C CNN
F 1 "GND" H 5355 2877 50  0000 C CNN
F 2 "" H 5350 3050 50  0001 C CNN
F 3 "" H 5350 3050 50  0001 C CNN
	1    5350 3050
	-1   0    0    1   
$EndComp
Wire Wire Line
	5350 3050 5350 3300
$Comp
L myLib:GostConnector X1
U 1 1 6178F4C3
P 4700 3550
F 0 "X1" H 4500 3850 50  0000 C CNN
F 1 "GostConnector" H 5350 3850 50  0000 C CNN
F 2 "Connector:Banana_Jack_3Pin" H 4700 3550 50  0001 C CNN
F 3 "" H 4700 3550 50  0001 C CNN
	1    4700 3550
	-1   0    0    -1  
$EndComp
$Comp
L MCU_Microchip_PIC18:PIC18F13K50-ESO U1
U 1 1 6179E9D5
P 3000 2500
F 0 "U1" H 3000 3481 50  0000 C CNN
F 1 "PIC18F13K50-ESO" H 3000 3390 50  0000 C CNN
F 2 "Package_SO:SOIC-20W_7.5x12.8mm_P1.27mm" H 3000 2500 50  0001 C CIN
F 3 "http://ww1.microchip.com/downloads/en/devicedoc/41350c.pdf" H 3000 2600 50  0001 C CNN
	1    3000 2500
	1    0    0    -1  
$EndComp
$EndSCHEMATC
