EESchema Schematic File Version 4
EELAYER 30 0
EELAYER END
$Descr A3 16535 11693
encoding utf-8
Sheet 1 1
Title "Схема электрическая принципиальная"
Date ""
Rev ""
Comp "МГТУ им. Н.Э. Баумана\\nГруппа ИУ6-72Б"
Comment1 "Устройство измерения расстояний до объектов"
Comment2 "Лебедев Е.В."
Comment3 "Хохлов С.А."
Comment4 ""
$EndDescr
$Comp
L MCU_Microchip_ATmega:ATmega328P-AU DD1
U 1 1 61ADA8B2
P 4325 4925
F 0 "DD1" H 3885 6375 50  0000 C CNN
F 1 "ATmega328P" H 4725 6375 50  0000 C CNN
F 2 "Package_QFP:TQFP-32_7x7mm_P0.8mm" H 4325 4925 50  0001 C CIN
F 3 "http://ww1.microchip.com/downloads/en/DeviceDoc/ATmega328_P%20AVR%20MCU%20with%20picoPower%20Technology%20Data%20Sheet%2040001984A.pdf" H 4325 4925 50  0001 C CNN
F 4 "Микросхемы" H 4325 4925 60  0001 C CNN "Группа"
	1    4325 4925
	1    0    0    -1  
$EndComp
$Comp
L Device:C_Small C1
U 1 1 61ADE6B5
P 2675 3525
F 0 "C1" H 2767 3571 50  0000 L CNN
F 1 "100нФ" H 2767 3480 50  0000 L CNN
F 2 "" H 2675 3525 50  0001 C CNN
F 3 "~" H 2675 3525 50  0001 C CNN
F 4 "Конденсаторы" H 2675 3525 60  0001 C CNN "Группа"
	1    2675 3525
	1    0    0    -1  
$EndComp
Wire Wire Line
	2675 3875 2675 3625
Wire Wire Line
	2675 3425 2675 3125
Wire Wire Line
	2675 3125 3275 3125
Wire Wire Line
	4325 3425 4325 3125
Connection ~ 4325 3125
Wire Wire Line
	4325 3125 4425 3125
Wire Wire Line
	4425 3425 4425 3125
$Comp
L Device:Crystal_Small ZQ1
U 1 1 61AE0724
P 5475 4625
F 0 "ZQ1" H 5475 4492 50  0000 C CNN
F 1 "16MHz" H 5475 4759 50  0000 C CNN
F 2 "" H 5475 4625 50  0001 C CNN
F 3 "~" H 5475 4625 50  0001 C CNN
F 4 "Генераторы" H 5475 4625 60  0001 C CNN "Группа"
	1    5475 4625
	1    0    0    1   
$EndComp
$Comp
L Device:C_Small C2
U 1 1 61AE0B50
P 5175 4925
F 0 "C2" H 5267 4971 50  0000 L CNN
F 1 "22пФ" H 5267 4880 50  0000 L CNN
F 2 "" H 5175 4925 50  0001 C CNN
F 3 "~" H 5175 4925 50  0001 C CNN
F 4 "Конденсаторы" H 5175 4925 60  0001 C CNN "Группа"
	1    5175 4925
	1    0    0    -1  
$EndComp
$Comp
L Device:C_Small C3
U 1 1 61AE11A8
P 5775 4925
F 0 "C3" H 5867 4971 50  0000 L CNN
F 1 "22пФ" H 5867 4880 50  0000 L CNN
F 2 "" H 5775 4925 50  0001 C CNN
F 3 "~" H 5775 4925 50  0001 C CNN
F 4 "Конденсаторы" H 5775 4925 60  0001 C CNN "Группа"
	1    5775 4925
	1    0    0    -1  
$EndComp
Wire Wire Line
	4925 4325 5775 4325
Wire Wire Line
	5775 4325 5775 4625
Wire Wire Line
	4925 4425 5175 4425
Wire Wire Line
	5175 4425 5175 4625
Wire Wire Line
	5375 4625 5175 4625
Connection ~ 5175 4625
Wire Wire Line
	5175 4625 5175 4825
Wire Wire Line
	5575 4625 5775 4625
Connection ~ 5775 4625
Wire Wire Line
	5775 4625 5775 4825
$Comp
L Device:R R1
U 1 1 61AF31AD
P 3275 4975
F 0 "R1" H 3345 5021 50  0000 L CNN
F 1 "10K" H 3345 4930 50  0000 L CNN
F 2 "" V 3205 4975 50  0001 C CNN
F 3 "~" H 3275 4975 50  0001 C CNN
F 4 "Резисторы" H 3275 4975 60  0001 C CNN "Группа"
	1    3275 4975
	1    0    0    -1  
$EndComp
Wire Wire Line
	3275 4825 3275 3125
Connection ~ 3275 3125
Wire Wire Line
	3275 5125 3275 5230
Wire Wire Line
	6475 3925 6275 3925
Wire Wire Line
	6475 4025 6225 4025
Wire Wire Line
	6225 4025 6225 4075
Wire Wire Line
	6475 4525 6275 4525
Wire Wire Line
	6475 4625 6275 4625
Wire Wire Line
	6275 4625 6275 4675
Wire Wire Line
	7745 5230 7545 5230
Wire Wire Line
	7545 5230 7545 5280
Wire Wire Line
	6475 4425 6025 4425
Wire Wire Line
	6025 4425 6025 4025
Wire Wire Line
	6475 3825 5525 3825
Wire Wire Line
	5525 3825 5525 3925
Wire Wire Line
	5525 3925 5370 3925
Wire Wire Line
	10955 3715 10810 3715
Wire Wire Line
	10955 3840 10810 3840
Wire Wire Line
	10810 3840 10810 3715
Wire Wire Line
	10955 4090 10820 4090
Wire Wire Line
	10955 4465 10815 4465
Wire Wire Line
	11880 4515 11965 4515
Wire Wire Line
	11965 4515 11965 4680
Wire Wire Line
	11965 4680 10610 4680
Wire Wire Line
	10610 4680 10610 5340
Wire Wire Line
	10610 5340 10955 5340
Wire Wire Line
	10805 5215 10805 5090
Wire Wire Line
	10820 5465 10955 5465
Wire Wire Line
	10820 5840 10955 5840
Wire Wire Line
	12900 3715 11880 3715
Wire Wire Line
	12900 3715 12900 4155
Wire Wire Line
	11880 3815 12820 3815
Wire Wire Line
	12820 3815 12820 4265
Wire Wire Line
	12820 4265 12900 4265
Wire Wire Line
	11880 3915 12735 3915
Wire Wire Line
	12735 3915 12735 4365
Wire Wire Line
	12735 4365 12895 4365
Wire Wire Line
	11880 4015 12645 4015
Wire Wire Line
	12645 4015 12645 4465
Wire Wire Line
	12645 4465 12900 4465
Wire Wire Line
	11880 4115 12555 4115
Wire Wire Line
	12555 4115 12555 4565
Wire Wire Line
	12555 4565 12900 4565
Wire Wire Line
	11880 4215 12465 4215
Wire Wire Line
	12465 4215 12465 4665
Wire Wire Line
	12465 4665 12900 4665
Wire Wire Line
	11880 4315 12375 4315
Wire Wire Line
	12375 4315 12375 4765
Wire Wire Line
	12375 4765 12900 4765
Wire Wire Line
	11880 4415 12285 4415
Wire Wire Line
	12285 4415 12285 4865
Wire Wire Line
	12285 4865 12900 4865
Wire Wire Line
	14125 5090 14125 4370
Wire Wire Line
	14125 4370 13670 4370
Wire Wire Line
	14045 4460 13675 4460
Wire Wire Line
	14045 4460 14045 5190
Wire Wire Line
	13670 4565 13965 4565
Wire Wire Line
	13965 4565 13965 5290
Wire Wire Line
	13880 5390 13880 4660
Wire Wire Line
	13880 4660 13675 4660
Wire Wire Line
	10955 5090 10805 5090
Wire Wire Line
	10955 5215 10805 5215
Wire Wire Line
	12030 5890 11880 5890
Wire Wire Line
	11880 5290 13965 5290
Wire Wire Line
	11880 5190 14045 5190
Wire Wire Line
	11880 5090 14125 5090
Wire Wire Line
	11880 5390 13880 5390
$Comp
L Device:C_Small C4
U 1 1 61B58270
P 7675 7285
F 0 "C4" V 7775 7235 50  0000 L CNN
F 1 "100нФ" V 7550 7185 50  0000 L CNN
F 2 "" H 7675 7285 50  0001 C CNN
F 3 "~" H 7675 7285 50  0001 C CNN
F 4 "Конденсаторы" H 7675 7285 60  0001 C CNN "Группа"
	1    7675 7285
	0    -1   -1   0   
$EndComp
Wire Wire Line
	7860 7285 7775 7285
Wire Wire Line
	7860 7805 7585 7805
Wire Wire Line
	7860 7440 7585 7440
Connection ~ 7585 7805
Wire Wire Line
	7860 7710 7585 7710
Connection ~ 7585 7710
Wire Wire Line
	7585 7710 7585 7805
Wire Wire Line
	7860 7620 7585 7620
Wire Wire Line
	7585 7440 7585 7530
Connection ~ 7585 7620
Wire Wire Line
	7585 7620 7585 7710
Wire Wire Line
	7860 7530 7585 7530
Connection ~ 7585 7530
Wire Wire Line
	7585 7530 7585 7620
Wire Wire Line
	8870 7125 9060 7125
Wire Wire Line
	9060 7125 9060 7025
Wire Wire Line
	8865 7025 9060 7025
Connection ~ 9060 7025
Wire Wire Line
	9060 7025 9060 6860
Wire Wire Line
	8865 7325 9360 7325
Wire Wire Line
	9360 7325 9360 7225
Wire Wire Line
	9360 7225 9575 7225
Wire Wire Line
	8870 7230 9240 7230
Wire Wire Line
	9240 7230 9240 7125
Wire Wire Line
	9240 7125 9575 7125
Wire Wire Line
	7745 4930 7545 4930
Wire Wire Line
	7125 5725 7125 5030
Wire Wire Line
	7125 5030 7745 5030
Wire Wire Line
	4925 5725 7125 5725
Wire Wire Line
	7235 5625 7235 5130
Wire Wire Line
	7235 5130 7745 5130
Wire Wire Line
	4925 5625 7235 5625
Wire Wire Line
	6650 7025 6650 5525
Wire Wire Line
	6650 5525 4925 5525
Wire Wire Line
	6650 7025 7865 7025
Wire Wire Line
	6520 7125 6520 5425
Wire Wire Line
	6520 5425 4925 5425
Wire Wire Line
	6520 7125 7865 7125
Connection ~ 4425 3125
Wire Wire Line
	9450 3965 9450 5715
Wire Wire Line
	9450 6025 4925 6025
Wire Wire Line
	9450 3965 10955 3965
Wire Wire Line
	10955 4340 10155 4340
Wire Wire Line
	10155 4340 10155 3425
Wire Wire Line
	10155 3425 5230 3425
Wire Wire Line
	5230 3425 5230 3725
Wire Wire Line
	5230 3725 4925 3725
Wire Wire Line
	9570 4215 9570 5590
Wire Wire Line
	9570 6125 4925 6125
Wire Wire Line
	9570 4215 10955 4215
Wire Wire Line
	10955 5590 9570 5590
Connection ~ 9570 5590
Wire Wire Line
	9570 5590 9570 6125
Wire Wire Line
	10955 5715 9450 5715
Connection ~ 9450 5715
Wire Wire Line
	9450 5715 9450 6025
Wire Wire Line
	5175 5115 5175 5025
Wire Wire Line
	5775 5120 5775 5025
Wire Wire Line
	3275 3125 4325 3125
Wire Wire Line
	4925 5225 5090 5225
Wire Wire Line
	5090 5225 5090 6865
Wire Wire Line
	5090 6865 3025 6865
Wire Wire Line
	3025 6865 3025 6170
Wire Wire Line
	3025 5230 3275 5230
Connection ~ 3275 5230
Wire Wire Line
	7050 1835 5785 1835
Wire Wire Line
	5785 4125 4925 4125
Wire Wire Line
	5785 1835 5785 4125
Wire Wire Line
	7050 2030 5640 2030
Wire Wire Line
	5640 2030 5640 4225
Wire Wire Line
	5640 4225 4925 4225
Wire Wire Line
	6025 4025 4925 4025
Wire Wire Line
	7050 2135 5370 2135
Wire Wire Line
	5370 2135 5370 3925
Connection ~ 5370 3925
Wire Wire Line
	5370 3925 4925 3925
Wire Wire Line
	7050 2230 2355 2230
Wire Wire Line
	4325 6425 4325 6605
Wire Wire Line
	7050 2335 6910 2335
Wire Wire Line
	4425 3125 4650 3125
Wire Wire Line
	6905 1930 7050 1930
Wire Wire Line
	9575 7025 9130 7025
Wire Wire Line
	9130 7385 9130 7025
Connection ~ 9130 7025
Wire Wire Line
	9130 7025 9060 7025
$Comp
L power:Earth #PWR?
U 1 1 61B5D4C2
P 7360 7805
F 0 "#PWR?" H 7360 7555 50  0001 C CNN
F 1 "Earth" H 7360 7655 50  0001 C CNN
F 2 "" H 7360 7805 50  0001 C CNN
F 3 "~" H 7360 7805 50  0001 C CNN
	1    7360 7805
	1    0    0    -1  
$EndComp
Wire Wire Line
	7360 7805 7585 7805
$Comp
L power:Earth #PWR?
U 1 1 61B66D75
P 7365 7285
F 0 "#PWR?" H 7365 7035 50  0001 C CNN
F 1 "Earth" H 7365 7135 50  0001 C CNN
F 2 "" H 7365 7285 50  0001 C CNN
F 3 "~" H 7365 7285 50  0001 C CNN
	1    7365 7285
	1    0    0    -1  
$EndComp
Wire Wire Line
	7365 7285 7575 7285
$Comp
L power:Earth #PWR?
U 1 1 61B7935F
P 9535 7615
F 0 "#PWR?" H 9535 7365 50  0001 C CNN
F 1 "Earth" H 9535 7465 50  0001 C CNN
F 2 "" H 9535 7615 50  0001 C CNN
F 3 "~" H 9535 7615 50  0001 C CNN
	1    9535 7615
	1    0    0    -1  
$EndComp
$Comp
L power:Earth #PWR?
U 1 1 61B7A180
P 4325 6605
F 0 "#PWR?" H 4325 6355 50  0001 C CNN
F 1 "Earth" H 4325 6455 50  0001 C CNN
F 2 "" H 4325 6605 50  0001 C CNN
F 3 "~" H 4325 6605 50  0001 C CNN
	1    4325 6605
	1    0    0    -1  
$EndComp
$Comp
L power:Earth #PWR?
U 1 1 61B7BE26
P 3275 5955
F 0 "#PWR?" H 3275 5705 50  0001 C CNN
F 1 "Earth" H 3275 5805 50  0001 C CNN
F 2 "" H 3275 5955 50  0001 C CNN
F 3 "~" H 3275 5955 50  0001 C CNN
	1    3275 5955
	1    0    0    -1  
$EndComp
$Comp
L power:Earth #PWR?
U 1 1 61B7C81A
P 2675 3875
F 0 "#PWR?" H 2675 3625 50  0001 C CNN
F 1 "Earth" H 2675 3725 50  0001 C CNN
F 2 "" H 2675 3875 50  0001 C CNN
F 3 "~" H 2675 3875 50  0001 C CNN
	1    2675 3875
	1    0    0    -1  
$EndComp
$Comp
L power:Earth #PWR?
U 1 1 61B7D915
P 5175 5115
F 0 "#PWR?" H 5175 4865 50  0001 C CNN
F 1 "Earth" H 5175 4965 50  0001 C CNN
F 2 "" H 5175 5115 50  0001 C CNN
F 3 "~" H 5175 5115 50  0001 C CNN
	1    5175 5115
	1    0    0    -1  
$EndComp
$Comp
L power:Earth #PWR?
U 1 1 61B7E676
P 5775 5120
F 0 "#PWR?" H 5775 4870 50  0001 C CNN
F 1 "Earth" H 5775 4970 50  0001 C CNN
F 2 "" H 5775 5120 50  0001 C CNN
F 3 "~" H 5775 5120 50  0001 C CNN
	1    5775 5120
	1    0    0    -1  
$EndComp
$Comp
L power:Earth #PWR?
U 1 1 61B7EB6B
P 6275 4675
F 0 "#PWR?" H 6275 4425 50  0001 C CNN
F 1 "Earth" H 6275 4525 50  0001 C CNN
F 2 "" H 6275 4675 50  0001 C CNN
F 3 "~" H 6275 4675 50  0001 C CNN
	1    6275 4675
	1    0    0    -1  
$EndComp
$Comp
L power:Earth #PWR?
U 1 1 61B7F281
P 6225 4075
F 0 "#PWR?" H 6225 3825 50  0001 C CNN
F 1 "Earth" H 6225 3925 50  0001 C CNN
F 2 "" H 6225 4075 50  0001 C CNN
F 3 "~" H 6225 4075 50  0001 C CNN
	1    6225 4075
	1    0    0    -1  
$EndComp
$Comp
L power:Earth #PWR?
U 1 1 61B7F791
P 6910 2335
F 0 "#PWR?" H 6910 2085 50  0001 C CNN
F 1 "Earth" H 6910 2185 50  0001 C CNN
F 2 "" H 6910 2335 50  0001 C CNN
F 3 "~" H 6910 2335 50  0001 C CNN
	1    6910 2335
	1    0    0    -1  
$EndComp
$Comp
L power:Earth #PWR?
U 1 1 61B80139
P 7545 5280
F 0 "#PWR?" H 7545 5030 50  0001 C CNN
F 1 "Earth" H 7545 5130 50  0001 C CNN
F 2 "" H 7545 5280 50  0001 C CNN
F 3 "~" H 7545 5280 50  0001 C CNN
	1    7545 5280
	1    0    0    -1  
$EndComp
$Comp
L power:Earth #PWR?
U 1 1 61B80946
P 10820 5840
F 0 "#PWR?" H 10820 5590 50  0001 C CNN
F 1 "Earth" H 10820 5690 50  0001 C CNN
F 2 "" H 10820 5840 50  0001 C CNN
F 3 "~" H 10820 5840 50  0001 C CNN
	1    10820 5840
	1    0    0    -1  
$EndComp
$Comp
L power:Earth #PWR?
U 1 1 61B811F9
P 10820 5465
F 0 "#PWR?" H 10820 5215 50  0001 C CNN
F 1 "Earth" H 10820 5315 50  0001 C CNN
F 2 "" H 10820 5465 50  0001 C CNN
F 3 "~" H 10820 5465 50  0001 C CNN
	1    10820 5465
	1    0    0    -1  
$EndComp
$Comp
L power:Earth #PWR?
U 1 1 61B8182B
P 10815 4465
F 0 "#PWR?" H 10815 4215 50  0001 C CNN
F 1 "Earth" H 10815 4315 50  0001 C CNN
F 2 "" H 10815 4465 50  0001 C CNN
F 3 "~" H 10815 4465 50  0001 C CNN
	1    10815 4465
	1    0    0    -1  
$EndComp
$Comp
L power:Earth #PWR?
U 1 1 61B81F47
P 10820 4090
F 0 "#PWR?" H 10820 3840 50  0001 C CNN
F 1 "Earth" H 10820 3940 50  0001 C CNN
F 2 "" H 10820 4090 50  0001 C CNN
F 3 "~" H 10820 4090 50  0001 C CNN
	1    10820 4090
	1    0    0    -1  
$EndComp
$Comp
L power:Earth #PWR?
U 1 1 61B82942
P 12030 5890
F 0 "#PWR?" H 12030 5640 50  0001 C CNN
F 1 "Earth" H 12030 5740 50  0001 C CNN
F 2 "" H 12030 5890 50  0001 C CNN
F 3 "~" H 12030 5890 50  0001 C CNN
	1    12030 5890
	1    0    0    -1  
$EndComp
$Comp
L power:+5V #PWR?
U 1 1 61BAE88B
P 6905 1930
F 0 "#PWR?" H 6905 1780 50  0001 C CNN
F 1 "+5V" V 6920 2058 50  0000 L CNN
F 2 "" H 6905 1930 50  0001 C CNN
F 3 "" H 6905 1930 50  0001 C CNN
	1    6905 1930
	0    -1   -1   0   
$EndComp
$Comp
L power:+5V #PWR?
U 1 1 61BC7EB3
P 4650 3125
F 0 "#PWR?" H 4650 2975 50  0001 C CNN
F 1 "+5V" V 4665 3253 50  0000 L CNN
F 2 "" H 4650 3125 50  0001 C CNN
F 3 "" H 4650 3125 50  0001 C CNN
	1    4650 3125
	0    1    1    0   
$EndComp
$Comp
L power:+5V #PWR?
U 1 1 61BEA565
P 7545 4930
F 0 "#PWR?" H 7545 4780 50  0001 C CNN
F 1 "+5V" V 7560 5058 50  0000 L CNN
F 2 "" H 7545 4930 50  0001 C CNN
F 3 "" H 7545 4930 50  0001 C CNN
	1    7545 4930
	0    -1   -1   0   
$EndComp
$Comp
L power:+5V #PWR?
U 1 1 61BEAB87
P 9060 6860
F 0 "#PWR?" H 9060 6710 50  0001 C CNN
F 1 "+5V" H 9075 7033 50  0000 C CNN
F 2 "" H 9060 6860 50  0001 C CNN
F 3 "" H 9060 6860 50  0001 C CNN
	1    9060 6860
	1    0    0    -1  
$EndComp
Wire Wire Line
	2355 6170 3025 6170
Wire Wire Line
	2355 2230 2355 6170
Connection ~ 3025 6170
Wire Wire Line
	3025 6170 3025 5230
$Comp
L mylib:SB SB1
U 1 1 61C59A5D
P 3265 5580
F 0 "SB1" V 3257 5748 50  0000 L CNN
F 1 "SB" H 3265 5480 79  0001 C CNN
F 2 "" H 3345 5680 98  0001 C CNN
F 3 "" H 3265 5780 98  0001 C CNN
F 4 "Кнопки" H 3265 5580 60  0001 C CNN "Группа"
	1    3265 5580
	0    1    1    0   
$EndComp
Wire Wire Line
	3275 5765 3275 5955
Wire Wire Line
	3275 5230 3275 5380
$Comp
L mylib:ICSP XP4
U 1 1 61C6C3D7
P 7455 1635
F 0 "XP4" H 7155 1635 50  0000 L CNN
F 1 "ICSP" H 7715 1635 50  0000 L CNN
F 2 "" H 7455 1635 50  0001 C CNN
F 3 "" H 7455 1635 50  0001 C CNN
F 4 "Разъемы" H 7455 1635 60  0001 C CNN "Группа"
	1    7455 1635
	1    0    0    -1  
$EndComp
$Comp
L mylib:SG-90 XP2
U 1 1 61C6E534
P 6875 3625
F 0 "XP2" H 6575 3625 50  0000 L CNN
F 1 "SG-90" H 7050 3625 50  0000 L CNN
F 2 "" H 6875 3625 50  0001 C CNN
F 3 "" H 6875 3625 50  0001 C CNN
F 4 "Разъемы" H 6875 3625 60  0001 C CNN "Группа"
	1    6875 3625
	1    0    0    -1  
$EndComp
$Comp
L mylib:SG-90 XP3
U 1 1 61C6EA5D
P 6875 4225
F 0 "XP3" H 6575 4230 50  0000 L CNN
F 1 "SG-90" H 7045 4225 50  0000 L CNN
F 2 "" H 6875 4225 50  0001 C CNN
F 3 "" H 6875 4225 50  0001 C CNN
F 4 "Разъемы" H 6875 4225 60  0001 C CNN "Группа"
	1    6875 4225
	1    0    0    -1  
$EndComp
$Comp
L mylib:HC-SR04 XP5
U 1 1 61C70D65
P 8145 4730
F 0 "XP5" H 7845 4735 50  0000 L CNN
F 1 "HC-SR04" H 8210 4735 50  0000 L CNN
F 2 "" H 8145 4730 50  0001 C CNN
F 3 "" H 8145 4730 50  0001 C CNN
F 4 "Разъемы" H 8145 4730 60  0001 C CNN "Группа"
	1    8145 4730
	1    0    0    -1  
$EndComp
$Comp
L mylib:FT232RL DD2
U 1 1 61C728DB
P 8290 7250
F 0 "DD2" H 8030 7600 50  0000 C CNN
F 1 "FT232RL" H 8610 7600 50  0000 C CNN
F 2 "" H 8340 7625 50  0001 C CNN
F 3 "" H 8340 7625 50  0001 C CNN
F 4 "Микросхемы" H 8290 7250 60  0001 C CNN "Группа"
	1    8290 7250
	1    0    0    -1  
$EndComp
$Comp
L mylib:USB XP6
U 1 1 61C73CAF
P 9975 6825
F 0 "XP6" H 9675 6830 50  0000 L CNN
F 1 "USB-A" H 10145 6830 50  0000 L CNN
F 2 "" H 9975 6825 50  0001 C CNN
F 3 "" H 9975 6825 50  0001 C CNN
F 4 "Разъемы" H 9975 6825 60  0001 C CNN "Группа"
	1    9975 6825
	1    0    0    -1  
$EndComp
$Comp
L mylib:74HC595 DD3
U 1 1 61C750E1
P 11380 3940
F 0 "DD3" H 11120 4285 50  0000 C CNN
F 1 "74HC595" H 11615 4285 50  0000 C CNN
F 2 "" H 11430 4315 50  0001 C CNN
F 3 "" H 11430 4315 50  0001 C CNN
F 4 "Микросхемы" H 11380 3940 60  0001 C CNN "Группа"
	1    11380 3940
	1    0    0    -1  
$EndComp
$Comp
L mylib:74HC595(1) DD4
U 1 1 61C7740D
P 11380 5315
F 0 "DD4" H 11120 5665 50  0000 C CNN
F 1 "74HC595" H 11615 5665 50  0000 C CNN
F 2 "" H 11430 5690 50  0001 C CNN
F 3 "" H 11430 5690 50  0001 C CNN
F 4 "Микросхемы" H 11380 5315 60  0001 C CNN "Группа"
	1    11380 5315
	1    0    0    -1  
$EndComp
$Comp
L mylib:3641BS HG1
U 1 1 61C79414
P 13300 4065
F 0 "HG1" H 13065 4070 50  0000 C CNN
F 1 "3641BS" H 13415 4070 50  0000 C CNN
F 2 "" H 13300 4065 50  0001 C CNN
F 3 "" H 13300 4065 50  0001 C CNN
F 4 "Индикаторы" H 13300 4065 60  0001 C CNN "Группа"
	1    13300 4065
	1    0    0    -1  
$EndComp
$Comp
L Device:CP_Small C5
U 1 1 61B7F743
P 9130 7485
F 0 "C5" H 9218 7531 50  0000 L CNN
F 1 "4.7мкФ" H 9218 7440 50  0000 L CNN
F 2 "" H 9130 7485 50  0001 C CNN
F 3 "~" H 9130 7485 50  0001 C CNN
F 4 "Конденсаторы" H 9130 7485 60  0001 C CNN "Группа"
	1    9130 7485
	1    0    0    -1  
$EndComp
Wire Wire Line
	9575 7325 9535 7325
Wire Wire Line
	9535 7325 9535 7585
Wire Wire Line
	9130 7585 9535 7585
Connection ~ 9535 7585
Wire Wire Line
	9535 7585 9535 7615
$Comp
L power:+5V #PWR?
U 1 1 61B9AF9B
P 10810 3715
F 0 "#PWR?" H 10810 3565 50  0001 C CNN
F 1 "+5V" H 10825 3888 50  0000 C CNN
F 2 "" H 10810 3715 50  0001 C CNN
F 3 "" H 10810 3715 50  0001 C CNN
	1    10810 3715
	1    0    0    -1  
$EndComp
Connection ~ 10810 3715
$Comp
L power:+5V #PWR?
U 1 1 61B9B7E7
P 10805 5090
F 0 "#PWR?" H 10805 4940 50  0001 C CNN
F 1 "+5V" H 10820 5263 50  0000 C CNN
F 2 "" H 10805 5090 50  0001 C CNN
F 3 "" H 10805 5090 50  0001 C CNN
	1    10805 5090
	1    0    0    -1  
$EndComp
Connection ~ 10805 5090
$Comp
L mylib:ServoVCC XP1
U 1 1 61BC87C1
P 5800 7530
F 0 "XP1" H 5495 7530 50  0000 L CNN
F 1 "ServoVCC" H 6253 7285 50  0001 L CNN
F 2 "" H 5800 7530 50  0001 C CNN
F 3 "" H 5800 7530 50  0001 C CNN
F 4 "Разъемы" H 5800 7530 60  0001 C CNN "Группа"
	1    5800 7530
	1    0    0    -1  
$EndComp
$Comp
L power:VCC #PWR?
U 1 1 61BC9CAC
P 5235 7730
F 0 "#PWR?" H 5235 7580 50  0001 C CNN
F 1 "VCC" V 5250 7857 50  0000 L CNN
F 2 "" H 5235 7730 50  0001 C CNN
F 3 "" H 5235 7730 50  0001 C CNN
	1    5235 7730
	0    -1   -1   0   
$EndComp
$Comp
L power:Earth #PWR?
U 1 1 61BE3A6C
P 5235 7885
F 0 "#PWR?" H 5235 7635 50  0001 C CNN
F 1 "Earth" H 5235 7735 50  0001 C CNN
F 2 "" H 5235 7885 50  0001 C CNN
F 3 "~" H 5235 7885 50  0001 C CNN
	1    5235 7885
	1    0    0    -1  
$EndComp
Wire Wire Line
	5395 7730 5235 7730
Wire Wire Line
	5235 7885 5235 7830
Wire Wire Line
	5235 7830 5395 7830
$Comp
L power:VCC #PWR?
U 1 1 61BF6032
P 6275 4525
F 0 "#PWR?" H 6275 4375 50  0001 C CNN
F 1 "VCC" V 6290 4652 50  0000 L CNN
F 2 "" H 6275 4525 50  0001 C CNN
F 3 "" H 6275 4525 50  0001 C CNN
	1    6275 4525
	0    -1   -1   0   
$EndComp
$Comp
L power:VCC #PWR?
U 1 1 61BF6973
P 6275 3925
F 0 "#PWR?" H 6275 3775 50  0001 C CNN
F 1 "VCC" V 6290 4052 50  0000 L CNN
F 2 "" H 6275 3925 50  0001 C CNN
F 3 "" H 6275 3925 50  0001 C CNN
	1    6275 3925
	0    -1   -1   0   
$EndComp
$EndSCHEMATC
