%TF.GenerationSoftware,KiCad,Pcbnew,(5.1.12)-1*%
%TF.CreationDate,2022-01-26T18:23:42+03:00*%
%TF.ProjectId,lr1,6c72312e-6b69-4636-9164-5f7063625858,rev?*%
%TF.SameCoordinates,Original*%
%TF.FileFunction,Legend,Top*%
%TF.FilePolarity,Positive*%
%FSLAX46Y46*%
G04 Gerber Fmt 4.6, Leading zero omitted, Abs format (unit mm)*
G04 Created by KiCad (PCBNEW (5.1.12)-1) date 2022-01-26 18:23:42*
%MOMM*%
%LPD*%
G01*
G04 APERTURE LIST*
%ADD10C,0.120000*%
%ADD11C,0.150000*%
G04 APERTURE END LIST*
D10*
%TO.C,R2*%
X143510000Y-83920000D02*
X143510000Y-83990000D01*
X144880000Y-82550000D02*
G75*
G03*
X144880000Y-82550000I-1370000J0D01*
G01*
%TO.C,D1*%
X104160000Y-87905000D02*
X104160000Y-84815000D01*
X104100000Y-86360000D02*
G75*
G03*
X104100000Y-86360000I-2500000J0D01*
G01*
X98610000Y-86359538D02*
G75*
G03*
X104160000Y-87904830I2990000J-462D01*
G01*
X98610000Y-86360462D02*
G75*
G02*
X104160000Y-84815170I2990000J462D01*
G01*
%TO.C,J1*%
X144300000Y-103970000D02*
X114300000Y-103970000D01*
X114300000Y-114470000D02*
X144300000Y-114470000D01*
X144300000Y-114470000D02*
G75*
G03*
X144300000Y-103970000I0J5250000D01*
G01*
X114300000Y-103970000D02*
G75*
G03*
X114300000Y-114470000I0J-5250000D01*
G01*
%TO.C,R1*%
X100230000Y-95250000D02*
X100160000Y-95250000D01*
X102970000Y-95250000D02*
G75*
G03*
X102970000Y-95250000I-1370000J0D01*
G01*
%TO.C,U1*%
X121295000Y-83820000D02*
X121295000Y-87270000D01*
X121295000Y-83820000D02*
X121295000Y-81870000D01*
X130165000Y-83820000D02*
X130165000Y-85770000D01*
X130165000Y-83820000D02*
X130165000Y-81870000D01*
%TO.C,R2*%
D11*
X146332380Y-83986666D02*
X145856190Y-84320000D01*
X146332380Y-84558095D02*
X145332380Y-84558095D01*
X145332380Y-84177142D01*
X145380000Y-84081904D01*
X145427619Y-84034285D01*
X145522857Y-83986666D01*
X145665714Y-83986666D01*
X145760952Y-84034285D01*
X145808571Y-84081904D01*
X145856190Y-84177142D01*
X145856190Y-84558095D01*
X145427619Y-83605714D02*
X145380000Y-83558095D01*
X145332380Y-83462857D01*
X145332380Y-83224761D01*
X145380000Y-83129523D01*
X145427619Y-83081904D01*
X145522857Y-83034285D01*
X145618095Y-83034285D01*
X145760952Y-83081904D01*
X146332380Y-83653333D01*
X146332380Y-83034285D01*
%TO.C,D1*%
X100861904Y-90772380D02*
X100861904Y-89772380D01*
X101100000Y-89772380D01*
X101242857Y-89820000D01*
X101338095Y-89915238D01*
X101385714Y-90010476D01*
X101433333Y-90200952D01*
X101433333Y-90343809D01*
X101385714Y-90534285D01*
X101338095Y-90629523D01*
X101242857Y-90724761D01*
X101100000Y-90772380D01*
X100861904Y-90772380D01*
X102385714Y-90772380D02*
X101814285Y-90772380D01*
X102100000Y-90772380D02*
X102100000Y-89772380D01*
X102004761Y-89915238D01*
X101909523Y-90010476D01*
X101814285Y-90058095D01*
%TO.C,J1*%
X121716666Y-102422380D02*
X121716666Y-103136666D01*
X121669047Y-103279523D01*
X121573809Y-103374761D01*
X121430952Y-103422380D01*
X121335714Y-103422380D01*
X122716666Y-103422380D02*
X122145238Y-103422380D01*
X122430952Y-103422380D02*
X122430952Y-102422380D01*
X122335714Y-102565238D01*
X122240476Y-102660476D01*
X122145238Y-102708095D01*
%TO.C,R1*%
X100163333Y-98072380D02*
X99830000Y-97596190D01*
X99591904Y-98072380D02*
X99591904Y-97072380D01*
X99972857Y-97072380D01*
X100068095Y-97120000D01*
X100115714Y-97167619D01*
X100163333Y-97262857D01*
X100163333Y-97405714D01*
X100115714Y-97500952D01*
X100068095Y-97548571D01*
X99972857Y-97596190D01*
X99591904Y-97596190D01*
X101115714Y-98072380D02*
X100544285Y-98072380D01*
X100830000Y-98072380D02*
X100830000Y-97072380D01*
X100734761Y-97215238D01*
X100639523Y-97310476D01*
X100544285Y-97358095D01*
%TO.C,U1*%
X119902380Y-84581904D02*
X120711904Y-84581904D01*
X120807142Y-84534285D01*
X120854761Y-84486666D01*
X120902380Y-84391428D01*
X120902380Y-84200952D01*
X120854761Y-84105714D01*
X120807142Y-84058095D01*
X120711904Y-84010476D01*
X119902380Y-84010476D01*
X120902380Y-83010476D02*
X120902380Y-83581904D01*
X120902380Y-83296190D02*
X119902380Y-83296190D01*
X120045238Y-83391428D01*
X120140476Y-83486666D01*
X120188095Y-83581904D01*
%TD*%
M02*
