EESchema Schematic File Version 4
EELAYER 30 0
EELAYER END
$Descr A3 16535 11693
encoding utf-8
Sheet 1 1
Title "Схема электрическая принципиальная"
Date ""
Rev ""
Comp "МГТУ им. Н.Э.Баумана"
Comment1 "Лабораторная работа 2"
Comment2 "Федотов Н.И"
Comment3 "Хохлов С.А"
Comment4 ""
$EndDescr
$Comp
L lr2:Connector J1
U 1 1 61F17C1F
P 12450 5350
F 0 "J1" H 12483 5715 50  0000 C CNN
F 1 "Connector" H 12483 5624 50  0000 C CNN
F 2 "Connector:Banana_Jack_3Pin" H 12650 5600 50  0001 C CNN
F 3 "" H 12650 5600 50  0001 C CNN
	1    12450 5350
	1    0    0    -1  
$EndComp
$Comp
L MCU_Microchip_PIC16:PIC16F18325-ISL U1
U 1 1 61F186C0
P 9050 3400
F 0 "U1" H 8150 3900 50  0000 C CNN
F 1 "PIC16F18325-ISL" H 8600 3900 50  0000 C CNN
F 2 "Package_SO:SOIC-14_3.9x8.7mm_P1.27mm" H 9050 2800 50  0001 C CNN
F 3 "http://ww1.microchip.com/downloads/en/devicedoc/40001795b.pdf" H 9050 2700 50  0001 C CNN
	1    9050 3400
	1    0    0    -1  
$EndComp
$Comp
L Device:R R1
U 1 1 61F18F74
P 12900 2850
F 0 "R1" V 12693 2850 50  0000 C CNN
F 1 "1k" V 12784 2850 50  0000 C CNN
F 2 "Resistor_THT:R_Axial_DIN0207_L6.3mm_D2.5mm_P2.54mm_Vertical" V 12830 2850 50  0001 C CNN
F 3 "~" H 12900 2850 50  0001 C CNN
	1    12900 2850
	0    1    1    0   
$EndComp
$Comp
L Device:R R2
U 1 1 61F1A008
P 13400 5400
F 0 "R2" V 13193 5400 50  0000 C CNN
F 1 "100" V 13284 5400 50  0000 C CNN
F 2 "Resistor_THT:R_Axial_DIN0207_L6.3mm_D2.5mm_P2.54mm_Vertical" V 13330 5400 50  0001 C CNN
F 3 "~" H 13400 5400 50  0001 C CNN
	1    13400 5400
	0    1    1    0   
$EndComp
$Comp
L Device:LED D1
U 1 1 61F1AE0F
P 12150 2850
F 0 "D1" H 12143 3067 50  0000 C CNN
F 1 "LED" H 12143 2976 50  0000 C CNN
F 2 "LED_THT:LED_D5.0mm" H 12150 2850 50  0001 C CNN
F 3 "~" H 12150 2850 50  0001 C CNN
	1    12150 2850
	1    0    0    -1  
$EndComp
$Comp
L power:VCC #PWR0101
U 1 1 61F1BADD
P 13000 5150
F 0 "#PWR0101" H 13000 5000 50  0001 C CNN
F 1 "VCC" H 13015 5323 50  0000 C CNN
F 2 "" H 13000 5150 50  0001 C CNN
F 3 "" H 13000 5150 50  0001 C CNN
	1    13000 5150
	1    0    0    -1  
$EndComp
$Comp
L power:VCC #PWR0102
U 1 1 61F1E2B5
P 13600 2600
F 0 "#PWR0102" H 13600 2450 50  0001 C CNN
F 1 "VCC" H 13615 2773 50  0000 C CNN
F 2 "" H 13600 2600 50  0001 C CNN
F 3 "" H 13600 2600 50  0001 C CNN
	1    13600 2600
	1    0    0    -1  
$EndComp
$Comp
L power:VCC #PWR0103
U 1 1 61F1EEA6
P 9050 2650
F 0 "#PWR0103" H 9050 2500 50  0001 C CNN
F 1 "VCC" H 9065 2823 50  0000 C CNN
F 2 "" H 9050 2650 50  0001 C CNN
F 3 "" H 9050 2650 50  0001 C CNN
	1    9050 2650
	1    0    0    -1  
$EndComp
$Comp
L power:GND #PWR0104
U 1 1 61F1F9D6
P 9050 4000
F 0 "#PWR0104" H 9050 3750 50  0001 C CNN
F 1 "GND" H 9055 3827 50  0000 C CNN
F 2 "" H 9050 4000 50  0001 C CNN
F 3 "" H 9050 4000 50  0001 C CNN
	1    9050 4000
	1    0    0    -1  
$EndComp
$Comp
L power:GND #PWR0105
U 1 1 61F20828
P 13000 5600
F 0 "#PWR0105" H 13000 5350 50  0001 C CNN
F 1 "GND" H 13005 5427 50  0000 C CNN
F 2 "" H 13000 5600 50  0001 C CNN
F 3 "" H 13000 5600 50  0001 C CNN
	1    13000 5600
	1    0    0    -1  
$EndComp
$Comp
L power:GND #PWR0106
U 1 1 61F21010
P 10650 4850
F 0 "#PWR0106" H 10650 4600 50  0001 C CNN
F 1 "GND" H 10655 4677 50  0000 C CNN
F 2 "" H 10650 4850 50  0001 C CNN
F 3 "" H 10650 4850 50  0001 C CNN
	1    10650 4850
	1    0    0    -1  
$EndComp
$Comp
L power:VCC #PWR0107
U 1 1 61F136C5
P 10350 4850
F 0 "#PWR0107" H 10350 4700 50  0001 C CNN
F 1 "VCC" H 10365 5023 50  0000 C CNN
F 2 "" H 10350 4850 50  0001 C CNN
F 3 "" H 10350 4850 50  0001 C CNN
	1    10350 4850
	1    0    0    1   
$EndComp
$Comp
L power:PWR_FLAG #FLG0101
U 1 1 61F1664C
P 10350 4750
F 0 "#FLG0101" H 10350 4825 50  0001 C CNN
F 1 "PWR_FLAG" H 10350 4923 50  0000 C CNN
F 2 "" H 10350 4750 50  0001 C CNN
F 3 "~" H 10350 4750 50  0001 C CNN
	1    10350 4750
	1    0    0    -1  
$EndComp
$Comp
L power:PWR_FLAG #FLG0102
U 1 1 61F16B51
P 10650 4750
F 0 "#FLG0102" H 10650 4825 50  0001 C CNN
F 1 "PWR_FLAG" H 10650 4923 50  0000 C CNN
F 2 "" H 10650 4750 50  0001 C CNN
F 3 "~" H 10650 4750 50  0001 C CNN
	1    10650 4750
	1    0    0    -1  
$EndComp
Wire Wire Line
	9050 2800 9050 2650
Wire Wire Line
	9050 3900 9050 4000
Wire Wire Line
	10350 4750 10350 4850
Wire Wire Line
	10650 4750 10650 4850
Wire Wire Line
	11550 3100 12000 3100
Wire Wire Line
	12000 3100 12000 2850
Wire Wire Line
	12300 2850 12750 2850
Wire Wire Line
	13050 2850 13600 2850
Wire Wire Line
	13600 2850 13600 2600
Wire Wire Line
	12850 5300 13000 5300
Wire Wire Line
	13000 5300 13000 5150
Wire Wire Line
	12850 5500 13000 5500
Wire Wire Line
	13000 5500 13000 5600
Wire Wire Line
	12850 5400 13250 5400
Wire Wire Line
	11550 3200 12850 3200
Wire Wire Line
	13550 5400 14700 5400
Text Label 12150 3200 0    50   ~ 0
Input
Text Label 13950 5400 0    50   ~ 0
Input
Text Label 12000 3050 0    50   ~ 0
uCtoLED
Text Label 12450 2850 0    50   ~ 0
LEDtoR
NoConn ~ 11550 3300
NoConn ~ 11550 3400
NoConn ~ 11550 3500
NoConn ~ 11550 3600
NoConn ~ 6550 3600
NoConn ~ 6550 3500
NoConn ~ 6550 3400
NoConn ~ 6550 3300
NoConn ~ 6550 3200
NoConn ~ 6550 3100
Text Label 12950 5400 0    50   ~ 0
InputtoR
$EndSCHEMATC
