EESchema Schematic File Version 4
EELAYER 30 0
EELAYER END
$Descr A3 16535 11693
encoding utf-8
Sheet 1 1
Title ""
Date ""
Rev ""
Comp ""
Comment1 ""
Comment2 ""
Comment3 ""
Comment4 ""
$EndDescr
$Comp
L MCU_Microchip_ATmega:ATmega8515-16AU DD1
U 1 1 61A9EE55
P 6100 4250
F 0 "DD1" H 5650 6250 50  0000 C CNN
F 1 "ATmega8515-16AU" H 6550 6250 50  0000 C CNN
F 2 "Package_QFP:TQFP-44_10x10mm_P0.8mm" H 6100 4250 50  0001 C CIN
F 3 "http://ww1.microchip.com/downloads/en/DeviceDoc/doc2512.pdf" H 6100 4250 50  0001 C CNN
	1    6100 4250
	1    0    0    -1  
$EndComp
Wire Bus Line
	4700 6450 7350 6450
Wire Bus Line
	7350 1900 5000 1900
$Comp
L lab4:IDC-06MS XP1
U 1 1 61B3CE8F
P 3850 6200
F 0 "XP1" H 3600 6100 50  0000 C CNN
F 1 "IDC-06MS" H 4000 6100 50  0000 C CNN
F 2 "Connector_Dsub:DSUB-9_Female_Horizontal_P2.77x2.54mm_EdgePinOffset9.40mm" H 3850 6200 50  0001 C CNN
F 3 "" H 3850 6200 50  0001 C CNN
	1    3850 6200
	1    0    0    -1  
$EndComp
$Comp
L power:VCC #PWR0115
U 1 1 61B47518
P 4400 6500
F 0 "#PWR0115" H 4400 6350 50  0001 C CNN
F 1 "VCC" V 4415 6628 50  0000 L CNN
F 2 "" H 4400 6500 50  0001 C CNN
F 3 "" H 4400 6500 50  0001 C CNN
	1    4400 6500
	0    1    1    0   
$EndComp
Wire Wire Line
	4250 6500 4350 6500
$Comp
L power:GND #PWR0116
U 1 1 61B49064
P 4350 7100
F 0 "#PWR0116" H 4350 6850 50  0001 C CNN
F 1 "GND" H 4355 6927 50  0000 C CNN
F 2 "" H 4350 7100 50  0001 C CNN
F 3 "" H 4350 7100 50  0001 C CNN
	1    4350 7100
	1    0    0    -1  
$EndComp
Wire Wire Line
	4250 7000 4350 7000
Wire Wire Line
	4350 7000 4350 7100
Entry Wire Line
	4600 6600 4700 6700
Entry Wire Line
	4600 6700 4700 6800
Entry Wire Line
	4600 6800 4700 6900
Entry Wire Line
	4600 6900 4700 7000
Wire Wire Line
	4250 6600 4600 6600
Wire Wire Line
	4250 6700 4600 6700
Wire Wire Line
	4250 6800 4600 6800
Wire Wire Line
	4250 6900 4600 6900
Text Label 4300 6600 0    50   ~ 0
MISO
Text Label 4300 6700 0    50   ~ 0
SCK
Text Label 4300 6800 0    50   ~ 0
MOSI
Text Label 4300 6900 0    50   ~ 0
RESET
Entry Wire Line
	7250 2550 7350 2650
Entry Wire Line
	7250 2650 7350 2750
Entry Wire Line
	7250 2750 7350 2850
Entry Wire Line
	7250 2850 7350 2950
Wire Wire Line
	6700 2550 7250 2550
Wire Wire Line
	6700 2650 7250 2650
Wire Wire Line
	6700 2750 7250 2750
Wire Wire Line
	6700 2850 7250 2850
Text Label 7000 2550 0    50   ~ 0
M1
Text Label 7000 2650 0    50   ~ 0
M2
Text Label 7000 2750 0    50   ~ 0
M3
Text Label 7000 2850 0    50   ~ 0
M4
Entry Wire Line
	7250 3950 7350 4050
Entry Wire Line
	7250 4050 7350 4150
Entry Wire Line
	7250 4150 7350 4250
Wire Wire Line
	6700 3950 7250 3950
Wire Wire Line
	6700 4050 7250 4050
Wire Wire Line
	6700 4150 7250 4150
Text Label 6900 3950 0    50   ~ 0
MOSI
Text Label 6900 4050 0    50   ~ 0
MISO
Text Label 6900 4150 0    50   ~ 0
SCK
Entry Wire Line
	5100 2550 5000 2650
Wire Wire Line
	5100 2550 5500 2550
Text Label 5100 2550 0    50   ~ 0
RESET
$Comp
L Device:Resonator ZQ1
U 1 1 61B67CDB
P 5350 2950
F 0 "ZQ1" V 5150 2800 50  0000 L CNN
F 1 "Resonator" V 5550 2750 50  0000 L CNN
F 2 "Crystal:Crystal_HC49-U-3Pin_Vertical" H 5325 2950 50  0001 C CNN
F 3 "~" H 5325 2950 50  0001 C CNN
	1    5350 2950
	0    1    1    0   
$EndComp
Wire Wire Line
	5350 3100 5500 3100
$Comp
L power:GND #PWR0117
U 1 1 61B67CE3
P 5150 2950
F 0 "#PWR0117" H 5150 2700 50  0001 C CNN
F 1 "GND" V 5050 2950 50  0000 R CNN
F 2 "" H 5150 2950 50  0001 C CNN
F 3 "" H 5150 2950 50  0001 C CNN
	1    5150 2950
	0    1    1    0   
$EndComp
Wire Wire Line
	5350 2800 5350 2750
Wire Wire Line
	5350 2750 5500 2750
Wire Wire Line
	5500 3100 5500 2950
$Comp
L Transistor_Array:ULN2003 DD2
U 1 1 61B866C5
P 4350 3900
F 0 "DD2" H 4600 4450 50  0000 C CNN
F 1 "ULN2003" H 4200 4450 50  0000 C CNN
F 2 "Package_DIP:DIP-16_W7.62mm" H 4400 3350 50  0001 L CNN
F 3 "http://www.ti.com/lit/ds/symlink/uln2003a.pdf" H 4450 3700 50  0001 C CNN
	1    4350 3900
	-1   0    0    -1  
$EndComp
$Comp
L power:GND #PWR0118
U 1 1 61B8CF00
P 4350 4650
F 0 "#PWR0118" H 4350 4400 50  0001 C CNN
F 1 "GND" H 4355 4477 50  0000 C CNN
F 2 "" H 4350 4650 50  0001 C CNN
F 3 "" H 4350 4650 50  0001 C CNN
	1    4350 4650
	1    0    0    -1  
$EndComp
Wire Wire Line
	4350 4650 4350 4500
Entry Wire Line
	4900 3700 5000 3800
Entry Wire Line
	4900 3800 5000 3900
Entry Wire Line
	4900 3900 5000 4000
Entry Wire Line
	4900 4000 5000 4100
Wire Wire Line
	4750 3700 4900 3700
Wire Wire Line
	4750 3800 4900 3800
Wire Wire Line
	4750 3900 4900 3900
Wire Wire Line
	4750 4000 4900 4000
Text Label 4800 3700 0    50   ~ 0
M1
Text Label 4800 3800 0    50   ~ 0
M2
Text Label 4800 3900 0    50   ~ 0
M3
Text Label 4800 4000 0    50   ~ 0
M4
$Comp
L Motor:Stepper_Motor_bipolar M1
U 1 1 61B9B110
P 3900 5100
F 0 "M1" V 4150 5200 50  0000 R CNN
F 1 "28BYJ-48" V 3850 4900 50  0000 R CNN
F 2 "Connector_PinSocket_2.54mm:PinSocket_1x05_P2.54mm_Horizontal" H 3910 5090 50  0001 C CNN
F 3 "http://www.infineon.com/dgdl/Application-Note-TLE8110EE_driving_UniPolarStepperMotor_V1.1.pdf?fileId=db3a30431be39b97011be5d0aa0a00b0" H 3910 5090 50  0001 C CNN
	1    3900 5100
	0    -1   -1   0   
$EndComp
Wire Wire Line
	3950 3700 3600 3700
Wire Wire Line
	3600 3700 3600 5000
Wire Wire Line
	3950 3800 3500 3800
Wire Wire Line
	3500 3800 3500 5200
Wire Wire Line
	3500 5200 3600 5200
Wire Wire Line
	3950 3900 3400 3900
Wire Wire Line
	3400 3900 3400 5400
Wire Wire Line
	3400 5400 3800 5400
Wire Wire Line
	3950 4000 3300 4000
Wire Wire Line
	3300 4000 3300 5500
Wire Wire Line
	3300 5500 4000 5500
Wire Wire Line
	4000 5500 4000 5400
$Comp
L Interface_Optical:TSOP45xx VD1
U 1 1 61BB70F9
P 3050 2000
F 0 "VD1" H 2700 2300 50  0000 C CNN
F 1 "TSOP45xx" H 3150 2300 50  0000 C CNN
F 2 "OptoDevice:Vishay_MOLD-3Pin" H 3000 1625 50  0001 C CNN
F 3 "http://www.vishay.com/docs/82460/tsop45.pdf" H 3700 2300 50  0001 C CNN
	1    3050 2000
	1    0    0    -1  
$EndComp
$Comp
L power:GND #PWR0119
U 1 1 61BC879A
P 4050 2000
F 0 "#PWR0119" H 4050 1750 50  0001 C CNN
F 1 "GND" V 4055 1872 50  0000 R CNN
F 2 "" H 4050 2000 50  0001 C CNN
F 3 "" H 4050 2000 50  0001 C CNN
	1    4050 2000
	0    -1   -1   0   
$EndComp
Wire Wire Line
	3750 2000 4050 2000
Wire Wire Line
	3450 2200 3750 2200
Wire Wire Line
	3750 2200 3750 2000
Wire Wire Line
	3450 2000 3600 2000
Wire Wire Line
	3600 2000 3600 2350
Wire Wire Line
	3600 2350 4900 2350
Entry Wire Line
	4900 2350 5000 2450
Text Label 4450 2350 0    50   ~ 0
RX
Entry Wire Line
	7250 5250 7350 5350
Wire Wire Line
	7250 5250 6700 5250
$Comp
L power:GND #PWR0121
U 1 1 61BF62C9
P 6100 6250
F 0 "#PWR0121" H 6100 6000 50  0001 C CNN
F 1 "GND" H 6105 6077 50  0000 C CNN
F 2 "" H 6100 6250 50  0001 C CNN
F 3 "" H 6100 6250 50  0001 C CNN
	1    6100 6250
	1    0    0    -1  
$EndComp
$Comp
L power:VCC #PWR0122
U 1 1 61BFB4C6
P 6100 2100
F 0 "#PWR0122" H 6100 1950 50  0001 C CNN
F 1 "VCC" H 6115 2273 50  0000 C CNN
F 2 "" H 6100 2100 50  0001 C CNN
F 3 "" H 6100 2100 50  0001 C CNN
	1    6100 2100
	1    0    0    -1  
$EndComp
Text Label 7000 5250 0    50   ~ 0
RX
NoConn ~ 4750 4100
NoConn ~ 4750 4200
NoConn ~ 4750 4300
NoConn ~ 3950 4100
NoConn ~ 3950 4200
NoConn ~ 3950 4300
NoConn ~ 3950 3500
NoConn ~ 6700 2950
NoConn ~ 6700 3050
NoConn ~ 6700 3150
NoConn ~ 6700 3250
NoConn ~ 6700 3450
NoConn ~ 6700 3550
NoConn ~ 6700 3650
NoConn ~ 6700 3750
NoConn ~ 6700 3850
NoConn ~ 6700 4350
NoConn ~ 6700 4450
NoConn ~ 6700 4550
NoConn ~ 6700 4650
NoConn ~ 6700 4750
NoConn ~ 6700 4850
NoConn ~ 6700 4950
NoConn ~ 6700 5050
NoConn ~ 6700 5350
NoConn ~ 6700 5450
NoConn ~ 6700 5550
NoConn ~ 6700 5650
NoConn ~ 6700 5750
NoConn ~ 6700 5850
NoConn ~ 6700 5950
NoConn ~ 5500 5250
NoConn ~ 5500 5350
NoConn ~ 5500 5450
$Comp
L power:PWR_FLAG #FLG0102
U 1 1 61CFE4A2
P 8150 4600
F 0 "#FLG0102" H 8150 4675 50  0001 C CNN
F 1 "PWR_FLAG" H 8150 4773 50  0000 C CNN
F 2 "" H 8150 4600 50  0001 C CNN
F 3 "~" H 8150 4600 50  0001 C CNN
	1    8150 4600
	1    0    0    -1  
$EndComp
$Comp
L power:GND #PWR0124
U 1 1 61CFF109
P 8150 4900
F 0 "#PWR0124" H 8150 4650 50  0001 C CNN
F 1 "GND" H 8155 4727 50  0000 C CNN
F 2 "" H 8150 4900 50  0001 C CNN
F 3 "" H 8150 4900 50  0001 C CNN
	1    8150 4900
	1    0    0    -1  
$EndComp
Wire Wire Line
	8150 4600 8150 4900
Wire Wire Line
	3450 1800 3600 1800
Wire Wire Line
	3600 1800 3600 1700
$Comp
L power:VCC #PWR0120
U 1 1 61D26ABB
P 3600 1700
F 0 "#PWR0120" H 3600 1550 50  0001 C CNN
F 1 "VCC" H 3615 1873 50  0000 C CNN
F 2 "" H 3600 1700 50  0001 C CNN
F 3 "" H 3600 1700 50  0001 C CNN
	1    3600 1700
	1    0    0    -1  
$EndComp
$Comp
L Device:C C1
U 1 1 61B51659
P 3850 1800
F 0 "C1" V 3700 1700 50  0000 C CNN
F 1 "0.1m" V 3750 1950 50  0000 C CNN
F 2 "Capacitor_SMD:C_0805_2012Metric" H 3888 1650 50  0001 C CNN
F 3 "~" H 3850 1800 50  0001 C CNN
	1    3850 1800
	0    1    1    0   
$EndComp
$Comp
L power:GND #PWR0127
U 1 1 61B5264C
P 4150 1800
F 0 "#PWR0127" H 4150 1550 50  0001 C CNN
F 1 "GND" V 4155 1672 50  0000 R CNN
F 2 "" H 4150 1800 50  0001 C CNN
F 3 "" H 4150 1800 50  0001 C CNN
	1    4150 1800
	0    -1   -1   0   
$EndComp
Wire Wire Line
	3700 1800 3600 1800
Connection ~ 3600 1800
Wire Wire Line
	4000 1800 4150 1800
$Comp
L power:GND #PWR0128
U 1 1 61B5CF1D
P 4350 6150
F 0 "#PWR0128" H 4350 5900 50  0001 C CNN
F 1 "GND" H 4355 5977 50  0000 C CNN
F 2 "" H 4350 6150 50  0001 C CNN
F 3 "" H 4350 6150 50  0001 C CNN
	1    4350 6150
	-1   0    0    1   
$EndComp
$Comp
L Device:C C7
U 1 1 61B5D566
P 4350 6300
F 0 "C7" H 4465 6346 50  0000 L CNN
F 1 "0.1m" H 4465 6255 50  0000 L CNN
F 2 "Capacitor_SMD:C_0805_2012Metric" H 4388 6150 50  0001 C CNN
F 3 "~" H 4350 6300 50  0001 C CNN
	1    4350 6300
	1    0    0    -1  
$EndComp
Wire Wire Line
	4350 6450 4350 6500
Connection ~ 4350 6500
Wire Wire Line
	4350 6500 4400 6500
Wire Wire Line
	6100 2100 6100 2150
$Comp
L power:GND #PWR0133
U 1 1 61B95C88
P 6850 2150
F 0 "#PWR0133" H 6850 1900 50  0001 C CNN
F 1 "GND" V 6855 2022 50  0000 R CNN
F 2 "" H 6850 2150 50  0001 C CNN
F 3 "" H 6850 2150 50  0001 C CNN
	1    6850 2150
	0    -1   -1   0   
$EndComp
$Comp
L Device:C C2
U 1 1 61B9662F
P 6450 2150
F 0 "C2" V 6350 2000 50  0000 C CNN
F 1 "0.1m" V 6350 2300 50  0000 C CNN
F 2 "Capacitor_SMD:C_0805_2012Metric" H 6488 2000 50  0001 C CNN
F 3 "~" H 6450 2150 50  0001 C CNN
	1    6450 2150
	0    1    1    0   
$EndComp
Wire Wire Line
	6300 2150 6100 2150
Connection ~ 6100 2150
Wire Wire Line
	6100 2150 6100 2250
Wire Wire Line
	6600 2150 6850 2150
$Comp
L power:VCC #PWR0136
U 1 1 61D38D2F
P 11250 4450
F 0 "#PWR0136" H 11250 4300 50  0001 C CNN
F 1 "VCC" V 11265 4578 50  0000 L CNN
F 2 "" H 11250 4450 50  0001 C CNN
F 3 "" H 11250 4450 50  0001 C CNN
	1    11250 4450
	0    1    1    0   
$EndComp
Wire Wire Line
	10800 4250 10800 4450
Wire Wire Line
	10800 4450 11250 4450
Wire Wire Line
	10800 3950 10800 3750
$Comp
L power:GND #PWR0137
U 1 1 61D3A908
P 10800 3750
F 0 "#PWR0137" H 10800 3500 50  0001 C CNN
F 1 "GND" H 10805 3577 50  0000 C CNN
F 2 "" H 10800 3750 50  0001 C CNN
F 3 "" H 10800 3750 50  0001 C CNN
	1    10800 3750
	-1   0    0    1   
$EndComp
$Comp
L Device:C C5
U 1 1 61D39F8B
P 10800 4100
F 0 "C5" H 10915 4146 50  0000 L CNN
F 1 "0.1m" H 10915 4055 50  0000 L CNN
F 2 "Capacitor_SMD:C_0805_2012Metric" H 10838 3950 50  0001 C CNN
F 3 "~" H 10800 4100 50  0001 C CNN
	1    10800 4100
	1    0    0    -1  
$EndComp
Wire Wire Line
	9750 4350 9750 4450
Connection ~ 9750 4350
Wire Wire Line
	10050 4350 9750 4350
Wire Wire Line
	10050 4250 10050 4350
Wire Wire Line
	10800 4800 10800 4850
Wire Wire Line
	10800 4450 10700 4450
Connection ~ 10800 4450
Wire Wire Line
	10800 4500 10800 4450
$Comp
L Device:CP C6
U 1 1 61D035F0
P 10800 4650
F 0 "C6" H 10850 4750 50  0000 L CNN
F 1 "0.1m" H 10850 4550 50  0000 L CNN
F 2 "Capacitor_SMD:C_0805_2012Metric" H 10838 4500 50  0001 C CNN
F 3 "~" H 10800 4650 50  0001 C CNN
	1    10800 4650
	1    0    0    -1  
$EndComp
Wire Wire Line
	10000 4850 10400 4850
Connection ~ 10000 4850
Wire Wire Line
	10000 4800 10000 4850
Wire Wire Line
	10000 4450 10100 4450
Connection ~ 10000 4450
Wire Wire Line
	10000 4500 10000 4450
$Comp
L Device:CP C4
U 1 1 61CF5961
P 10000 4650
F 0 "C4" H 10050 4750 50  0000 L CNN
F 1 "0.1m" H 10118 4605 50  0000 L CNN
F 2 "Capacitor_SMD:C_0805_2012Metric" H 10038 4500 50  0001 C CNN
F 3 "~" H 10000 4650 50  0001 C CNN
	1    10000 4650
	1    0    0    -1  
$EndComp
Wire Wire Line
	10400 4850 10800 4850
Wire Wire Line
	9750 4450 10000 4450
Wire Wire Line
	10400 4850 10400 4900
Connection ~ 10400 4850
Wire Wire Line
	9800 4550 9800 4850
Wire Wire Line
	9800 4850 10000 4850
Wire Wire Line
	10400 4750 10400 4850
$Comp
L Regulator_Linear:LM7812_TO220 U1
U 1 1 61CD6B92
P 10400 4450
F 0 "U1" H 10400 4692 50  0000 C CNN
F 1 "LM7812_TO220" H 10400 4601 50  0000 C CNN
F 2 "Package_TO_SOT_THT:TO-220-3_Vertical" H 10400 4675 50  0001 C CIN
F 3 "https://www.onsemi.cn/PowerSolutions/document/MC7800-D.PDF" H 10400 4400 50  0001 C CNN
	1    10400 4450
	1    0    0    -1  
$EndComp
Connection ~ 9750 4450
Wire Wire Line
	9750 4200 9750 4350
Wire Wire Line
	9750 3700 9750 3900
$Comp
L Device:C C3
U 1 1 61B761CD
P 9750 4050
F 0 "C3" H 9865 4096 50  0000 L CNN
F 1 "0.1m" H 9865 4005 50  0000 L CNN
F 2 "Capacitor_SMD:C_0805_2012Metric" H 9788 3900 50  0001 C CNN
F 3 "~" H 9750 4050 50  0001 C CNN
	1    9750 4050
	1    0    0    -1  
$EndComp
$Comp
L power:GND #PWR0131
U 1 1 61B75769
P 9750 3700
F 0 "#PWR0131" H 9750 3450 50  0001 C CNN
F 1 "GND" H 9755 3527 50  0000 C CNN
F 2 "" H 9750 3700 50  0001 C CNN
F 3 "" H 9750 3700 50  0001 C CNN
	1    9750 3700
	-1   0    0    1   
$EndComp
Wire Wire Line
	9650 4550 9800 4550
Wire Wire Line
	9650 4450 9750 4450
$Comp
L power:VCC #PWR0114
U 1 1 61B33D7E
P 10050 4250
F 0 "#PWR0114" H 10050 4100 50  0001 C CNN
F 1 "VCC" V 10065 4378 50  0000 L CNN
F 2 "" H 10050 4250 50  0001 C CNN
F 3 "" H 10050 4250 50  0001 C CNN
	1    10050 4250
	1    0    0    -1  
$EndComp
$Comp
L power:GND #PWR0112
U 1 1 61B32F19
P 10400 4900
F 0 "#PWR0112" H 10400 4650 50  0001 C CNN
F 1 "GND" H 10405 4727 50  0000 C CNN
F 2 "" H 10400 4900 50  0001 C CNN
F 3 "" H 10400 4900 50  0001 C CNN
	1    10400 4900
	1    0    0    -1  
$EndComp
$Comp
L lab4:MPW-2R XP2
U 1 1 61B2D7A8
P 9250 4150
F 0 "XP2" H 9050 4050 50  0000 C CNN
F 1 "MPW-2R" H 9400 4050 50  0000 C CNN
F 2 "Connector:Banana_Jack_2Pin" H 9250 4150 50  0001 C CNN
F 3 "" H 9250 4150 50  0001 C CNN
F 4 "12V" H 9400 3850 50  0000 C CNN "Power Value"
	1    9250 4150
	1    0    0    -1  
$EndComp
Wire Bus Line
	4700 6450 4700 7150
Wire Bus Line
	5000 1900 5000 4700
Wire Bus Line
	7350 1900 7350 6450
$EndSCHEMATC
