EESchema Schematic File Version 4
EELAYER 30 0
EELAYER END
$Descr A3 16535 11693
encoding utf-8
Sheet 1 1
Title "Урок1"
Date ""
Rev ""
Comp ""
Comment1 ""
Comment2 "Прасолова"
Comment3 "Хохлов"
Comment4 ""
$EndDescr
$Comp
L Device:R R2
U 1 1 616EDF74
P 8050 4200
F 0 "R2" V 7843 4200 50  0000 C CNN
F 1 "1k" V 7934 4200 50  0000 C CNN
F 2 "" V 7980 4200 50  0001 C CNN
F 3 "~" H 8050 4200 50  0001 C CNN
	1    8050 4200
	0    1    1    0   
$EndComp
$Comp
L Device:R R1
U 1 1 616EE51A
P 7300 5500
F 0 "R1" V 7093 5500 50  0000 C CNN
F 1 "100" V 7184 5500 50  0000 C CNN
F 2 "" V 7230 5500 50  0001 C CNN
F 3 "~" H 7300 5500 50  0001 C CNN
	1    7300 5500
	0    1    1    0   
$EndComp
$Comp
L MCU_Microchip_PIC12:PIC12C508A-ISN U1
U 1 1 616EED7F
P 6100 4650
F 0 "U1" H 6100 5431 50  0000 C CNN
F 1 "PIC12C508A-ISN" H 6100 5340 50  0000 C CNN
F 2 "Package_DIP:DIP-8_W7.62mm" H 6700 5300 50  0001 C CNN
F 3 "http://ww1.microchip.com/downloads/en/devicedoc/40139e.pdf" H 6100 4650 50  0001 C CNN
	1    6100 4650
	-1   0    0    -1  
$EndComp
$Comp
L Device:LED D1
U 1 1 616EF685
P 7600 4200
F 0 "D1" H 7593 4417 50  0000 C CNN
F 1 "LED" H 7593 4326 50  0000 C CNN
F 2 "" H 7600 4200 50  0001 C CNN
F 3 "~" H 7600 4200 50  0001 C CNN
	1    7600 4200
	1    0    0    -1  
$EndComp
$Comp
L myLib:MYCONN3 J1
U 1 1 616EE46E
P 6500 5300
F 0 "J1" H 6500 4900 50  0000 C CNN
F 1 "MYCONN3" H 6558 5334 50  0000 C CNN
F 2 "" H 6500 5300 50  0001 C CNN
F 3 "" H 6500 5300 50  0001 C CNN
	1    6500 5300
	1    0    0    -1  
$EndComp
$Comp
L power:VCC #PWR05
U 1 1 616EF5BE
P 6950 5300
F 0 "#PWR05" H 6950 5150 50  0001 C CNN
F 1 "VCC" H 6965 5473 50  0000 C CNN
F 2 "" H 6950 5300 50  0001 C CNN
F 3 "" H 6950 5300 50  0001 C CNN
	1    6950 5300
	1    0    0    -1  
$EndComp
$Comp
L power:VCC #PWR07
U 1 1 616F080D
P 8350 4100
F 0 "#PWR07" H 8350 3950 50  0001 C CNN
F 1 "VCC" H 8365 4273 50  0000 C CNN
F 2 "" H 8350 4100 50  0001 C CNN
F 3 "" H 8350 4100 50  0001 C CNN
	1    8350 4100
	1    0    0    -1  
$EndComp
$Comp
L power:VCC #PWR03
U 1 1 616F0FB6
P 6100 3800
F 0 "#PWR03" H 6100 3650 50  0001 C CNN
F 1 "VCC" H 6115 3973 50  0000 C CNN
F 2 "" H 6100 3800 50  0001 C CNN
F 3 "" H 6100 3800 50  0001 C CNN
	1    6100 3800
	1    0    0    -1  
$EndComp
$Comp
L power:GND #PWR06
U 1 1 616F18F1
P 6950 5750
F 0 "#PWR06" H 6950 5500 50  0001 C CNN
F 1 "GND" H 6955 5577 50  0000 C CNN
F 2 "" H 6950 5750 50  0001 C CNN
F 3 "" H 6950 5750 50  0001 C CNN
	1    6950 5750
	1    0    0    -1  
$EndComp
$Comp
L power:GND #PWR04
U 1 1 616F20B1
P 6100 5450
F 0 "#PWR04" H 6100 5200 50  0001 C CNN
F 1 "GND" H 6105 5277 50  0000 C CNN
F 2 "" H 6100 5450 50  0001 C CNN
F 3 "" H 6100 5450 50  0001 C CNN
	1    6100 5450
	1    0    0    -1  
$EndComp
Wire Wire Line
	8350 4100 8350 4200
Wire Wire Line
	8350 4200 8200 4200
Wire Wire Line
	7900 4200 7750 4200
Wire Wire Line
	6100 4050 6100 3800
Wire Wire Line
	6100 5250 6100 5450
Wire Wire Line
	7450 4200 6700 4200
Wire Wire Line
	6700 4200 6700 4550
Wire Wire Line
	6800 5400 6950 5400
Wire Wire Line
	6950 5400 6950 5300
Wire Wire Line
	6800 5600 6950 5600
Wire Wire Line
	6950 5600 6950 5750
Wire Wire Line
	6800 5500 7150 5500
Wire Wire Line
	7450 5500 8000 5500
Wire Wire Line
	6700 4650 7250 4650
NoConn ~ 6700 4750
NoConn ~ 5500 4750
NoConn ~ 5500 4650
NoConn ~ 5500 4550
$Comp
L power:GND #PWR01
U 1 1 616F6344
P 5650 6100
F 0 "#PWR01" H 5650 5850 50  0001 C CNN
F 1 "GND" H 5655 5927 50  0000 C CNN
F 2 "" H 5650 6100 50  0001 C CNN
F 3 "" H 5650 6100 50  0001 C CNN
	1    5650 6100
	1    0    0    -1  
$EndComp
$Comp
L power:VCC #PWR02
U 1 1 616F6A29
P 5950 6150
F 0 "#PWR02" H 5950 6000 50  0001 C CNN
F 1 "VCC" H 5965 6323 50  0000 C CNN
F 2 "" H 5950 6150 50  0001 C CNN
F 3 "" H 5950 6150 50  0001 C CNN
	1    5950 6150
	1    0    0    -1  
$EndComp
$Comp
L power:PWR_FLAG #FLG?
U 1 1 616F6E9E
P 5950 6150
F 0 "#FLG?" H 5950 6225 50  0001 C CNN
F 1 "PWR_FLAG" H 5950 6323 50  0000 C CNN
F 2 "" H 5950 6150 50  0001 C CNN
F 3 "~" H 5950 6150 50  0001 C CNN
	1    5950 6150
	-1   0    0    1   
$EndComp
$Comp
L power:PWR_FLAG #FLG?
U 1 1 616F7546
P 5650 5900
F 0 "#FLG?" H 5650 5975 50  0001 C CNN
F 1 "PWR_FLAG" H 5650 6073 50  0000 C CNN
F 2 "" H 5650 5900 50  0001 C CNN
F 3 "~" H 5650 5900 50  0001 C CNN
	1    5650 5900
	1    0    0    -1  
$EndComp
Wire Wire Line
	5650 5900 5650 6100
Text Label 6900 4650 0    50   ~ 0
INPUT
Text Label 6800 5500 0    50   ~ 0
INPUTtoR
Text Label 7650 5500 0    50   ~ 0
INPUT
Text Label 6700 4350 0    50   ~ 0
uCtoLED
Text Label 7800 4200 1    50   ~ 0
LEDtoR
$EndSCHEMATC
