EESchema Schematic File Version 4
EELAYER 30 0
EELAYER END
$Descr A4 11693 8268
encoding utf-8
Sheet 1 1
Title ""
Date ""
Rev ""
Comp ""
Comment1 ""
Comment2 ""
Comment3 ""
Comment4 ""
$EndDescr
$Comp
L MCU_Microchip_ATmega:ATmega8515-16AU DD1
U 1 1 61A9CEB4
P 3650 3200
F 0 "DD1" H 3250 5200 50  0000 C CNN
F 1 "ATmega8515-16AU" H 4050 5200 50  0000 C CNN
F 2 "Package_QFP:TQFP-44_10x10mm_P0.8mm" H 3650 3200 50  0001 C CIN
F 3 "http://ww1.microchip.com/downloads/en/DeviceDoc/doc2512.pdf" H 3650 3200 50  0001 C CNN
F 4 "Микросхемы" H 3650 3200 60  0001 C CNN "Группа"
	1    3650 3200
	1    0    0    -1  
$EndComp
$Comp
L MCU_Microchip_ATmega:ATmega8515-16AU DD2
U 1 1 61A9EE55
P 8550 3400
F 0 "DD2" H 8100 5400 50  0000 C CNN
F 1 "ATmega8515-16AU" H 9000 5400 50  0000 C CNN
F 2 "Package_QFP:TQFP-44_10x10mm_P0.8mm" H 8550 3400 50  0001 C CIN
F 3 "http://ww1.microchip.com/downloads/en/DeviceDoc/doc2512.pdf" H 8550 3400 50  0001 C CNN
F 4 "Микросхемы" H 8550 3400 60  0001 C CNN "Группа"
	1    8550 3400
	1    0    0    -1  
$EndComp
$Comp
L lab4:IDC-06MS XP1
U 1 1 61AA361D
P 1350 5350
F 0 "XP1" H 1100 5250 50  0000 C CNN
F 1 "IDC-06MS" H 1550 5250 50  0000 C CNN
F 2 "Connector_Dsub:DSUB-9_Female_Horizontal_P2.77x2.54mm_EdgePinOffset9.40mm" H 1350 5350 50  0001 C CNN
F 3 "" H 1350 5350 50  0001 C CNN
F 4 "Коннекторы" H 1350 5350 60  0001 C CNN "Группа"
	1    1350 5350
	1    0    0    -1  
$EndComp
$Comp
L power:VCC #PWR0101
U 1 1 61AA6956
P 1950 5650
F 0 "#PWR0101" H 1950 5500 50  0001 C CNN
F 1 "VCC" V 1965 5778 50  0000 L CNN
F 2 "" H 1950 5650 50  0001 C CNN
F 3 "" H 1950 5650 50  0001 C CNN
	1    1950 5650
	0    1    1    0   
$EndComp
$Comp
L power:GND #PWR0102
U 1 1 61AA7357
P 1850 6200
F 0 "#PWR0102" H 1850 5950 50  0001 C CNN
F 1 "GND" H 1855 6027 50  0000 C CNN
F 2 "" H 1850 6200 50  0001 C CNN
F 3 "" H 1850 6200 50  0001 C CNN
	1    1850 6200
	1    0    0    -1  
$EndComp
Wire Wire Line
	1750 5650 1850 5650
Wire Wire Line
	1750 6150 1850 6150
Wire Wire Line
	1850 6150 1850 6200
$Comp
L power:VCC #PWR0103
U 1 1 61AAAA13
P 3650 1050
F 0 "#PWR0103" H 3650 900 50  0001 C CNN
F 1 "VCC" H 3665 1223 50  0000 C CNN
F 2 "" H 3650 1050 50  0001 C CNN
F 3 "" H 3650 1050 50  0001 C CNN
	1    3650 1050
	1    0    0    -1  
$EndComp
Wire Wire Line
	3650 1050 3650 1100
$Comp
L power:GND #PWR0104
U 1 1 61AABF45
P 3650 5350
F 0 "#PWR0104" H 3650 5100 50  0001 C CNN
F 1 "GND" H 3655 5177 50  0000 C CNN
F 2 "" H 3650 5350 50  0001 C CNN
F 3 "" H 3650 5350 50  0001 C CNN
	1    3650 5350
	1    0    0    -1  
$EndComp
Wire Wire Line
	3650 5200 3650 5350
Wire Wire Line
	1750 5750 2200 5750
Wire Wire Line
	1750 5850 2200 5850
Wire Wire Line
	1750 5950 2200 5950
Wire Wire Line
	1750 6050 2200 6050
Entry Wire Line
	2200 5750 2300 5850
Entry Wire Line
	2200 5850 2300 5950
Entry Wire Line
	2200 5950 2300 6050
Entry Wire Line
	2200 6050 2300 6150
Text Label 1800 5750 0    50   ~ 0
MISO
Text Label 1800 5850 0    50   ~ 0
SCK
Text Label 1800 5950 0    50   ~ 0
MOSI
Text Label 1800 6050 0    50   ~ 0
RESET
$Comp
L Device:Resonator ZQ1
U 1 1 61AC2F58
P 2900 2300
F 0 "ZQ1" V 2700 2150 50  0000 L CNN
F 1 "Resonator" V 3100 2100 50  0000 L CNN
F 2 "Crystal:Crystal_HC49-U-3Pin_Vertical" H 2875 2300 50  0001 C CNN
F 3 "~" H 2875 2300 50  0001 C CNN
F 4 "Резонаторы" H 2900 2300 60  0001 C CNN "Группа"
	1    2900 2300
	0    1    1    0   
$EndComp
Wire Wire Line
	2900 2150 2900 1700
Wire Wire Line
	2900 1700 3050 1700
Wire Wire Line
	2900 2450 3050 2450
Wire Wire Line
	3050 2450 3050 1900
$Comp
L power:GND #PWR0105
U 1 1 61ABDA2B
P 2600 2300
F 0 "#PWR0105" H 2600 2050 50  0001 C CNN
F 1 "GND" V 2605 2172 50  0000 R CNN
F 2 "" H 2600 2300 50  0001 C CNN
F 3 "" H 2600 2300 50  0001 C CNN
	1    2600 2300
	0    1    1    0   
$EndComp
Wire Wire Line
	2600 2300 2700 2300
Entry Wire Line
	2700 1600 2800 1500
Wire Wire Line
	2800 1500 3050 1500
Text Label 2800 1500 0    50   ~ 0
RESET
$Comp
L Device:R R1
U 1 1 61ADE1CE
P 1750 1050
F 0 "R1" H 1820 1096 50  0000 L CNN
F 1 "10k" H 1820 1005 50  0000 L CNN
F 2 "Resistor_THT:R_Axial_DIN0207_L6.3mm_D2.5mm_P2.54mm_Vertical" V 1680 1050 50  0001 C CNN
F 3 "~" H 1750 1050 50  0001 C CNN
F 4 "Резисторы" H 1750 1050 60  0001 C CNN "Группа"
	1    1750 1050
	1    0    0    -1  
$EndComp
$Comp
L Device:R R2
U 1 1 61ADF8CD
P 1750 1600
F 0 "R2" H 1820 1646 50  0000 L CNN
F 1 "10k" H 1820 1555 50  0000 L CNN
F 2 "Resistor_THT:R_Axial_DIN0207_L6.3mm_D2.5mm_P2.54mm_Vertical" V 1680 1600 50  0001 C CNN
F 3 "~" H 1750 1600 50  0001 C CNN
F 4 "Резисторы" H 1750 1600 60  0001 C CNN "Группа"
	1    1750 1600
	1    0    0    -1  
$EndComp
$Comp
L Switch:SW_Push SW1
U 1 1 61AE1C9E
P 1200 850
F 0 "SW1" H 1100 1000 50  0000 C CNN
F 1 "SW_Push" H 1400 1000 50  0000 C CNN
F 2 "Button_Switch_THT:SW_Tactile_SKHH_Angled" H 1200 1050 50  0001 C CNN
F 3 "~" H 1200 1050 50  0001 C CNN
F 4 "Кнопки" H 1200 850 60  0001 C CNN "Группа"
	1    1200 850 
	1    0    0    -1  
$EndComp
$Comp
L Switch:SW_Push SW2
U 1 1 61AE3401
P 1200 1450
F 0 "SW2" H 1100 1600 50  0000 C CNN
F 1 "SW_Push" H 1400 1600 50  0000 C CNN
F 2 "Button_Switch_THT:SW_Tactile_SKHH_Angled" H 1200 1650 50  0001 C CNN
F 3 "~" H 1200 1650 50  0001 C CNN
F 4 "Кнопки" H 1200 1450 60  0001 C CNN "Группа"
	1    1200 1450
	1    0    0    -1  
$EndComp
$Comp
L power:VCC #PWR0106
U 1 1 61AE3FED
P 800 850
F 0 "#PWR0106" H 800 700 50  0001 C CNN
F 1 "VCC" V 815 977 50  0000 L CNN
F 2 "" H 800 850 50  0001 C CNN
F 3 "" H 800 850 50  0001 C CNN
	1    800  850 
	0    -1   -1   0   
$EndComp
$Comp
L power:VCC #PWR0107
U 1 1 61AE4ABA
P 800 1450
F 0 "#PWR0107" H 800 1300 50  0001 C CNN
F 1 "VCC" V 815 1577 50  0000 L CNN
F 2 "" H 800 1450 50  0001 C CNN
F 3 "" H 800 1450 50  0001 C CNN
	1    800  1450
	0    -1   -1   0   
$EndComp
Wire Wire Line
	800  850  1000 850 
Wire Wire Line
	800  1450 1000 1450
Entry Wire Line
	2600 850  2700 950 
Entry Wire Line
	2600 1450 2700 1550
Wire Wire Line
	1400 850  1750 850 
Wire Wire Line
	1750 900  1750 850 
Connection ~ 1750 850 
Wire Wire Line
	1750 850  2600 850 
$Comp
L power:GND #PWR0108
U 1 1 61AE7916
P 1750 1200
F 0 "#PWR0108" H 1750 950 50  0001 C CNN
F 1 "GND" H 1755 1027 50  0000 C CNN
F 2 "" H 1750 1200 50  0001 C CNN
F 3 "" H 1750 1200 50  0001 C CNN
	1    1750 1200
	1    0    0    -1  
$EndComp
$Comp
L power:GND #PWR0109
U 1 1 61AE82BB
P 1750 1750
F 0 "#PWR0109" H 1750 1500 50  0001 C CNN
F 1 "GND" H 1755 1577 50  0000 C CNN
F 2 "" H 1750 1750 50  0001 C CNN
F 3 "" H 1750 1750 50  0001 C CNN
	1    1750 1750
	1    0    0    -1  
$EndComp
Wire Wire Line
	1400 1450 1750 1450
Connection ~ 1750 1450
Wire Wire Line
	1750 1450 2600 1450
Text Label 2350 850  0    50   ~ 0
BUT1
Text Label 2350 1450 0    50   ~ 0
BUT2
Wire Wire Line
	4250 2900 4700 2900
Wire Wire Line
	4250 3000 4700 3000
Wire Wire Line
	4250 3100 4700 3100
Text Label 4450 2900 0    50   ~ 0
MOSI
Text Label 4450 3000 0    50   ~ 0
MISO
Text Label 4450 3100 0    50   ~ 0
SCK
Entry Wire Line
	4700 3100 4800 3200
Entry Wire Line
	4700 3000 4800 3100
Entry Wire Line
	4700 2900 4800 3000
Wire Bus Line
	2300 5650 4800 5650
Wire Bus Line
	2700 750  4800 750 
Entry Wire Line
	4700 1500 4800 1600
Entry Wire Line
	4700 1600 4800 1700
Wire Wire Line
	4250 1500 4700 1500
Wire Wire Line
	4250 1600 4700 1600
Text Label 4400 1500 0    50   ~ 0
BUT1
Text Label 4400 1600 0    50   ~ 0
BUT2
$Comp
L Transistor_BJT:2N3906 VT1
U 1 1 61B0BDD4
P 1400 2850
F 0 "VT1" H 1591 2850 50  0000 L CNN
F 1 "2N3906" H 1591 2895 50  0001 L CNN
F 2 "Package_TO_SOT_THT:TO-92_Inline" H 1600 2775 50  0001 L CIN
F 3 "https://www.onsemi.com/pub/Collateral/2N3906-D.PDF" H 1400 2850 50  0001 L CNN
F 4 "Транзисторы" H 1400 2850 60  0001 C CNN "Группа"
	1    1400 2850
	-1   0    0    1   
$EndComp
$Comp
L Device:R R3
U 1 1 61B0F38B
P 1300 3350
F 0 "R3" H 1370 3396 50  0000 L CNN
F 1 "1k" H 1370 3305 50  0000 L CNN
F 2 "Resistor_THT:R_Axial_DIN0207_L6.3mm_D2.5mm_P2.54mm_Vertical" V 1230 3350 50  0001 C CNN
F 3 "~" H 1300 3350 50  0001 C CNN
F 4 "Резисторы" H 1300 3350 60  0001 C CNN "Группа"
	1    1300 3350
	1    0    0    -1  
$EndComp
$Comp
L power:VCC #PWR0110
U 1 1 61B10C17
P 1150 2500
F 0 "#PWR0110" H 1150 2350 50  0001 C CNN
F 1 "VCC" V 1165 2627 50  0000 L CNN
F 2 "" H 1150 2500 50  0001 C CNN
F 3 "" H 1150 2500 50  0001 C CNN
	1    1150 2500
	0    -1   -1   0   
$EndComp
Wire Wire Line
	1150 2500 1300 2500
Wire Wire Line
	1300 2500 1300 2650
$Comp
L Device:LED HL1
U 1 1 61B12003
P 1300 3800
F 0 "HL1" V 1339 3682 50  0000 R CNN
F 1 "TSAL6200" V 1248 3682 50  0000 R CNN
F 2 "LED_THT:LED_D2.0mm_W4.8mm_H2.5mm_FlatTop" H 1300 3800 50  0001 C CNN
F 3 "~" H 1300 3800 50  0001 C CNN
F 4 "Светодиоды" H 1300 3800 60  0001 C CNN "Группа"
	1    1300 3800
	0    -1   -1   0   
$EndComp
Wire Bus Line
	2700 2000 2300 2000
Wire Wire Line
	1300 3050 1300 3200
Wire Wire Line
	1300 3500 1300 3650
$Comp
L Device:R R4
U 1 1 61B0F9B1
P 1850 2850
F 0 "R4" V 1750 2750 50  0000 C CNN
F 1 "1k" V 1750 2950 50  0000 C CNN
F 2 "Resistor_THT:R_Axial_DIN0207_L6.3mm_D2.5mm_P2.54mm_Vertical" V 1780 2850 50  0001 C CNN
F 3 "~" H 1850 2850 50  0001 C CNN
F 4 "Резисторы" H 1850 2850 60  0001 C CNN "Группа"
	1    1850 2850
	0    1    1    0   
$EndComp
Wire Wire Line
	1600 2850 1700 2850
Entry Wire Line
	2200 2850 2300 2950
Wire Wire Line
	2000 2850 2200 2850
Wire Wire Line
	1300 3950 1300 4050
Text Label 2050 2850 0    50   ~ 0
LED1
Entry Wire Line
	4700 4700 4800 4800
Wire Wire Line
	4250 4700 4700 4700
Text Label 4500 4700 0    50   ~ 0
LED1
$Comp
L lab4:MPW-2R XP3
U 1 1 61B2CFEC
P 1100 6700
F 0 "XP3" H 900 6600 50  0000 C CNN
F 1 "MPW-2R" H 1250 6600 50  0000 C CNN
F 2 "Connector:Banana_Jack_2Pin" H 1100 6700 50  0001 C CNN
F 3 "" H 1100 6700 50  0001 C CNN
F 4 "5V" H 1250 6400 50  0000 C CNN "Power Value"
F 5 "Коннекторы" H 1100 6700 60  0001 C CNN "Группа"
	1    1100 6700
	1    0    0    -1  
$EndComp
$Comp
L lab4:MPW-2R XP4
U 1 1 61B2D7A8
P 4000 6750
F 0 "XP4" H 3800 6650 50  0000 C CNN
F 1 "MPW-2R" H 4150 6650 50  0000 C CNN
F 2 "Connector:Banana_Jack_2Pin" H 4000 6750 50  0001 C CNN
F 3 "" H 4000 6750 50  0001 C CNN
F 4 "12V" H 4150 6450 50  0000 C CNN "Power Value"
F 5 "Коннекторы" H 4000 6750 60  0001 C CNN "Группа"
	1    4000 6750
	1    0    0    -1  
$EndComp
$Comp
L power:GND #PWR0112
U 1 1 61B32F19
P 5150 7500
F 0 "#PWR0112" H 5150 7250 50  0001 C CNN
F 1 "GND" H 5155 7327 50  0000 C CNN
F 2 "" H 5150 7500 50  0001 C CNN
F 3 "" H 5150 7500 50  0001 C CNN
	1    5150 7500
	1    0    0    -1  
$EndComp
$Comp
L power:VCC #PWR0114
U 1 1 61B33D7E
P 4800 6850
F 0 "#PWR0114" H 4800 6700 50  0001 C CNN
F 1 "VCC" V 4815 6978 50  0000 L CNN
F 2 "" H 4800 6850 50  0001 C CNN
F 3 "" H 4800 6850 50  0001 C CNN
	1    4800 6850
	1    0    0    -1  
$EndComp
Wire Wire Line
	4400 7050 4500 7050
Wire Wire Line
	4400 7150 4550 7150
Wire Bus Line
	7150 5600 9800 5600
Wire Bus Line
	9800 1050 7450 1050
$Comp
L lab4:IDC-06MS XP2
U 1 1 61B3CE8F
P 6300 5350
F 0 "XP2" H 6050 5250 50  0000 C CNN
F 1 "IDC-06MS" H 6450 5250 50  0000 C CNN
F 2 "Connector_Dsub:DSUB-9_Female_Horizontal_P2.77x2.54mm_EdgePinOffset9.40mm" H 6300 5350 50  0001 C CNN
F 3 "" H 6300 5350 50  0001 C CNN
F 4 "Коннекторы" H 6300 5350 60  0001 C CNN "Группа"
	1    6300 5350
	1    0    0    -1  
$EndComp
$Comp
L power:VCC #PWR0115
U 1 1 61B47518
P 6850 5650
F 0 "#PWR0115" H 6850 5500 50  0001 C CNN
F 1 "VCC" V 6865 5778 50  0000 L CNN
F 2 "" H 6850 5650 50  0001 C CNN
F 3 "" H 6850 5650 50  0001 C CNN
	1    6850 5650
	0    1    1    0   
$EndComp
Wire Wire Line
	6700 5650 6800 5650
$Comp
L power:GND #PWR0116
U 1 1 61B49064
P 6800 6250
F 0 "#PWR0116" H 6800 6000 50  0001 C CNN
F 1 "GND" H 6805 6077 50  0000 C CNN
F 2 "" H 6800 6250 50  0001 C CNN
F 3 "" H 6800 6250 50  0001 C CNN
	1    6800 6250
	1    0    0    -1  
$EndComp
Wire Wire Line
	6700 6150 6800 6150
Wire Wire Line
	6800 6150 6800 6250
Entry Wire Line
	7050 5750 7150 5850
Entry Wire Line
	7050 5850 7150 5950
Entry Wire Line
	7050 5950 7150 6050
Entry Wire Line
	7050 6050 7150 6150
Wire Wire Line
	6700 5750 7050 5750
Wire Wire Line
	6700 5850 7050 5850
Wire Wire Line
	6700 5950 7050 5950
Wire Wire Line
	6700 6050 7050 6050
Text Label 6750 5750 0    50   ~ 0
MISO
Text Label 6750 5850 0    50   ~ 0
SCK
Text Label 6750 5950 0    50   ~ 0
MOSI
Text Label 6750 6050 0    50   ~ 0
RESET
Entry Wire Line
	9700 1700 9800 1800
Entry Wire Line
	9700 1800 9800 1900
Entry Wire Line
	9700 1900 9800 2000
Entry Wire Line
	9700 2000 9800 2100
Wire Wire Line
	9150 1700 9700 1700
Wire Wire Line
	9150 1800 9700 1800
Wire Wire Line
	9150 1900 9700 1900
Wire Wire Line
	9150 2000 9700 2000
Text Label 9450 1700 0    50   ~ 0
M1
Text Label 9450 1800 0    50   ~ 0
M2
Text Label 9450 1900 0    50   ~ 0
M3
Text Label 9450 2000 0    50   ~ 0
M4
Entry Wire Line
	9700 3100 9800 3200
Entry Wire Line
	9700 3200 9800 3300
Entry Wire Line
	9700 3300 9800 3400
Wire Wire Line
	9150 3100 9700 3100
Wire Wire Line
	9150 3200 9700 3200
Wire Wire Line
	9150 3300 9700 3300
Text Label 9350 3100 0    50   ~ 0
MOSI
Text Label 9350 3200 0    50   ~ 0
MISO
Text Label 9350 3300 0    50   ~ 0
SCK
Entry Wire Line
	7550 1700 7450 1800
Wire Wire Line
	7550 1700 7950 1700
Text Label 7550 1700 0    50   ~ 0
RESET
$Comp
L Device:Resonator ZQ2
U 1 1 61B67CDB
P 7800 2100
F 0 "ZQ2" V 7600 1950 50  0000 L CNN
F 1 "Resonator" V 8000 1900 50  0000 L CNN
F 2 "Crystal:Crystal_HC49-U-3Pin_Vertical" H 7775 2100 50  0001 C CNN
F 3 "~" H 7775 2100 50  0001 C CNN
	1    7800 2100
	0    1    1    0   
$EndComp
Wire Wire Line
	7800 2250 7950 2250
$Comp
L power:GND #PWR0117
U 1 1 61B67CE3
P 7600 2100
F 0 "#PWR0117" H 7600 1850 50  0001 C CNN
F 1 "GND" V 7500 2100 50  0000 R CNN
F 2 "" H 7600 2100 50  0001 C CNN
F 3 "" H 7600 2100 50  0001 C CNN
	1    7600 2100
	0    1    1    0   
$EndComp
Wire Wire Line
	7800 1950 7800 1900
Wire Wire Line
	7800 1900 7950 1900
Wire Wire Line
	7950 2250 7950 2100
$Comp
L Transistor_Array:ULN2003 DD3
U 1 1 61B866C5
P 6800 3050
F 0 "DD3" H 7050 3600 50  0000 C CNN
F 1 "ULN2003" H 6650 3600 50  0000 C CNN
F 2 "Package_DIP:DIP-16_W7.62mm" H 6850 2500 50  0001 L CNN
F 3 "http://www.ti.com/lit/ds/symlink/uln2003a.pdf" H 6900 2850 50  0001 C CNN
F 4 "Микросхемы" H 6800 3050 60  0001 C CNN "Группа"
	1    6800 3050
	-1   0    0    -1  
$EndComp
$Comp
L power:GND #PWR0118
U 1 1 61B8CF00
P 6800 3800
F 0 "#PWR0118" H 6800 3550 50  0001 C CNN
F 1 "GND" H 6805 3627 50  0000 C CNN
F 2 "" H 6800 3800 50  0001 C CNN
F 3 "" H 6800 3800 50  0001 C CNN
	1    6800 3800
	1    0    0    -1  
$EndComp
Wire Wire Line
	6800 3800 6800 3650
Entry Wire Line
	7350 2850 7450 2950
Entry Wire Line
	7350 2950 7450 3050
Entry Wire Line
	7350 3050 7450 3150
Entry Wire Line
	7350 3150 7450 3250
Wire Wire Line
	7200 2850 7350 2850
Wire Wire Line
	7200 2950 7350 2950
Wire Wire Line
	7200 3050 7350 3050
Wire Wire Line
	7200 3150 7350 3150
Text Label 7250 2850 0    50   ~ 0
M1
Text Label 7250 2950 0    50   ~ 0
M2
Text Label 7250 3050 0    50   ~ 0
M3
Text Label 7250 3150 0    50   ~ 0
M4
$Comp
L Motor:Stepper_Motor_bipolar M1
U 1 1 61B9B110
P 6350 4250
F 0 "M1" V 6600 4350 50  0000 R CNN
F 1 "28BYJ-48" V 6300 4050 50  0000 R CNN
F 2 "Connector_PinSocket_2.54mm:PinSocket_1x05_P2.54mm_Horizontal" H 6360 4240 50  0001 C CNN
F 3 "http://www.infineon.com/dgdl/Application-Note-TLE8110EE_driving_UniPolarStepperMotor_V1.1.pdf?fileId=db3a30431be39b97011be5d0aa0a00b0" H 6360 4240 50  0001 C CNN
F 4 "Шаговые двигатели" H 6350 4250 60  0001 C CNN "Группа"
	1    6350 4250
	0    -1   -1   0   
$EndComp
Wire Wire Line
	6400 2850 6050 2850
Wire Wire Line
	6050 2850 6050 4150
Wire Wire Line
	6400 2950 5950 2950
Wire Wire Line
	5950 2950 5950 4350
Wire Wire Line
	5950 4350 6050 4350
Wire Wire Line
	6400 3050 5850 3050
Wire Wire Line
	5850 3050 5850 4550
Wire Wire Line
	5850 4550 6250 4550
Wire Wire Line
	6400 3150 5750 3150
Wire Wire Line
	5750 3150 5750 4650
Wire Wire Line
	5750 4650 6450 4650
Wire Wire Line
	6450 4650 6450 4550
$Comp
L Interface_Optical:TSOP45xx VD1
U 1 1 61BB70F9
P 5500 1150
F 0 "VD1" H 5150 1450 50  0000 C CNN
F 1 "TSOP45xx" H 5600 1450 50  0000 C CNN
F 2 "OptoDevice:Vishay_MOLD-3Pin" H 5450 775 50  0001 C CNN
F 3 "http://www.vishay.com/docs/82460/tsop45.pdf" H 6150 1450 50  0001 C CNN
F 4 "Микросхемы" H 5500 1150 60  0001 C CNN "Группа"
	1    5500 1150
	1    0    0    -1  
$EndComp
$Comp
L power:GND #PWR0119
U 1 1 61BC879A
P 6500 1150
F 0 "#PWR0119" H 6500 900 50  0001 C CNN
F 1 "GND" V 6505 1022 50  0000 R CNN
F 2 "" H 6500 1150 50  0001 C CNN
F 3 "" H 6500 1150 50  0001 C CNN
	1    6500 1150
	0    -1   -1   0   
$EndComp
Wire Wire Line
	6200 1150 6500 1150
Wire Wire Line
	5900 1350 6200 1350
Wire Wire Line
	6200 1350 6200 1150
Wire Wire Line
	5900 1150 6050 1150
Wire Wire Line
	6050 1150 6050 1500
Wire Wire Line
	6050 1500 7350 1500
Entry Wire Line
	7350 1500 7450 1600
Text Label 6900 1500 0    50   ~ 0
RX
Entry Wire Line
	9700 4400 9800 4500
Wire Wire Line
	9700 4400 9150 4400
$Comp
L power:GND #PWR0121
U 1 1 61BF62C9
P 8550 5400
F 0 "#PWR0121" H 8550 5150 50  0001 C CNN
F 1 "GND" H 8555 5227 50  0000 C CNN
F 2 "" H 8550 5400 50  0001 C CNN
F 3 "" H 8550 5400 50  0001 C CNN
	1    8550 5400
	1    0    0    -1  
$EndComp
$Comp
L power:VCC #PWR0122
U 1 1 61BFB4C6
P 8550 1250
F 0 "#PWR0122" H 8550 1100 50  0001 C CNN
F 1 "VCC" H 8565 1423 50  0000 C CNN
F 2 "" H 8550 1250 50  0001 C CNN
F 3 "" H 8550 1250 50  0001 C CNN
	1    8550 1250
	1    0    0    -1  
$EndComp
Text Label 9450 4400 0    50   ~ 0
RX
NoConn ~ 7200 3250
NoConn ~ 7200 3350
NoConn ~ 7200 3450
NoConn ~ 6400 3250
NoConn ~ 6400 3350
NoConn ~ 6400 3450
NoConn ~ 6400 2650
NoConn ~ 9150 2100
NoConn ~ 9150 2200
NoConn ~ 9150 2300
NoConn ~ 9150 2400
NoConn ~ 9150 2600
NoConn ~ 9150 2700
NoConn ~ 9150 2800
NoConn ~ 9150 2900
NoConn ~ 9150 3000
NoConn ~ 9150 3500
NoConn ~ 9150 3600
NoConn ~ 9150 3700
NoConn ~ 9150 3800
NoConn ~ 9150 3900
NoConn ~ 9150 4000
NoConn ~ 9150 4100
NoConn ~ 9150 4200
NoConn ~ 9150 4500
NoConn ~ 9150 4600
NoConn ~ 9150 4700
NoConn ~ 9150 4800
NoConn ~ 9150 4900
NoConn ~ 9150 5000
NoConn ~ 9150 5100
NoConn ~ 7950 4400
NoConn ~ 7950 4500
NoConn ~ 7950 4600
NoConn ~ 4250 1700
NoConn ~ 4250 1800
NoConn ~ 4250 1900
NoConn ~ 4250 2000
NoConn ~ 4250 2100
NoConn ~ 4250 2200
NoConn ~ 4250 2400
NoConn ~ 4250 2500
NoConn ~ 4250 2600
NoConn ~ 4250 2700
NoConn ~ 4250 2800
NoConn ~ 4250 3300
NoConn ~ 4250 3400
NoConn ~ 4250 3500
NoConn ~ 4250 3600
NoConn ~ 4250 3700
NoConn ~ 4250 3800
NoConn ~ 4250 3900
NoConn ~ 4250 4000
NoConn ~ 4250 4200
NoConn ~ 4250 4400
NoConn ~ 4250 4500
NoConn ~ 4250 4600
NoConn ~ 4250 4800
NoConn ~ 4250 4900
NoConn ~ 3050 4200
NoConn ~ 3050 4300
NoConn ~ 3050 4400
$Comp
L power:GND #PWR0123
U 1 1 61CDAE1A
P 1300 4050
F 0 "#PWR0123" H 1300 3800 50  0001 C CNN
F 1 "GND" H 1305 3877 50  0000 C CNN
F 2 "" H 1300 4050 50  0001 C CNN
F 3 "" H 1300 4050 50  0001 C CNN
	1    1300 4050
	1    0    0    -1  
$EndComp
NoConn ~ 4250 4300
NoConn ~ 3600 5950
$Comp
L power:PWR_FLAG #FLG0102
U 1 1 61CFE4A2
P 10600 3750
F 0 "#FLG0102" H 10600 3825 50  0001 C CNN
F 1 "PWR_FLAG" H 10600 3923 50  0000 C CNN
F 2 "" H 10600 3750 50  0001 C CNN
F 3 "~" H 10600 3750 50  0001 C CNN
	1    10600 3750
	1    0    0    -1  
$EndComp
$Comp
L power:GND #PWR0124
U 1 1 61CFF109
P 10600 4050
F 0 "#PWR0124" H 10600 3800 50  0001 C CNN
F 1 "GND" H 10605 3877 50  0000 C CNN
F 2 "" H 10600 4050 50  0001 C CNN
F 3 "" H 10600 4050 50  0001 C CNN
	1    10600 4050
	1    0    0    -1  
$EndComp
Wire Wire Line
	10600 3750 10600 4050
Wire Wire Line
	5900 950  6050 950 
Wire Wire Line
	6050 950  6050 850 
$Comp
L power:VCC #PWR0120
U 1 1 61D26ABB
P 6050 850
F 0 "#PWR0120" H 6050 700 50  0001 C CNN
F 1 "VCC" H 6065 1023 50  0000 C CNN
F 2 "" H 6050 850 50  0001 C CNN
F 3 "" H 6050 850 50  0001 C CNN
	1    6050 850 
	1    0    0    -1  
$EndComp
$Comp
L power:GND #PWR0126
U 1 1 61B47166
P 4150 1100
F 0 "#PWR0126" H 4150 850 50  0001 C CNN
F 1 "GND" V 4155 972 50  0000 R CNN
F 2 "" H 4150 1100 50  0001 C CNN
F 3 "" H 4150 1100 50  0001 C CNN
	1    4150 1100
	0    -1   -1   0   
$EndComp
$Comp
L Device:C C1
U 1 1 61B47B2C
P 3900 1100
F 0 "C1" V 4000 1200 50  0000 C CNN
F 1 "0.1m" V 4000 950 50  0000 C CNN
F 2 "" H 3938 950 50  0001 C CNN
F 3 "~" H 3900 1100 50  0001 C CNN
F 4 "Конденсаторы" H 3900 1100 60  0001 C CNN "Группа"
	1    3900 1100
	0    -1   -1   0   
$EndComp
Wire Wire Line
	3750 1100 3650 1100
Connection ~ 3650 1100
Wire Wire Line
	3650 1100 3650 1200
Wire Wire Line
	4050 1100 4150 1100
$Comp
L Device:C C2
U 1 1 61B51659
P 6300 950
F 0 "C2" V 6150 850 50  0000 C CNN
F 1 "0.1m" V 6200 1100 50  0000 C CNN
F 2 "" H 6338 800 50  0001 C CNN
F 3 "~" H 6300 950 50  0001 C CNN
F 4 "Конденсаторы" H 6300 950 60  0001 C CNN "Группа"
	1    6300 950 
	0    1    1    0   
$EndComp
$Comp
L power:GND #PWR0127
U 1 1 61B5264C
P 6600 950
F 0 "#PWR0127" H 6600 700 50  0001 C CNN
F 1 "GND" V 6605 822 50  0000 R CNN
F 2 "" H 6600 950 50  0001 C CNN
F 3 "" H 6600 950 50  0001 C CNN
	1    6600 950 
	0    -1   -1   0   
$EndComp
Wire Wire Line
	6150 950  6050 950 
Connection ~ 6050 950 
Wire Wire Line
	6450 950  6600 950 
$Comp
L power:GND #PWR0128
U 1 1 61B5CF1D
P 6800 5300
F 0 "#PWR0128" H 6800 5050 50  0001 C CNN
F 1 "GND" H 6805 5127 50  0000 C CNN
F 2 "" H 6800 5300 50  0001 C CNN
F 3 "" H 6800 5300 50  0001 C CNN
	1    6800 5300
	-1   0    0    1   
$EndComp
$Comp
L Device:C C3
U 1 1 61B5D566
P 6800 5450
F 0 "C3" H 6915 5496 50  0000 L CNN
F 1 "0.1m" H 6915 5405 50  0000 L CNN
F 2 "" H 6838 5300 50  0001 C CNN
F 3 "~" H 6800 5450 50  0001 C CNN
F 4 "Конденсаторы" H 6800 5450 60  0001 C CNN "Группа"
	1    6800 5450
	1    0    0    -1  
$EndComp
Wire Wire Line
	6800 5600 6800 5650
Connection ~ 6800 5650
Wire Wire Line
	6800 5650 6850 5650
$Comp
L Device:C C6
U 1 1 61B629F2
P 1850 5350
F 0 "C6" H 1965 5396 50  0000 L CNN
F 1 "0.1m" H 1965 5305 50  0000 L CNN
F 2 "" H 1888 5200 50  0001 C CNN
F 3 "~" H 1850 5350 50  0001 C CNN
F 4 "Конденсаторы" H 1850 5350 60  0001 C CNN "Группа"
	1    1850 5350
	1    0    0    -1  
$EndComp
Wire Wire Line
	1850 5000 1850 5200
Wire Wire Line
	1850 5500 1850 5650
Connection ~ 1850 5650
Wire Wire Line
	1850 5650 1950 5650
$Comp
L power:GND #PWR0129
U 1 1 61B622A0
P 1850 5000
F 0 "#PWR0129" H 1850 4750 50  0001 C CNN
F 1 "GND" H 1855 4827 50  0000 C CNN
F 2 "" H 1850 5000 50  0001 C CNN
F 3 "" H 1850 5000 50  0001 C CNN
	1    1850 5000
	-1   0    0    1   
$EndComp
$Comp
L power:GND #PWR0130
U 1 1 61B6E1F7
P 1500 7400
F 0 "#PWR0130" H 1500 7150 50  0001 C CNN
F 1 "GND" H 1505 7227 50  0000 C CNN
F 2 "" H 1500 7400 50  0001 C CNN
F 3 "" H 1500 7400 50  0001 C CNN
	1    1500 7400
	1    0    0    -1  
$EndComp
$Comp
L power:GND #PWR0131
U 1 1 61B75769
P 4500 6300
F 0 "#PWR0131" H 4500 6050 50  0001 C CNN
F 1 "GND" H 4505 6127 50  0000 C CNN
F 2 "" H 4500 6300 50  0001 C CNN
F 3 "" H 4500 6300 50  0001 C CNN
	1    4500 6300
	-1   0    0    1   
$EndComp
$Comp
L Device:C C5
U 1 1 61B761CD
P 4500 6650
F 0 "C5" H 4615 6696 50  0000 L CNN
F 1 "0.1m" H 4615 6605 50  0000 L CNN
F 2 "" H 4538 6500 50  0001 C CNN
F 3 "~" H 4500 6650 50  0001 C CNN
F 4 "Конденсаторы" H 4500 6650 60  0001 C CNN "Группа"
	1    4500 6650
	1    0    0    -1  
$EndComp
Wire Wire Line
	4500 6300 4500 6500
Wire Wire Line
	4500 6800 4500 6950
Connection ~ 4500 7050
$Comp
L power:GND #PWR0132
U 1 1 61B84E94
P 1300 2050
F 0 "#PWR0132" H 1300 1800 50  0001 C CNN
F 1 "GND" H 1305 1877 50  0000 C CNN
F 2 "" H 1300 2050 50  0001 C CNN
F 3 "" H 1300 2050 50  0001 C CNN
	1    1300 2050
	-1   0    0    1   
$EndComp
$Comp
L Device:C C7
U 1 1 61B857AC
P 1300 2300
F 0 "C7" H 1415 2346 50  0000 L CNN
F 1 "0.1m" H 1415 2255 50  0000 L CNN
F 2 "" H 1338 2150 50  0001 C CNN
F 3 "~" H 1300 2300 50  0001 C CNN
F 4 "Конденсаторы" H 1300 2300 60  0001 C CNN "Группа"
	1    1300 2300
	1    0    0    -1  
$EndComp
Wire Wire Line
	1300 2450 1300 2500
Connection ~ 1300 2500
Wire Wire Line
	1300 2150 1300 2050
Wire Wire Line
	8550 1250 8550 1300
$Comp
L power:GND #PWR0133
U 1 1 61B95C88
P 9300 1300
F 0 "#PWR0133" H 9300 1050 50  0001 C CNN
F 1 "GND" V 9305 1172 50  0000 R CNN
F 2 "" H 9300 1300 50  0001 C CNN
F 3 "" H 9300 1300 50  0001 C CNN
	1    9300 1300
	0    -1   -1   0   
$EndComp
$Comp
L Device:C C8
U 1 1 61B9662F
P 8900 1300
F 0 "C8" V 8800 1150 50  0000 C CNN
F 1 "0.1m" V 8800 1450 50  0000 C CNN
F 2 "" H 8938 1150 50  0001 C CNN
F 3 "~" H 8900 1300 50  0001 C CNN
F 4 "Конденсаторы" H 8900 1300 60  0001 C CNN "Группа"
	1    8900 1300
	0    1    1    0   
$EndComp
Wire Wire Line
	8750 1300 8550 1300
Connection ~ 8550 1300
Wire Wire Line
	8550 1300 8550 1400
Wire Wire Line
	9050 1300 9300 1300
Wire Wire Line
	1500 7100 1500 7400
$Comp
L power:GND #PWR0111
U 1 1 61C6B6F6
P 1750 6600
F 0 "#PWR0111" H 1750 6350 50  0001 C CNN
F 1 "GND" H 1755 6427 50  0000 C CNN
F 2 "" H 1750 6600 50  0001 C CNN
F 3 "" H 1750 6600 50  0001 C CNN
	1    1750 6600
	-1   0    0    1   
$EndComp
$Comp
L power:VCC #PWR0135
U 1 1 61C8ED64
P 1800 7000
F 0 "#PWR0135" H 1800 6850 50  0001 C CNN
F 1 "VCC" H 1815 7173 50  0000 C CNN
F 2 "" H 1800 7000 50  0001 C CNN
F 3 "" H 1800 7000 50  0001 C CNN
	1    1800 7000
	0    1    1    0   
$EndComp
$Comp
L Regulator_Linear:LM7812_TO220 U1
U 1 1 61CD6B92
P 5150 7050
F 0 "U1" H 5150 7292 50  0000 C CNN
F 1 "LM7812_TO220" H 5150 7201 50  0000 C CNN
F 2 "Package_TO_SOT_THT:TO-220-3_Vertical" H 5150 7275 50  0001 C CIN
F 3 "https://www.onsemi.cn/PowerSolutions/document/MC7800-D.PDF" H 5150 7000 50  0001 C CNN
F 4 "Микросхемы" H 5150 7050 60  0001 C CNN "Группа"
	1    5150 7050
	1    0    0    -1  
$EndComp
Wire Wire Line
	5150 7350 5150 7450
Wire Wire Line
	4550 7450 4750 7450
Wire Wire Line
	4550 7150 4550 7450
Connection ~ 5150 7450
Wire Wire Line
	5150 7450 5150 7500
Wire Wire Line
	4500 7050 4750 7050
Wire Wire Line
	5150 7450 5550 7450
$Comp
L Device:CP C10
U 1 1 61CF5961
P 4750 7250
F 0 "C10" H 4800 7350 50  0000 L CNN
F 1 "0.1m" H 4868 7205 50  0000 L CNN
F 2 "" H 4788 7100 50  0001 C CNN
F 3 "~" H 4750 7250 50  0001 C CNN
F 4 "Конденсаторы" H 4750 7250 60  0001 C CNN "Группа"
	1    4750 7250
	1    0    0    -1  
$EndComp
Wire Wire Line
	4750 7100 4750 7050
Connection ~ 4750 7050
Wire Wire Line
	4750 7050 4850 7050
Wire Wire Line
	4750 7400 4750 7450
Connection ~ 4750 7450
Wire Wire Line
	4750 7450 5150 7450
$Comp
L Device:CP C11
U 1 1 61D035F0
P 5550 7250
F 0 "C11" H 5600 7350 50  0000 L CNN
F 1 "0.1m" H 5600 7150 50  0000 L CNN
F 2 "" H 5588 7100 50  0001 C CNN
F 3 "~" H 5550 7250 50  0001 C CNN
F 4 "Конденсаторы" H 5550 7250 60  0001 C CNN "Группа"
	1    5550 7250
	1    0    0    -1  
$EndComp
Wire Wire Line
	5550 7100 5550 7050
Connection ~ 5550 7050
Wire Wire Line
	5550 7050 5450 7050
Wire Wire Line
	5550 7400 5550 7450
Wire Wire Line
	4800 6850 4800 6950
Wire Wire Line
	4800 6950 4500 6950
Connection ~ 4500 6950
Wire Wire Line
	4500 6950 4500 7050
$Comp
L power:VCC #PWR0136
U 1 1 61D38D2F
P 6000 7050
F 0 "#PWR0136" H 6000 6900 50  0001 C CNN
F 1 "VCC" V 6015 7178 50  0000 L CNN
F 2 "" H 6000 7050 50  0001 C CNN
F 3 "" H 6000 7050 50  0001 C CNN
	1    6000 7050
	0    1    1    0   
$EndComp
$Comp
L Device:C C12
U 1 1 61D39F8B
P 5550 6700
F 0 "C12" H 5665 6746 50  0000 L CNN
F 1 "0.1m" H 5665 6655 50  0000 L CNN
F 2 "" H 5588 6550 50  0001 C CNN
F 3 "~" H 5550 6700 50  0001 C CNN
F 4 "Конденсаторы" H 5550 6700 60  0001 C CNN "Группа"
	1    5550 6700
	1    0    0    -1  
$EndComp
$Comp
L power:GND #PWR0137
U 1 1 61D3A908
P 5550 6350
F 0 "#PWR0137" H 5550 6100 50  0001 C CNN
F 1 "GND" H 5555 6177 50  0000 C CNN
F 2 "" H 5550 6350 50  0001 C CNN
F 3 "" H 5550 6350 50  0001 C CNN
	1    5550 6350
	-1   0    0    1   
$EndComp
Wire Wire Line
	5550 6550 5550 6350
Wire Wire Line
	5550 7050 6000 7050
Wire Wire Line
	5550 6850 5550 7050
$Comp
L Device:C C9
U 1 1 61DE746F
P 1750 6750
F 0 "C9" H 1865 6796 50  0000 L CNN
F 1 "0.1m" H 1865 6705 50  0000 L CNN
F 2 "" H 1788 6600 50  0001 C CNN
F 3 "~" H 1750 6750 50  0001 C CNN
F 4 "Конденсаторы" H 1750 6750 60  0001 C CNN "Группа"
	1    1750 6750
	1    0    0    -1  
$EndComp
Wire Wire Line
	1500 7000 1750 7000
Wire Wire Line
	1750 6900 1750 7000
Connection ~ 1750 7000
Wire Wire Line
	1750 7000 1800 7000
Wire Bus Line
	2300 2000 2300 4600
Wire Bus Line
	7150 5600 7150 6300
Wire Bus Line
	2700 750  2700 2000
Wire Bus Line
	2300 5650 2300 6400
Wire Bus Line
	4800 750  4800 5650
Wire Bus Line
	7450 1050 7450 3850
Wire Bus Line
	9800 1050 9800 5600
$EndSCHEMATC
