EESchema Schematic File Version 4
EELAYER 30 0
EELAYER END
$Descr A3 16535 11693
encoding utf-8
Sheet 1 1
Title "Лабораторная работа 2"
Date ""
Rev ""
Comp ""
Comment1 ""
Comment2 "Карасёв Д.М."
Comment3 "Хохлов С.А."
Comment4 ""
$EndDescr
$Comp
L Device:LED D1
U 1 1 616E8752
P 4500 3000
F 0 "D1" H 4493 3217 50  0000 C CNN
F 1 "LED" H 4493 3126 50  0000 C CNN
F 2 "LED_THT:LED_D5.0mm" H 4500 3000 50  0001 C CNN
F 3 "~" H 4500 3000 50  0001 C CNN
F 4 "Диоды" H 4500 3000 60  0001 C CNN "Группа"
	1    4500 3000
	1    0    0    -1  
$EndComp
$Comp
L power:VCC #PWR06
U 1 1 616F2585
P 5450 2800
F 0 "#PWR06" H 5450 2650 50  0001 C CNN
F 1 "VCC" H 5465 2973 50  0000 C CNN
F 2 "" H 5450 2800 50  0001 C CNN
F 3 "" H 5450 2800 50  0001 C CNN
	1    5450 2800
	1    0    0    -1  
$EndComp
$Comp
L power:GND #PWR02
U 1 1 616F274F
P 3550 6100
F 0 "#PWR02" H 3550 5850 50  0001 C CNN
F 1 "GND" H 3555 5927 50  0000 C CNN
F 2 "" H 3550 6100 50  0001 C CNN
F 3 "" H 3550 6100 50  0001 C CNN
	1    3550 6100
	1    0    0    -1  
$EndComp
$Comp
L Device:R R1
U 1 1 616E5DE1
P 5100 3000
F 0 "R1" V 4893 3000 50  0000 C CNN
F 1 "1k" V 4984 3000 50  0000 C CNN
F 2 "Resistor_THT:R_Axial_DIN0207_L6.3mm_D2.5mm_P2.54mm_Vertical" V 5030 3000 50  0001 C CNN
F 3 "~" H 5100 3000 50  0001 C CNN
F 4 "Резисторы" H 5100 3000 60  0001 C CNN "Группа"
	1    5100 3000
	0    1    1    0   
$EndComp
Wire Wire Line
	4050 3300 4250 3300
Wire Wire Line
	4250 3300 4250 3000
Wire Wire Line
	4250 3000 4350 3000
Wire Wire Line
	4650 3000 4950 3000
Wire Wire Line
	5250 3000 5450 3000
Wire Wire Line
	5450 3000 5450 2800
Text Label 4250 3200 0    50   ~ 0
uCtoLED
Text Label 4850 3300 1    50   ~ 0
LEDtoR
$Comp
L power:PWR_FLAG #FLG01
U 1 1 616FA07C
P 3950 5850
F 0 "#FLG01" H 3950 5925 50  0001 C CNN
F 1 "PWR_FLAG" H 3950 6023 50  0000 C CNN
F 2 "" H 3950 5850 50  0001 C CNN
F 3 "~" H 3950 5850 50  0001 C CNN
	1    3950 5850
	1    0    0    -1  
$EndComp
$Comp
L power:PWR_FLAG #FLG02
U 1 1 616FA866
P 3550 5850
F 0 "#FLG02" H 3550 5925 50  0001 C CNN
F 1 "PWR_FLAG" H 3550 6023 50  0000 C CNN
F 2 "" H 3550 5850 50  0001 C CNN
F 3 "~" H 3550 5850 50  0001 C CNN
	1    3550 5850
	1    0    0    -1  
$EndComp
$Comp
L tutorial1-rescue:XP1-myLib XP11
U 1 1 617F1D80
P 4900 5600
F 0 "XP11" H 4933 6015 50  0000 C CNN
F 1 "XP1" H 4933 5924 50  0000 C CNN
F 2 "Connector:Banana_Jack_3Pin" H 4950 5900 50  0001 C CNN
F 3 "" H 4950 5900 50  0001 C CNN
F 4 "Разъёмы" H 4900 5600 60  0001 C CNN "Группа"
	1    4900 5600
	1    0    0    -1  
$EndComp
$Comp
L power:VCC #PWR01
U 1 1 616EF1D4
P 3950 6150
F 0 "#PWR01" H 3950 6000 50  0001 C CNN
F 1 "VCC" H 3965 6323 50  0000 C CNN
F 2 "" H 3950 6150 50  0001 C CNN
F 3 "" H 3950 6150 50  0001 C CNN
	1    3950 6150
	-1   0    0    1   
$EndComp
Text Label 4200 3900 0    50   ~ 0
INPUT
NoConn ~ 2050 3300
NoConn ~ 2050 3400
NoConn ~ 2050 3500
NoConn ~ 2050 3600
NoConn ~ 2050 3700
NoConn ~ 2050 3800
NoConn ~ 2050 3900
NoConn ~ 2050 4000
NoConn ~ 2050 4400
NoConn ~ 2050 4500
NoConn ~ 2050 4600
NoConn ~ 2050 4700
NoConn ~ 2050 4800
NoConn ~ 4050 4600
NoConn ~ 4050 4500
NoConn ~ 4050 4400
NoConn ~ 4050 4000
NoConn ~ 4050 3800
NoConn ~ 4050 3700
NoConn ~ 4050 3600
NoConn ~ 4050 3400
NoConn ~ 4050 3500
Wire Wire Line
	4050 3900 4450 3900
$Comp
L MCU_Microchip_PIC18:PIC18F24K50-xSP U1
U 1 1 617F36E6
P 3050 4200
F 0 "U1" H 3700 5500 50  0000 C CNN
F 1 "PIC18F24K50-xSP" H 3750 5600 50  0000 C CNN
F 2 "Package_DIP:DIP-28_W7.62mm" H 3050 4200 50  0001 C CIN
F 3 "http://ww1.microchip.com/downloads/en/devicedoc/30000684B.pdf" H 150 2850 50  0001 C CNN
F 4 "Микросхемы" H 3050 4200 60  0001 C CNN "Группа"
	1    3050 4200
	1    0    0    -1  
$EndComp
$Comp
L power:GND #PWR0101
U 1 1 61805953
P 6100 5500
F 0 "#PWR0101" H 6100 5250 50  0001 C CNN
F 1 "GND" H 6105 5327 50  0000 C CNN
F 2 "" H 6100 5500 50  0001 C CNN
F 3 "" H 6100 5500 50  0001 C CNN
	1    6100 5500
	-1   0    0    1   
$EndComp
$Comp
L power:VCC #PWR0102
U 1 1 618063FE
P 5650 5350
F 0 "#PWR0102" H 5650 5200 50  0001 C CNN
F 1 "VCC" H 5665 5523 50  0000 C CNN
F 2 "" H 5650 5350 50  0001 C CNN
F 3 "" H 5650 5350 50  0001 C CNN
	1    5650 5350
	1    0    0    -1  
$EndComp
Wire Wire Line
	5200 5500 5650 5500
Wire Wire Line
	5650 5500 5650 5350
Wire Wire Line
	5200 5600 6100 5600
Wire Wire Line
	6100 5600 6100 5500
$Comp
L Device:R R2
U 1 1 61806E01
P 6550 5650
F 0 "R2" V 6343 5650 50  0000 C CNN
F 1 "100" V 6434 5650 50  0000 C CNN
F 2 "Resistor_THT:R_Axial_DIN0207_L6.3mm_D2.5mm_P2.54mm_Vertical" V 6480 5650 50  0001 C CNN
F 3 "~" H 6550 5650 50  0001 C CNN
F 4 "Резисторы" H 6550 5650 60  0001 C CNN "Группа"
	1    6550 5650
	0    1    1    0   
$EndComp
Wire Wire Line
	5200 5700 6400 5700
Wire Wire Line
	6400 5700 6400 5650
Wire Wire Line
	6700 5650 7150 5650
Text Label 5850 5700 0    50   ~ 0
INPUToR
Text Label 6800 5650 0    50   ~ 0
INPUT
Wire Wire Line
	3550 5850 3550 6100
Wire Wire Line
	3950 6150 3950 5850
$Comp
L power:VCC #PWR0103
U 1 1 61809BE9
P 3050 2700
F 0 "#PWR0103" H 3050 2550 50  0001 C CNN
F 1 "VCC" H 3065 2873 50  0000 C CNN
F 2 "" H 3050 2700 50  0001 C CNN
F 3 "" H 3050 2700 50  0001 C CNN
	1    3050 2700
	1    0    0    -1  
$EndComp
$Comp
L power:GND #PWR0104
U 1 1 61809F95
P 3050 5650
F 0 "#PWR0104" H 3050 5400 50  0001 C CNN
F 1 "GND" H 3055 5477 50  0000 C CNN
F 2 "" H 3050 5650 50  0001 C CNN
F 3 "" H 3050 5650 50  0001 C CNN
	1    3050 5650
	1    0    0    -1  
$EndComp
Wire Wire Line
	3050 5400 3050 5550
Wire Wire Line
	2950 5400 2950 5550
Wire Wire Line
	2950 5550 3050 5550
Connection ~ 3050 5550
Wire Wire Line
	3050 5550 3050 5650
Wire Wire Line
	3050 2900 3050 2700
NoConn ~ 4050 5000
$EndSCHEMATC
