(kicad_pcb (version 20171130) (host pcbnew "(5.1.10)-1")

  (general
    (thickness 1.6)
    (drawings 4)
    (tracks 17)
    (zones 0)
    (modules 5)
    (nets 30)
  )

  (page A)
  (title_block
    (title "Tutorial 1")
  )

  (layers
    (0 F.Cu signal)
    (31 B.Cu signal)
    (32 B.Adhes user)
    (33 F.Adhes user)
    (34 B.Paste user)
    (35 F.Paste user)
    (36 B.SilkS user)
    (37 F.SilkS user)
    (38 B.Mask user)
    (39 F.Mask user)
    (40 Dwgs.User user)
    (41 Cmts.User user)
    (42 Eco1.User user)
    (43 Eco2.User user)
    (44 Edge.Cuts user)
    (45 Margin user)
    (46 B.CrtYd user)
    (47 F.CrtYd user)
    (48 B.Fab user)
    (49 F.Fab user)
  )

  (setup
    (last_trace_width 0.25)
    (user_trace_width 25)
    (trace_clearance 0.2)
    (zone_clearance 0.508)
    (zone_45_only no)
    (trace_min 0.2)
    (via_size 0.8)
    (via_drill 0.4)
    (via_min_size 0.4)
    (via_min_drill 0.3)
    (uvia_size 0.3)
    (uvia_drill 0.1)
    (uvias_allowed no)
    (uvia_min_size 0.2)
    (uvia_min_drill 0.1)
    (edge_width 0.05)
    (segment_width 0.2)
    (pcb_text_width 0.3)
    (pcb_text_size 1.5 1.5)
    (mod_edge_width 0.12)
    (mod_text_size 1 1)
    (mod_text_width 0.15)
    (pad_size 1.524 1.524)
    (pad_drill 0.762)
    (pad_to_mask_clearance 0)
    (aux_axis_origin 0 0)
    (visible_elements 7FFFFFFF)
    (pcbplotparams
      (layerselection 0x010e0_ffffffff)
      (usegerberextensions true)
      (usegerberattributes true)
      (usegerberadvancedattributes true)
      (creategerberjobfile true)
      (excludeedgelayer true)
      (linewidth 0.100000)
      (plotframeref false)
      (viasonmask false)
      (mode 1)
      (useauxorigin false)
      (hpglpennumber 1)
      (hpglpenspeed 20)
      (hpglpendiameter 15.000000)
      (psnegative false)
      (psa4output false)
      (plotreference true)
      (plotvalue true)
      (plotinvisibletext false)
      (padsonsilk false)
      (subtractmaskfromsilk false)
      (outputformat 1)
      (mirror false)
      (drillshape 0)
      (scaleselection 1)
      (outputdirectory ""))
  )

  (net 0 "")
  (net 1 "Net-(D1-Pad2)")
  (net 2 /uCtoLED)
  (net 3 VCC)
  (net 4 /INPUToR)
  (net 5 /INPUT)
  (net 6 "Net-(U1-Pad14)")
  (net 7 "Net-(U1-Pad27)")
  (net 8 "Net-(U1-Pad13)")
  (net 9 "Net-(U1-Pad26)")
  (net 10 "Net-(U1-Pad12)")
  (net 11 "Net-(U1-Pad25)")
  (net 12 "Net-(U1-Pad11)")
  (net 13 "Net-(U1-Pad24)")
  (net 14 "Net-(U1-Pad10)")
  (net 15 "Net-(U1-Pad23)")
  (net 16 "Net-(U1-Pad9)")
  (net 17 GND)
  (net 18 "Net-(U1-Pad21)")
  (net 19 "Net-(U1-Pad7)")
  (net 20 "Net-(U1-Pad6)")
  (net 21 "Net-(U1-Pad5)")
  (net 22 "Net-(U1-Pad18)")
  (net 23 "Net-(U1-Pad4)")
  (net 24 "Net-(U1-Pad17)")
  (net 25 "Net-(U1-Pad3)")
  (net 26 "Net-(U1-Pad16)")
  (net 27 "Net-(U1-Pad2)")
  (net 28 "Net-(U1-Pad15)")
  (net 29 "Net-(U1-Pad1)")

  (net_class Default "This is the default net class."
    (clearance 0.2)
    (trace_width 0.25)
    (via_dia 0.8)
    (via_drill 0.4)
    (uvia_dia 0.3)
    (uvia_drill 0.1)
    (add_net /INPUT)
    (add_net /INPUToR)
    (add_net /uCtoLED)
    (add_net "Net-(D1-Pad2)")
    (add_net "Net-(U1-Pad1)")
    (add_net "Net-(U1-Pad10)")
    (add_net "Net-(U1-Pad11)")
    (add_net "Net-(U1-Pad12)")
    (add_net "Net-(U1-Pad13)")
    (add_net "Net-(U1-Pad14)")
    (add_net "Net-(U1-Pad15)")
    (add_net "Net-(U1-Pad16)")
    (add_net "Net-(U1-Pad17)")
    (add_net "Net-(U1-Pad18)")
    (add_net "Net-(U1-Pad2)")
    (add_net "Net-(U1-Pad21)")
    (add_net "Net-(U1-Pad23)")
    (add_net "Net-(U1-Pad24)")
    (add_net "Net-(U1-Pad25)")
    (add_net "Net-(U1-Pad26)")
    (add_net "Net-(U1-Pad27)")
    (add_net "Net-(U1-Pad3)")
    (add_net "Net-(U1-Pad4)")
    (add_net "Net-(U1-Pad5)")
    (add_net "Net-(U1-Pad6)")
    (add_net "Net-(U1-Pad7)")
    (add_net "Net-(U1-Pad9)")
  )

  (net_class Power ""
    (clearance 0.4)
    (trace_width 0.5)
    (via_dia 0.8)
    (via_drill 0.4)
    (uvia_dia 0.3)
    (uvia_drill 0.1)
    (add_net GND)
    (add_net VCC)
  )

  (module Connector:Banana_Jack_3Pin (layer F.Cu) (tedit 5A1AB217) (tstamp 6196C0E0)
    (at 75.18 93.98)
    (descr "Triple banana socket, footprint - 3 x 6mm drills")
    (tags "banana socket")
    (path /617F1D80)
    (fp_text reference XP11 (at 7.75 -6.25) (layer F.SilkS)
      (effects (font (size 1 1) (thickness 0.15)))
    )
    (fp_text value XP1 (at 22.5 -6.25) (layer F.Fab)
      (effects (font (size 1 1) (thickness 0.15)))
    )
    (fp_line (start 30 5.5) (end 0 5.5) (layer F.CrtYd) (width 0.05))
    (fp_line (start 0 -5.5) (end 30 -5.5) (layer F.CrtYd) (width 0.05))
    (fp_line (start 0 5.25) (end 30 5.25) (layer F.SilkS) (width 0.12))
    (fp_line (start 30 -5.25) (end 0 -5.25) (layer F.SilkS) (width 0.12))
    (fp_circle (center 30 0) (end 30 -2) (layer F.Fab) (width 0.1))
    (fp_circle (center 30 0) (end 30 -4.75) (layer F.Fab) (width 0.1))
    (fp_circle (center 15 0) (end 19.75 0) (layer F.Fab) (width 0.1))
    (fp_circle (center 15 0) (end 17 0) (layer F.Fab) (width 0.1))
    (fp_circle (center 0 0) (end 4.75 0) (layer F.Fab) (width 0.1))
    (fp_circle (center 0 0) (end 2 0) (layer F.Fab) (width 0.1))
    (fp_arc (start 0 0) (end 0 5.25) (angle 180) (layer F.SilkS) (width 0.12))
    (fp_arc (start 30 0) (end 30 -5.25) (angle 180) (layer F.SilkS) (width 0.12))
    (fp_arc (start 30 0) (end 30 -5.5) (angle 180) (layer F.CrtYd) (width 0.05))
    (fp_arc (start 0 0) (end 0 5.5) (angle 180) (layer F.CrtYd) (width 0.05))
    (fp_text user %R (at 5.08 -12.7) (layer F.Fab)
      (effects (font (size 0.8 0.8) (thickness 0.12)))
    )
    (pad 2 thru_hole circle (at 14.99 0) (size 10.16 10.16) (drill 6.1) (layers *.Cu *.Mask)
      (net 17 GND))
    (pad 3 thru_hole circle (at 29.97 0) (size 10.16 10.16) (drill 6.1) (layers *.Cu *.Mask)
      (net 4 /INPUToR))
    (pad 1 thru_hole circle (at 0 0) (size 10.16 10.16) (drill 6.1) (layers *.Cu *.Mask)
      (net 3 VCC))
    (model ${KISYS3DMOD}/Connector.3dshapes/Banana_Jack_3Pin.wrl
      (offset (xyz 14.9999997746626 0 0))
      (scale (xyz 2 2 2))
      (rotate (xyz 0 0 0))
    )
  )

  (module Package_DIP:DIP-28_W7.62mm (layer F.Cu) (tedit 5A02E8C5) (tstamp 6196C0CA)
    (at 63.5 43.18)
    (descr "28-lead though-hole mounted DIP package, row spacing 7.62 mm (300 mils)")
    (tags "THT DIP DIL PDIP 2.54mm 7.62mm 300mil")
    (path /617F36E6)
    (fp_text reference U1 (at 3.81 -2.33) (layer F.SilkS)
      (effects (font (size 1 1) (thickness 0.15)))
    )
    (fp_text value PIC18F24K50-xSP (at 3.81 35.35) (layer F.Fab)
      (effects (font (size 1 1) (thickness 0.15)))
    )
    (fp_line (start 1.635 -1.27) (end 6.985 -1.27) (layer F.Fab) (width 0.1))
    (fp_line (start 6.985 -1.27) (end 6.985 34.29) (layer F.Fab) (width 0.1))
    (fp_line (start 6.985 34.29) (end 0.635 34.29) (layer F.Fab) (width 0.1))
    (fp_line (start 0.635 34.29) (end 0.635 -0.27) (layer F.Fab) (width 0.1))
    (fp_line (start 0.635 -0.27) (end 1.635 -1.27) (layer F.Fab) (width 0.1))
    (fp_line (start 2.81 -1.33) (end 1.16 -1.33) (layer F.SilkS) (width 0.12))
    (fp_line (start 1.16 -1.33) (end 1.16 34.35) (layer F.SilkS) (width 0.12))
    (fp_line (start 1.16 34.35) (end 6.46 34.35) (layer F.SilkS) (width 0.12))
    (fp_line (start 6.46 34.35) (end 6.46 -1.33) (layer F.SilkS) (width 0.12))
    (fp_line (start 6.46 -1.33) (end 4.81 -1.33) (layer F.SilkS) (width 0.12))
    (fp_line (start -1.1 -1.55) (end -1.1 34.55) (layer F.CrtYd) (width 0.05))
    (fp_line (start -1.1 34.55) (end 8.7 34.55) (layer F.CrtYd) (width 0.05))
    (fp_line (start 8.7 34.55) (end 8.7 -1.55) (layer F.CrtYd) (width 0.05))
    (fp_line (start 8.7 -1.55) (end -1.1 -1.55) (layer F.CrtYd) (width 0.05))
    (fp_text user %R (at 3.81 16.51) (layer F.Fab)
      (effects (font (size 1 1) (thickness 0.15)))
    )
    (fp_arc (start 3.81 -1.33) (end 2.81 -1.33) (angle -180) (layer F.SilkS) (width 0.12))
    (pad 28 thru_hole oval (at 7.62 0) (size 1.6 1.6) (drill 0.8) (layers *.Cu *.Mask)
      (net 2 /uCtoLED))
    (pad 14 thru_hole oval (at 0 33.02) (size 1.6 1.6) (drill 0.8) (layers *.Cu *.Mask)
      (net 6 "Net-(U1-Pad14)"))
    (pad 27 thru_hole oval (at 7.62 2.54) (size 1.6 1.6) (drill 0.8) (layers *.Cu *.Mask)
      (net 7 "Net-(U1-Pad27)"))
    (pad 13 thru_hole oval (at 0 30.48) (size 1.6 1.6) (drill 0.8) (layers *.Cu *.Mask)
      (net 8 "Net-(U1-Pad13)"))
    (pad 26 thru_hole oval (at 7.62 5.08) (size 1.6 1.6) (drill 0.8) (layers *.Cu *.Mask)
      (net 9 "Net-(U1-Pad26)"))
    (pad 12 thru_hole oval (at 0 27.94) (size 1.6 1.6) (drill 0.8) (layers *.Cu *.Mask)
      (net 10 "Net-(U1-Pad12)"))
    (pad 25 thru_hole oval (at 7.62 7.62) (size 1.6 1.6) (drill 0.8) (layers *.Cu *.Mask)
      (net 11 "Net-(U1-Pad25)"))
    (pad 11 thru_hole oval (at 0 25.4) (size 1.6 1.6) (drill 0.8) (layers *.Cu *.Mask)
      (net 12 "Net-(U1-Pad11)"))
    (pad 24 thru_hole oval (at 7.62 10.16) (size 1.6 1.6) (drill 0.8) (layers *.Cu *.Mask)
      (net 13 "Net-(U1-Pad24)"))
    (pad 10 thru_hole oval (at 0 22.86) (size 1.6 1.6) (drill 0.8) (layers *.Cu *.Mask)
      (net 14 "Net-(U1-Pad10)"))
    (pad 23 thru_hole oval (at 7.62 12.7) (size 1.6 1.6) (drill 0.8) (layers *.Cu *.Mask)
      (net 15 "Net-(U1-Pad23)"))
    (pad 9 thru_hole oval (at 0 20.32) (size 1.6 1.6) (drill 0.8) (layers *.Cu *.Mask)
      (net 16 "Net-(U1-Pad9)"))
    (pad 22 thru_hole oval (at 7.62 15.24) (size 1.6 1.6) (drill 0.8) (layers *.Cu *.Mask)
      (net 5 /INPUT))
    (pad 8 thru_hole oval (at 0 17.78) (size 1.6 1.6) (drill 0.8) (layers *.Cu *.Mask)
      (net 17 GND))
    (pad 21 thru_hole oval (at 7.62 17.78) (size 1.6 1.6) (drill 0.8) (layers *.Cu *.Mask)
      (net 18 "Net-(U1-Pad21)"))
    (pad 7 thru_hole oval (at 0 15.24) (size 1.6 1.6) (drill 0.8) (layers *.Cu *.Mask)
      (net 19 "Net-(U1-Pad7)"))
    (pad 20 thru_hole oval (at 7.62 20.32) (size 1.6 1.6) (drill 0.8) (layers *.Cu *.Mask)
      (net 3 VCC))
    (pad 6 thru_hole oval (at 0 12.7) (size 1.6 1.6) (drill 0.8) (layers *.Cu *.Mask)
      (net 20 "Net-(U1-Pad6)"))
    (pad 19 thru_hole oval (at 7.62 22.86) (size 1.6 1.6) (drill 0.8) (layers *.Cu *.Mask)
      (net 17 GND))
    (pad 5 thru_hole oval (at 0 10.16) (size 1.6 1.6) (drill 0.8) (layers *.Cu *.Mask)
      (net 21 "Net-(U1-Pad5)"))
    (pad 18 thru_hole oval (at 7.62 25.4) (size 1.6 1.6) (drill 0.8) (layers *.Cu *.Mask)
      (net 22 "Net-(U1-Pad18)"))
    (pad 4 thru_hole oval (at 0 7.62) (size 1.6 1.6) (drill 0.8) (layers *.Cu *.Mask)
      (net 23 "Net-(U1-Pad4)"))
    (pad 17 thru_hole oval (at 7.62 27.94) (size 1.6 1.6) (drill 0.8) (layers *.Cu *.Mask)
      (net 24 "Net-(U1-Pad17)"))
    (pad 3 thru_hole oval (at 0 5.08) (size 1.6 1.6) (drill 0.8) (layers *.Cu *.Mask)
      (net 25 "Net-(U1-Pad3)"))
    (pad 16 thru_hole oval (at 7.62 30.48) (size 1.6 1.6) (drill 0.8) (layers *.Cu *.Mask)
      (net 26 "Net-(U1-Pad16)"))
    (pad 2 thru_hole oval (at 0 2.54) (size 1.6 1.6) (drill 0.8) (layers *.Cu *.Mask)
      (net 27 "Net-(U1-Pad2)"))
    (pad 15 thru_hole oval (at 7.62 33.02) (size 1.6 1.6) (drill 0.8) (layers *.Cu *.Mask)
      (net 28 "Net-(U1-Pad15)"))
    (pad 1 thru_hole rect (at 0 0) (size 1.6 1.6) (drill 0.8) (layers *.Cu *.Mask)
      (net 29 "Net-(U1-Pad1)"))
    (model ${KISYS3DMOD}/Package_DIP.3dshapes/DIP-28_W7.62mm.wrl
      (at (xyz 0 0 0))
      (scale (xyz 1 1 1))
      (rotate (xyz 0 0 0))
    )
  )

  (module Resistor_THT:R_Axial_DIN0207_L6.3mm_D2.5mm_P2.54mm_Vertical (layer F.Cu) (tedit 5AE5139B) (tstamp 6196C09A)
    (at 120.65 55.88)
    (descr "Resistor, Axial_DIN0207 series, Axial, Vertical, pin pitch=2.54mm, 0.25W = 1/4W, length*diameter=6.3*2.5mm^2, http://cdn-reichelt.de/documents/datenblatt/B400/1_4W%23YAG.pdf")
    (tags "Resistor Axial_DIN0207 series Axial Vertical pin pitch 2.54mm 0.25W = 1/4W length 6.3mm diameter 2.5mm")
    (path /61806E01)
    (fp_text reference R2 (at 1.27 -2.37) (layer F.SilkS)
      (effects (font (size 1 1) (thickness 0.15)))
    )
    (fp_text value 100 (at 1.27 2.37) (layer F.Fab)
      (effects (font (size 1 1) (thickness 0.15)))
    )
    (fp_circle (center 0 0) (end 1.25 0) (layer F.Fab) (width 0.1))
    (fp_circle (center 0 0) (end 1.37 0) (layer F.SilkS) (width 0.12))
    (fp_line (start 0 0) (end 2.54 0) (layer F.Fab) (width 0.1))
    (fp_line (start 1.37 0) (end 1.44 0) (layer F.SilkS) (width 0.12))
    (fp_line (start -1.5 -1.5) (end -1.5 1.5) (layer F.CrtYd) (width 0.05))
    (fp_line (start -1.5 1.5) (end 3.59 1.5) (layer F.CrtYd) (width 0.05))
    (fp_line (start 3.59 1.5) (end 3.59 -1.5) (layer F.CrtYd) (width 0.05))
    (fp_line (start 3.59 -1.5) (end -1.5 -1.5) (layer F.CrtYd) (width 0.05))
    (fp_text user %R (at 1.27 -2.37) (layer F.Fab)
      (effects (font (size 1 1) (thickness 0.15)))
    )
    (pad 2 thru_hole oval (at 2.54 0) (size 1.6 1.6) (drill 0.8) (layers *.Cu *.Mask)
      (net 4 /INPUToR))
    (pad 1 thru_hole circle (at 0 0) (size 1.6 1.6) (drill 0.8) (layers *.Cu *.Mask)
      (net 5 /INPUT))
    (model ${KISYS3DMOD}/Resistor_THT.3dshapes/R_Axial_DIN0207_L6.3mm_D2.5mm_P2.54mm_Vertical.wrl
      (at (xyz 0 0 0))
      (scale (xyz 1 1 1))
      (rotate (xyz 0 0 0))
    )
  )

  (module Resistor_THT:R_Axial_DIN0207_L6.3mm_D2.5mm_P2.54mm_Vertical (layer F.Cu) (tedit 5AE5139B) (tstamp 6196C08B)
    (at 102.87 59.69 90)
    (descr "Resistor, Axial_DIN0207 series, Axial, Vertical, pin pitch=2.54mm, 0.25W = 1/4W, length*diameter=6.3*2.5mm^2, http://cdn-reichelt.de/documents/datenblatt/B400/1_4W%23YAG.pdf")
    (tags "Resistor Axial_DIN0207 series Axial Vertical pin pitch 2.54mm 0.25W = 1/4W length 6.3mm diameter 2.5mm")
    (path /616E5DE1)
    (fp_text reference R1 (at 1.27 -2.37 90) (layer F.SilkS)
      (effects (font (size 1 1) (thickness 0.15)))
    )
    (fp_text value 1k (at 1.27 2.37 90) (layer F.Fab)
      (effects (font (size 1 1) (thickness 0.15)))
    )
    (fp_circle (center 0 0) (end 1.25 0) (layer F.Fab) (width 0.1))
    (fp_circle (center 0 0) (end 1.37 0) (layer F.SilkS) (width 0.12))
    (fp_line (start 0 0) (end 2.54 0) (layer F.Fab) (width 0.1))
    (fp_line (start 1.37 0) (end 1.44 0) (layer F.SilkS) (width 0.12))
    (fp_line (start -1.5 -1.5) (end -1.5 1.5) (layer F.CrtYd) (width 0.05))
    (fp_line (start -1.5 1.5) (end 3.59 1.5) (layer F.CrtYd) (width 0.05))
    (fp_line (start 3.59 1.5) (end 3.59 -1.5) (layer F.CrtYd) (width 0.05))
    (fp_line (start 3.59 -1.5) (end -1.5 -1.5) (layer F.CrtYd) (width 0.05))
    (fp_text user %R (at 1.27 -2.37 90) (layer F.Fab)
      (effects (font (size 1 1) (thickness 0.15)))
    )
    (pad 2 thru_hole oval (at 2.54 0 90) (size 1.6 1.6) (drill 0.8) (layers *.Cu *.Mask)
      (net 1 "Net-(D1-Pad2)"))
    (pad 1 thru_hole circle (at 0 0 90) (size 1.6 1.6) (drill 0.8) (layers *.Cu *.Mask)
      (net 3 VCC))
    (model ${KISYS3DMOD}/Resistor_THT.3dshapes/R_Axial_DIN0207_L6.3mm_D2.5mm_P2.54mm_Vertical.wrl
      (at (xyz 0 0 0))
      (scale (xyz 1 1 1))
      (rotate (xyz 0 0 0))
    )
  )

  (module LED_THT:LED_D5.0mm (layer F.Cu) (tedit 5995936A) (tstamp 6196C07C)
    (at 92.71 38.1)
    (descr "LED, diameter 5.0mm, 2 pins, http://cdn-reichelt.de/documents/datenblatt/A500/LL-504BC2E-009.pdf")
    (tags "LED diameter 5.0mm 2 pins")
    (path /616E8752)
    (fp_text reference D1 (at 1.27 -3.96) (layer F.SilkS)
      (effects (font (size 1 1) (thickness 0.15)))
    )
    (fp_text value LED (at 1.27 3.96) (layer F.Fab)
      (effects (font (size 1 1) (thickness 0.15)))
    )
    (fp_circle (center 1.27 0) (end 3.77 0) (layer F.Fab) (width 0.1))
    (fp_circle (center 1.27 0) (end 3.77 0) (layer F.SilkS) (width 0.12))
    (fp_line (start -1.23 -1.469694) (end -1.23 1.469694) (layer F.Fab) (width 0.1))
    (fp_line (start -1.29 -1.545) (end -1.29 1.545) (layer F.SilkS) (width 0.12))
    (fp_line (start -1.95 -3.25) (end -1.95 3.25) (layer F.CrtYd) (width 0.05))
    (fp_line (start -1.95 3.25) (end 4.5 3.25) (layer F.CrtYd) (width 0.05))
    (fp_line (start 4.5 3.25) (end 4.5 -3.25) (layer F.CrtYd) (width 0.05))
    (fp_line (start 4.5 -3.25) (end -1.95 -3.25) (layer F.CrtYd) (width 0.05))
    (fp_text user %R (at 1.27 3.81) (layer F.Fab)
      (effects (font (size 0.8 0.8) (thickness 0.2)))
    )
    (fp_arc (start 1.27 0) (end -1.29 1.54483) (angle -148.9) (layer F.SilkS) (width 0.12))
    (fp_arc (start 1.27 0) (end -1.29 -1.54483) (angle 148.9) (layer F.SilkS) (width 0.12))
    (fp_arc (start 1.27 0) (end -1.23 -1.469694) (angle 299.1) (layer F.Fab) (width 0.1))
    (pad 2 thru_hole circle (at 2.54 0) (size 1.8 1.8) (drill 0.9) (layers *.Cu *.Mask)
      (net 1 "Net-(D1-Pad2)"))
    (pad 1 thru_hole rect (at 0 0) (size 1.8 1.8) (drill 0.9) (layers *.Cu *.Mask)
      (net 2 /uCtoLED))
    (model ${KISYS3DMOD}/LED_THT.3dshapes/LED_D5.0mm.wrl
      (at (xyz 0 0 0))
      (scale (xyz 1 1 1))
      (rotate (xyz 0 0 0))
    )
  )

  (gr_line (start 127 30.48) (end 127 107.95) (layer Edge.Cuts) (width 0.1))
  (gr_line (start 48.26 30.48) (end 127 30.48) (layer Edge.Cuts) (width 0.1))
  (gr_line (start 48.26 107.95) (end 48.26 30.48) (layer Edge.Cuts) (width 0.1))
  (gr_line (start 127 107.95) (end 48.26 107.95) (layer Edge.Cuts) (width 0.1))

  (segment (start 95.25 49.53) (end 102.87 57.15) (width 0.25) (layer F.Cu) (net 1))
  (segment (start 95.25 38.1) (end 95.25 49.53) (width 0.25) (layer F.Cu) (net 1))
  (segment (start 76.2 38.1) (end 71.12 43.18) (width 0.25) (layer F.Cu) (net 2))
  (segment (start 92.71 38.1) (end 76.2 38.1) (width 0.25) (layer F.Cu) (net 2))
  (segment (start 75.18 67.56) (end 71.12 63.5) (width 0.5) (layer F.Cu) (net 3))
  (segment (start 75.18 93.98) (end 75.18 67.56) (width 0.5) (layer F.Cu) (net 3))
  (segment (start 95 67.56) (end 102.87 59.69) (width 0.5) (layer F.Cu) (net 3))
  (segment (start 75.18 67.56) (end 95 67.56) (width 0.5) (layer F.Cu) (net 3))
  (segment (start 123.19 75.94) (end 105.15 93.98) (width 0.25) (layer F.Cu) (net 4))
  (segment (start 123.19 55.88) (end 123.19 75.94) (width 0.25) (layer F.Cu) (net 4))
  (segment (start 71.264999 58.275001) (end 71.12 58.42) (width 0.25) (layer F.Cu) (net 5))
  (segment (start 118.254999 58.275001) (end 71.264999 58.275001) (width 0.25) (layer F.Cu) (net 5))
  (segment (start 120.65 55.88) (end 118.254999 58.275001) (width 0.25) (layer F.Cu) (net 5))
  (segment (start 90.17 85.09) (end 71.12 66.04) (width 0.5) (layer B.Cu) (net 17))
  (segment (start 90.17 93.98) (end 90.17 85.09) (width 0.5) (layer B.Cu) (net 17))
  (segment (start 68.58 66.04) (end 63.5 60.96) (width 0.5) (layer B.Cu) (net 17))
  (segment (start 71.12 66.04) (end 68.58 66.04) (width 0.5) (layer B.Cu) (net 17))

  (zone (net 17) (net_name GND) (layer B.Cu) (tstamp 619E87D0) (hatch edge 0.508)
    (connect_pads (clearance 0.508))
    (min_thickness 0.254)
    (fill yes (arc_segments 32) (thermal_gap 0.508) (thermal_bridge_width 0.508))
    (polygon
      (pts
        (xy 127 107.696) (xy 48.26 107.696) (xy 48.26 30.48) (xy 127 30.48)
      )
    )
    (filled_polygon
      (pts
        (xy 126.315001 107.265) (xy 48.945 107.265) (xy 48.945 93.417122) (xy 69.465 93.417122) (xy 69.465 94.542878)
        (xy 69.684625 95.647004) (xy 70.115433 96.687067) (xy 70.74087 97.6231) (xy 71.5369 98.41913) (xy 72.472933 99.044567)
        (xy 73.512996 99.475375) (xy 74.617122 99.695) (xy 75.742878 99.695) (xy 76.847004 99.475375) (xy 77.887067 99.044567)
        (xy 78.8231 98.41913) (xy 79.225034 98.017196) (xy 86.312409 98.017196) (xy 86.898124 98.699416) (xy 87.881704 99.247045)
        (xy 88.953223 99.592265) (xy 90.071501 99.721808) (xy 91.193565 99.630697) (xy 92.276294 99.322433) (xy 93.278079 98.808863)
        (xy 93.441876 98.699416) (xy 94.027591 98.017196) (xy 90.17 94.159605) (xy 86.312409 98.017196) (xy 79.225034 98.017196)
        (xy 79.61913 97.6231) (xy 80.244567 96.687067) (xy 80.675375 95.647004) (xy 80.895 94.542878) (xy 80.895 93.881501)
        (xy 84.428192 93.881501) (xy 84.519303 95.003565) (xy 84.827567 96.086294) (xy 85.341137 97.088079) (xy 85.450584 97.251876)
        (xy 86.132804 97.837591) (xy 89.990395 93.98) (xy 90.349605 93.98) (xy 94.207196 97.837591) (xy 94.889416 97.251876)
        (xy 95.437045 96.268296) (xy 95.782265 95.196777) (xy 95.911808 94.078499) (xy 95.858105 93.417122) (xy 99.435 93.417122)
        (xy 99.435 94.542878) (xy 99.654625 95.647004) (xy 100.085433 96.687067) (xy 100.71087 97.6231) (xy 101.5069 98.41913)
        (xy 102.442933 99.044567) (xy 103.482996 99.475375) (xy 104.587122 99.695) (xy 105.712878 99.695) (xy 106.817004 99.475375)
        (xy 107.857067 99.044567) (xy 108.7931 98.41913) (xy 109.58913 97.6231) (xy 110.214567 96.687067) (xy 110.645375 95.647004)
        (xy 110.865 94.542878) (xy 110.865 93.417122) (xy 110.645375 92.312996) (xy 110.214567 91.272933) (xy 109.58913 90.3369)
        (xy 108.7931 89.54087) (xy 107.857067 88.915433) (xy 106.817004 88.484625) (xy 105.712878 88.265) (xy 104.587122 88.265)
        (xy 103.482996 88.484625) (xy 102.442933 88.915433) (xy 101.5069 89.54087) (xy 100.71087 90.3369) (xy 100.085433 91.272933)
        (xy 99.654625 92.312996) (xy 99.435 93.417122) (xy 95.858105 93.417122) (xy 95.820697 92.956435) (xy 95.512433 91.873706)
        (xy 94.998863 90.871921) (xy 94.889416 90.708124) (xy 94.207196 90.122409) (xy 90.349605 93.98) (xy 89.990395 93.98)
        (xy 86.132804 90.122409) (xy 85.450584 90.708124) (xy 84.902955 91.691704) (xy 84.557735 92.763223) (xy 84.428192 93.881501)
        (xy 80.895 93.881501) (xy 80.895 93.417122) (xy 80.675375 92.312996) (xy 80.244567 91.272933) (xy 79.61913 90.3369)
        (xy 79.225034 89.942804) (xy 86.312409 89.942804) (xy 90.17 93.800395) (xy 94.027591 89.942804) (xy 93.441876 89.260584)
        (xy 92.458296 88.712955) (xy 91.386777 88.367735) (xy 90.268499 88.238192) (xy 89.146435 88.329303) (xy 88.063706 88.637567)
        (xy 87.061921 89.151137) (xy 86.898124 89.260584) (xy 86.312409 89.942804) (xy 79.225034 89.942804) (xy 78.8231 89.54087)
        (xy 77.887067 88.915433) (xy 76.847004 88.484625) (xy 75.742878 88.265) (xy 74.617122 88.265) (xy 73.512996 88.484625)
        (xy 72.472933 88.915433) (xy 71.5369 89.54087) (xy 70.74087 90.3369) (xy 70.115433 91.272933) (xy 69.684625 92.312996)
        (xy 69.465 93.417122) (xy 48.945 93.417122) (xy 48.945 63.358665) (xy 62.065 63.358665) (xy 62.065 63.641335)
        (xy 62.120147 63.918574) (xy 62.22832 64.179727) (xy 62.385363 64.414759) (xy 62.585241 64.614637) (xy 62.817759 64.77)
        (xy 62.585241 64.925363) (xy 62.385363 65.125241) (xy 62.22832 65.360273) (xy 62.120147 65.621426) (xy 62.065 65.898665)
        (xy 62.065 66.181335) (xy 62.120147 66.458574) (xy 62.22832 66.719727) (xy 62.385363 66.954759) (xy 62.585241 67.154637)
        (xy 62.817759 67.31) (xy 62.585241 67.465363) (xy 62.385363 67.665241) (xy 62.22832 67.900273) (xy 62.120147 68.161426)
        (xy 62.065 68.438665) (xy 62.065 68.721335) (xy 62.120147 68.998574) (xy 62.22832 69.259727) (xy 62.385363 69.494759)
        (xy 62.585241 69.694637) (xy 62.817759 69.85) (xy 62.585241 70.005363) (xy 62.385363 70.205241) (xy 62.22832 70.440273)
        (xy 62.120147 70.701426) (xy 62.065 70.978665) (xy 62.065 71.261335) (xy 62.120147 71.538574) (xy 62.22832 71.799727)
        (xy 62.385363 72.034759) (xy 62.585241 72.234637) (xy 62.817759 72.39) (xy 62.585241 72.545363) (xy 62.385363 72.745241)
        (xy 62.22832 72.980273) (xy 62.120147 73.241426) (xy 62.065 73.518665) (xy 62.065 73.801335) (xy 62.120147 74.078574)
        (xy 62.22832 74.339727) (xy 62.385363 74.574759) (xy 62.585241 74.774637) (xy 62.817759 74.93) (xy 62.585241 75.085363)
        (xy 62.385363 75.285241) (xy 62.22832 75.520273) (xy 62.120147 75.781426) (xy 62.065 76.058665) (xy 62.065 76.341335)
        (xy 62.120147 76.618574) (xy 62.22832 76.879727) (xy 62.385363 77.114759) (xy 62.585241 77.314637) (xy 62.820273 77.47168)
        (xy 63.081426 77.579853) (xy 63.358665 77.635) (xy 63.641335 77.635) (xy 63.918574 77.579853) (xy 64.179727 77.47168)
        (xy 64.414759 77.314637) (xy 64.614637 77.114759) (xy 64.77168 76.879727) (xy 64.879853 76.618574) (xy 64.935 76.341335)
        (xy 64.935 76.058665) (xy 64.879853 75.781426) (xy 64.77168 75.520273) (xy 64.614637 75.285241) (xy 64.414759 75.085363)
        (xy 64.182241 74.93) (xy 64.414759 74.774637) (xy 64.614637 74.574759) (xy 64.77168 74.339727) (xy 64.879853 74.078574)
        (xy 64.935 73.801335) (xy 64.935 73.518665) (xy 64.879853 73.241426) (xy 64.77168 72.980273) (xy 64.614637 72.745241)
        (xy 64.414759 72.545363) (xy 64.182241 72.39) (xy 64.414759 72.234637) (xy 64.614637 72.034759) (xy 64.77168 71.799727)
        (xy 64.879853 71.538574) (xy 64.935 71.261335) (xy 64.935 70.978665) (xy 64.879853 70.701426) (xy 64.77168 70.440273)
        (xy 64.614637 70.205241) (xy 64.414759 70.005363) (xy 64.182241 69.85) (xy 64.414759 69.694637) (xy 64.614637 69.494759)
        (xy 64.77168 69.259727) (xy 64.879853 68.998574) (xy 64.935 68.721335) (xy 64.935 68.438665) (xy 69.685 68.438665)
        (xy 69.685 68.721335) (xy 69.740147 68.998574) (xy 69.84832 69.259727) (xy 70.005363 69.494759) (xy 70.205241 69.694637)
        (xy 70.437759 69.85) (xy 70.205241 70.005363) (xy 70.005363 70.205241) (xy 69.84832 70.440273) (xy 69.740147 70.701426)
        (xy 69.685 70.978665) (xy 69.685 71.261335) (xy 69.740147 71.538574) (xy 69.84832 71.799727) (xy 70.005363 72.034759)
        (xy 70.205241 72.234637) (xy 70.437759 72.39) (xy 70.205241 72.545363) (xy 70.005363 72.745241) (xy 69.84832 72.980273)
        (xy 69.740147 73.241426) (xy 69.685 73.518665) (xy 69.685 73.801335) (xy 69.740147 74.078574) (xy 69.84832 74.339727)
        (xy 70.005363 74.574759) (xy 70.205241 74.774637) (xy 70.437759 74.93) (xy 70.205241 75.085363) (xy 70.005363 75.285241)
        (xy 69.84832 75.520273) (xy 69.740147 75.781426) (xy 69.685 76.058665) (xy 69.685 76.341335) (xy 69.740147 76.618574)
        (xy 69.84832 76.879727) (xy 70.005363 77.114759) (xy 70.205241 77.314637) (xy 70.440273 77.47168) (xy 70.701426 77.579853)
        (xy 70.978665 77.635) (xy 71.261335 77.635) (xy 71.538574 77.579853) (xy 71.799727 77.47168) (xy 72.034759 77.314637)
        (xy 72.234637 77.114759) (xy 72.39168 76.879727) (xy 72.499853 76.618574) (xy 72.555 76.341335) (xy 72.555 76.058665)
        (xy 72.499853 75.781426) (xy 72.39168 75.520273) (xy 72.234637 75.285241) (xy 72.034759 75.085363) (xy 71.802241 74.93)
        (xy 72.034759 74.774637) (xy 72.234637 74.574759) (xy 72.39168 74.339727) (xy 72.499853 74.078574) (xy 72.555 73.801335)
        (xy 72.555 73.518665) (xy 72.499853 73.241426) (xy 72.39168 72.980273) (xy 72.234637 72.745241) (xy 72.034759 72.545363)
        (xy 71.802241 72.39) (xy 72.034759 72.234637) (xy 72.234637 72.034759) (xy 72.39168 71.799727) (xy 72.499853 71.538574)
        (xy 72.555 71.261335) (xy 72.555 70.978665) (xy 72.499853 70.701426) (xy 72.39168 70.440273) (xy 72.234637 70.205241)
        (xy 72.034759 70.005363) (xy 71.802241 69.85) (xy 72.034759 69.694637) (xy 72.234637 69.494759) (xy 72.39168 69.259727)
        (xy 72.499853 68.998574) (xy 72.555 68.721335) (xy 72.555 68.438665) (xy 72.499853 68.161426) (xy 72.39168 67.900273)
        (xy 72.234637 67.665241) (xy 72.034759 67.465363) (xy 71.799727 67.30832) (xy 71.789135 67.303933) (xy 71.975131 67.192385)
        (xy 72.183519 67.003414) (xy 72.351037 66.77742) (xy 72.471246 66.523087) (xy 72.511904 66.389039) (xy 72.389915 66.167)
        (xy 71.247 66.167) (xy 71.247 66.187) (xy 70.993 66.187) (xy 70.993 66.167) (xy 69.850085 66.167)
        (xy 69.728096 66.389039) (xy 69.768754 66.523087) (xy 69.888963 66.77742) (xy 70.056481 67.003414) (xy 70.264869 67.192385)
        (xy 70.450865 67.303933) (xy 70.440273 67.30832) (xy 70.205241 67.465363) (xy 70.005363 67.665241) (xy 69.84832 67.900273)
        (xy 69.740147 68.161426) (xy 69.685 68.438665) (xy 64.935 68.438665) (xy 64.879853 68.161426) (xy 64.77168 67.900273)
        (xy 64.614637 67.665241) (xy 64.414759 67.465363) (xy 64.182241 67.31) (xy 64.414759 67.154637) (xy 64.614637 66.954759)
        (xy 64.77168 66.719727) (xy 64.879853 66.458574) (xy 64.935 66.181335) (xy 64.935 65.898665) (xy 64.879853 65.621426)
        (xy 64.77168 65.360273) (xy 64.614637 65.125241) (xy 64.414759 64.925363) (xy 64.182241 64.77) (xy 64.414759 64.614637)
        (xy 64.614637 64.414759) (xy 64.77168 64.179727) (xy 64.879853 63.918574) (xy 64.935 63.641335) (xy 64.935 63.358665)
        (xy 64.879853 63.081426) (xy 64.77168 62.820273) (xy 64.614637 62.585241) (xy 64.414759 62.385363) (xy 64.179727 62.22832)
        (xy 64.169135 62.223933) (xy 64.355131 62.112385) (xy 64.563519 61.923414) (xy 64.731037 61.69742) (xy 64.851246 61.443087)
        (xy 64.891904 61.309039) (xy 64.769915 61.087) (xy 63.627 61.087) (xy 63.627 61.107) (xy 63.373 61.107)
        (xy 63.373 61.087) (xy 62.230085 61.087) (xy 62.108096 61.309039) (xy 62.148754 61.443087) (xy 62.268963 61.69742)
        (xy 62.436481 61.923414) (xy 62.644869 62.112385) (xy 62.830865 62.223933) (xy 62.820273 62.22832) (xy 62.585241 62.385363)
        (xy 62.385363 62.585241) (xy 62.22832 62.820273) (xy 62.120147 63.081426) (xy 62.065 63.358665) (xy 48.945 63.358665)
        (xy 48.945 42.38) (xy 62.061928 42.38) (xy 62.061928 43.98) (xy 62.074188 44.104482) (xy 62.110498 44.22418)
        (xy 62.169463 44.334494) (xy 62.248815 44.431185) (xy 62.345506 44.510537) (xy 62.45582 44.569502) (xy 62.575518 44.605812)
        (xy 62.583961 44.606643) (xy 62.385363 44.805241) (xy 62.22832 45.040273) (xy 62.120147 45.301426) (xy 62.065 45.578665)
        (xy 62.065 45.861335) (xy 62.120147 46.138574) (xy 62.22832 46.399727) (xy 62.385363 46.634759) (xy 62.585241 46.834637)
        (xy 62.817759 46.99) (xy 62.585241 47.145363) (xy 62.385363 47.345241) (xy 62.22832 47.580273) (xy 62.120147 47.841426)
        (xy 62.065 48.118665) (xy 62.065 48.401335) (xy 62.120147 48.678574) (xy 62.22832 48.939727) (xy 62.385363 49.174759)
        (xy 62.585241 49.374637) (xy 62.817759 49.53) (xy 62.585241 49.685363) (xy 62.385363 49.885241) (xy 62.22832 50.120273)
        (xy 62.120147 50.381426) (xy 62.065 50.658665) (xy 62.065 50.941335) (xy 62.120147 51.218574) (xy 62.22832 51.479727)
        (xy 62.385363 51.714759) (xy 62.585241 51.914637) (xy 62.817759 52.07) (xy 62.585241 52.225363) (xy 62.385363 52.425241)
        (xy 62.22832 52.660273) (xy 62.120147 52.921426) (xy 62.065 53.198665) (xy 62.065 53.481335) (xy 62.120147 53.758574)
        (xy 62.22832 54.019727) (xy 62.385363 54.254759) (xy 62.585241 54.454637) (xy 62.817759 54.61) (xy 62.585241 54.765363)
        (xy 62.385363 54.965241) (xy 62.22832 55.200273) (xy 62.120147 55.461426) (xy 62.065 55.738665) (xy 62.065 56.021335)
        (xy 62.120147 56.298574) (xy 62.22832 56.559727) (xy 62.385363 56.794759) (xy 62.585241 56.994637) (xy 62.817759 57.15)
        (xy 62.585241 57.305363) (xy 62.385363 57.505241) (xy 62.22832 57.740273) (xy 62.120147 58.001426) (xy 62.065 58.278665)
        (xy 62.065 58.561335) (xy 62.120147 58.838574) (xy 62.22832 59.099727) (xy 62.385363 59.334759) (xy 62.585241 59.534637)
        (xy 62.820273 59.69168) (xy 62.830865 59.696067) (xy 62.644869 59.807615) (xy 62.436481 59.996586) (xy 62.268963 60.22258)
        (xy 62.148754 60.476913) (xy 62.108096 60.610961) (xy 62.230085 60.833) (xy 63.373 60.833) (xy 63.373 60.813)
        (xy 63.627 60.813) (xy 63.627 60.833) (xy 64.769915 60.833) (xy 64.891904 60.610961) (xy 64.851246 60.476913)
        (xy 64.731037 60.22258) (xy 64.563519 59.996586) (xy 64.355131 59.807615) (xy 64.169135 59.696067) (xy 64.179727 59.69168)
        (xy 64.414759 59.534637) (xy 64.614637 59.334759) (xy 64.77168 59.099727) (xy 64.879853 58.838574) (xy 64.935 58.561335)
        (xy 64.935 58.278665) (xy 64.879853 58.001426) (xy 64.77168 57.740273) (xy 64.614637 57.505241) (xy 64.414759 57.305363)
        (xy 64.182241 57.15) (xy 64.414759 56.994637) (xy 64.614637 56.794759) (xy 64.77168 56.559727) (xy 64.879853 56.298574)
        (xy 64.935 56.021335) (xy 64.935 55.738665) (xy 64.879853 55.461426) (xy 64.77168 55.200273) (xy 64.614637 54.965241)
        (xy 64.414759 54.765363) (xy 64.182241 54.61) (xy 64.414759 54.454637) (xy 64.614637 54.254759) (xy 64.77168 54.019727)
        (xy 64.879853 53.758574) (xy 64.935 53.481335) (xy 64.935 53.198665) (xy 64.879853 52.921426) (xy 64.77168 52.660273)
        (xy 64.614637 52.425241) (xy 64.414759 52.225363) (xy 64.182241 52.07) (xy 64.414759 51.914637) (xy 64.614637 51.714759)
        (xy 64.77168 51.479727) (xy 64.879853 51.218574) (xy 64.935 50.941335) (xy 64.935 50.658665) (xy 64.879853 50.381426)
        (xy 64.77168 50.120273) (xy 64.614637 49.885241) (xy 64.414759 49.685363) (xy 64.182241 49.53) (xy 64.414759 49.374637)
        (xy 64.614637 49.174759) (xy 64.77168 48.939727) (xy 64.879853 48.678574) (xy 64.935 48.401335) (xy 64.935 48.118665)
        (xy 64.879853 47.841426) (xy 64.77168 47.580273) (xy 64.614637 47.345241) (xy 64.414759 47.145363) (xy 64.182241 46.99)
        (xy 64.414759 46.834637) (xy 64.614637 46.634759) (xy 64.77168 46.399727) (xy 64.879853 46.138574) (xy 64.935 45.861335)
        (xy 64.935 45.578665) (xy 64.879853 45.301426) (xy 64.77168 45.040273) (xy 64.614637 44.805241) (xy 64.416039 44.606643)
        (xy 64.424482 44.605812) (xy 64.54418 44.569502) (xy 64.654494 44.510537) (xy 64.751185 44.431185) (xy 64.830537 44.334494)
        (xy 64.889502 44.22418) (xy 64.925812 44.104482) (xy 64.938072 43.98) (xy 64.938072 43.038665) (xy 69.685 43.038665)
        (xy 69.685 43.321335) (xy 69.740147 43.598574) (xy 69.84832 43.859727) (xy 70.005363 44.094759) (xy 70.205241 44.294637)
        (xy 70.437759 44.45) (xy 70.205241 44.605363) (xy 70.005363 44.805241) (xy 69.84832 45.040273) (xy 69.740147 45.301426)
        (xy 69.685 45.578665) (xy 69.685 45.861335) (xy 69.740147 46.138574) (xy 69.84832 46.399727) (xy 70.005363 46.634759)
        (xy 70.205241 46.834637) (xy 70.437759 46.99) (xy 70.205241 47.145363) (xy 70.005363 47.345241) (xy 69.84832 47.580273)
        (xy 69.740147 47.841426) (xy 69.685 48.118665) (xy 69.685 48.401335) (xy 69.740147 48.678574) (xy 69.84832 48.939727)
        (xy 70.005363 49.174759) (xy 70.205241 49.374637) (xy 70.437759 49.53) (xy 70.205241 49.685363) (xy 70.005363 49.885241)
        (xy 69.84832 50.120273) (xy 69.740147 50.381426) (xy 69.685 50.658665) (xy 69.685 50.941335) (xy 69.740147 51.218574)
        (xy 69.84832 51.479727) (xy 70.005363 51.714759) (xy 70.205241 51.914637) (xy 70.437759 52.07) (xy 70.205241 52.225363)
        (xy 70.005363 52.425241) (xy 69.84832 52.660273) (xy 69.740147 52.921426) (xy 69.685 53.198665) (xy 69.685 53.481335)
        (xy 69.740147 53.758574) (xy 69.84832 54.019727) (xy 70.005363 54.254759) (xy 70.205241 54.454637) (xy 70.437759 54.61)
        (xy 70.205241 54.765363) (xy 70.005363 54.965241) (xy 69.84832 55.200273) (xy 69.740147 55.461426) (xy 69.685 55.738665)
        (xy 69.685 56.021335) (xy 69.740147 56.298574) (xy 69.84832 56.559727) (xy 70.005363 56.794759) (xy 70.205241 56.994637)
        (xy 70.437759 57.15) (xy 70.205241 57.305363) (xy 70.005363 57.505241) (xy 69.84832 57.740273) (xy 69.740147 58.001426)
        (xy 69.685 58.278665) (xy 69.685 58.561335) (xy 69.740147 58.838574) (xy 69.84832 59.099727) (xy 70.005363 59.334759)
        (xy 70.205241 59.534637) (xy 70.437759 59.69) (xy 70.205241 59.845363) (xy 70.005363 60.045241) (xy 69.84832 60.280273)
        (xy 69.740147 60.541426) (xy 69.685 60.818665) (xy 69.685 61.101335) (xy 69.740147 61.378574) (xy 69.84832 61.639727)
        (xy 70.005363 61.874759) (xy 70.205241 62.074637) (xy 70.437759 62.23) (xy 70.205241 62.385363) (xy 70.005363 62.585241)
        (xy 69.84832 62.820273) (xy 69.740147 63.081426) (xy 69.685 63.358665) (xy 69.685 63.641335) (xy 69.740147 63.918574)
        (xy 69.84832 64.179727) (xy 70.005363 64.414759) (xy 70.205241 64.614637) (xy 70.440273 64.77168) (xy 70.450865 64.776067)
        (xy 70.264869 64.887615) (xy 70.056481 65.076586) (xy 69.888963 65.30258) (xy 69.768754 65.556913) (xy 69.728096 65.690961)
        (xy 69.850085 65.913) (xy 70.993 65.913) (xy 70.993 65.893) (xy 71.247 65.893) (xy 71.247 65.913)
        (xy 72.389915 65.913) (xy 72.511904 65.690961) (xy 72.471246 65.556913) (xy 72.351037 65.30258) (xy 72.183519 65.076586)
        (xy 71.975131 64.887615) (xy 71.789135 64.776067) (xy 71.799727 64.77168) (xy 72.034759 64.614637) (xy 72.234637 64.414759)
        (xy 72.39168 64.179727) (xy 72.499853 63.918574) (xy 72.555 63.641335) (xy 72.555 63.358665) (xy 72.499853 63.081426)
        (xy 72.39168 62.820273) (xy 72.234637 62.585241) (xy 72.034759 62.385363) (xy 71.802241 62.23) (xy 72.034759 62.074637)
        (xy 72.234637 61.874759) (xy 72.39168 61.639727) (xy 72.499853 61.378574) (xy 72.555 61.101335) (xy 72.555 60.818665)
        (xy 72.499853 60.541426) (xy 72.39168 60.280273) (xy 72.234637 60.045241) (xy 72.034759 59.845363) (xy 71.802241 59.69)
        (xy 72.034759 59.534637) (xy 72.234637 59.334759) (xy 72.39168 59.099727) (xy 72.499853 58.838574) (xy 72.555 58.561335)
        (xy 72.555 58.278665) (xy 72.499853 58.001426) (xy 72.39168 57.740273) (xy 72.234637 57.505241) (xy 72.034759 57.305363)
        (xy 71.802241 57.15) (xy 72.013764 57.008665) (xy 101.435 57.008665) (xy 101.435 57.291335) (xy 101.490147 57.568574)
        (xy 101.59832 57.829727) (xy 101.755363 58.064759) (xy 101.955241 58.264637) (xy 102.187759 58.42) (xy 101.955241 58.575363)
        (xy 101.755363 58.775241) (xy 101.59832 59.010273) (xy 101.490147 59.271426) (xy 101.435 59.548665) (xy 101.435 59.831335)
        (xy 101.490147 60.108574) (xy 101.59832 60.369727) (xy 101.755363 60.604759) (xy 101.955241 60.804637) (xy 102.190273 60.96168)
        (xy 102.451426 61.069853) (xy 102.728665 61.125) (xy 103.011335 61.125) (xy 103.288574 61.069853) (xy 103.549727 60.96168)
        (xy 103.784759 60.804637) (xy 103.984637 60.604759) (xy 104.14168 60.369727) (xy 104.249853 60.108574) (xy 104.305 59.831335)
        (xy 104.305 59.548665) (xy 104.249853 59.271426) (xy 104.14168 59.010273) (xy 103.984637 58.775241) (xy 103.784759 58.575363)
        (xy 103.552241 58.42) (xy 103.784759 58.264637) (xy 103.984637 58.064759) (xy 104.14168 57.829727) (xy 104.249853 57.568574)
        (xy 104.305 57.291335) (xy 104.305 57.008665) (xy 104.249853 56.731426) (xy 104.14168 56.470273) (xy 103.984637 56.235241)
        (xy 103.784759 56.035363) (xy 103.549727 55.87832) (xy 103.288574 55.770147) (xy 103.130306 55.738665) (xy 119.215 55.738665)
        (xy 119.215 56.021335) (xy 119.270147 56.298574) (xy 119.37832 56.559727) (xy 119.535363 56.794759) (xy 119.735241 56.994637)
        (xy 119.970273 57.15168) (xy 120.231426 57.259853) (xy 120.508665 57.315) (xy 120.791335 57.315) (xy 121.068574 57.259853)
        (xy 121.329727 57.15168) (xy 121.564759 56.994637) (xy 121.764637 56.794759) (xy 121.92 56.562241) (xy 122.075363 56.794759)
        (xy 122.275241 56.994637) (xy 122.510273 57.15168) (xy 122.771426 57.259853) (xy 123.048665 57.315) (xy 123.331335 57.315)
        (xy 123.608574 57.259853) (xy 123.869727 57.15168) (xy 124.104759 56.994637) (xy 124.304637 56.794759) (xy 124.46168 56.559727)
        (xy 124.569853 56.298574) (xy 124.625 56.021335) (xy 124.625 55.738665) (xy 124.569853 55.461426) (xy 124.46168 55.200273)
        (xy 124.304637 54.965241) (xy 124.104759 54.765363) (xy 123.869727 54.60832) (xy 123.608574 54.500147) (xy 123.331335 54.445)
        (xy 123.048665 54.445) (xy 122.771426 54.500147) (xy 122.510273 54.60832) (xy 122.275241 54.765363) (xy 122.075363 54.965241)
        (xy 121.92 55.197759) (xy 121.764637 54.965241) (xy 121.564759 54.765363) (xy 121.329727 54.60832) (xy 121.068574 54.500147)
        (xy 120.791335 54.445) (xy 120.508665 54.445) (xy 120.231426 54.500147) (xy 119.970273 54.60832) (xy 119.735241 54.765363)
        (xy 119.535363 54.965241) (xy 119.37832 55.200273) (xy 119.270147 55.461426) (xy 119.215 55.738665) (xy 103.130306 55.738665)
        (xy 103.011335 55.715) (xy 102.728665 55.715) (xy 102.451426 55.770147) (xy 102.190273 55.87832) (xy 101.955241 56.035363)
        (xy 101.755363 56.235241) (xy 101.59832 56.470273) (xy 101.490147 56.731426) (xy 101.435 57.008665) (xy 72.013764 57.008665)
        (xy 72.034759 56.994637) (xy 72.234637 56.794759) (xy 72.39168 56.559727) (xy 72.499853 56.298574) (xy 72.555 56.021335)
        (xy 72.555 55.738665) (xy 72.499853 55.461426) (xy 72.39168 55.200273) (xy 72.234637 54.965241) (xy 72.034759 54.765363)
        (xy 71.802241 54.61) (xy 72.034759 54.454637) (xy 72.234637 54.254759) (xy 72.39168 54.019727) (xy 72.499853 53.758574)
        (xy 72.555 53.481335) (xy 72.555 53.198665) (xy 72.499853 52.921426) (xy 72.39168 52.660273) (xy 72.234637 52.425241)
        (xy 72.034759 52.225363) (xy 71.802241 52.07) (xy 72.034759 51.914637) (xy 72.234637 51.714759) (xy 72.39168 51.479727)
        (xy 72.499853 51.218574) (xy 72.555 50.941335) (xy 72.555 50.658665) (xy 72.499853 50.381426) (xy 72.39168 50.120273)
        (xy 72.234637 49.885241) (xy 72.034759 49.685363) (xy 71.802241 49.53) (xy 72.034759 49.374637) (xy 72.234637 49.174759)
        (xy 72.39168 48.939727) (xy 72.499853 48.678574) (xy 72.555 48.401335) (xy 72.555 48.118665) (xy 72.499853 47.841426)
        (xy 72.39168 47.580273) (xy 72.234637 47.345241) (xy 72.034759 47.145363) (xy 71.802241 46.99) (xy 72.034759 46.834637)
        (xy 72.234637 46.634759) (xy 72.39168 46.399727) (xy 72.499853 46.138574) (xy 72.555 45.861335) (xy 72.555 45.578665)
        (xy 72.499853 45.301426) (xy 72.39168 45.040273) (xy 72.234637 44.805241) (xy 72.034759 44.605363) (xy 71.802241 44.45)
        (xy 72.034759 44.294637) (xy 72.234637 44.094759) (xy 72.39168 43.859727) (xy 72.499853 43.598574) (xy 72.555 43.321335)
        (xy 72.555 43.038665) (xy 72.499853 42.761426) (xy 72.39168 42.500273) (xy 72.234637 42.265241) (xy 72.034759 42.065363)
        (xy 71.799727 41.90832) (xy 71.538574 41.800147) (xy 71.261335 41.745) (xy 70.978665 41.745) (xy 70.701426 41.800147)
        (xy 70.440273 41.90832) (xy 70.205241 42.065363) (xy 70.005363 42.265241) (xy 69.84832 42.500273) (xy 69.740147 42.761426)
        (xy 69.685 43.038665) (xy 64.938072 43.038665) (xy 64.938072 42.38) (xy 64.925812 42.255518) (xy 64.889502 42.13582)
        (xy 64.830537 42.025506) (xy 64.751185 41.928815) (xy 64.654494 41.849463) (xy 64.54418 41.790498) (xy 64.424482 41.754188)
        (xy 64.3 41.741928) (xy 62.7 41.741928) (xy 62.575518 41.754188) (xy 62.45582 41.790498) (xy 62.345506 41.849463)
        (xy 62.248815 41.928815) (xy 62.169463 42.025506) (xy 62.110498 42.13582) (xy 62.074188 42.255518) (xy 62.061928 42.38)
        (xy 48.945 42.38) (xy 48.945 37.2) (xy 91.171928 37.2) (xy 91.171928 39) (xy 91.184188 39.124482)
        (xy 91.220498 39.24418) (xy 91.279463 39.354494) (xy 91.358815 39.451185) (xy 91.455506 39.530537) (xy 91.56582 39.589502)
        (xy 91.685518 39.625812) (xy 91.81 39.638072) (xy 93.61 39.638072) (xy 93.734482 39.625812) (xy 93.85418 39.589502)
        (xy 93.964494 39.530537) (xy 94.061185 39.451185) (xy 94.140537 39.354494) (xy 94.199502 39.24418) (xy 94.205056 39.225873)
        (xy 94.271495 39.292312) (xy 94.522905 39.460299) (xy 94.802257 39.576011) (xy 95.098816 39.635) (xy 95.401184 39.635)
        (xy 95.697743 39.576011) (xy 95.977095 39.460299) (xy 96.228505 39.292312) (xy 96.442312 39.078505) (xy 96.610299 38.827095)
        (xy 96.726011 38.547743) (xy 96.785 38.251184) (xy 96.785 37.948816) (xy 96.726011 37.652257) (xy 96.610299 37.372905)
        (xy 96.442312 37.121495) (xy 96.228505 36.907688) (xy 95.977095 36.739701) (xy 95.697743 36.623989) (xy 95.401184 36.565)
        (xy 95.098816 36.565) (xy 94.802257 36.623989) (xy 94.522905 36.739701) (xy 94.271495 36.907688) (xy 94.205056 36.974127)
        (xy 94.199502 36.95582) (xy 94.140537 36.845506) (xy 94.061185 36.748815) (xy 93.964494 36.669463) (xy 93.85418 36.610498)
        (xy 93.734482 36.574188) (xy 93.61 36.561928) (xy 91.81 36.561928) (xy 91.685518 36.574188) (xy 91.56582 36.610498)
        (xy 91.455506 36.669463) (xy 91.358815 36.748815) (xy 91.279463 36.845506) (xy 91.220498 36.95582) (xy 91.184188 37.075518)
        (xy 91.171928 37.2) (xy 48.945 37.2) (xy 48.945 31.165) (xy 126.315 31.165)
      )
    )
  )
)
