EESchema Schematic File Version 4
EELAYER 30 0
EELAYER END
$Descr A3 16535 11693
encoding utf-8
Sheet 1 1
Title ""
Date "2021-10-21"
Rev ""
Comp "МГТУ им. Н.Э. Баумана"
Comment1 ""
Comment2 "Хотин Д.Ю."
Comment3 "Хохлов С.А."
Comment4 ""
$EndDescr
$Comp
L Switch:SW_Push SW1
U 1 1 61AD2EFD
P 10725 2300
F 0 "SW1" H 10725 2475 50  0000 C CNN
F 1 " " H 10450 2350 50  0000 C CNN
F 2 "Button_Switch_THT:SW_Tactile_SKHH_Angled" H 10725 2500 50  0001 C CNN
F 3 "~" H 10725 2500 50  0001 C CNN
	1    10725 2300
	1    0    0    -1  
$EndComp
$Comp
L power:GND #PWR0101
U 1 1 61AE931F
P 11225 2300
F 0 "#PWR0101" H 11225 2050 50  0001 C CNN
F 1 "GND" V 11230 2172 50  0000 R CNN
F 2 "" H 11225 2300 50  0001 C CNN
F 3 "" H 11225 2300 50  0001 C CNN
	1    11225 2300
	0    -1   -1   0   
$EndComp
$Comp
L MCU_Microchip_ATmega:ATmega8515-16AU U2
U 1 1 61AF2F79
P 8150 4475
F 0 "U2" H 8150 6656 50  0000 C CNN
F 1 "ATmega8515-16AU" H 8150 6565 50  0000 C CNN
F 2 "Package_QFP:TQFP-44_10x10mm_P0.8mm" H 8150 4475 50  0001 C CIN
F 3 "http://ww1.microchip.com/downloads/en/DeviceDoc/doc2512.pdf" H 8150 4475 50  0001 C CNN
	1    8150 4475
	1    0    0    -1  
$EndComp
Wire Bus Line
	9450 1975 9450 6700
$Comp
L Switch:SW_Push SW2
U 1 1 61AFD28C
P 10725 2550
F 0 "SW2" H 10725 2725 50  0000 C CNN
F 1 " " H 10450 2600 50  0000 C CNN
F 2 "Button_Switch_THT:SW_Tactile_SKHH_Angled" H 10725 2750 50  0001 C CNN
F 3 "~" H 10725 2750 50  0001 C CNN
	1    10725 2550
	1    0    0    -1  
$EndComp
$Comp
L power:GND #PWR0102
U 1 1 61AFD292
P 11225 2550
F 0 "#PWR0102" H 11225 2300 50  0001 C CNN
F 1 "GND" V 11230 2422 50  0000 R CNN
F 2 "" H 11225 2550 50  0001 C CNN
F 3 "" H 11225 2550 50  0001 C CNN
	1    11225 2550
	0    -1   -1   0   
$EndComp
$Comp
L Switch:SW_Push SW3
U 1 1 61AFD5C0
P 10725 2825
F 0 "SW3" H 10725 3000 50  0000 C CNN
F 1 " " H 10450 2875 50  0000 C CNN
F 2 "Button_Switch_THT:SW_Tactile_SKHH_Angled" H 10725 3025 50  0001 C CNN
F 3 "~" H 10725 3025 50  0001 C CNN
	1    10725 2825
	1    0    0    -1  
$EndComp
$Comp
L power:GND #PWR0103
U 1 1 61AFD5C6
P 11225 2825
F 0 "#PWR0103" H 11225 2575 50  0001 C CNN
F 1 "GND" V 11230 2697 50  0000 R CNN
F 2 "" H 11225 2825 50  0001 C CNN
F 3 "" H 11225 2825 50  0001 C CNN
	1    11225 2825
	0    -1   -1   0   
$EndComp
$Comp
L Switch:SW_Push SW4
U 1 1 61AFDCA3
P 10725 3125
F 0 "SW4" H 10725 3300 50  0000 C CNN
F 1 " " H 10450 3175 50  0000 C CNN
F 2 "Button_Switch_THT:SW_Tactile_SKHH_Angled" H 10725 3325 50  0001 C CNN
F 3 "~" H 10725 3325 50  0001 C CNN
	1    10725 3125
	1    0    0    -1  
$EndComp
$Comp
L power:GND #PWR0104
U 1 1 61AFDCA9
P 11225 3125
F 0 "#PWR0104" H 11225 2875 50  0001 C CNN
F 1 "GND" V 11230 2997 50  0000 R CNN
F 2 "" H 11225 3125 50  0001 C CNN
F 3 "" H 11225 3125 50  0001 C CNN
	1    11225 3125
	0    -1   -1   0   
$EndComp
Wire Wire Line
	11225 2300 10925 2300
Wire Wire Line
	10925 2550 11225 2550
Wire Wire Line
	10925 2825 11225 2825
Wire Wire Line
	10925 3125 11225 3125
$Comp
L Switch:SW_Push SW5
U 1 1 61B03577
P 10725 3350
F 0 "SW5" H 10725 3525 50  0000 C CNN
F 1 " " H 10450 3400 50  0000 C CNN
F 2 "Button_Switch_THT:SW_Tactile_SKHH_Angled" H 10725 3550 50  0001 C CNN
F 3 "~" H 10725 3550 50  0001 C CNN
	1    10725 3350
	1    0    0    -1  
$EndComp
$Comp
L power:GND #PWR0105
U 1 1 61B0357D
P 11225 3350
F 0 "#PWR0105" H 11225 3100 50  0001 C CNN
F 1 "GND" V 11230 3222 50  0000 R CNN
F 2 "" H 11225 3350 50  0001 C CNN
F 3 "" H 11225 3350 50  0001 C CNN
	1    11225 3350
	0    -1   -1   0   
$EndComp
$Comp
L Switch:SW_Push SW6
U 1 1 61B03584
P 10725 3625
F 0 "SW6" H 10725 3800 50  0000 C CNN
F 1 " " H 10450 3675 50  0000 C CNN
F 2 "Button_Switch_THT:SW_Tactile_SKHH_Angled" H 10725 3825 50  0001 C CNN
F 3 "~" H 10725 3825 50  0001 C CNN
	1    10725 3625
	1    0    0    -1  
$EndComp
$Comp
L power:GND #PWR0106
U 1 1 61B0358A
P 11225 3625
F 0 "#PWR0106" H 11225 3375 50  0001 C CNN
F 1 "GND" V 11230 3497 50  0000 R CNN
F 2 "" H 11225 3625 50  0001 C CNN
F 3 "" H 11225 3625 50  0001 C CNN
	1    11225 3625
	0    -1   -1   0   
$EndComp
$Comp
L Switch:SW_Push SW7
U 1 1 61B03591
P 10725 3900
F 0 "SW7" H 10725 4075 50  0000 C CNN
F 1 " " H 10450 3950 50  0000 C CNN
F 2 "Button_Switch_THT:SW_Tactile_SKHH_Angled" H 10725 4100 50  0001 C CNN
F 3 "~" H 10725 4100 50  0001 C CNN
	1    10725 3900
	1    0    0    -1  
$EndComp
$Comp
L power:GND #PWR0107
U 1 1 61B03597
P 11225 3900
F 0 "#PWR0107" H 11225 3650 50  0001 C CNN
F 1 "GND" V 11230 3772 50  0000 R CNN
F 2 "" H 11225 3900 50  0001 C CNN
F 3 "" H 11225 3900 50  0001 C CNN
	1    11225 3900
	0    -1   -1   0   
$EndComp
$Comp
L Switch:SW_Push SW8
U 1 1 61B0359E
P 10750 4125
F 0 "SW8" H 10750 4300 50  0000 C CNN
F 1 " " H 10475 4175 50  0000 C CNN
F 2 "Button_Switch_THT:SW_Tactile_SKHH_Angled" H 10750 4325 50  0001 C CNN
F 3 "~" H 10750 4325 50  0001 C CNN
	1    10750 4125
	1    0    0    -1  
$EndComp
$Comp
L power:GND #PWR0108
U 1 1 61B035A4
P 11250 4125
F 0 "#PWR0108" H 11250 3875 50  0001 C CNN
F 1 "GND" V 11255 3997 50  0000 R CNN
F 2 "" H 11250 4125 50  0001 C CNN
F 3 "" H 11250 4125 50  0001 C CNN
	1    11250 4125
	0    -1   -1   0   
$EndComp
Wire Wire Line
	11225 3350 10925 3350
Wire Wire Line
	10925 3625 11225 3625
Wire Wire Line
	10925 3900 11225 3900
Wire Wire Line
	10950 4125 11250 4125
$Comp
L Switch:SW_Push SW9
U 1 1 61B07202
P 10725 4450
F 0 "SW9" H 10725 4625 50  0000 C CNN
F 1 " " H 10450 4500 50  0000 C CNN
F 2 "Button_Switch_THT:SW_Tactile_SKHH_Angled" H 10725 4650 50  0001 C CNN
F 3 "~" H 10725 4650 50  0001 C CNN
	1    10725 4450
	1    0    0    -1  
$EndComp
$Comp
L power:GND #PWR0109
U 1 1 61B07208
P 11225 4450
F 0 "#PWR0109" H 11225 4200 50  0001 C CNN
F 1 "GND" V 11230 4322 50  0000 R CNN
F 2 "" H 11225 4450 50  0001 C CNN
F 3 "" H 11225 4450 50  0001 C CNN
	1    11225 4450
	0    -1   -1   0   
$EndComp
$Comp
L Switch:SW_Push SW10
U 1 1 61B0720F
P 10725 4700
F 0 "SW10" H 10725 4875 50  0000 C CNN
F 1 " " H 10450 4750 50  0000 C CNN
F 2 "Button_Switch_THT:SW_Tactile_SKHH_Angled" H 10725 4900 50  0001 C CNN
F 3 "~" H 10725 4900 50  0001 C CNN
	1    10725 4700
	1    0    0    -1  
$EndComp
$Comp
L power:GND #PWR0110
U 1 1 61B07215
P 11225 4700
F 0 "#PWR0110" H 11225 4450 50  0001 C CNN
F 1 "GND" V 11230 4572 50  0000 R CNN
F 2 "" H 11225 4700 50  0001 C CNN
F 3 "" H 11225 4700 50  0001 C CNN
	1    11225 4700
	0    -1   -1   0   
$EndComp
$Comp
L Switch:SW_Push SW11
U 1 1 61B0721C
P 10725 4950
F 0 "SW11" H 10725 5125 50  0000 C CNN
F 1 " " H 10450 5000 50  0000 C CNN
F 2 "Button_Switch_THT:SW_Tactile_SKHH_Angled" H 10725 5150 50  0001 C CNN
F 3 "~" H 10725 5150 50  0001 C CNN
	1    10725 4950
	1    0    0    -1  
$EndComp
$Comp
L power:GND #PWR0111
U 1 1 61B07222
P 11225 4950
F 0 "#PWR0111" H 11225 4700 50  0001 C CNN
F 1 "GND" V 11230 4822 50  0000 R CNN
F 2 "" H 11225 4950 50  0001 C CNN
F 3 "" H 11225 4950 50  0001 C CNN
	1    11225 4950
	0    -1   -1   0   
$EndComp
$Comp
L Switch:SW_Push SW12
U 1 1 61B07229
P 10750 5250
F 0 "SW12" H 10750 5425 50  0000 C CNN
F 1 " " H 10475 5300 50  0000 C CNN
F 2 "Button_Switch_THT:SW_Tactile_SKHH_Angled" H 10750 5450 50  0001 C CNN
F 3 "~" H 10750 5450 50  0001 C CNN
	1    10750 5250
	1    0    0    -1  
$EndComp
$Comp
L power:GND #PWR0112
U 1 1 61B0722F
P 11250 5250
F 0 "#PWR0112" H 11250 5000 50  0001 C CNN
F 1 "GND" V 11255 5122 50  0000 R CNN
F 2 "" H 11250 5250 50  0001 C CNN
F 3 "" H 11250 5250 50  0001 C CNN
	1    11250 5250
	0    -1   -1   0   
$EndComp
Wire Wire Line
	11225 4450 10925 4450
Wire Wire Line
	10925 4700 11225 4700
Wire Wire Line
	10925 4950 11225 4950
Wire Wire Line
	10950 5250 11250 5250
Wire Wire Line
	8750 2875 9450 2875
Wire Wire Line
	8750 2975 9450 2975
Wire Wire Line
	8750 3075 9450 3075
Wire Wire Line
	8750 3175 9450 3175
Wire Wire Line
	8750 3275 9450 3275
Wire Wire Line
	8750 3375 9450 3375
Wire Wire Line
	8750 3475 9450 3475
Wire Wire Line
	8750 3675 9450 3675
Wire Wire Line
	8750 3775 9450 3775
Wire Wire Line
	8750 3875 9450 3875
Wire Wire Line
	8750 3975 9450 3975
Wire Wire Line
	8750 4175 9450 4175
Wire Wire Line
	8750 4275 9450 4275
Wire Wire Line
	8750 4375 9450 4375
NoConn ~ 8750 4075
NoConn ~ 8750 5175
NoConn ~ 8750 5275
NoConn ~ 7550 5675
NoConn ~ 7550 5575
NoConn ~ 7550 5475
Wire Wire Line
	7550 2775 6900 2775
NoConn ~ 7550 2975
NoConn ~ 7550 3175
Wire Wire Line
	8750 2775 9450 2775
Wire Wire Line
	10525 2300 9450 2300
Wire Wire Line
	10525 2550 9450 2550
Wire Wire Line
	10525 2825 9450 2825
Wire Wire Line
	10525 3125 9450 3125
Wire Wire Line
	10525 3350 9450 3350
Wire Wire Line
	10525 3625 9450 3625
Wire Wire Line
	10525 3900 9450 3900
Wire Wire Line
	10525 4450 9450 4450
Wire Wire Line
	10525 4700 9450 4700
Wire Wire Line
	9450 4125 10550 4125
Wire Wire Line
	10525 4950 9450 4950
Wire Wire Line
	9450 4950 9450 4925
Wire Wire Line
	10550 5250 9450 5250
$Comp
L Switch:SW_Push SW13
U 1 1 61B3BA70
P 3525 7150
F 0 "SW13" H 3525 7325 50  0000 C CNN
F 1 " " H 3250 7200 50  0000 C CNN
F 2 "Button_Switch_THT:SW_Tactile_SKHH_Angled" H 3525 7350 50  0001 C CNN
F 3 "~" H 3525 7350 50  0001 C CNN
	1    3525 7150
	1    0    0    -1  
$EndComp
Wire Wire Line
	3725 7150 4025 7150
$Comp
L power:GND #PWR0113
U 1 1 61B3EA8F
P 2975 7775
F 0 "#PWR0113" H 2975 7525 50  0001 C CNN
F 1 "GND" H 2980 7602 50  0000 C CNN
F 2 "" H 2975 7775 50  0001 C CNN
F 3 "" H 2975 7775 50  0001 C CNN
	1    2975 7775
	1    0    0    -1  
$EndComp
Wire Wire Line
	3325 7150 2975 7150
$Comp
L power:VCC #PWR0114
U 1 1 61B42FFB
P 4025 6675
F 0 "#PWR0114" H 4025 6525 50  0001 C CNN
F 1 "VCC" H 4040 6848 50  0000 C CNN
F 2 "" H 4025 6675 50  0001 C CNN
F 3 "" H 4025 6675 50  0001 C CNN
	1    4025 6675
	1    0    0    -1  
$EndComp
$Comp
L Device:R R1
U 1 1 61B45827
P 4025 6900
F 0 "R1" H 4095 6946 50  0000 L CNN
F 1 "10КОм" H 4095 6855 50  0000 L CNN
F 2 "Resistor_SMD:R_0603_1608Metric" V 3955 6900 50  0001 C CNN
F 3 "~" H 4025 6900 50  0001 C CNN
	1    4025 6900
	1    0    0    -1  
$EndComp
$Comp
L Device:C C1
U 1 1 61B46251
P 4025 7425
F 0 "C1" H 4140 7471 50  0000 L CNN
F 1 "0.1мкФ" H 4140 7380 50  0000 L CNN
F 2 "Capacitor_SMD:C_0603_1608Metric" H 4063 7275 50  0001 C CNN
F 3 "~" H 4025 7425 50  0001 C CNN
	1    4025 7425
	1    0    0    -1  
$EndComp
Wire Wire Line
	2975 7150 2975 7575
Wire Wire Line
	4025 7575 2975 7575
Connection ~ 2975 7575
Wire Wire Line
	2975 7575 2975 7775
Wire Wire Line
	4025 7275 4025 7150
Wire Wire Line
	4025 7050 4025 7150
Connection ~ 4025 7150
Wire Wire Line
	4025 6750 4025 6675
Wire Wire Line
	4025 7150 4350 7150
$Comp
L Display_Character:LCD-016N002L U3
U 1 1 61B531D5
P 5000 3150
F 0 "U3" H 5000 2169 50  0000 C CNN
F 1 "LCD-016N002L" H 5000 2260 50  0000 C CNN
F 2 "Display:LCD-016N002L" H 5020 2230 50  0001 C CNN
F 3 "http://www.vishay.com/docs/37299/37299.pdf" H 5500 2850 50  0001 C CNN
	1    5000 3150
	-1   0    0    1   
$EndComp
$Comp
L power:VCC #PWR0115
U 1 1 61B711F3
P 5000 4225
F 0 "#PWR0115" H 5000 4075 50  0001 C CNN
F 1 "VCC" H 5015 4398 50  0000 C CNN
F 2 "" H 5000 4225 50  0001 C CNN
F 3 "" H 5000 4225 50  0001 C CNN
	1    5000 4225
	1    0    0    1   
$EndComp
$Comp
L power:GND #PWR0116
U 1 1 61B735B9
P 5000 2050
F 0 "#PWR0116" H 5000 1800 50  0001 C CNN
F 1 "GND" H 5005 1877 50  0000 C CNN
F 2 "" H 5000 2050 50  0001 C CNN
F 3 "" H 5000 2050 50  0001 C CNN
	1    5000 2050
	1    0    0    1   
$EndComp
NoConn ~ 4600 3350
NoConn ~ 4600 3450
NoConn ~ 4600 3150
NoConn ~ 4600 3050
NoConn ~ 4600 2850
NoConn ~ 4600 2750
Wire Wire Line
	5000 4225 5000 3950
NoConn ~ 5400 2950
NoConn ~ 5400 3050
NoConn ~ 5400 3150
NoConn ~ 5400 3250
Wire Wire Line
	5400 2550 6900 2550
Wire Wire Line
	5400 2650 6900 2650
Wire Wire Line
	5400 2750 6900 2750
Wire Wire Line
	5400 2850 6900 2850
Wire Wire Line
	5400 3650 6900 3650
Wire Wire Line
	5400 3750 6900 3750
Wire Bus Line
	9450 1975 6900 1975
$Comp
L Interface_UART:MAX232 U1
U 1 1 61C00853
P 4050 9400
F 0 "U1" H 4050 10781 50  0000 C CNN
F 1 "MAX232" H 4050 10690 50  0000 C CNN
F 2 "Package_DIP:DIP-16_W7.62mm" H 4100 8350 50  0001 L CNN
F 3 "http://www.ti.com/lit/ds/symlink/max232.pdf" H 4050 9500 50  0001 C CNN
	1    4050 9400
	1    0    0    -1  
$EndComp
$Comp
L Device:C C2
U 1 1 61ADF1FD
P 2850 8650
F 0 "C2" H 2965 8696 50  0000 L CNN
F 1 "0.1мкФ" H 2965 8605 50  0000 L CNN
F 2 "Capacitor_SMD:C_0603_1608Metric" H 2888 8500 50  0001 C CNN
F 3 "~" H 2850 8650 50  0001 C CNN
	1    2850 8650
	1    0    0    -1  
$EndComp
$Comp
L Device:C C3
U 1 1 61AE0031
P 5100 8650
F 0 "C3" H 5215 8696 50  0000 L CNN
F 1 "0.1мкФ" H 5215 8605 50  0000 L CNN
F 2 "Capacitor_SMD:C_0603_1608Metric" H 5138 8500 50  0001 C CNN
F 3 "~" H 5100 8650 50  0001 C CNN
	1    5100 8650
	1    0    0    -1  
$EndComp
Wire Wire Line
	5100 8500 4850 8500
Wire Wire Line
	5100 8800 4850 8800
Wire Wire Line
	3250 8500 2850 8500
Wire Wire Line
	2850 8800 3250 8800
$Comp
L myLib:CH341A X1
U 1 1 61B1B8F7
P 3125 4950
F 0 "X1" H 2950 4950 50  0000 C CNN
F 1 "CH341A" H 3250 4950 50  0000 C CNN
F 2 "Connector_Dsub:DSUB-9_Female_Horizontal_P2.77x2.84mm_EdgePinOffset9.40mm" H 3125 4950 50  0001 C CNN
F 3 "" H 3125 4950 50  0001 C CNN
	1    3125 4950
	1    0    0    -1  
$EndComp
Wire Wire Line
	5375 10400 5375 10100
Wire Wire Line
	5375 10100 4850 10100
Wire Wire Line
	5275 10400 5275 9700
Wire Wire Line
	5275 9700 4850 9700
$Comp
L power:GND #PWR0117
U 1 1 61B4C624
P 5475 10000
F 0 "#PWR0117" H 5475 9750 50  0001 C CNN
F 1 "GND" H 5480 9827 50  0000 C CNN
F 2 "" H 5475 10000 50  0001 C CNN
F 3 "" H 5475 10000 50  0001 C CNN
	1    5475 10000
	-1   0    0    1   
$EndComp
Wire Wire Line
	5475 10000 5475 10400
NoConn ~ 5675 10400
NoConn ~ 5575 10400
$Comp
L power:VCC #PWR0118
U 1 1 61B76B65
P 2100 8100
F 0 "#PWR0118" H 2100 7950 50  0001 C CNN
F 1 "VCC" H 2115 8273 50  0000 C CNN
F 2 "" H 2100 8100 50  0001 C CNN
F 3 "" H 2100 8100 50  0001 C CNN
	1    2100 8100
	1    0    0    -1  
$EndComp
$Comp
L Device:C C4
U 1 1 61B7A227
P 2100 8550
F 0 "C4" H 2215 8596 50  0000 L CNN
F 1 "0.1мкФ" H 2215 8505 50  0000 L CNN
F 2 "Capacitor_SMD:C_0603_1608Metric" H 2138 8400 50  0001 C CNN
F 3 "~" H 2100 8550 50  0001 C CNN
	1    2100 8550
	1    0    0    -1  
$EndComp
$Comp
L power:GND #PWR0119
U 1 1 61B8401B
P 2100 8900
F 0 "#PWR0119" H 2100 8650 50  0001 C CNN
F 1 "GND" H 2105 8727 50  0000 C CNN
F 2 "" H 2100 8900 50  0001 C CNN
F 3 "" H 2100 8900 50  0001 C CNN
	1    2100 8900
	1    0    0    -1  
$EndComp
Wire Wire Line
	2100 8100 2100 8200
Wire Wire Line
	2100 8700 2100 8800
Wire Wire Line
	4050 8200 2100 8200
Connection ~ 2100 8200
Wire Wire Line
	2100 8200 2100 8400
Wire Wire Line
	4050 10600 2475 10600
Wire Wire Line
	2475 10600 2475 8800
Wire Wire Line
	2475 8800 2100 8800
Connection ~ 2100 8800
Wire Wire Line
	2100 8800 2100 8900
NoConn ~ 4850 9000
NoConn ~ 4850 9300
NoConn ~ 4850 9500
NoConn ~ 4850 9900
NoConn ~ 3250 9900
NoConn ~ 3250 9500
Wire Bus Line
	2750 9375 2750 11300
Wire Bus Line
	2750 11300 6900 11300
Wire Bus Line
	6900 1975 6900 11300
Wire Wire Line
	3250 9700 2750 9700
Wire Wire Line
	3250 10100 2750 10100
Wire Wire Line
	3425 5150 6900 5150
Wire Wire Line
	3425 5250 6900 5250
Wire Wire Line
	3425 5350 6900 5350
Wire Wire Line
	3425 5450 4350 5450
$Comp
L power:GND #PWR0122
U 1 1 61BD7EFC
P 3675 5850
F 0 "#PWR0122" H 3675 5600 50  0001 C CNN
F 1 "GND" H 3680 5677 50  0000 C CNN
F 2 "" H 3675 5850 50  0001 C CNN
F 3 "" H 3675 5850 50  0001 C CNN
	1    3675 5850
	1    0    0    -1  
$EndComp
Wire Wire Line
	3425 5550 3675 5550
Wire Wire Line
	3675 5550 3675 5850
Text Label 9475 2300 0    50   ~ 0
a0
Text Label 9475 2550 0    50   ~ 0
a1
Text Label 9475 2825 0    50   ~ 0
a2
Text Label 9475 3125 0    50   ~ 0
a3
Text Label 9475 3350 0    50   ~ 0
a4
Text Label 9475 3625 0    50   ~ 0
a5
Text Label 9475 3900 0    50   ~ 0
a6
Text Label 9475 4125 0    50   ~ 0
a7
Text Label 9475 4450 0    50   ~ 0
b0
Text Label 9475 4700 0    50   ~ 0
b1
Text Label 9475 4950 0    50   ~ 0
b2
Text Label 9475 5250 0    50   ~ 0
b3
Text Label 9325 2775 0    50   ~ 0
a0
Text Label 9325 2875 0    50   ~ 0
a1
Text Label 9325 2975 0    50   ~ 0
a2
Text Label 9325 3075 0    50   ~ 0
a3
Text Label 9325 3175 0    50   ~ 0
a4
Text Label 9325 3275 0    50   ~ 0
a5
Text Label 9325 3375 0    50   ~ 0
a6
Text Label 9325 3475 0    50   ~ 0
a7
Text Label 9325 3675 0    50   ~ 0
b0
Text Label 9325 3775 0    50   ~ 0
b1
Text Label 9325 3875 0    50   ~ 0
b2
Text Label 9325 3975 0    50   ~ 0
b3
Text Label 6775 5350 0    50   ~ 0
b5
Text Label 6775 5250 0    50   ~ 0
b6
Text Label 6775 5150 0    50   ~ 0
b7
Text Label 9325 4175 0    50   ~ 0
b5
Text Label 9325 4275 0    50   ~ 0
b6
Text Label 9325 4375 0    50   ~ 0
b7
Text Label 6675 5450 0    50   ~ 0
reset
Text Label 6950 2775 0    50   ~ 0
reset
Wire Wire Line
	8750 5675 9450 5675
Wire Wire Line
	8750 5775 9450 5775
Wire Wire Line
	8750 5875 9450 5875
Wire Wire Line
	8750 5975 9450 5975
Wire Wire Line
	8750 6075 9450 6075
Wire Wire Line
	8750 6175 9450 6175
NoConn ~ 8750 4575
NoConn ~ 8750 4675
NoConn ~ 8750 4775
NoConn ~ 8750 4875
NoConn ~ 8750 4975
NoConn ~ 8750 5075
Text Label 9325 5475 0    50   ~ 0
d0
Text Label 9325 5575 0    50   ~ 0
d1
Text Label 9325 5675 0    50   ~ 0
d2
Text Label 9325 5775 0    50   ~ 0
d3
Text Label 9325 5875 0    50   ~ 0
d4
Text Label 9325 5975 0    50   ~ 0
d5
Text Label 9325 6075 0    50   ~ 0
d6
Text Label 9325 6175 0    50   ~ 0
d7
Wire Wire Line
	4350 5450 4350 7150
Connection ~ 4350 5450
Wire Wire Line
	4350 5450 6900 5450
Text Label 6775 2550 0    50   ~ 0
d5
Text Label 6775 2650 0    50   ~ 0
d4
Text Label 6775 2750 0    50   ~ 0
d3
Text Label 6775 2850 0    50   ~ 0
d2
NoConn ~ 5400 3550
Text Label 6775 3650 0    50   ~ 0
d6
Text Label 6775 3750 0    50   ~ 0
d7
$Comp
L power:VCC #PWR0123
U 1 1 61D93F70
P 8150 2150
F 0 "#PWR0123" H 8150 2000 50  0001 C CNN
F 1 "VCC" H 8165 2323 50  0000 C CNN
F 2 "" H 8150 2150 50  0001 C CNN
F 3 "" H 8150 2150 50  0001 C CNN
	1    8150 2150
	1    0    0    -1  
$EndComp
Wire Wire Line
	8150 2150 8150 2475
$Comp
L power:GND #PWR0124
U 1 1 61D9E106
P 8150 6925
F 0 "#PWR0124" H 8150 6675 50  0001 C CNN
F 1 "GND" H 8155 6752 50  0000 C CNN
F 2 "" H 8150 6925 50  0001 C CNN
F 3 "" H 8150 6925 50  0001 C CNN
	1    8150 6925
	1    0    0    -1  
$EndComp
Wire Wire Line
	8150 6925 8150 6475
$Comp
L power:PWR_FLAG #FLG0101
U 1 1 61DC0FE8
P 1750 3700
F 0 "#FLG0101" H 1750 3775 50  0001 C CNN
F 1 "PWR_FLAG" H 1750 3873 50  0000 C CNN
F 2 "" H 1750 3700 50  0001 C CNN
F 3 "~" H 1750 3700 50  0001 C CNN
	1    1750 3700
	1    0    0    -1  
$EndComp
$Comp
L power:PWR_FLAG #FLG0102
U 1 1 61DC160A
P 2075 3700
F 0 "#FLG0102" H 2075 3775 50  0001 C CNN
F 1 "PWR_FLAG" H 2075 3873 50  0000 C CNN
F 2 "" H 2075 3700 50  0001 C CNN
F 3 "~" H 2075 3700 50  0001 C CNN
	1    2075 3700
	1    0    0    -1  
$EndComp
$Comp
L power:GND #PWR0125
U 1 1 61DC6D6D
P 2050 4075
F 0 "#PWR0125" H 2050 3825 50  0001 C CNN
F 1 "GND" H 2055 3902 50  0000 C CNN
F 2 "" H 2050 4075 50  0001 C CNN
F 3 "" H 2050 4075 50  0001 C CNN
	1    2050 4075
	-1   0    0    -1  
$EndComp
$Comp
L power:VCC #PWR0126
U 1 1 61DD563B
P 1725 4050
F 0 "#PWR0126" H 1725 3900 50  0001 C CNN
F 1 "VCC" H 1740 4223 50  0000 C CNN
F 2 "" H 1725 4050 50  0001 C CNN
F 3 "" H 1725 4050 50  0001 C CNN
	1    1725 4050
	1    0    0    1   
$EndComp
Wire Wire Line
	1725 3700 1750 3700
Wire Wire Line
	1725 3700 1725 4050
Wire Wire Line
	2075 3700 2075 4075
Wire Wire Line
	2075 4075 2050 4075
Wire Wire Line
	9450 5575 9450 5550
Wire Wire Line
	8750 5575 9450 5575
Wire Wire Line
	8750 5475 9450 5475
Connection ~ 11600 7025
Connection ~ 12325 7025
Wire Wire Line
	12325 7025 11950 7025
Connection ~ 12325 6025
Connection ~ 11600 6025
Wire Wire Line
	11600 6025 11950 6025
Wire Wire Line
	11600 6025 11225 6025
Wire Wire Line
	11600 6700 11600 7025
Wire Wire Line
	12825 6125 12825 7025
Wire Wire Line
	12325 6025 12325 6400
Wire Wire Line
	12900 6025 12325 6025
Wire Wire Line
	12825 6125 12900 6125
Wire Wire Line
	12325 7025 12825 7025
Wire Wire Line
	12325 6700 12325 7025
Wire Wire Line
	11225 7025 11600 7025
Wire Wire Line
	11600 6400 11600 6025
$Comp
L Device:C C5
U 1 1 61B302B2
P 12325 6550
F 0 "C5" H 12440 6596 50  0000 L CNN
F 1 "0.1мкФ" H 12440 6505 50  0000 L CNN
F 2 "Capacitor_SMD:C_0603_1608Metric" H 12363 6400 50  0001 C CNN
F 3 "~" H 12325 6550 50  0001 C CNN
	1    12325 6550
	1    0    0    -1  
$EndComp
$Comp
L power:GND #PWR0121
U 1 1 61AFD87D
P 11225 7025
F 0 "#PWR0121" H 11225 6775 50  0001 C CNN
F 1 "GND" V 11230 6897 50  0000 R CNN
F 2 "" H 11225 7025 50  0001 C CNN
F 3 "" H 11225 7025 50  0001 C CNN
	1    11225 7025
	0    1    1    0   
$EndComp
$Comp
L power:VCC #PWR0120
U 1 1 61AF981F
P 11225 6025
F 0 "#PWR0120" H 11225 5875 50  0001 C CNN
F 1 "VCC" H 11240 6198 50  0000 C CNN
F 2 "" H 11225 6025 50  0001 C CNN
F 3 "" H 11225 6025 50  0001 C CNN
	1    11225 6025
	0    -1   -1   0   
$EndComp
$Comp
L myLib:MPW-2R X3
U 1 1 61B11C61
P 13200 5825
F 0 "X3" H 13400 5825 50  0000 R CNN
F 1 "MPW-2R" H 13225 5825 50  0000 R CNN
F 2 "Connector:Banana_Jack_2Pin" H 13200 5825 50  0001 C CNN
F 3 "" H 13200 5825 50  0001 C CNN
	1    13200 5825
	-1   0    0    -1  
$EndComp
Text Label 2775 9700 0    50   ~ 0
d0
Text Label 2775 10100 0    50   ~ 0
d1
$Comp
L Device:CP C7
U 1 1 61B3C429
P 11600 6550
F 0 "C7" H 11325 6625 50  0000 L CNN
F 1 "10мкФ" H 11200 6475 50  0000 L CNN
F 2 "Capacitor_THT:CP_Radial_D18.0mm_P7.50mm" H 11638 6400 50  0001 C CNN
F 3 "~" H 11600 6550 50  0001 C CNN
	1    11600 6550
	1    0    0    -1  
$EndComp
$Comp
L Device:C C6
U 1 1 61C1B203
P 11950 6550
F 0 "C6" H 12065 6596 50  0000 L CNN
F 1 "0.1мкФ" H 12000 6450 50  0000 L CNN
F 2 "Capacitor_SMD:C_0603_1608Metric" H 11988 6400 50  0001 C CNN
F 3 "~" H 11950 6550 50  0001 C CNN
	1    11950 6550
	1    0    0    -1  
$EndComp
Wire Wire Line
	11950 6400 11950 6025
Connection ~ 11950 6025
Wire Wire Line
	11950 6025 12325 6025
Wire Wire Line
	11950 6700 11950 7025
Connection ~ 11950 7025
Wire Wire Line
	11950 7025 11600 7025
NoConn ~ 5775 10400
NoConn ~ 5875 10400
NoConn ~ 5975 10400
NoConn ~ 6075 10400
$Comp
L myLib:DB9F X2
U 1 1 61C41763
P 5075 10850
F 0 "X2" V 5179 9772 50  0000 R CNN
F 1 "DB9F" V 5088 9772 50  0000 R CNN
F 2 "Connector_Dsub:DSUB-9_Female_Horizontal_P2.77x2.54mm_EdgePinOffset9.40mm" H 5075 10850 50  0001 C CNN
F 3 "" H 5075 10850 50  0001 C CNN
	1    5075 10850
	0    -1   -1   0   
$EndComp
NoConn ~ 4600 3750
Wire Wire Line
	5000 2050 5000 2350
$EndSCHEMATC
