EESchema Schematic File Version 4
EELAYER 30 0
EELAYER END
$Descr A3 16535 11693
encoding utf-8
Sheet 1 1
Title "Схема электрическая принципиальная"
Date ""
Rev ""
Comp "МГТУ им. Н.Э. Баумана"
Comment1 "Синтезатор звуковых сигналов"
Comment2 "Федотов Н.И"
Comment3 ""
Comment4 ""
$EndDescr
Wire Wire Line
	4600 7500 4600 7750
Wire Wire Line
	7750 5800 7900 5800
Wire Wire Line
	5700 2400 5700 2450
Connection ~ 5700 2400
Wire Wire Line
	5700 2250 5700 2400
Wire Wire Line
	7150 2400 5700 2400
Wire Wire Line
	7150 2500 7150 2400
Wire Wire Line
	6200 2250 7150 2250
Connection ~ 6200 2250
Wire Wire Line
	6200 2450 6200 2250
Wire Wire Line
	6200 2900 6200 2650
Wire Wire Line
	7150 2250 7150 2300
Wire Wire Line
	6050 2250 6200 2250
Wire Wire Line
	5700 2650 5700 2900
Wire Wire Line
	5850 2250 5700 2250
Wire Wire Line
	4000 7100 4600 7100
Connection ~ 4000 7100
Wire Wire Line
	4000 7000 4000 7100
Wire Wire Line
	3500 7100 4000 7100
Connection ~ 3500 7100
Wire Wire Line
	3500 6950 3500 7100
Wire Wire Line
	4600 7100 4600 7200
Connection ~ 4600 7100
Wire Wire Line
	3050 7100 3500 7100
Wire Wire Line
	3050 6950 3050 7100
Wire Wire Line
	3050 6450 3050 6650
Wire Wire Line
	8700 6450 3050 6450
Wire Wire Line
	8700 5000 8700 6450
Wire Wire Line
	3500 6500 3500 6650
Wire Wire Line
	8650 6500 3500 6500
Wire Wire Line
	8650 5100 8650 6500
Wire Wire Line
	4000 6600 4000 6700
Wire Wire Line
	8600 6600 4000 6600
Wire Wire Line
	8600 5200 8600 6600
Wire Wire Line
	8550 6700 4600 6700
Wire Wire Line
	8550 5400 8550 6700
Wire Wire Line
	8350 5400 8550 5400
Wire Wire Line
	8500 5950 8500 5300
Wire Wire Line
	4600 7000 4600 7100
$Comp
L Device:LED HL4
U 1 1 62091E6F
P 4600 6850
F 0 "HL4" V 4631 6732 50  0000 R CNN
F 1 "Красный" V 4548 6732 39  0000 R CNN
F 2 "LED_THT:LED_D5.0mm" H 4600 6850 50  0001 C CNN
F 3 "~" H 4600 6850 50  0001 C CNN
F 4 "Диоды светоизлучающие" H 4600 6850 60  0001 C CNN "Группа"
	1    4600 6850
	0    -1   -1   0   
$EndComp
$Comp
L Device:LED HL3
U 1 1 62090E30
P 4000 6850
F 0 "HL3" V 4031 6732 50  0000 R CNN
F 1 "Синий" V 3948 6732 39  0000 R CNN
F 2 "LED_THT:LED_D5.0mm" H 4000 6850 50  0001 C CNN
F 3 "~" H 4000 6850 50  0001 C CNN
F 4 "Диоды светоизлучающие" H 4000 6850 60  0001 C CNN "Группа"
	1    4000 6850
	0    -1   -1   0   
$EndComp
Wire Wire Line
	7000 5950 8500 5950
Wire Wire Line
	7000 3750 7000 5950
Wire Wire Line
	4750 3750 7000 3750
Connection ~ 4100 3750
Wire Wire Line
	4100 3750 4450 3750
Wire Wire Line
	4200 2250 4500 2250
Connection ~ 4200 2250
Wire Wire Line
	4200 2500 4200 2250
Wire Wire Line
	3650 2250 4200 2250
Connection ~ 3650 2250
Wire Wire Line
	3650 2450 3650 2250
Wire Wire Line
	3050 2250 3650 2250
Wire Wire Line
	3050 2700 3050 2250
Wire Wire Line
	3650 3000 3650 2900
Wire Wire Line
	3650 3550 3650 3300
Wire Wire Line
	4100 3750 3950 3750
Wire Wire Line
	4100 3950 4100 3750
Connection ~ 3650 4350
Wire Wire Line
	4100 4350 4100 4250
Wire Wire Line
	3650 4350 4100 4350
Wire Wire Line
	3650 4350 3650 3950
Wire Wire Line
	3050 4350 3650 4350
Wire Wire Line
	3050 4350 3050 4500
Connection ~ 3050 4350
Wire Wire Line
	2650 4350 3050 4350
Wire Wire Line
	2650 3600 2650 4350
Wire Wire Line
	3050 4100 3050 4350
Wire Wire Line
	3050 3700 3050 3900
Wire Wire Line
	3050 3250 3050 3400
Connection ~ 3050 3250
Wire Wire Line
	3050 3100 3050 3250
Wire Wire Line
	2650 3250 3050 3250
Wire Wire Line
	2650 3500 2650 3250
$Comp
L Device:R R1
U 1 1 6205F4A6
P 3050 3550
F 0 "R1" H 3120 3550 50  0000 L CNN
F 1 "51" H 3120 3505 50  0001 L CNN
F 2 "Resistor_THT:R_Axial_DIN0207_L6.3mm_D2.5mm_P2.54mm_Vertical" V 2980 3550 50  0001 C CNN
F 3 "~" H 3050 3550 50  0001 C CNN
F 4 "Резисторы постоянные" H 3050 3550 60  0001 C CNN "Группа"
	1    3050 3550
	1    0    0    -1  
$EndComp
$Comp
L Device:R R5
U 1 1 6205EAA6
P 4600 3750
F 0 "R5" V 4485 3750 50  0000 C CNN
F 1 "R" V 4484 3750 50  0001 C CNN
F 2 "Resistor_THT:R_Axial_DIN0207_L6.3mm_D2.5mm_P2.54mm_Vertical" V 4530 3750 50  0001 C CNN
F 3 "~" H 4600 3750 50  0001 C CNN
F 4 "Резисторы постоянные" H 4600 3750 60  0001 C CNN "Группа"
	1    4600 3750
	0    1    1    0   
$EndComp
$Comp
L Device:R R4
U 1 1 6205E6AC
P 4100 4100
F 0 "R4" H 4170 4100 50  0000 L CNN
F 1 "R" H 4170 4055 50  0001 L CNN
F 2 "Resistor_THT:R_Axial_DIN0207_L6.3mm_D2.5mm_P2.54mm_Vertical" V 4030 4100 50  0001 C CNN
F 3 "~" H 4100 4100 50  0001 C CNN
F 4 "Резисторы постоянные" H 4100 4100 60  0001 C CNN "Группа"
	1    4100 4100
	1    0    0    -1  
$EndComp
$Comp
L Device:R R3
U 1 1 6205E0FB
P 3650 3150
F 0 "R3" H 3720 3150 50  0000 L CNN
F 1 "470" H 3720 3105 50  0001 L CNN
F 2 "Resistor_THT:R_Axial_DIN0207_L6.3mm_D2.5mm_P2.54mm_Vertical" V 3580 3150 50  0001 C CNN
F 3 "~" H 3650 3150 50  0001 C CNN
F 4 "Резисторы постоянные" H 3650 3150 60  0001 C CNN "Группа"
	1    3650 3150
	1    0    0    -1  
$EndComp
$Comp
L Device:R R6
U 1 1 6205DABE
P 4600 7350
F 0 "R6" H 4670 7350 50  0000 L CNN
F 1 "R" H 4670 7305 50  0001 L CNN
F 2 "Resistor_THT:R_Axial_DIN0207_L6.3mm_D2.5mm_P2.54mm_Vertical" V 4530 7350 50  0001 C CNN
F 3 "~" H 4600 7350 50  0001 C CNN
F 4 "Резисторы постоянные" H 4600 7350 60  0001 C CNN "Группа"
	1    4600 7350
	1    0    0    -1  
$EndComp
$Comp
L Device:R R2
U 1 1 6205D3A1
P 3650 2600
F 0 "R2" H 3720 2600 50  0000 L CNN
F 1 "2.2 к" H 3720 2555 50  0001 L CNN
F 2 "Resistor_THT:R_Axial_DIN0207_L6.3mm_D2.5mm_P2.54mm_Vertical" V 3580 2600 50  0001 C CNN
F 3 "~" H 3650 2600 50  0001 C CNN
F 4 "Резисторы постоянные" H 3650 2600 60  0001 C CNN "Группа"
	1    3650 2600
	1    0    0    -1  
$EndComp
$Comp
L Device:C_Small C3
U 1 1 6205B335
P 4200 2600
F 0 "C3" H 4292 2646 50  0000 L CNN
F 1 "1.0 мкФ" H 4292 2555 50  0000 L CNN
F 2 "Capacitor_SMD:C_Trimmer_Murata_TZB4-B" H 4200 2600 50  0001 C CNN
F 3 "~" H 4200 2600 50  0001 C CNN
F 4 "Конденсаторы" H 4200 2600 60  0001 C CNN "Группа"
	1    4200 2600
	1    0    0    -1  
$EndComp
$Comp
L Device:C_Small C4
U 1 1 6205ACCD
P 3050 4000
F 0 "C4" H 3142 4046 50  0000 L CNN
F 1 "10 мкФ" H 3142 3955 50  0000 L CNN
F 2 "Capacitor_SMD:C_Trimmer_Murata_TZB4-B" H 3050 4000 50  0001 C CNN
F 3 "~" H 3050 4000 50  0001 C CNN
F 4 "Конденсаторы" H 3050 4000 60  0001 C CNN "Группа"
	1    3050 4000
	1    0    0    -1  
$EndComp
$Comp
L Device:Speaker GB1
U 1 1 620697BD
P 2450 3500
F 0 "GB1" H 2400 3750 50  0000 L CNN
F 1 "50 Ом" H 2300 3650 50  0000 L CNN
F 2 "Buzzer_Beeper:Speaker_CUI_CMR-1206S-67" H 2450 3300 50  0001 C CNN
F 3 "~" H 2440 3450 50  0001 C CNN
F 4 "Головки динамические" H 2450 3500 60  0001 C CNN "Группа"
	1    2450 3500
	-1   0    0    -1  
$EndComp
$Comp
L Transistor_BJT:BC337 VT2
U 1 1 6205B0DC
P 3750 3750
F 0 "VT2" H 3600 3900 50  0000 L CNN
F 1 "BC337" H 3550 3550 50  0000 L CNN
F 2 "Package_TO_SOT_THT:TO-92_Inline" H 3950 3675 50  0001 L CIN
F 3 "https://diotec.com/tl_files/diotec/files/pdf/datasheets/bc337.pdf" H 3750 3750 50  0001 L CNN
F 4 "Транзистор биполярный" H 3750 3750 60  0001 C CNN "Группа"
	1    3750 3750
	-1   0    0    -1  
$EndComp
$Comp
L Transistor_BJT:BD140 VT1
U 1 1 6205A285
P 3150 2900
F 0 "VT1" H 3050 2700 50  0000 L CNN
F 1 "BD140" H 2850 3050 50  0000 L CNN
F 2 "Package_TO_SOT_THT:TO-126-3_Vertical" H 3350 2825 50  0001 L CIN
F 3 "http://www.st.com/internet/com/TECHNICAL_RESOURCES/TECHNICAL_LITERATURE/DATASHEET/CD00001225.pdf" H 3150 2900 50  0001 L CNN
F 4 "Транзистор биполярный" H 3150 2900 60  0001 C CNN "Группа"
	1    3150 2900
	-1   0    0    1   
$EndComp
$Comp
L Device:R R7
U 1 1 6215B72C
P 6750 1500
F 0 "R7" V 6635 1500 50  0000 C CNN
F 1 "R" V 6634 1500 50  0001 C CNN
F 2 "Resistor_THT:R_Axial_DIN0207_L6.3mm_D2.5mm_P2.54mm_Vertical" V 6680 1500 50  0001 C CNN
F 3 "~" H 6750 1500 50  0001 C CNN
F 4 "Резисторы постоянные" H 6750 1500 60  0001 C CNN "Группа"
	1    6750 1500
	0    1    1    0   
$EndComp
Wire Wire Line
	5600 1600 5600 1500
Wire Wire Line
	5600 1500 5850 1500
Wire Wire Line
	6900 1500 7250 1500
Wire Wire Line
	7250 1500 7250 1250
$Comp
L Biblioteka_for_lr4:DS1033-09F X3
U 1 1 6220A4BC
P 14850 7450
F 0 "X3" H 15050 8000 50  0000 L CNN
F 1 "DS1033-09F" H 14850 6850 50  0000 L CNN
F 2 "Connector_RJ:RJ14_Connfly_DS1133-S4_Horizontal" H 14700 8000 50  0001 C CNN
F 3 "" H 14700 8000 50  0001 C CNN
F 4 "Разьемы двухрядные" H 14850 7450 60  0001 C CNN "Группа"
	1    14850 7450
	1    0    0    -1  
$EndComp
Wire Wire Line
	13650 7200 12500 7200
Wire Wire Line
	12500 7200 12500 7600
Wire Wire Line
	13650 7300 12650 7300
Wire Wire Line
	12650 7300 12650 8000
$Comp
L Device:C_Small C10
U 1 1 62225539
P 12200 6750
F 0 "C10" H 12292 6796 50  0000 L CNN
F 1 "1.0 мкФ" H 12292 6705 50  0000 L CNN
F 2 "Capacitor_SMD:C_Trimmer_Murata_TZB4-B" H 12200 6750 50  0001 C CNN
F 3 "~" H 12200 6750 50  0001 C CNN
F 4 "Конденсаторы" H 12200 6750 60  0001 C CNN "Группа"
	1    12200 6750
	1    0    0    -1  
$EndComp
$Comp
L Device:C_Small C11
U 1 1 62225EA0
P 12450 7100
F 0 "C11" V 12350 6950 50  0000 C CNN
F 1 "1.0 мкФ" V 12350 7200 50  0000 C CNN
F 2 "Capacitor_SMD:C_Trimmer_Murata_TZB4-B" H 12450 7100 50  0001 C CNN
F 3 "~" H 12450 7100 50  0001 C CNN
F 4 "Конденсаторы" H 12450 7100 60  0001 C CNN "Группа"
	1    12450 7100
	0    1    1    0   
$EndComp
$Comp
L Device:C_Small C13
U 1 1 62227033
P 11500 6150
F 0 "C13" H 11500 6300 50  0000 L CNN
F 1 "1.0 мкФ" H 11600 6150 50  0000 L CNN
F 2 "Capacitor_SMD:C_Trimmer_Murata_TZB4-B" H 11500 6150 50  0001 C CNN
F 3 "~" H 11500 6150 50  0001 C CNN
F 4 "Конденсаторы" H 11500 6150 60  0001 C CNN "Группа"
	1    11500 6150
	1    0    0    -1  
$EndComp
$Comp
L Device:C_Small C9
U 1 1 622281E8
P 10200 6750
F 0 "C9" H 10292 6796 50  0000 L CNN
F 1 "1.0 мкФ" H 10292 6705 50  0000 L CNN
F 2 "Capacitor_SMD:C_Trimmer_Murata_TZB4-B" H 10200 6750 50  0001 C CNN
F 3 "~" H 10200 6750 50  0001 C CNN
F 4 "Конденсаторы" H 10200 6750 60  0001 C CNN "Группа"
	1    10200 6750
	1    0    0    -1  
$EndComp
Wire Wire Line
	12200 7800 12200 8200
Wire Wire Line
	12050 7400 12100 7400
Wire Wire Line
	12300 7400 12400 7400
Wire Wire Line
	12400 7400 12400 7450
Wire Wire Line
	12550 7100 12750 7100
Wire Wire Line
	10450 6600 10200 6600
Wire Wire Line
	10200 6600 10200 6650
Wire Wire Line
	10200 6850 10200 6900
Wire Wire Line
	10200 6900 10450 6900
Wire Wire Line
	12200 6900 12200 6850
Wire Wire Line
	12200 6650 12200 6600
Wire Wire Line
	11500 6300 11500 6250
Connection ~ 11500 6300
Wire Wire Line
	11500 6050 11300 6050
Wire Wire Line
	10450 7800 10200 7800
Wire Wire Line
	10450 7600 9900 7600
Wire Wire Line
	9900 7600 9900 4900
Wire Wire Line
	10450 8000 9400 8000
Wire Wire Line
	9400 8000 9400 4800
Wire Wire Line
	11100 2100 11100 3000
Wire Wire Line
	11050 2200 11050 3200
Wire Wire Line
	11000 2300 11000 3400
Wire Wire Line
	10950 2400 10950 3600
Wire Wire Line
	10900 2500 10900 3750
Wire Wire Line
	10850 2600 10850 4100
Wire Wire Line
	10850 4100 13200 4100
Wire Wire Line
	10900 3750 13200 3750
Wire Wire Line
	13200 3750 13200 3800
Wire Wire Line
	8350 2700 10800 2700
Wire Wire Line
	10800 2700 10800 4300
Wire Wire Line
	10800 4300 14300 4300
Wire Wire Line
	10750 2800 10750 4500
Wire Wire Line
	10750 4500 13200 4500
Wire Wire Line
	10700 3900 10700 4700
Wire Wire Line
	10700 4700 14300 4700
Wire Wire Line
	10650 4000 10650 4950
Wire Wire Line
	10600 4100 10600 5150
Wire Wire Line
	10600 5150 14300 5150
Wire Wire Line
	10550 4200 10550 5450
Wire Wire Line
	10550 5450 13200 5450
Wire Wire Line
	10500 4300 10500 5900
Wire Wire Line
	10500 5900 13200 5900
Wire Wire Line
	11400 2250 11400 1950
Wire Wire Line
	11400 1950 9400 1950
Wire Wire Line
	9400 1950 9400 3600
Wire Wire Line
	9400 3600 8350 3600
Wire Wire Line
	11500 2150 11500 1900
Wire Wire Line
	11500 1900 9300 1900
Wire Wire Line
	9300 1900 9300 3700
Wire Wire Line
	11550 1950 11550 1800
Wire Wire Line
	11550 1800 9200 1800
Wire Wire Line
	9200 1800 9200 3500
$Comp
L Device:C_Small C2
U 1 1 6205BF58
P 6200 2550
F 0 "C2" H 6292 2596 50  0000 L CNN
F 1 "22 пФ" H 6292 2505 50  0000 L CNN
F 2 "Capacitor_SMD:C_Trimmer_Murata_TZB4-B" H 6200 2550 50  0001 C CNN
F 3 "~" H 6200 2550 50  0001 C CNN
F 4 "Конденсаторы" H 6200 2550 60  0001 C CNN "Группа"
	1    6200 2550
	1    0    0    -1  
$EndComp
$Comp
L Device:C_Small C1
U 1 1 6204F198
P 5700 2550
F 0 "C1" H 5792 2596 50  0000 L CNN
F 1 "22 пФ" H 5792 2505 50  0000 L CNN
F 2 "Capacitor_SMD:C_Trimmer_Murata_TZB4-B" H 5700 2550 50  0001 C CNN
F 3 "~" H 5700 2550 50  0001 C CNN
F 4 "Конденсаторы" H 5700 2550 60  0001 C CNN "Группа"
	1    5700 2550
	1    0    0    -1  
$EndComp
$Comp
L Device:Crystal_Small BQ1
U 1 1 6204E52A
P 5950 2250
F 0 "BQ1" H 5950 2350 50  0000 C CNN
F 1 "8.0000 мГц" H 5950 2150 50  0000 C CNN
F 2 "Crystal:Crystal_AT310_D3.0mm_L10.0mm_Horizontal" H 5950 2250 50  0001 C CNN
F 3 "~" H 5950 2250 50  0001 C CNN
F 4 "Резонатор кварцевый" H 5950 2250 60  0001 C CNN "Группа"
	1    5950 2250
	1    0    0    -1  
$EndComp
Wire Wire Line
	3350 2900 3650 2900
Connection ~ 3650 2900
Wire Wire Line
	3650 2900 3650 2750
Wire Wire Line
	12200 8200 12050 8200
Wire Wire Line
	12650 8000 12050 8000
Wire Wire Line
	12050 7800 12200 7800
Wire Wire Line
	12500 7600 12050 7600
Wire Wire Line
	12050 7100 12350 7100
Wire Wire Line
	12050 6900 12200 6900
Wire Wire Line
	12200 6600 12050 6600
Wire Wire Line
	11250 6300 11500 6300
$Comp
L Interface_UART:MAX232 Драйвер_RS232
U 1 1 6205E8A7
P 11250 7500
F 0 "Драйвер_RS232" H 10850 8600 50  0000 C CNN
F 1 "MAX232" H 11500 8550 50  0000 C CNN
F 2 "Connector:Tag-Connect_TC2030-IDC-FP_2x03_P1.27mm_Vertical" H 11300 6450 50  0001 L CNN
F 3 "http://www.ti.com/lit/ds/symlink/max232.pdf" H 11250 7600 50  0001 C CNN
F 4 "Микросземы интегральные" H 11250 7500 60  0001 C CNN "Группа"
	1    11250 7500
	1    0    0    -1  
$EndComp
$Comp
L Device:C_Small C12
U 1 1 62224A2D
P 12200 7400
F 0 "C12" V 12100 7300 50  0000 C CNN
F 1 "1.0 мкФ" V 12100 7550 50  0000 C CNN
F 2 "Capacitor_SMD:C_Trimmer_Murata_TZB4-B" H 12200 7400 50  0001 C CNN
F 3 "~" H 12200 7400 50  0001 C CNN
F 4 "Конденсаторы" H 12200 7400 60  0001 C CNN "Группа"
	1    12200 7400
	0    1    1    0   
$EndComp
Wire Wire Line
	11500 6300 12300 6300
$Comp
L Device:LED HL2
U 1 1 620908A4
P 3500 6800
F 0 "HL2" V 3531 6682 50  0000 R CNN
F 1 "Желтый" V 3448 6682 39  0000 R CNN
F 2 "LED_THT:LED_D5.0mm" H 3500 6800 50  0001 C CNN
F 3 "~" H 3500 6800 50  0001 C CNN
F 4 "Диоды светоизлучающие" H 3500 6800 60  0001 C CNN "Группа"
	1    3500 6800
	0    -1   -1   0   
$EndComp
$Comp
L Device:LED HL1
U 1 1 62055412
P 3050 6800
F 0 "HL1" V 3150 6600 50  0000 C CNN
F 1 "Зеленый" V 3050 6600 39  0000 C CNN
F 2 "LED_THT:LED_D5.0mm" H 3050 6800 50  0001 C CNN
F 3 "~" H 3050 6800 50  0001 C CNN
F 4 "Диоды светоизлучающие" H 3050 6800 60  0001 C CNN "Группа"
	1    3050 6800
	0    -1   -1   0   
$EndComp
NoConn ~ 8350 5500
NoConn ~ 7150 5000
NoConn ~ 8350 4500
NoConn ~ 8350 4600
NoConn ~ 8350 3400
NoConn ~ 8350 3000
NoConn ~ 8350 3100
NoConn ~ 8350 3200
NoConn ~ 8350 3300
Wire Wire Line
	13850 3000 13850 3400
Connection ~ 13850 5450
Wire Wire Line
	13850 5450 13850 5900
Connection ~ 13850 5900
Wire Wire Line
	13850 5900 13850 6200
Connection ~ 13850 4950
Wire Wire Line
	13850 4950 13850 5450
Connection ~ 13850 4500
Wire Wire Line
	13850 4500 13850 4950
Connection ~ 13850 4100
Wire Wire Line
	13850 4100 13850 4500
Connection ~ 13850 3800
Wire Wire Line
	13850 3800 13850 4100
Connection ~ 13850 3400
Wire Wire Line
	13850 3400 13850 3800
Wire Wire Line
	11100 3000 13350 3000
Wire Wire Line
	13850 3000 13750 3000
$Comp
L Switch:SW_Push SB2
U 1 1 627AFCF7
P 13550 3000
F 0 "SB2" H 13550 3193 50  0000 C CNN
F 1 "SW_Push" H 13550 3194 50  0001 C CNN
F 2 "Button_Switch_THT:Push_E-Switch_KS01Q01" H 13550 3200 50  0001 C CNN
F 3 "~" H 13550 3200 50  0001 C CNN
F 4 "Кнопки тактовые" H 13550 3000 60  0001 C CNN "Группа"
	1    13550 3000
	1    0    0    -1  
$EndComp
$Comp
L Switch:SW_Push SB3
U 1 1 6286F415
P 14550 3200
F 0 "SB3" H 14550 3393 50  0000 C CNN
F 1 "SW_Push" H 14550 3394 50  0001 C CNN
F 2 "Button_Switch_THT:Push_E-Switch_KS01Q01" H 14550 3400 50  0001 C CNN
F 3 "~" H 14550 3400 50  0001 C CNN
F 4 "Кнопки тактовые" H 14550 3200 60  0001 C CNN "Группа"
	1    14550 3200
	1    0    0    -1  
$EndComp
Wire Wire Line
	11050 3200 14350 3200
Wire Wire Line
	14750 3200 14800 3200
$Comp
L Switch:SW_Push SB4
U 1 1 628A0CCA
P 13450 3400
F 0 "SB4" H 13600 3550 50  0000 C CNN
F 1 "SW_Push" H 13450 3594 50  0001 C CNN
F 2 "Button_Switch_THT:Push_E-Switch_KS01Q01" H 13450 3600 50  0001 C CNN
F 3 "~" H 13450 3600 50  0001 C CNN
F 4 "Кнопки тактовые" H 13450 3400 60  0001 C CNN "Группа"
	1    13450 3400
	1    0    0    -1  
$EndComp
$Comp
L Switch:SW_Push SB5
U 1 1 628A16FB
P 14500 3600
F 0 "SB5" H 14500 3793 50  0000 C CNN
F 1 "SW_Push" H 14500 3794 50  0001 C CNN
F 2 "Button_Switch_THT:Push_E-Switch_KS01Q01" H 14500 3800 50  0001 C CNN
F 3 "~" H 14500 3800 50  0001 C CNN
F 4 "Кнопки тактовые" H 14500 3600 60  0001 C CNN "Группа"
	1    14500 3600
	1    0    0    -1  
$EndComp
$Comp
L Switch:SW_Push SB6
U 1 1 628A282D
P 13400 3800
F 0 "SB6" H 13600 3950 50  0000 C CNN
F 1 "SW_Push" H 13400 3994 50  0001 C CNN
F 2 "Button_Switch_THT:Push_E-Switch_KS01Q01" H 13400 4000 50  0001 C CNN
F 3 "~" H 13400 4000 50  0001 C CNN
F 4 "Кнопки тактовые" H 13400 3800 60  0001 C CNN "Группа"
	1    13400 3800
	1    0    0    -1  
$EndComp
$Comp
L Switch:SW_Push SB7
U 1 1 628A3DB4
P 13400 4100
F 0 "SB7" H 13400 4293 50  0000 C CNN
F 1 "SW_Push" H 13400 4294 50  0001 C CNN
F 2 "Button_Switch_THT:Push_E-Switch_KS01Q01" H 13400 4300 50  0001 C CNN
F 3 "~" H 13400 4300 50  0001 C CNN
F 4 "Кнопки тактовые" H 13400 4100 60  0001 C CNN "Группа"
	1    13400 4100
	1    0    0    -1  
$EndComp
$Comp
L Switch:SW_Push SB9
U 1 1 628A4B7F
P 13400 4500
F 0 "SB9" H 13600 4650 50  0000 C CNN
F 1 "SW_Push" H 13400 4694 50  0001 C CNN
F 2 "Button_Switch_THT:Push_E-Switch_KS01Q01" H 13400 4700 50  0001 C CNN
F 3 "~" H 13400 4700 50  0001 C CNN
F 4 "Кнопки тактовые" H 13400 4500 60  0001 C CNN "Группа"
	1    13400 4500
	1    0    0    -1  
$EndComp
$Comp
L Switch:SW_Push SB8
U 1 1 628A63F1
P 14500 4300
F 0 "SB8" H 14500 4493 50  0000 C CNN
F 1 "SW_Push" H 14500 4494 50  0001 C CNN
F 2 "Button_Switch_THT:Push_E-Switch_KS01Q01" H 14500 4500 50  0001 C CNN
F 3 "~" H 14500 4500 50  0001 C CNN
F 4 "Кнопки тактовые" H 14500 4300 60  0001 C CNN "Группа"
	1    14500 4300
	1    0    0    -1  
$EndComp
$Comp
L Switch:SW_Push SB10
U 1 1 628A79AC
P 14500 4700
F 0 "SB10" H 14500 4893 50  0000 C CNN
F 1 "SW_Push" H 14500 4894 50  0001 C CNN
F 2 "Button_Switch_THT:Push_E-Switch_KS01Q01" H 14500 4900 50  0001 C CNN
F 3 "~" H 14500 4900 50  0001 C CNN
F 4 "Кнопки тактовые" H 14500 4700 60  0001 C CNN "Группа"
	1    14500 4700
	1    0    0    -1  
$EndComp
Wire Wire Line
	10950 3600 14300 3600
$Comp
L Switch:SW_Push SB11
U 1 1 6295D9B4
P 13450 4950
F 0 "SB11" H 13450 5143 50  0000 C CNN
F 1 "SW_Push" H 13450 5144 50  0001 C CNN
F 2 "Button_Switch_THT:Push_E-Switch_KS01Q01" H 13450 5150 50  0001 C CNN
F 3 "~" H 13450 5150 50  0001 C CNN
F 4 "Кнопки тактовые" H 13450 4950 60  0001 C CNN "Группа"
	1    13450 4950
	1    0    0    -1  
$EndComp
$Comp
L Switch:SW_Push SB12
U 1 1 6295E6A6
P 14500 5150
F 0 "SB12" H 14500 5343 50  0000 C CNN
F 1 "SW_Push" H 14500 5344 50  0001 C CNN
F 2 "Button_Switch_THT:Push_E-Switch_KS01Q01" H 14500 5350 50  0001 C CNN
F 3 "~" H 14500 5350 50  0001 C CNN
F 4 "Кнопки тактовые" H 14500 5150 60  0001 C CNN "Группа"
	1    14500 5150
	1    0    0    -1  
$EndComp
$Comp
L Switch:SW_Push SB13
U 1 1 6295F79A
P 13400 5450
F 0 "SB13" H 13400 5643 50  0000 C CNN
F 1 "SW_Push" H 13400 5644 50  0001 C CNN
F 2 "Button_Switch_THT:Push_E-Switch_KS01Q01" H 13400 5650 50  0001 C CNN
F 3 "~" H 13400 5650 50  0001 C CNN
F 4 "Кнопки тактовые" H 13400 5450 60  0001 C CNN "Группа"
	1    13400 5450
	1    0    0    -1  
$EndComp
$Comp
L Switch:SW_Push SB14
U 1 1 629604B8
P 13400 5900
F 0 "SB14" H 13400 6093 50  0000 C CNN
F 1 "SW_Push" H 13400 6094 50  0001 C CNN
F 2 "Button_Switch_THT:Push_E-Switch_KS01Q01" H 13400 6100 50  0001 C CNN
F 3 "~" H 13400 6100 50  0001 C CNN
F 4 "Кнопки тактовые" H 13400 5900 60  0001 C CNN "Группа"
	1    13400 5900
	1    0    0    -1  
$EndComp
Wire Wire Line
	14800 3200 14800 3600
Wire Wire Line
	13600 5900 13850 5900
Wire Wire Line
	13600 5450 13850 5450
Wire Wire Line
	13650 4950 13850 4950
Wire Wire Line
	14700 5150 14800 5150
Connection ~ 14800 5150
Wire Wire Line
	14800 5150 14800 6200
Wire Wire Line
	14700 4700 14800 4700
Connection ~ 14800 4700
Wire Wire Line
	14800 4700 14800 5150
Wire Wire Line
	14700 4300 14800 4300
Connection ~ 14800 4300
Wire Wire Line
	14800 4300 14800 4700
Wire Wire Line
	14700 3600 14800 3600
Connection ~ 14800 3600
Wire Wire Line
	14800 3600 14800 4300
Wire Wire Line
	13600 4100 13850 4100
Wire Wire Line
	13600 3800 13850 3800
Wire Wire Line
	13650 3400 13850 3400
Wire Wire Line
	11000 3400 13250 3400
Wire Wire Line
	10650 4950 13250 4950
$Comp
L Switch:SW_Push SB1
U 1 1 62070947
P 6050 1500
F 0 "SB1" H 6050 1693 50  0000 C CNN
F 1 "SW_Push" H 6050 1694 50  0001 C CNN
F 2 "Button_Switch_THT:Push_E-Switch_KS01Q01" H 6050 1700 50  0001 C CNN
F 3 "~" H 6050 1700 50  0001 C CNN
F 4 "Кнопки тактовые" H 6050 1500 60  0001 C CNN "Группа"
	1    6050 1500
	1    0    0    -1  
$EndComp
Wire Wire Line
	11950 2250 11400 2250
Wire Wire Line
	11950 2150 11500 2150
Wire Wire Line
	11950 1950 11550 1950
$Comp
L Biblioteka_for_lr4:PLD-06 X2
U 1 1 621A1927
P 13050 2200
F 0 "X2" H 13728 2296 50  0000 L CNN
F 1 "PLD-06" H 13728 2205 50  0000 L CNN
F 2 "Connector:Tag-Connect_TC2030-IDC-FP_2x03_P1.27mm_Vertical" H 12950 2550 50  0001 C CNN
F 3 "" H 12950 2550 50  0001 C CNN
F 4 "Коннекторы" H 13050 2200 60  0001 C CNN "Группа"
	1    13050 2200
	1    0    0    -1  
$EndComp
Wire Wire Line
	13650 7100 13550 7100
Wire Wire Line
	13550 7600 13650 7600
Wire Wire Line
	13650 7700 13550 7700
Wire Wire Line
	13550 7700 13550 7800
Wire Wire Line
	13550 7800 13650 7800
NoConn ~ 13650 7900
Wire Wire Line
	13600 4500 13850 4500
$Comp
L power:GND #PWR0104
U 1 1 62350446
P 11850 2550
F 0 "#PWR0104" H 11850 2300 50  0001 C CNN
F 1 "GND" H 11855 2377 50  0000 C CNN
F 2 "" H 11850 2550 50  0001 C CNN
F 3 "" H 11850 2550 50  0001 C CNN
	1    11850 2550
	1    0    0    -1  
$EndComp
Wire Wire Line
	11950 2450 11850 2450
Wire Wire Line
	11850 2450 11850 2550
Wire Wire Line
	6250 1500 6450 1500
Wire Wire Line
	11950 2050 11850 2050
Wire Wire Line
	11850 2050 11850 1600
$Comp
L Switch:SW_Push SW1
U 1 1 620AC02D
P 3150 9400
F 0 "SW1" H 3150 9685 50  0000 C CNN
F 1 "SW_Push" H 3150 9594 50  0000 C CNN
F 2 "Button_Switch_THT:Push_E-Switch_KS01Q01" H 3150 9600 50  0001 C CNN
F 3 "~" H 3150 9600 50  0001 C CNN
F 4 "Кнопки тактовые" H 3150 9400 60  0001 C CNN "Группа"
	1    3150 9400
	1    0    0    -1  
$EndComp
$Comp
L Device:CP_Small C7
U 1 1 620AD1E5
P 5500 9650
F 0 "C7" H 5588 9696 50  0000 L CNN
F 1 "10 мкФ" H 5588 9605 50  0000 L CNN
F 2 "Capacitor_SMD:C_Trimmer_Murata_TZB4-B" H 5500 9650 50  0001 C CNN
F 3 "~" H 5500 9650 50  0001 C CNN
F 4 "Конденсаторы" H 5500 9650 60  0001 C CNN "Группа"
	1    5500 9650
	1    0    0    -1  
$EndComp
$Comp
L Device:CP_Small C5
U 1 1 620ADE58
P 4000 9650
F 0 "C5" H 4088 9696 50  0000 L CNN
F 1 "0.33 мкФ" H 4088 9605 50  0000 L CNN
F 2 "Capacitor_SMD:C_Trimmer_Murata_TZB4-B" H 4000 9650 50  0001 C CNN
F 3 "~" H 4000 9650 50  0001 C CNN
F 4 "Конденсаторы" H 4000 9650 60  0001 C CNN "Группа"
	1    4000 9650
	-1   0    0    -1  
$EndComp
Wire Wire Line
	2650 9550 2750 9550
Wire Wire Line
	2750 9550 2750 9750
Wire Wire Line
	2650 9450 2950 9450
Wire Wire Line
	2950 9450 2950 9400
Wire Wire Line
	5600 9400 5600 9450
Wire Wire Line
	5600 9450 5700 9450
Wire Wire Line
	5500 9550 5500 9400
Wire Wire Line
	5500 10000 5500 9750
Wire Wire Line
	11950 2350 11350 2350
Wire Wire Line
	11350 2350 11350 900 
Wire Wire Line
	6450 900  11350 900 
Wire Wire Line
	6450 2100 7150 2100
Wire Wire Line
	6450 900  6450 1500
Connection ~ 6450 1500
Wire Wire Line
	6450 1500 6600 1500
Wire Wire Line
	6450 2100 6450 1500
$Comp
L power:GND #PWR0120
U 1 1 620F6747
P 10350 8200
F 0 "#PWR0120" H 10350 7950 50  0001 C CNN
F 1 "GND" H 10355 8027 50  0000 C CNN
F 2 "" H 10350 8200 50  0001 C CNN
F 3 "" H 10350 8200 50  0001 C CNN
	1    10350 8200
	1    0    0    -1  
$EndComp
Wire Wire Line
	10450 8200 10350 8200
$Comp
L power:+5V #PWR0103
U 1 1 62083E24
P 5700 9450
F 0 "#PWR0103" H 5700 9300 50  0001 C CNN
F 1 "+5V" H 5715 9623 50  0000 C CNN
F 2 "" H 5700 9450 50  0001 C CNN
F 3 "" H 5700 9450 50  0001 C CNN
	1    5700 9450
	1    0    0    -1  
$EndComp
$Comp
L power:+5V #PWR0105
U 1 1 62094964
P 4500 2250
F 0 "#PWR0105" H 4500 2100 50  0001 C CNN
F 1 "+5V" H 4515 2423 50  0000 C CNN
F 2 "" H 4500 2250 50  0001 C CNN
F 3 "" H 4500 2250 50  0001 C CNN
	1    4500 2250
	1    0    0    -1  
$EndComp
$Comp
L power:+5V #PWR0106
U 1 1 620B23A4
P 7250 1250
F 0 "#PWR0106" H 7250 1100 50  0001 C CNN
F 1 "+5V" H 7265 1423 50  0000 C CNN
F 2 "" H 7250 1250 50  0001 C CNN
F 3 "" H 7250 1250 50  0001 C CNN
	1    7250 1250
	1    0    0    -1  
$EndComp
$Comp
L power:+5V #PWR0108
U 1 1 620C38FB
P 11850 1600
F 0 "#PWR0108" H 11850 1450 50  0001 C CNN
F 1 "+5V" H 11865 1773 50  0000 C CNN
F 2 "" H 11850 1600 50  0001 C CNN
F 3 "" H 11850 1600 50  0001 C CNN
	1    11850 1600
	1    0    0    -1  
$EndComp
$Comp
L power:+5V #PWR0109
U 1 1 620D338B
P 12300 6300
F 0 "#PWR0109" H 12300 6150 50  0001 C CNN
F 1 "+5V" H 12315 6473 50  0000 C CNN
F 2 "" H 12300 6300 50  0001 C CNN
F 3 "" H 12300 6300 50  0001 C CNN
	1    12300 6300
	1    0    0    -1  
$EndComp
$Comp
L power:+5V #PWR0110
U 1 1 620E2E1C
P 12750 7100
F 0 "#PWR0110" H 12750 6950 50  0001 C CNN
F 1 "+5V" H 12765 7273 50  0000 C CNN
F 2 "" H 12750 7100 50  0001 C CNN
F 3 "" H 12750 7100 50  0001 C CNN
	1    12750 7100
	1    0    0    -1  
$EndComp
$Comp
L power:GND #PWR0111
U 1 1 620E403A
P 4200 2850
F 0 "#PWR0111" H 4200 2600 50  0001 C CNN
F 1 "GND" H 4205 2677 50  0000 C CNN
F 2 "" H 4200 2850 50  0001 C CNN
F 3 "" H 4200 2850 50  0001 C CNN
	1    4200 2850
	1    0    0    -1  
$EndComp
Wire Wire Line
	4200 2700 4200 2850
$Comp
L power:GND #PWR0112
U 1 1 62111F3A
P 3050 4500
F 0 "#PWR0112" H 3050 4250 50  0001 C CNN
F 1 "GND" H 3055 4327 50  0000 C CNN
F 2 "" H 3050 4500 50  0001 C CNN
F 3 "" H 3050 4500 50  0001 C CNN
	1    3050 4500
	1    0    0    -1  
$EndComp
$Comp
L power:GND #PWR0114
U 1 1 6213F6AF
P 5600 1600
F 0 "#PWR0114" H 5600 1350 50  0001 C CNN
F 1 "GND" H 5605 1427 50  0000 C CNN
F 2 "" H 5600 1600 50  0001 C CNN
F 3 "" H 5600 1600 50  0001 C CNN
	1    5600 1600
	1    0    0    -1  
$EndComp
$Comp
L power:GND #PWR0115
U 1 1 6215DFEE
P 6200 2900
F 0 "#PWR0115" H 6200 2650 50  0001 C CNN
F 1 "GND" H 6205 2727 50  0000 C CNN
F 2 "" H 6200 2900 50  0001 C CNN
F 3 "" H 6200 2900 50  0001 C CNN
	1    6200 2900
	1    0    0    -1  
$EndComp
$Comp
L power:GND #PWR0117
U 1 1 6215F157
P 5700 2900
F 0 "#PWR0117" H 5700 2650 50  0001 C CNN
F 1 "GND" H 5705 2727 50  0000 C CNN
F 2 "" H 5700 2900 50  0001 C CNN
F 3 "" H 5700 2900 50  0001 C CNN
	1    5700 2900
	1    0    0    -1  
$EndComp
$Comp
L power:GND #PWR0118
U 1 1 621700DC
P 10200 7800
F 0 "#PWR0118" H 10200 7550 50  0001 C CNN
F 1 "GND" H 10205 7627 50  0000 C CNN
F 2 "" H 10200 7800 50  0001 C CNN
F 3 "" H 10200 7800 50  0001 C CNN
	1    10200 7800
	1    0    0    -1  
$EndComp
$Comp
L power:GND #PWR0119
U 1 1 62180E24
P 12400 7450
F 0 "#PWR0119" H 12400 7200 50  0001 C CNN
F 1 "GND" H 12405 7277 50  0000 C CNN
F 2 "" H 12400 7450 50  0001 C CNN
F 3 "" H 12400 7450 50  0001 C CNN
	1    12400 7450
	1    0    0    -1  
$EndComp
$Comp
L power:GND #PWR0122
U 1 1 62190A05
P 11300 6050
F 0 "#PWR0122" H 11300 5800 50  0001 C CNN
F 1 "GND" H 11305 5877 50  0000 C CNN
F 2 "" H 11300 6050 50  0001 C CNN
F 3 "" H 11300 6050 50  0001 C CNN
	1    11300 6050
	1    0    0    -1  
$EndComp
$Comp
L power:GND #PWR0123
U 1 1 621A0646
P 13850 6200
F 0 "#PWR0123" H 13850 5950 50  0001 C CNN
F 1 "GND" H 13855 6027 50  0000 C CNN
F 2 "" H 13850 6200 50  0001 C CNN
F 3 "" H 13850 6200 50  0001 C CNN
	1    13850 6200
	1    0    0    -1  
$EndComp
$Comp
L power:GND #PWR0127
U 1 1 621AF787
P 14800 6200
F 0 "#PWR0127" H 14800 5950 50  0001 C CNN
F 1 "GND" H 14805 6027 50  0000 C CNN
F 2 "" H 14800 6200 50  0001 C CNN
F 3 "" H 14800 6200 50  0001 C CNN
	1    14800 6200
	1    0    0    -1  
$EndComp
$Comp
L power:GND #PWR0102
U 1 1 621BF87C
P 5150 5450
F 0 "#PWR0102" H 5150 5200 50  0001 C CNN
F 1 "GND" H 5155 5277 50  0000 C CNN
F 2 "" H 5150 5450 50  0001 C CNN
F 3 "" H 5150 5450 50  0001 C CNN
	1    5150 5450
	1    0    0    -1  
$EndComp
$Comp
L Switch:SW_Push SB15
U 1 1 621C0654
P 5700 4800
F 0 "SB15" H 5700 4993 50  0000 C CNN
F 1 "SW_Push" H 5700 4994 50  0001 C CNN
F 2 "Button_Switch_THT:Push_E-Switch_KS01Q01" H 5700 5000 50  0001 C CNN
F 3 "~" H 5700 5000 50  0001 C CNN
F 4 "Кнопки тактовые" H 5700 4800 60  0001 C CNN "Группа"
	1    5700 4800
	1    0    0    -1  
$EndComp
$Comp
L Switch:SW_Push SB16
U 1 1 621C17D0
P 5700 5100
F 0 "SB16" H 5700 5293 50  0000 C CNN
F 1 "SW_Push" H 5700 5294 50  0001 C CNN
F 2 "Button_Switch_THT:Push_E-Switch_KS01Q01" H 5700 5300 50  0001 C CNN
F 3 "~" H 5700 5300 50  0001 C CNN
F 4 "Кнопки тактовые" H 5700 5100 60  0001 C CNN "Группа"
	1    5700 5100
	1    0    0    -1  
$EndComp
NoConn ~ 8350 4400
Wire Wire Line
	7150 4800 5900 4800
Wire Wire Line
	7150 4900 5900 4900
Wire Wire Line
	5900 4900 5900 5100
Wire Wire Line
	5500 4800 5150 4800
Wire Wire Line
	5500 5100 5150 5100
Wire Wire Line
	5150 4800 5150 5100
Connection ~ 5150 5100
Wire Wire Line
	5150 5100 5150 5450
$Comp
L power:GND #PWR0128
U 1 1 622581AE
P 7900 5800
F 0 "#PWR0128" H 7900 5550 50  0001 C CNN
F 1 "GND" H 8000 5700 50  0000 C CNN
F 2 "" H 7900 5800 50  0001 C CNN
F 3 "" H 7900 5800 50  0001 C CNN
	1    7900 5800
	1    0    0    -1  
$EndComp
$Comp
L power:GND #PWR0101
U 1 1 62268E7F
P 4600 7750
F 0 "#PWR0101" H 4600 7500 50  0001 C CNN
F 1 "GND" H 4605 7577 50  0000 C CNN
F 2 "" H 4600 7750 50  0001 C CNN
F 3 "" H 4600 7750 50  0001 C CNN
	1    4600 7750
	1    0    0    -1  
$EndComp
$Comp
L power:GND #PWR0113
U 1 1 622B87FB
P 2750 9750
F 0 "#PWR0113" H 2750 9500 50  0001 C CNN
F 1 "GND" H 2755 9577 50  0000 C CNN
F 2 "" H 2750 9750 50  0001 C CNN
F 3 "" H 2750 9750 50  0001 C CNN
	1    2750 9750
	1    0    0    -1  
$EndComp
$Comp
L power:GND #PWR0126
U 1 1 622BC76C
P 5500 10000
F 0 "#PWR0126" H 5500 9750 50  0001 C CNN
F 1 "GND" H 5505 9827 50  0000 C CNN
F 2 "" H 5500 10000 50  0001 C CNN
F 3 "" H 5500 10000 50  0001 C CNN
	1    5500 10000
	1    0    0    -1  
$EndComp
Wire Wire Line
	13550 7100 13550 7400
$Comp
L power:GND #PWR0116
U 1 1 6234FA8F
P 11250 8700
F 0 "#PWR0116" H 11250 8450 50  0001 C CNN
F 1 "GND" H 11255 8527 50  0000 C CNN
F 2 "" H 11250 8700 50  0001 C CNN
F 3 "" H 11250 8700 50  0001 C CNN
	1    11250 8700
	1    0    0    -1  
$EndComp
$Comp
L Biblioteka_for_lr4:DG3301-5.0-02P-11 X1
U 1 1 620AB4AD
P 2250 9400
F 0 "X1" H 2325 9665 50  0000 C CNN
F 1 "DG3301-5.0-02P-11" H 2325 9574 50  0000 C CNN
F 2 "Connector:Tag-Connect_TC2030-IDC-FP_2x03_P1.27mm_Vertical" H 2250 9500 50  0001 C CNN
F 3 "" H 2250 9500 50  0001 C CNN
F 4 "Колодки клеммные" H 2250 9400 60  0001 C CNN "Группа"
	1    2250 9400
	1    0    0    -1  
$EndComp
Wire Wire Line
	13650 7400 13550 7400
Connection ~ 13550 7400
Wire Wire Line
	13550 7400 13550 7600
$Comp
L power:GND #PWR0129
U 1 1 6226F660
P 13400 7550
F 0 "#PWR0129" H 13400 7300 50  0001 C CNN
F 1 "GND" H 13405 7377 50  0000 C CNN
F 2 "" H 13400 7550 50  0001 C CNN
F 3 "" H 13400 7550 50  0001 C CNN
	1    13400 7550
	1    0    0    -1  
$EndComp
Wire Wire Line
	13650 7500 13400 7500
Wire Wire Line
	13400 7500 13400 7550
Wire Wire Line
	8500 5300 8350 5300
Wire Wire Line
	8350 5200 8600 5200
Wire Wire Line
	8350 5100 8650 5100
Wire Wire Line
	8350 5000 8700 5000
Wire Wire Line
	9900 4900 8350 4900
Wire Wire Line
	9400 4800 8350 4800
Wire Wire Line
	8350 4300 10500 4300
Wire Wire Line
	8350 4200 10550 4200
Wire Wire Line
	8350 4100 10600 4100
Wire Wire Line
	8350 4000 10650 4000
Wire Wire Line
	8350 3900 10700 3900
Wire Wire Line
	9300 3700 8350 3700
Wire Wire Line
	9200 3500 8350 3500
Wire Wire Line
	8350 2800 10750 2800
Wire Wire Line
	8350 2600 10850 2600
Wire Wire Line
	8350 2500 10900 2500
Wire Wire Line
	8350 2400 10950 2400
Wire Wire Line
	8350 2300 11000 2300
Wire Wire Line
	8350 2200 11050 2200
Wire Wire Line
	8350 2100 11100 2100
$Comp
L MCU_Microchip_ATmega:ATmega8515-16AU DD1
U 1 1 6205015D
P 7750 3800
F 0 "DD1" H 7500 5750 50  0000 C CNN
F 1 "ATmega8515" H 8200 5750 50  0000 C CNN
F 2 "Package_QFP:TQFP-44_10x10mm_P0.8mm" H 7750 3800 50  0001 C CIN
F 3 "http://ww1.microchip.com/downloads/en/DeviceDoc/doc2512.pdf" H 7750 3800 50  0001 C CNN
F 4 "Микросхемы интегральные" H 7750 3800 60  0001 C CNN "Группа"
	1    7750 3800
	1    0    0    -1  
$EndComp
$Comp
L power:+5V #PWR0107
U 1 1 62315FA6
P 7750 1350
F 0 "#PWR0107" H 7750 1200 50  0001 C CNN
F 1 "+5V" H 7765 1523 50  0000 C CNN
F 2 "" H 7750 1350 50  0001 C CNN
F 3 "" H 7750 1350 50  0001 C CNN
	1    7750 1350
	1    0    0    -1  
$EndComp
Wire Wire Line
	7750 1350 7750 1450
$Comp
L power:GND #PWR0130
U 1 1 6239F704
P 8350 1450
F 0 "#PWR0130" H 8350 1200 50  0001 C CNN
F 1 "GND" H 8355 1277 50  0000 C CNN
F 2 "" H 8350 1450 50  0001 C CNN
F 3 "" H 8350 1450 50  0001 C CNN
	1    8350 1450
	1    0    0    -1  
$EndComp
Wire Wire Line
	7750 1450 7950 1450
Connection ~ 7750 1450
Wire Wire Line
	7750 1450 7750 1800
Wire Wire Line
	8150 1450 8350 1450
$Comp
L Biblioteka_for_lr4:LM7805 DA1
U 1 1 624ADF39
P 4650 9450
F 0 "DA1" H 4450 9600 50  0000 C CNN
F 1 "LM7805" H 4750 9600 50  0000 C CNN
F 2 "Connector:Banana_Jack_2Pin" H 3900 9650 50  0001 C CNN
F 3 "" H 3900 9650 50  0001 C CNN
F 4 "Микросхемы интегральные" H 4650 9450 60  0001 C CNN "Группа"
	1    4650 9450
	1    0    0    -1  
$EndComp
$Comp
L power:GND #PWR0125
U 1 1 6255F380
P 4600 10150
F 0 "#PWR0125" H 4600 9900 50  0001 C CNN
F 1 "GND" H 4605 9977 50  0000 C CNN
F 2 "" H 4600 10150 50  0001 C CNN
F 3 "" H 4600 10150 50  0001 C CNN
	1    4600 10150
	1    0    0    -1  
$EndComp
Wire Wire Line
	4250 9500 4250 9700
Wire Wire Line
	4250 9700 4600 9700
$Comp
L Device:CP_Small C6
U 1 1 620AED98
P 5000 9650
F 0 "C6" H 5088 9696 50  0000 L CNN
F 1 "0.1 мкФ" H 5050 9550 50  0000 L CNN
F 2 "Capacitor_SMD:C_Trimmer_Murata_TZB4-B" H 5000 9650 50  0001 C CNN
F 3 "~" H 5000 9650 50  0001 C CNN
F 4 "Конденсаторы" H 5000 9650 60  0001 C CNN "Группа"
	1    5000 9650
	1    0    0    -1  
$EndComp
Connection ~ 5500 9400
Wire Wire Line
	5500 9400 5600 9400
$Comp
L Device:C_Small C8
U 1 1 621BF018
P 8050 1450
F 0 "C8" H 8142 1496 50  0000 L CNN
F 1 "100 нФ" H 7700 1550 50  0000 L CNN
F 2 "Capacitor_SMD:C_Trimmer_Murata_TZB4-B" H 8050 1450 50  0001 C CNN
F 3 "~" H 8050 1450 50  0001 C CNN
F 4 "Конденсаторы" H 8050 1450 60  0001 C CNN "Группа"
	1    8050 1450
	0    1    1    0   
$EndComp
Wire Wire Line
	4900 9400 5000 9400
Wire Wire Line
	4600 9700 4600 9900
Wire Wire Line
	3350 9400 4000 9400
Wire Wire Line
	4000 9400 4000 9550
Connection ~ 4000 9400
Wire Wire Line
	4000 9400 4250 9400
Wire Wire Line
	5000 9400 5000 9550
Connection ~ 5000 9400
Wire Wire Line
	5000 9400 5500 9400
Wire Wire Line
	4000 9750 4000 9900
Wire Wire Line
	4000 9900 4600 9900
Connection ~ 4600 9900
Wire Wire Line
	4600 9900 4600 10150
Wire Wire Line
	5000 9750 5000 9900
Wire Wire Line
	5000 9900 4600 9900
$EndSCHEMATC
