EESchema Schematic File Version 4
EELAYER 30 0
EELAYER END
$Descr A3 16535 11693
encoding utf-8
Sheet 1 1
Title "Схема принципиальная электрическая"
Date ""
Rev ""
Comp "МГТУ им.Н.Э.Баумана\\nГруппа ИУ6И-71Б"
Comment1 "Контроллер для базы данных"
Comment2 "Нгуен Ань Ту"
Comment3 "Хартов В. Я."
Comment4 ""
$EndDescr
Wire Wire Line
	6000 7000 6000 7250
$Comp
L lab4-rescue:SW_DIP_x01-Switch SW1
U 1 1 61B30375
P 4050 3300
F 0 "SW1" H 4050 3475 50  0000 C CNN
F 1 "SW_DIP_x01-Switch" H 4050 3476 50  0001 C CNN
F 2 "Button_Switch_THT:SW_PUSH_6mm" H 4050 3300 50  0001 C CNN
F 3 "" H 4050 3300 50  0001 C CNN
F 4 "Прочие элементы" H 4050 3300 60  0001 C CNN "Группа"
	1    4050 3300
	1    0    0    -1  
$EndComp
$Comp
L lab4-rescue:R-Device R1
U 1 1 61B3123C
P 4650 2750
F 0 "R1" H 4750 2750 50  0000 C CNN
F 1 "10k" H 4500 2750 50  0000 C CNN
F 2 "Resistor_THT:R_Axial_DIN0207_L6.3mm_D2.5mm_P2.54mm_Vertical" V 4580 2750 50  0001 C CNN
F 3 "" H 4650 2750 50  0001 C CNN
F 4 "Резисторы" H 4650 2750 60  0001 C CNN "Группа"
	1    4650 2750
	-1   0    0    1   
$EndComp
NoConn ~ 6600 3500
NoConn ~ 6600 3600
Wire Wire Line
	3600 3300 3750 3300
$Comp
L lab4-rescue:MCP2221AxML-Interface_USB DD3
U 1 1 61B5F641
P 7350 7100
F 0 "DD3" H 7600 7750 50  0000 C CNN
F 1 "MCP2221AxML" H 7050 7750 50  0000 C CNN
F 2 "Package_DFN_QFN:QFN-16-1EP_4x4mm_P0.65mm_EP2.5x2.5mm" H 7350 8100 50  0001 C CNN
F 3 "" H 7350 7800 50  0001 C CNN
	1    7350 7100
	-1   0    0    -1  
$EndComp
$Comp
L lab4-rescue:USB_B-Connector X2
U 1 1 61B65A41
P 8450 7000
F 0 "X2" H 8650 7400 50  0000 C CNN
F 1 "USB_B-Connector" H 8100 7400 50  0000 C CNN
F 2 "Connector_USB:USB3_A_Molex_48393-001" H 8600 6950 50  0001 C CNN
F 3 "" H 8600 6950 50  0001 C CNN
	1    8450 7000
	-1   0    0    -1  
$EndComp
Wire Wire Line
	8150 6800 8050 6800
Wire Wire Line
	8150 7000 7750 7000
Wire Wire Line
	8150 7100 7750 7100
Wire Wire Line
	7350 6400 7350 6350
Wire Wire Line
	7250 6400 7250 6350
Wire Wire Line
	7250 6350 7350 6350
Wire Wire Line
	7350 7700 7350 7750
Wire Wire Line
	8450 7400 8450 7750
Wire Wire Line
	8450 7750 7350 7750
Connection ~ 7350 7750
Wire Wire Line
	7350 7750 7350 7950
Wire Wire Line
	8550 7400 8550 7750
Wire Wire Line
	8550 7750 8450 7750
Connection ~ 8450 7750
NoConn ~ 6950 6900
NoConn ~ 6950 7200
NoConn ~ 6950 7000
NoConn ~ 6950 7300
NoConn ~ 6950 7400
NoConn ~ 6950 7500
NoConn ~ 6600 6200
NoConn ~ 6600 6300
NoConn ~ 6600 6400
NoConn ~ 6600 6500
NoConn ~ 6600 6600
NoConn ~ 6600 6700
NoConn ~ 6600 5800
NoConn ~ 6600 5700
NoConn ~ 6600 5600
NoConn ~ 6600 5500
NoConn ~ 7750 6600
$Comp
L power:VCC #PWR0101
U 1 1 61ACF50D
P 8050 8350
F 0 "#PWR0101" H 8050 8200 50  0001 C CNN
F 1 "VCC" H 8065 8523 50  0000 C CNN
F 2 "" H 8050 8350 50  0001 C CNN
F 3 "" H 8050 8350 50  0001 C CNN
	1    8050 8350
	-1   0    0    -1  
$EndComp
$Comp
L power:GND #PWR0102
U 1 1 61ACFF26
P 6900 9150
F 0 "#PWR0102" H 6900 8900 50  0001 C CNN
F 1 "GND" H 6905 8977 50  0000 C CNN
F 2 "" H 6900 9150 50  0001 C CNN
F 3 "" H 6900 9150 50  0001 C CNN
	1    6900 9150
	-1   0    0    -1  
$EndComp
$Comp
L power:GND #PWR0103
U 1 1 61AD4489
P 6000 7250
F 0 "#PWR0103" H 6000 7000 50  0001 C CNN
F 1 "GND" H 6005 7077 50  0000 C CNN
F 2 "" H 6000 7250 50  0001 C CNN
F 3 "" H 6000 7250 50  0001 C CNN
	1    6000 7250
	1    0    0    -1  
$EndComp
$Comp
L power:GND #PWR0104
U 1 1 61AE431D
P 7350 7950
F 0 "#PWR0104" H 7350 7700 50  0001 C CNN
F 1 "GND" H 7355 7777 50  0000 C CNN
F 2 "" H 7350 7950 50  0001 C CNN
F 3 "" H 7350 7950 50  0001 C CNN
	1    7350 7950
	1    0    0    -1  
$EndComp
$Comp
L power:VCC #PWR0108
U 1 1 61AEC894
P 10500 4750
F 0 "#PWR0108" H 10500 4600 50  0001 C CNN
F 1 "VCC" H 10515 4923 50  0000 C CNN
F 2 "" H 10500 4750 50  0001 C CNN
F 3 "" H 10500 4750 50  0001 C CNN
	1    10500 4750
	1    0    0    -1  
$EndComp
Wire Wire Line
	4350 3300 4650 3300
Wire Wire Line
	4650 2900 4650 3300
Connection ~ 4650 3300
$Comp
L Regulator_Linear:L7805 U4
U 1 1 61B1BC2F
P 6900 8550
F 0 "U4" H 6900 8792 50  0000 C CNN
F 1 "L7805" H 6900 8701 50  0000 C CNN
F 2 "Package_TO_SOT_THT:TO-218-3_Vertical" H 6925 8400 50  0001 L CIN
F 3 "http://www.st.com/content/ccc/resource/technical/document/datasheet/41/4f/b3/b0/12/d4/47/88/CD00000444.pdf/files/CD00000444.pdf/jcr:content/translations/en.CD00000444.pdf" H 6900 8500 50  0001 C CNN
	1    6900 8550
	-1   0    0    -1  
$EndComp
$Comp
L Device:C C4
U 1 1 61B2ED9D
P 4050 4550
F 0 "C4" V 3798 4550 50  0000 C CNN
F 1 "20p" V 3889 4550 50  0000 C CNN
F 2 "Capacitor_SMD:C_1206_3216Metric" H 4088 4400 50  0001 C CNN
F 3 "~" H 4050 4550 50  0001 C CNN
	1    4050 4550
	0    1    1    0   
$EndComp
$Comp
L Device:C C3
U 1 1 61B30F36
P 4050 4000
F 0 "C3" V 3798 4000 50  0000 C CNN
F 1 "20p" V 3889 4000 50  0000 C CNN
F 2 "Capacitor_SMD:C_1206_3216Metric" H 4088 3850 50  0001 C CNN
F 3 "~" H 4050 4000 50  0001 C CNN
	1    4050 4000
	0    1    1    0   
$EndComp
Wire Wire Line
	4200 4000 4450 4000
Wire Wire Line
	5200 4000 5200 3500
Wire Wire Line
	5200 3500 5400 3500
Wire Wire Line
	5400 3700 5300 3700
Wire Wire Line
	5300 3700 5300 4550
Wire Wire Line
	5300 4550 4950 4550
$Comp
L Device:Crystal ZQ1
U 1 1 61B51AC4
P 4450 4300
F 0 "ZQ1" V 4404 4431 50  0000 L CNN
F 1 "8Мгц" V 4495 4431 50  0000 L CNN
F 2 "Crystal:Crystal_AT310_D3.0mm_L10.0mm_Horizontal" H 4450 4300 50  0001 C CNN
F 3 "~" H 4450 4300 50  0001 C CNN
	1    4450 4300
	0    1    1    0   
$EndComp
$Comp
L lab4-rescue:R-Device R2
U 1 1 61B5CB08
P 4950 4300
F 0 "R2" H 5100 4350 50  0000 C CNN
F 1 "220" H 5100 4250 50  0000 C CNN
F 2 "Resistor_THT:R_Axial_DIN0207_L6.3mm_D2.5mm_P2.54mm_Vertical" V 4880 4300 50  0001 C CNN
F 3 "" H 4950 4300 50  0001 C CNN
	1    4950 4300
	1    0    0    -1  
$EndComp
Wire Wire Line
	4450 4150 4450 4000
Connection ~ 4450 4000
Wire Wire Line
	4450 4000 4950 4000
Wire Wire Line
	4450 4450 4450 4550
Connection ~ 4450 4550
Wire Wire Line
	4450 4550 4200 4550
Wire Wire Line
	4950 4450 4950 4550
Connection ~ 4950 4550
Wire Wire Line
	4950 4550 4450 4550
Wire Wire Line
	4950 4150 4950 4000
Connection ~ 4950 4000
Wire Wire Line
	4950 4000 5200 4000
Wire Wire Line
	3600 3300 3600 4000
Wire Wire Line
	3900 4550 3600 4550
Connection ~ 3600 4550
Wire Wire Line
	3600 4550 3600 4800
Wire Wire Line
	3900 4000 3600 4000
Connection ~ 3600 4000
Wire Wire Line
	3600 4000 3600 4550
Wire Wire Line
	6600 8550 6400 8550
Wire Wire Line
	8050 8350 8050 8550
Wire Wire Line
	7500 8700 7500 8550
Connection ~ 7500 8550
Wire Wire Line
	7500 8550 7200 8550
Wire Wire Line
	7500 9000 7500 9050
Wire Wire Line
	7500 9050 6900 9050
Wire Wire Line
	6900 9050 6900 9150
Wire Wire Line
	6900 9050 6400 9050
Wire Wire Line
	6400 9050 6400 9000
Connection ~ 6900 9050
Wire Wire Line
	6900 8850 6900 9050
Wire Wire Line
	6400 8700 6400 8550
Connection ~ 6400 8550
Wire Wire Line
	6400 8550 5500 8550
Wire Wire Line
	6400 9050 5750 9050
Connection ~ 6400 9050
$Comp
L power:VCC #PWR0113
U 1 1 61C926CE
P 4650 2350
F 0 "#PWR0113" H 4650 2200 50  0001 C CNN
F 1 "VCC" H 4665 2523 50  0000 C CNN
F 2 "" H 4650 2350 50  0001 C CNN
F 3 "" H 4650 2350 50  0001 C CNN
	1    4650 2350
	1    0    0    -1  
$EndComp
Wire Wire Line
	4650 2600 4650 2350
$Comp
L lab4-rescue:ConnectorGOST-myLib X3
U 1 1 61B176B0
P 5250 8550
F 0 "X3" H 5150 8900 50  0000 L CNN
F 1 "Разъём питания" H 5600 8850 50  0000 L CNN
F 2 "Connector:Banana_Jack_2Pin" H 5250 8550 50  0001 C CNN
F 3 "" H 5250 8550 50  0001 C CNN
	1    5250 8550
	-1   0    0    -1  
$EndComp
Wire Wire Line
	5750 9050 5750 8650
Wire Wire Line
	5750 8650 5500 8650
$Comp
L Device:C C2
U 1 1 61B2C3C7
P 7500 8850
F 0 "C2" H 7615 8896 50  0000 L CNN
F 1 "100n" H 7615 8805 50  0000 L CNN
F 2 "Capacitor_SMD:C_1206_3216Metric" H 7538 8700 50  0001 C CNN
F 3 "~" H 7500 8850 50  0001 C CNN
	1    7500 8850
	-1   0    0    -1  
$EndComp
$Comp
L Device:C C1
U 1 1 61B25BED
P 6400 8850
F 0 "C1" H 6515 8896 50  0000 L CNN
F 1 "330n" H 6515 8805 50  0000 L CNN
F 2 "Capacitor_SMD:C_1206_3216Metric" H 6438 8700 50  0001 C CNN
F 3 "~" H 6400 8850 50  0001 C CNN
F 4 "Конденсаторы" H 6400 8850 60  0001 C CNN "Группа"
	1    6400 8850
	-1   0    0    -1  
$EndComp
$Comp
L lab4-rescue:AT90S8515-MCU_Microchip_ATmega DD1
U 1 1 61B1C011
P 6000 5000
F 0 "DD1" H 5700 7050 50  0000 C CNN
F 1 "AT90S8515-MCU_Microchip_ATmega" H 6750 7000 50  0000 C CNN
F 2 "Package_QFP:TQFP-44_10x10mm_P0.8mm" H 6000 5000 50  0001 C CIN
F 3 "" H 6000 5000 50  0001 C CNN
F 4 "Микросхемы" H 6000 5000 60  0001 C CNN "Группа"
	1    6000 5000
	1    0    0    -1  
$EndComp
$Comp
L Connector:AVR-ISP-6 X1
U 1 1 61BCECAD
P 10400 5400
F 0 "X1" H 10070 5496 50  0000 R CNN
F 1 "Разъёма программатора AVR-ISP-6" H 10070 5405 50  0000 R CNN
F 2 "Package_DIP:DIP-6_W7.62mm" V 10150 5450 50  0001 C CNN
F 3 " ~" H 9125 4850 50  0001 C CNN
	1    10400 5400
	-1   0    0    -1  
$EndComp
$Comp
L LM016L:LM016L DD2
U 1 1 61C33FEC
P 8650 4300
F 0 "DD2" H 8550 5067 50  0000 C CNN
F 1 "LM016L" H 8550 4976 50  0000 C CNN
F 2 "library:LCD_LM016L" H 8650 4300 50  0001 L BNN
F 3 "" H 8650 4300 50  0001 L BNN
F 4 "Hitachi" H 8650 4300 50  0001 L BNN "MANUFACTURER"
	1    8650 4300
	1    0    0    -1  
$EndComp
NoConn ~ 6600 4500
NoConn ~ 9050 3900
NoConn ~ 8050 4500
NoConn ~ 8050 4400
NoConn ~ 8050 4300
NoConn ~ 8050 4200
$Comp
L power:GND #PWR0105
U 1 1 61C90EDF
P 9200 4950
F 0 "#PWR0105" H 9200 4700 50  0001 C CNN
F 1 "GND" H 9205 4777 50  0000 C CNN
F 2 "" H 9200 4950 50  0001 C CNN
F 3 "" H 9200 4950 50  0001 C CNN
	1    9200 4950
	1    0    0    -1  
$EndComp
Wire Wire Line
	9050 4900 9200 4900
Wire Wire Line
	9200 4900 9200 4950
Wire Wire Line
	6600 4600 8050 4600
Wire Wire Line
	10000 5200 7850 5200
Wire Wire Line
	10000 5300 7750 5300
Wire Wire Line
	10000 5400 7650 5400
Wire Wire Line
	10000 5500 9800 5500
Wire Wire Line
	6950 6700 6850 6700
NoConn ~ 6600 3300
NoConn ~ 6600 3400
NoConn ~ 6600 3700
NoConn ~ 6600 3800
NoConn ~ 6600 3900
NoConn ~ 6600 4000
NoConn ~ 6600 5200
NoConn ~ 6600 5100
$Comp
L power:VCC #PWR0106
U 1 1 61C6B61C
P 8050 6600
F 0 "#PWR0106" H 8050 6450 50  0001 C CNN
F 1 "VCC" H 8065 6773 50  0000 C CNN
F 2 "" H 8050 6600 50  0001 C CNN
F 3 "" H 8050 6600 50  0001 C CNN
	1    8050 6600
	-1   0    0    -1  
$EndComp
Wire Wire Line
	8050 6600 8050 6800
Wire Wire Line
	7500 8550 8050 8550
$Comp
L power:GND #PWR0107
U 1 1 61CBFD12
P 3600 4800
F 0 "#PWR0107" H 3600 4550 50  0001 C CNN
F 1 "GND" H 3605 4627 50  0000 C CNN
F 2 "" H 3600 4800 50  0001 C CNN
F 3 "" H 3600 4800 50  0001 C CNN
	1    3600 4800
	1    0    0    -1  
$EndComp
$Comp
L power:GND #PWR0110
U 1 1 61CC5995
P 8150 6150
F 0 "#PWR0110" H 8150 5900 50  0001 C CNN
F 1 "GND" H 8155 5977 50  0000 C CNN
F 2 "" H 8150 6150 50  0001 C CNN
F 3 "" H 8150 6150 50  0001 C CNN
	1    8150 6150
	1    0    0    -1  
$EndComp
Wire Wire Line
	6600 4200 7500 4200
Wire Wire Line
	7500 4200 7500 3900
Wire Wire Line
	7500 3900 8050 3900
Wire Wire Line
	6600 4300 7600 4300
Wire Wire Line
	7600 4300 7600 4000
Wire Wire Line
	7600 4000 8050 4000
Wire Wire Line
	6600 4400 7700 4400
Wire Wire Line
	7700 4400 7700 3800
Wire Wire Line
	7700 3800 8050 3800
Wire Wire Line
	6600 4900 7850 4900
Wire Wire Line
	7850 5200 7850 4900
Connection ~ 7850 4900
Wire Wire Line
	7850 4900 8050 4900
Wire Wire Line
	6600 4700 7750 4700
Wire Wire Line
	6600 4800 7650 4800
Wire Wire Line
	7650 5400 7650 4800
Connection ~ 7650 4800
Wire Wire Line
	7650 4800 8050 4800
Wire Wire Line
	7750 5300 7750 4700
Connection ~ 7750 4700
Wire Wire Line
	7750 4700 8050 4700
Wire Wire Line
	4650 3300 5150 3300
NoConn ~ 6600 6100
NoConn ~ 6600 6000
Wire Wire Line
	6850 5300 6600 5300
Wire Wire Line
	6850 5300 6850 6700
Wire Wire Line
	6950 6600 6950 5400
Wire Wire Line
	6950 5400 6600 5400
Wire Wire Line
	9800 5500 9800 2750
Wire Wire Line
	9800 2750 5150 2750
Wire Wire Line
	5150 2750 5150 3300
Connection ~ 5150 3300
Wire Wire Line
	5150 3300 5400 3300
$Comp
L power:GND #PWR0109
U 1 1 61C499CB
P 10500 5900
F 0 "#PWR0109" H 10500 5650 50  0001 C CNN
F 1 "GND" H 10505 5727 50  0000 C CNN
F 2 "" H 10500 5900 50  0001 C CNN
F 3 "" H 10500 5900 50  0001 C CNN
	1    10500 5900
	1    0    0    -1  
$EndComp
Wire Wire Line
	10500 5900 10500 5800
$Comp
L Device:C C7
U 1 1 61C937A3
P 7800 6050
F 0 "C7" V 7915 6096 50  0000 L CNN
F 1 "100n" V 7650 5900 50  0000 L CNN
F 2 "Capacitor_SMD:C_1206_3216Metric" H 7838 5900 50  0001 C CNN
F 3 "~" H 7800 6050 50  0001 C CNN
	1    7800 6050
	0    -1   1    0   
$EndComp
Wire Wire Line
	10500 4900 10500 4750
Wire Wire Line
	7350 6350 7350 6050
Wire Wire Line
	7350 6050 7650 6050
Connection ~ 7350 6350
Wire Wire Line
	7950 6050 8150 6050
Wire Wire Line
	8150 6050 8150 6150
$Comp
L power:GND #PWR0111
U 1 1 61CF603D
P 6750 2500
F 0 "#PWR0111" H 6750 2250 50  0001 C CNN
F 1 "GND" H 6755 2327 50  0000 C CNN
F 2 "" H 6750 2500 50  0001 C CNN
F 3 "" H 6750 2500 50  0001 C CNN
	1    6750 2500
	1    0    0    -1  
$EndComp
$Comp
L Device:C C5
U 1 1 61CF6043
P 6400 2400
F 0 "C5" V 6515 2446 50  0000 L CNN
F 1 "100n" V 6250 2250 50  0000 L CNN
F 2 "Capacitor_SMD:C_1206_3216Metric" H 6438 2250 50  0001 C CNN
F 3 "~" H 6400 2400 50  0001 C CNN
	1    6400 2400
	0    -1   1    0   
$EndComp
Wire Wire Line
	5950 2400 6250 2400
Wire Wire Line
	6550 2400 6750 2400
Wire Wire Line
	6750 2400 6750 2500
Wire Wire Line
	5950 2400 5950 3000
$Comp
L power:GND #PWR0112
U 1 1 61CFFB61
P 9650 3500
F 0 "#PWR0112" H 9650 3250 50  0001 C CNN
F 1 "GND" H 9655 3327 50  0000 C CNN
F 2 "" H 9650 3500 50  0001 C CNN
F 3 "" H 9650 3500 50  0001 C CNN
	1    9650 3500
	1    0    0    -1  
$EndComp
$Comp
L Device:C C6
U 1 1 61CFFB67
P 9300 3400
F 0 "C6" V 9415 3446 50  0000 L CNN
F 1 "100n" V 9150 3250 50  0000 L CNN
F 2 "Capacitor_SMD:C_1206_3216Metric" H 9338 3250 50  0001 C CNN
F 3 "~" H 9300 3400 50  0001 C CNN
	1    9300 3400
	0    -1   1    0   
$EndComp
Wire Wire Line
	9450 3400 9650 3400
Wire Wire Line
	9650 3400 9650 3500
Wire Wire Line
	9050 3800 9150 3800
Wire Wire Line
	9150 3800 9150 3400
$Comp
L power:VCC #PWR?
U 1 1 61D0B5CB
P 5950 2200
F 0 "#PWR?" H 5950 2050 50  0001 C CNN
F 1 "VCC" H 5965 2373 50  0000 C CNN
F 2 "" H 5950 2200 50  0001 C CNN
F 3 "" H 5950 2200 50  0001 C CNN
	1    5950 2200
	1    0    0    -1  
$EndComp
Wire Wire Line
	5950 2200 5950 2400
Connection ~ 5950 2400
$Comp
L power:VCC #PWR?
U 1 1 61D1106A
P 9150 3250
F 0 "#PWR?" H 9150 3100 50  0001 C CNN
F 1 "VCC" H 9165 3423 50  0000 C CNN
F 2 "" H 9150 3250 50  0001 C CNN
F 3 "" H 9150 3250 50  0001 C CNN
	1    9150 3250
	1    0    0    -1  
$EndComp
Wire Wire Line
	9150 3250 9150 3400
Connection ~ 9150 3400
$Comp
L power:VCC #PWR?
U 1 1 61D16BA3
P 7350 5900
F 0 "#PWR?" H 7350 5750 50  0001 C CNN
F 1 "VCC" H 7365 6073 50  0000 C CNN
F 2 "" H 7350 5900 50  0001 C CNN
F 3 "" H 7350 5900 50  0001 C CNN
	1    7350 5900
	1    0    0    -1  
$EndComp
Wire Wire Line
	7350 6050 7350 5900
Connection ~ 7350 6050
$EndSCHEMATC
