EESchema Schematic File Version 4
EELAYER 30 0
EELAYER END
$Descr A3 16535 11693
encoding utf-8
Sheet 1 1
Title "Урок 1"
Date ""
Rev ""
Comp ""
Comment1 ""
Comment2 "Подлевский В. П."
Comment3 "Хохлов С. А."
Comment4 ""
$EndDescr
$Comp
L Device:R R1
U 1 1 6169666F
P 4500 4350
F 0 "R1" V 4293 4350 50  0000 C CNN
F 1 "1 k" V 4384 4350 50  0000 C CNN
F 2 "" V 4430 4350 50  0001 C CNN
F 3 "~" H 4500 4350 50  0001 C CNN
	1    4500 4350
	0    1    1    0   
$EndComp
$Comp
L microchip_pic12mcu:PIC12C508A-ISN U1
U 1 1 6169763E
P 2850 4550
F 0 "U1" H 2850 5331 50  0000 C CNN
F 1 "PIC12C508A-ISN" H 2850 5240 50  0000 C CNN
F 2 "Package_DIP:DIP-8_W7.62mm" H 3450 5200 50  0001 C CNN
F 3 "http://ww1.microchip.com/downloads/en/devicedoc/40139e.pdf" H 2850 4550 50  0001 C CNN
	1    2850 4550
	-1   0    0    -1  
$EndComp
$Comp
L myLib:MYCONN3 J1
U 1 1 6169A6C6
P 3650 5450
F 0 "J1" H 3633 5775 50  0000 C CNN
F 1 "MYCONN3" H 3633 5684 50  0000 C CNN
F 2 "" H 3600 5650 50  0001 C CNN
F 3 "" H 3600 5650 50  0001 C CNN
	1    3650 5450
	1    0    0    -1  
$EndComp
$Comp
L power:VCC #PWR07
U 1 1 6169AE69
P 4800 4150
F 0 "#PWR07" H 4800 4000 50  0001 C CNN
F 1 "VCC" H 4815 4323 50  0000 C CNN
F 2 "" H 4800 4150 50  0001 C CNN
F 3 "" H 4800 4150 50  0001 C CNN
	1    4800 4150
	1    0    0    -1  
$EndComp
$Comp
L power:VCC #PWR03
U 1 1 6169B4C4
P 2850 3800
F 0 "#PWR03" H 2850 3650 50  0001 C CNN
F 1 "VCC" H 2865 3973 50  0000 C CNN
F 2 "" H 2850 3800 50  0001 C CNN
F 3 "" H 2850 3800 50  0001 C CNN
	1    2850 3800
	1    0    0    -1  
$EndComp
$Comp
L power:VCC #PWR05
U 1 1 6169B903
P 4000 5250
F 0 "#PWR05" H 4000 5100 50  0001 C CNN
F 1 "VCC" H 4015 5423 50  0000 C CNN
F 2 "" H 4000 5250 50  0001 C CNN
F 3 "" H 4000 5250 50  0001 C CNN
	1    4000 5250
	1    0    0    -1  
$EndComp
$Comp
L power:GND #PWR06
U 1 1 6169C03C
P 4000 5750
F 0 "#PWR06" H 4000 5500 50  0001 C CNN
F 1 "GND" H 4005 5577 50  0000 C CNN
F 2 "" H 4000 5750 50  0001 C CNN
F 3 "" H 4000 5750 50  0001 C CNN
	1    4000 5750
	1    0    0    -1  
$EndComp
$Comp
L power:GND #PWR04
U 1 1 6169C71F
P 2850 5300
F 0 "#PWR04" H 2850 5050 50  0001 C CNN
F 1 "GND" H 2855 5127 50  0000 C CNN
F 2 "" H 2850 5300 50  0001 C CNN
F 3 "" H 2850 5300 50  0001 C CNN
	1    2850 5300
	1    0    0    -1  
$EndComp
Wire Wire Line
	3450 4450 3650 4450
Wire Wire Line
	3650 4450 3650 4350
Wire Wire Line
	3650 4350 3900 4350
Wire Wire Line
	2850 3800 2850 3950
Wire Wire Line
	4800 4150 4800 4350
Wire Wire Line
	4800 4350 4650 4350
Wire Wire Line
	4000 5250 4000 5350
Wire Wire Line
	4000 5350 3850 5350
Wire Wire Line
	3850 5550 4000 5550
Wire Wire Line
	4000 5550 4000 5750
Wire Wire Line
	2850 5150 2850 5300
Wire Wire Line
	3450 4550 4200 4550
Text Label 3850 4550 0    50   ~ 0
INPUT
Text Label 4900 5450 0    50   ~ 0
INPUT
Text Label 3650 4350 0    50   ~ 0
uCtoLED
Text Label 4300 4350 1    50   ~ 0
LEDtoR
Wire Wire Line
	4350 4350 4200 4350
$Comp
L Device:LED D1
U 1 1 616980F1
P 4050 4350
F 0 "D1" H 4043 4567 50  0000 C CNN
F 1 "LED" H 4043 4476 50  0000 C CNN
F 2 "" H 4050 4350 50  0001 C CNN
F 3 "~" H 4050 4350 50  0001 C CNN
	1    4050 4350
	1    0    0    -1  
$EndComp
Wire Wire Line
	4750 5450 5150 5450
$Comp
L Device:R R2
U 1 1 61696B34
P 4600 5450
F 0 "R2" V 4393 5450 50  0000 C CNN
F 1 "100" V 4484 5450 50  0000 C CNN
F 2 "" V 4530 5450 50  0001 C CNN
F 3 "~" H 4600 5450 50  0001 C CNN
	1    4600 5450
	0    1    1    0   
$EndComp
Wire Wire Line
	3850 5450 4450 5450
Text Label 4000 5450 0    50   ~ 0
INPUTtoR
NoConn ~ 2250 4650
NoConn ~ 2250 4550
NoConn ~ 2250 4450
NoConn ~ 3450 4650
$Comp
L power:PWR_FLAG #FLG01
U 1 1 616A271F
P 1850 5550
F 0 "#FLG01" H 1850 5625 50  0001 C CNN
F 1 "PWR_FLAG" H 1850 5723 50  0000 C CNN
F 2 "" H 1850 5550 50  0001 C CNN
F 3 "~" H 1850 5550 50  0001 C CNN
	1    1850 5550
	1    0    0    -1  
$EndComp
$Comp
L power:PWR_FLAG #FLG02
U 1 1 616A3120
P 2300 5500
F 0 "#FLG02" H 2300 5575 50  0001 C CNN
F 1 "PWR_FLAG" H 2300 5673 50  0000 C CNN
F 2 "" H 2300 5500 50  0001 C CNN
F 3 "~" H 2300 5500 50  0001 C CNN
	1    2300 5500
	1    0    0    -1  
$EndComp
$Comp
L power:GND #PWR01
U 1 1 616A3731
P 1850 5700
F 0 "#PWR01" H 1850 5450 50  0001 C CNN
F 1 "GND" H 1855 5527 50  0000 C CNN
F 2 "" H 1850 5700 50  0001 C CNN
F 3 "" H 1850 5700 50  0001 C CNN
	1    1850 5700
	1    0    0    -1  
$EndComp
$Comp
L power:VCC #PWR02
U 1 1 616A3C84
P 2300 5700
F 0 "#PWR02" H 2300 5550 50  0001 C CNN
F 1 "VCC" H 2315 5873 50  0000 C CNN
F 2 "" H 2300 5700 50  0001 C CNN
F 3 "" H 2300 5700 50  0001 C CNN
	1    2300 5700
	1    0    0    1   
$EndComp
Wire Wire Line
	1850 5550 1850 5700
Wire Wire Line
	2300 5500 2300 5700
$EndSCHEMATC
