%!PS-Adobe-3.0
%%Creator: PCBNEW
%%CreationDate: Fri Dec 10 12:28:59 2021
%%Title: C:\Users\Sergey\Desktop\7 sem\TRSVT\trsvt_repo\trsvt\Gritsay_Sergey\LR1\drl\LR1-NPTH-drl_map.ps
%%Pages: 1
%%PageOrder: Ascend
%%BoundingBox: 0 0 596 842
%%DocumentMedia: A4 595 842 0 () ()
%%Orientation: Landscape
%%EndComments
%%BeginProlog
/line { newpath moveto lineto stroke } bind def
/cir0 { newpath 0 360 arc stroke } bind def
/cir1 { newpath 0 360 arc gsave fill grestore stroke } bind def
/cir2 { newpath 0 360 arc gsave fill grestore stroke } bind def
/arc0 { newpath arc stroke } bind def
/arc1 { newpath 4 index 4 index moveto arc closepath gsave fill
    grestore stroke } bind def
/arc2 { newpath 4 index 4 index moveto arc closepath gsave fill
    grestore stroke } bind def
/poly0 { stroke } bind def
/poly1 { closepath gsave fill grestore stroke } bind def
/poly2 { closepath gsave fill grestore stroke } bind def
/rect0 { rectstroke } bind def
/rect1 { rectfill } bind def
/rect2 { rectfill } bind def
/linemode0 { 0 setlinecap 0 setlinejoin 0 setlinewidth } bind def
/linemode1 { 1 setlinecap 1 setlinejoin } bind def
/dashedline { [200] 100 setdash } bind def
/solidline { [] 0 setdash } bind def
/phantomshow { moveto
    /KicadFont findfont 0.000001 scalefont setfont
    show } bind def
/textshow { gsave
    findfont exch scalefont setfont concat 1 scale 0 0 moveto show
    } bind def
/reencodefont {
  findfont dup length dict begin
  { 1 index /FID ne
    { def }
    { pop pop } ifelse
  } forall
  /Encoding ISOLatin1Encoding def
  currentdict
  end } bind def
/KicadFont /Helvetica reencodefont definefont pop
/KicadFont-Bold /Helvetica-Bold reencodefont definefont pop
/KicadFont-Oblique /Helvetica-Oblique reencodefont definefont pop
/KicadFont-BoldOblique /Helvetica-BoldOblique reencodefont definefont pop
%%EndProlog
%%Page: 1 1
%%BeginPageSetup
gsave
0.0072 0.0072 scale
linemode1
82680 0 translate 90 rotate
143.521 setlinewidth
%%EndPageSetup
0 0 0 setrgbcolor
113.008 setlinewidth
newpath
82863.5 78686.5 moveto
82863.5 37065.5 lineto
stroke
0 0 0 setrgbcolor
newpath
34066.5 78686.5 moveto
82863.5 78686.5 lineto
stroke
0 0 0 setrgbcolor
newpath
34066.5 37065.5 moveto
34066.5 78686.5 lineto
stroke
0 0 0 setrgbcolor
newpath
82863.5 37065.5 moveto
34066.5 37065.5 lineto
stroke
78.7397 setlinewidth
118.111 setlinewidth
0 0 0 setrgbcolor
0 0 0 setrgbcolor
newpath
35137.7 35175.5 moveto
35137.7 36356.6 lineto
35418.9 36356.6 lineto
35587.6 36300.3 lineto
35700.1 36187.9 lineto
35756.3 36075.4 lineto
35812.6 35850.4 lineto
35812.6 35681.7 lineto
35756.3 35456.7 lineto
35700.1 35344.2 lineto
35587.6 35231.7 lineto
35418.9 35175.5 lineto
35137.7 35175.5 lineto
stroke
newpath
36318.8 35175.5 moveto
36318.8 35962.9 lineto
stroke
newpath
36318.8 35737.9 moveto
36375 35850.4 lineto
36431.3 35906.6 lineto
36543.7 35962.9 lineto
36656.2 35962.9 lineto
stroke
newpath
37049.9 35175.5 moveto
37049.9 35962.9 lineto
stroke
newpath
37049.9 36356.6 moveto
36993.7 36300.3 lineto
37049.9 36244.1 lineto
37106.2 36300.3 lineto
37049.9 36356.6 lineto
37049.9 36244.1 lineto
stroke
newpath
37781.1 35175.5 moveto
37668.6 35231.7 lineto
37612.4 35344.2 lineto
37612.4 36356.6 lineto
stroke
newpath
38399.8 35175.5 moveto
38287.3 35231.7 lineto
38231 35344.2 lineto
38231 36356.6 lineto
stroke
newpath
39749.6 35175.5 moveto
39749.6 36356.6 lineto
40143.3 35512.9 lineto
40537 36356.6 lineto
40537 35175.5 lineto
stroke
newpath
41605.6 35175.5 moveto
41605.6 35794.2 lineto
41549.4 35906.6 lineto
41436.9 35962.9 lineto
41211.9 35962.9 lineto
41099.4 35906.6 lineto
stroke
newpath
41605.6 35231.7 moveto
41493.1 35175.5 lineto
41211.9 35175.5 lineto
41099.4 35231.7 lineto
41043.2 35344.2 lineto
41043.2 35456.7 lineto
41099.4 35569.2 lineto
41211.9 35625.4 lineto
41493.1 35625.4 lineto
41605.6 35681.7 lineto
stroke
newpath
42168 35962.9 moveto
42168 34781.8 lineto
stroke
newpath
42168 35906.6 moveto
42280.5 35962.9 lineto
42505.5 35962.9 lineto
42618 35906.6 lineto
42674.2 35850.4 lineto
42730.5 35737.9 lineto
42730.5 35400.5 lineto
42674.2 35288 lineto
42618 35231.7 lineto
42505.5 35175.5 lineto
42280.5 35175.5 lineto
42168 35231.7 lineto
stroke
newpath
43236.7 35288 moveto
43292.9 35231.7 lineto
43236.7 35175.5 lineto
43180.4 35231.7 lineto
43236.7 35288 lineto
43236.7 35175.5 lineto
stroke
newpath
43236.7 35906.6 moveto
43292.9 35850.4 lineto
43236.7 35794.2 lineto
43180.4 35850.4 lineto
43236.7 35906.6 lineto
43236.7 35794.2 lineto
stroke
showpage
grestore
%%EOF
