%!PS-Adobe-3.0
%%Creator: PCBNEW
%%CreationDate: Fri Dec 10 12:28:59 2021
%%Title: C:\Users\Sergey\Desktop\7 sem\TRSVT\trsvt_repo\trsvt\Gritsay_Sergey\LR1\drl\LR1-PTH-drl_map.ps
%%Pages: 1
%%PageOrder: Ascend
%%BoundingBox: 0 0 596 842
%%DocumentMedia: A4 595 842 0 () ()
%%Orientation: Landscape
%%EndComments
%%BeginProlog
/line { newpath moveto lineto stroke } bind def
/cir0 { newpath 0 360 arc stroke } bind def
/cir1 { newpath 0 360 arc gsave fill grestore stroke } bind def
/cir2 { newpath 0 360 arc gsave fill grestore stroke } bind def
/arc0 { newpath arc stroke } bind def
/arc1 { newpath 4 index 4 index moveto arc closepath gsave fill
    grestore stroke } bind def
/arc2 { newpath 4 index 4 index moveto arc closepath gsave fill
    grestore stroke } bind def
/poly0 { stroke } bind def
/poly1 { closepath gsave fill grestore stroke } bind def
/poly2 { closepath gsave fill grestore stroke } bind def
/rect0 { rectstroke } bind def
/rect1 { rectfill } bind def
/rect2 { rectfill } bind def
/linemode0 { 0 setlinecap 0 setlinejoin 0 setlinewidth } bind def
/linemode1 { 1 setlinecap 1 setlinejoin } bind def
/dashedline { [200] 100 setdash } bind def
/solidline { [] 0 setdash } bind def
/phantomshow { moveto
    /KicadFont findfont 0.000001 scalefont setfont
    show } bind def
/textshow { gsave
    findfont exch scalefont setfont concat 1 scale 0 0 moveto show
    } bind def
/reencodefont {
  findfont dup length dict begin
  { 1 index /FID ne
    { def }
    { pop pop } ifelse
  } forall
  /Encoding ISOLatin1Encoding def
  currentdict
  end } bind def
/KicadFont /Helvetica reencodefont definefont pop
/KicadFont-Bold /Helvetica-Bold reencodefont definefont pop
/KicadFont-Oblique /Helvetica-Oblique reencodefont definefont pop
/KicadFont-BoldOblique /Helvetica-BoldOblique reencodefont definefont pop
%%EndProlog
%%Page: 1 1
%%BeginPageSetup
gsave
0.0072 0.0072 scale
linemode1
82680 0 translate 90 rotate
143.521 setlinewidth
%%EndPageSetup
0 0 0 setrgbcolor
113.008 setlinewidth
newpath
82863.5 78686.5 moveto
82863.5 37065.5 lineto
stroke
0 0 0 setrgbcolor
newpath
34066.5 78686.5 moveto
82863.5 78686.5 lineto
stroke
0 0 0 setrgbcolor
newpath
34066.5 37065.5 moveto
34066.5 78686.5 lineto
stroke
0 0 0 setrgbcolor
newpath
82863.5 37065.5 moveto
34066.5 37065.5 lineto
stroke
78.7397 setlinewidth
newpath
44225.9 46304.6 moveto
44678 45852.6 lineto
stroke
newpath
44678 46304.6 moveto
44225.9 45852.6 lineto
stroke
46983.4 60028.8 452.033 cir0
49853.8 60028.8 452.033 cir0
72817.1 45676.7 452.033 cir0
75687.5 45676.7 452.033 cir0
newpath
65641 57666.9 moveto
65641 56649.9 lineto
stroke
newpath
65132.5 57158.4 moveto
66149.6 57158.4 lineto
stroke
newpath
68511.4 57666.9 moveto
68511.4 56649.9 lineto
stroke
newpath
68002.9 57158.4 moveto
69020 57158.4 lineto
stroke
newpath
43679.8 69073.2 moveto
43679.8 73947.7 lineto
38805.3 73947.7 lineto
38805.3 69073.2 lineto
43679.8 69073.2 lineto
poly0
newpath
60619.7 69073.2 moveto
60619.7 73947.7 lineto
55745.2 73947.7 lineto
55745.2 69073.2 lineto
60619.7 69073.2 lineto
poly0
newpath
77548.4 69073.2 moveto
77548.4 73947.7 lineto
72673.9 73947.7 lineto
72673.9 69073.2 lineto
77548.4 69073.2 lineto
poly0
118.111 setlinewidth
0 0 0 setrgbcolor
0 0 0 setrgbcolor
newpath
35137.7 35175.5 moveto
35137.7 36356.6 lineto
35418.9 36356.6 lineto
35587.6 36300.3 lineto
35700.1 36187.9 lineto
35756.3 36075.4 lineto
35812.6 35850.4 lineto
35812.6 35681.7 lineto
35756.3 35456.7 lineto
35700.1 35344.2 lineto
35587.6 35231.7 lineto
35418.9 35175.5 lineto
35137.7 35175.5 lineto
stroke
newpath
36318.8 35175.5 moveto
36318.8 35962.9 lineto
stroke
newpath
36318.8 35737.9 moveto
36375 35850.4 lineto
36431.3 35906.6 lineto
36543.7 35962.9 lineto
36656.2 35962.9 lineto
stroke
newpath
37049.9 35175.5 moveto
37049.9 35962.9 lineto
stroke
newpath
37049.9 36356.6 moveto
36993.7 36300.3 lineto
37049.9 36244.1 lineto
37106.2 36300.3 lineto
37049.9 36356.6 lineto
37049.9 36244.1 lineto
stroke
newpath
37781.1 35175.5 moveto
37668.6 35231.7 lineto
37612.4 35344.2 lineto
37612.4 36356.6 lineto
stroke
newpath
38399.8 35175.5 moveto
38287.3 35231.7 lineto
38231 35344.2 lineto
38231 36356.6 lineto
stroke
newpath
39749.6 35175.5 moveto
39749.6 36356.6 lineto
40143.3 35512.9 lineto
40537 36356.6 lineto
40537 35175.5 lineto
stroke
newpath
41605.6 35175.5 moveto
41605.6 35794.2 lineto
41549.4 35906.6 lineto
41436.9 35962.9 lineto
41211.9 35962.9 lineto
41099.4 35906.6 lineto
stroke
newpath
41605.6 35231.7 moveto
41493.1 35175.5 lineto
41211.9 35175.5 lineto
41099.4 35231.7 lineto
41043.2 35344.2 lineto
41043.2 35456.7 lineto
41099.4 35569.2 lineto
41211.9 35625.4 lineto
41493.1 35625.4 lineto
41605.6 35681.7 lineto
stroke
newpath
42168 35962.9 moveto
42168 34781.8 lineto
stroke
newpath
42168 35906.6 moveto
42280.5 35962.9 lineto
42505.5 35962.9 lineto
42618 35906.6 lineto
42674.2 35850.4 lineto
42730.5 35737.9 lineto
42730.5 35400.5 lineto
42674.2 35288 lineto
42618 35231.7 lineto
42505.5 35175.5 lineto
42280.5 35175.5 lineto
42168 35231.7 lineto
stroke
newpath
43236.7 35288 moveto
43292.9 35231.7 lineto
43236.7 35175.5 lineto
43180.4 35231.7 lineto
43236.7 35288 lineto
43236.7 35175.5 lineto
stroke
newpath
43236.7 35906.6 moveto
43292.9 35850.4 lineto
43236.7 35794.2 lineto
43180.4 35850.4 lineto
43236.7 35906.6 lineto
43236.7 35794.2 lineto
stroke
newpath
33558 33455.5 moveto
34010 33003.5 lineto
stroke
newpath
34010 33455.5 moveto
33558 33003.5 lineto
stroke
0 0 0 setrgbcolor
0 0 0 setrgbcolor
newpath
35362.6 33876.3 moveto
35475.1 33876.3 lineto
35587.6 33820 lineto
35643.9 33763.8 lineto
35700.1 33651.3 lineto
35756.3 33426.3 lineto
35756.3 33145.1 lineto
35700.1 32920.1 lineto
35643.9 32807.7 lineto
35587.6 32751.4 lineto
35475.1 32695.2 lineto
35362.6 32695.2 lineto
35250.1 32751.4 lineto
35193.9 32807.7 lineto
35137.7 32920.1 lineto
35081.4 33145.1 lineto
35081.4 33426.3 lineto
35137.7 33651.3 lineto
35193.9 33763.8 lineto
35250.1 33820 lineto
35362.6 33876.3 lineto
stroke
newpath
36262.5 32807.7 moveto
36318.8 32751.4 lineto
36262.5 32695.2 lineto
36206.3 32751.4 lineto
36262.5 32807.7 lineto
36262.5 32695.2 lineto
stroke
newpath
37331.1 33482.6 moveto
37331.1 32695.2 lineto
stroke
newpath
37049.9 33932.5 moveto
36768.7 33088.9 lineto
37499.9 33088.9 lineto
stroke
newpath
38174.8 33876.3 moveto
38287.3 33876.3 lineto
38399.8 33820 lineto
38456 33763.8 lineto
38512.2 33651.3 lineto
38568.5 33426.3 lineto
38568.5 33145.1 lineto
38512.2 32920.1 lineto
38456 32807.7 lineto
38399.8 32751.4 lineto
38287.3 32695.2 lineto
38174.8 32695.2 lineto
38062.3 32751.4 lineto
38006.1 32807.7 lineto
37949.8 32920.1 lineto
37893.6 33145.1 lineto
37893.6 33426.3 lineto
37949.8 33651.3 lineto
38006.1 33763.8 lineto
38062.3 33820 lineto
38174.8 33876.3 lineto
stroke
newpath
39299.6 33876.3 moveto
39412.1 33876.3 lineto
39524.6 33820 lineto
39580.9 33763.8 lineto
39637.1 33651.3 lineto
39693.3 33426.3 lineto
39693.3 33145.1 lineto
39637.1 32920.1 lineto
39580.9 32807.7 lineto
39524.6 32751.4 lineto
39412.1 32695.2 lineto
39299.6 32695.2 lineto
39187.2 32751.4 lineto
39130.9 32807.7 lineto
39074.7 32920.1 lineto
39018.4 33145.1 lineto
39018.4 33426.3 lineto
39074.7 33651.3 lineto
39130.9 33763.8 lineto
39187.2 33820 lineto
39299.6 33876.3 lineto
stroke
newpath
40199.5 32695.2 moveto
40199.5 33482.6 lineto
stroke
newpath
40199.5 33370.1 moveto
40255.8 33426.3 lineto
40368.3 33482.6 lineto
40537 33482.6 lineto
40649.5 33426.3 lineto
40705.7 33313.8 lineto
40705.7 32695.2 lineto
stroke
newpath
40705.7 33313.8 moveto
40762 33426.3 lineto
40874.4 33482.6 lineto
41043.2 33482.6 lineto
41155.7 33426.3 lineto
41211.9 33313.8 lineto
41211.9 32695.2 lineto
stroke
newpath
41774.3 32695.2 moveto
41774.3 33482.6 lineto
stroke
newpath
41774.3 33370.1 moveto
41830.6 33426.3 lineto
41943.1 33482.6 lineto
42111.8 33482.6 lineto
42224.3 33426.3 lineto
42280.5 33313.8 lineto
42280.5 32695.2 lineto
stroke
newpath
42280.5 33313.8 moveto
42336.8 33426.3 lineto
42449.2 33482.6 lineto
42618 33482.6 lineto
42730.5 33426.3 lineto
42786.7 33313.8 lineto
42786.7 32695.2 lineto
stroke
newpath
45092.7 33932.5 moveto
44080.3 32414 lineto
stroke
newpath
46611.2 33876.3 moveto
46723.7 33876.3 lineto
46836.2 33820 lineto
46892.4 33763.8 lineto
46948.7 33651.3 lineto
47004.9 33426.3 lineto
47004.9 33145.1 lineto
46948.7 32920.1 lineto
46892.4 32807.7 lineto
46836.2 32751.4 lineto
46723.7 32695.2 lineto
46611.2 32695.2 lineto
46498.7 32751.4 lineto
46442.5 32807.7 lineto
46386.3 32920.1 lineto
46330 33145.1 lineto
46330 33426.3 lineto
46386.3 33651.3 lineto
46442.5 33763.8 lineto
46498.7 33820 lineto
46611.2 33876.3 lineto
stroke
newpath
47511.1 32807.7 moveto
47567.4 32751.4 lineto
47511.1 32695.2 lineto
47454.9 32751.4 lineto
47511.1 32807.7 lineto
47511.1 32695.2 lineto
stroke
newpath
48298.5 33876.3 moveto
48411 33876.3 lineto
48523.5 33820 lineto
48579.7 33763.8 lineto
48636 33651.3 lineto
48692.2 33426.3 lineto
48692.2 33145.1 lineto
48636 32920.1 lineto
48579.7 32807.7 lineto
48523.5 32751.4 lineto
48411 32695.2 lineto
48298.5 32695.2 lineto
48186 32751.4 lineto
48129.8 32807.7 lineto
48073.5 32920.1 lineto
48017.3 33145.1 lineto
48017.3 33426.3 lineto
48073.5 33651.3 lineto
48129.8 33763.8 lineto
48186 33820 lineto
48298.5 33876.3 lineto
stroke
newpath
49817.1 32695.2 moveto
49142.2 32695.2 lineto
stroke
newpath
49479.6 32695.2 moveto
49479.6 33876.3 lineto
49367.1 33707.5 lineto
49254.6 33595.1 lineto
49142.2 33538.8 lineto
stroke
newpath
50885.7 33876.3 moveto
50323.3 33876.3 lineto
50267 33313.8 lineto
50323.3 33370.1 lineto
50435.7 33426.3 lineto
50717 33426.3 lineto
50829.4 33370.1 lineto
50885.7 33313.8 lineto
50941.9 33201.4 lineto
50941.9 32920.1 lineto
50885.7 32807.7 lineto
50829.4 32751.4 lineto
50717 32695.2 lineto
50435.7 32695.2 lineto
50323.3 32751.4 lineto
50267 32807.7 lineto
stroke
newpath
51335.6 33876.3 moveto
52123 33876.3 lineto
51616.9 32695.2 lineto
stroke
newpath
52516.7 33876.3 moveto
52516.7 33651.3 lineto
stroke
newpath
52966.7 33876.3 moveto
52966.7 33651.3 lineto
stroke
newpath
54710.2 32245.2 moveto
54654 32301.5 lineto
54541.5 32470.2 lineto
54485.2 32582.7 lineto
54429 32751.4 lineto
54372.8 33032.6 lineto
54372.8 33257.6 lineto
54429 33538.8 lineto
54485.2 33707.5 lineto
54541.5 33820 lineto
54654 33988.8 lineto
54710.2 34045 lineto
stroke
newpath
55778.8 32695.2 moveto
55103.9 32695.2 lineto
stroke
newpath
55441.4 32695.2 moveto
55441.4 33876.3 lineto
55328.9 33707.5 lineto
55216.4 33595.1 lineto
55103.9 33538.8 lineto
stroke
newpath
57184.9 32695.2 moveto
57184.9 33876.3 lineto
stroke
newpath
57691.1 32695.2 moveto
57691.1 33313.8 lineto
57634.8 33426.3 lineto
57522.4 33482.6 lineto
57353.6 33482.6 lineto
57241.1 33426.3 lineto
57184.9 33370.1 lineto
stroke
newpath
58422.2 32695.2 moveto
58309.8 32751.4 lineto
58253.5 32807.7 lineto
58197.3 32920.1 lineto
58197.3 33257.6 lineto
58253.5 33370.1 lineto
58309.8 33426.3 lineto
58422.2 33482.6 lineto
58591 33482.6 lineto
58703.5 33426.3 lineto
58759.7 33370.1 lineto
58816 33257.6 lineto
58816 32920.1 lineto
58759.7 32807.7 lineto
58703.5 32751.4 lineto
58591 32695.2 lineto
58422.2 32695.2 lineto
stroke
newpath
59490.9 32695.2 moveto
59378.4 32751.4 lineto
59322.1 32863.9 lineto
59322.1 33876.3 lineto
stroke
newpath
60390.8 32751.4 moveto
60278.3 32695.2 lineto
60053.3 32695.2 lineto
59940.8 32751.4 lineto
59884.6 32863.9 lineto
59884.6 33313.8 lineto
59940.8 33426.3 lineto
60053.3 33482.6 lineto
60278.3 33482.6 lineto
60390.8 33426.3 lineto
60447 33313.8 lineto
60447 33201.4 lineto
59884.6 33088.9 lineto
stroke
newpath
60840.7 32245.2 moveto
60896.9 32301.5 lineto
61009.4 32470.2 lineto
61065.7 32582.7 lineto
61121.9 32751.4 lineto
61178.2 33032.6 lineto
61178.2 33257.6 lineto
61121.9 33538.8 lineto
61065.7 33707.5 lineto
61009.4 33820 lineto
60896.9 33988.8 lineto
60840.7 34045 lineto
stroke
33558 31670.4 452.033 cir0
0 0 0 setrgbcolor
0 0 0 setrgbcolor
newpath
35362.6 32317.2 moveto
35475.1 32317.2 lineto
35587.6 32261 lineto
35643.9 32204.7 lineto
35700.1 32092.2 lineto
35756.3 31867.3 lineto
35756.3 31586.1 lineto
35700.1 31361.1 lineto
35643.9 31248.6 lineto
35587.6 31192.4 lineto
35475.1 31136.1 lineto
35362.6 31136.1 lineto
35250.1 31192.4 lineto
35193.9 31248.6 lineto
35137.7 31361.1 lineto
35081.4 31586.1 lineto
35081.4 31867.3 lineto
35137.7 32092.2 lineto
35193.9 32204.7 lineto
35250.1 32261 lineto
35362.6 32317.2 lineto
stroke
newpath
36262.5 31248.6 moveto
36318.8 31192.4 lineto
36262.5 31136.1 lineto
36206.3 31192.4 lineto
36262.5 31248.6 lineto
36262.5 31136.1 lineto
stroke
newpath
36993.7 31811 moveto
36881.2 31867.3 lineto
36825 31923.5 lineto
36768.7 32036 lineto
36768.7 32092.2 lineto
36825 32204.7 lineto
36881.2 32261 lineto
36993.7 32317.2 lineto
37218.7 32317.2 lineto
37331.1 32261 lineto
37387.4 32204.7 lineto
37443.6 32092.2 lineto
37443.6 32036 lineto
37387.4 31923.5 lineto
37331.1 31867.3 lineto
37218.7 31811 lineto
36993.7 31811 lineto
36881.2 31754.8 lineto
36825 31698.5 lineto
36768.7 31586.1 lineto
36768.7 31361.1 lineto
36825 31248.6 lineto
36881.2 31192.4 lineto
36993.7 31136.1 lineto
37218.7 31136.1 lineto
37331.1 31192.4 lineto
37387.4 31248.6 lineto
37443.6 31361.1 lineto
37443.6 31586.1 lineto
37387.4 31698.5 lineto
37331.1 31754.8 lineto
37218.7 31811 lineto
stroke
newpath
38174.8 32317.2 moveto
38287.3 32317.2 lineto
38399.8 32261 lineto
38456 32204.7 lineto
38512.2 32092.2 lineto
38568.5 31867.3 lineto
38568.5 31586.1 lineto
38512.2 31361.1 lineto
38456 31248.6 lineto
38399.8 31192.4 lineto
38287.3 31136.1 lineto
38174.8 31136.1 lineto
38062.3 31192.4 lineto
38006.1 31248.6 lineto
37949.8 31361.1 lineto
37893.6 31586.1 lineto
37893.6 31867.3 lineto
37949.8 32092.2 lineto
38006.1 32204.7 lineto
38062.3 32261 lineto
38174.8 32317.2 lineto
stroke
newpath
39299.6 32317.2 moveto
39412.1 32317.2 lineto
39524.6 32261 lineto
39580.9 32204.7 lineto
39637.1 32092.2 lineto
39693.3 31867.3 lineto
39693.3 31586.1 lineto
39637.1 31361.1 lineto
39580.9 31248.6 lineto
39524.6 31192.4 lineto
39412.1 31136.1 lineto
39299.6 31136.1 lineto
39187.2 31192.4 lineto
39130.9 31248.6 lineto
39074.7 31361.1 lineto
39018.4 31586.1 lineto
39018.4 31867.3 lineto
39074.7 32092.2 lineto
39130.9 32204.7 lineto
39187.2 32261 lineto
39299.6 32317.2 lineto
stroke
newpath
40199.5 31136.1 moveto
40199.5 31923.5 lineto
stroke
newpath
40199.5 31811 moveto
40255.8 31867.3 lineto
40368.3 31923.5 lineto
40537 31923.5 lineto
40649.5 31867.3 lineto
40705.7 31754.8 lineto
40705.7 31136.1 lineto
stroke
newpath
40705.7 31754.8 moveto
40762 31867.3 lineto
40874.4 31923.5 lineto
41043.2 31923.5 lineto
41155.7 31867.3 lineto
41211.9 31754.8 lineto
41211.9 31136.1 lineto
stroke
newpath
41774.3 31136.1 moveto
41774.3 31923.5 lineto
stroke
newpath
41774.3 31811 moveto
41830.6 31867.3 lineto
41943.1 31923.5 lineto
42111.8 31923.5 lineto
42224.3 31867.3 lineto
42280.5 31754.8 lineto
42280.5 31136.1 lineto
stroke
newpath
42280.5 31754.8 moveto
42336.8 31867.3 lineto
42449.2 31923.5 lineto
42618 31923.5 lineto
42730.5 31867.3 lineto
42786.7 31754.8 lineto
42786.7 31136.1 lineto
stroke
newpath
45092.7 32373.5 moveto
44080.3 30854.9 lineto
stroke
newpath
46611.2 32317.2 moveto
46723.7 32317.2 lineto
46836.2 32261 lineto
46892.4 32204.7 lineto
46948.7 32092.2 lineto
47004.9 31867.3 lineto
47004.9 31586.1 lineto
46948.7 31361.1 lineto
46892.4 31248.6 lineto
46836.2 31192.4 lineto
46723.7 31136.1 lineto
46611.2 31136.1 lineto
46498.7 31192.4 lineto
46442.5 31248.6 lineto
46386.3 31361.1 lineto
46330 31586.1 lineto
46330 31867.3 lineto
46386.3 32092.2 lineto
46442.5 32204.7 lineto
46498.7 32261 lineto
46611.2 32317.2 lineto
stroke
newpath
47511.1 31248.6 moveto
47567.4 31192.4 lineto
47511.1 31136.1 lineto
47454.9 31192.4 lineto
47511.1 31248.6 lineto
47511.1 31136.1 lineto
stroke
newpath
48298.5 32317.2 moveto
48411 32317.2 lineto
48523.5 32261 lineto
48579.7 32204.7 lineto
48636 32092.2 lineto
48692.2 31867.3 lineto
48692.2 31586.1 lineto
48636 31361.1 lineto
48579.7 31248.6 lineto
48523.5 31192.4 lineto
48411 31136.1 lineto
48298.5 31136.1 lineto
48186 31192.4 lineto
48129.8 31248.6 lineto
48073.5 31361.1 lineto
48017.3 31586.1 lineto
48017.3 31867.3 lineto
48073.5 32092.2 lineto
48129.8 32204.7 lineto
48186 32261 lineto
48298.5 32317.2 lineto
stroke
newpath
49085.9 32317.2 moveto
49817.1 32317.2 lineto
49423.4 31867.3 lineto
49592.1 31867.3 lineto
49704.6 31811 lineto
49760.8 31754.8 lineto
49817.1 31642.3 lineto
49817.1 31361.1 lineto
49760.8 31248.6 lineto
49704.6 31192.4 lineto
49592.1 31136.1 lineto
49254.6 31136.1 lineto
49142.2 31192.4 lineto
49085.9 31248.6 lineto
stroke
newpath
50941.9 31136.1 moveto
50267 31136.1 lineto
stroke
newpath
50604.5 31136.1 moveto
50604.5 32317.2 lineto
50492 32148.5 lineto
50379.5 32036 lineto
50267 31979.8 lineto
stroke
newpath
52010.6 32317.2 moveto
51448.1 32317.2 lineto
51391.9 31754.8 lineto
51448.1 31811 lineto
51560.6 31867.3 lineto
51841.8 31867.3 lineto
51954.3 31811 lineto
52010.6 31754.8 lineto
52066.8 31642.3 lineto
52066.8 31361.1 lineto
52010.6 31248.6 lineto
51954.3 31192.4 lineto
51841.8 31136.1 lineto
51560.6 31136.1 lineto
51448.1 31192.4 lineto
51391.9 31248.6 lineto
stroke
newpath
52516.7 32317.2 moveto
52516.7 32092.2 lineto
stroke
newpath
52966.7 32317.2 moveto
52966.7 32092.2 lineto
stroke
newpath
54710.2 30686.2 moveto
54654 30742.4 lineto
54541.5 30911.1 lineto
54485.2 31023.6 lineto
54429 31192.4 lineto
54372.8 31473.6 lineto
54372.8 31698.5 lineto
54429 31979.8 lineto
54485.2 32148.5 lineto
54541.5 32261 lineto
54654 32429.7 lineto
54710.2 32485.9 lineto
stroke
newpath
55666.3 31923.5 moveto
55666.3 31136.1 lineto
stroke
newpath
55385.1 32373.5 moveto
55103.9 31529.8 lineto
55835.1 31529.8 lineto
stroke
newpath
57184.9 31136.1 moveto
57184.9 32317.2 lineto
stroke
newpath
57691.1 31136.1 moveto
57691.1 31754.8 lineto
57634.8 31867.3 lineto
57522.4 31923.5 lineto
57353.6 31923.5 lineto
57241.1 31867.3 lineto
57184.9 31811 lineto
stroke
newpath
58422.2 31136.1 moveto
58309.8 31192.4 lineto
58253.5 31248.6 lineto
58197.3 31361.1 lineto
58197.3 31698.5 lineto
58253.5 31811 lineto
58309.8 31867.3 lineto
58422.2 31923.5 lineto
58591 31923.5 lineto
58703.5 31867.3 lineto
58759.7 31811 lineto
58816 31698.5 lineto
58816 31361.1 lineto
58759.7 31248.6 lineto
58703.5 31192.4 lineto
58591 31136.1 lineto
58422.2 31136.1 lineto
stroke
newpath
59490.9 31136.1 moveto
59378.4 31192.4 lineto
59322.1 31304.8 lineto
59322.1 32317.2 lineto
stroke
newpath
60390.8 31192.4 moveto
60278.3 31136.1 lineto
60053.3 31136.1 lineto
59940.8 31192.4 lineto
59884.6 31304.8 lineto
59884.6 31754.8 lineto
59940.8 31867.3 lineto
60053.3 31923.5 lineto
60278.3 31923.5 lineto
60390.8 31867.3 lineto
60447 31754.8 lineto
60447 31642.3 lineto
59884.6 31529.8 lineto
stroke
newpath
60896.9 31192.4 moveto
61009.4 31136.1 lineto
61234.4 31136.1 lineto
61346.9 31192.4 lineto
61403.1 31304.8 lineto
61403.1 31361.1 lineto
61346.9 31473.6 lineto
61234.4 31529.8 lineto
61065.7 31529.8 lineto
60953.2 31586.1 lineto
60896.9 31698.5 lineto
60896.9 31754.8 lineto
60953.2 31867.3 lineto
61065.7 31923.5 lineto
61234.4 31923.5 lineto
61346.9 31867.3 lineto
stroke
newpath
61796.8 30686.2 moveto
61853.1 30742.4 lineto
61965.6 30911.1 lineto
62021.8 31023.6 lineto
62078 31192.4 lineto
62134.3 31473.6 lineto
62134.3 31698.5 lineto
62078 31979.8 lineto
62021.8 32148.5 lineto
61965.6 32261 lineto
61853.1 32429.7 lineto
61796.8 32485.9 lineto
stroke
newpath
33501.5 30619.9 moveto
33501.5 29602.8 lineto
stroke
newpath
32992.9 30111.4 moveto
34010 30111.4 lineto
stroke
0 0 0 setrgbcolor
0 0 0 setrgbcolor
newpath
35362.6 30758.2 moveto
35475.1 30758.2 lineto
35587.6 30701.9 lineto
35643.9 30645.7 lineto
35700.1 30533.2 lineto
35756.3 30308.2 lineto
35756.3 30027 lineto
35700.1 29802 lineto
35643.9 29689.5 lineto
35587.6 29633.3 lineto
35475.1 29577.1 lineto
35362.6 29577.1 lineto
35250.1 29633.3 lineto
35193.9 29689.5 lineto
35137.7 29802 lineto
35081.4 30027 lineto
35081.4 30308.2 lineto
35137.7 30533.2 lineto
35193.9 30645.7 lineto
35250.1 30701.9 lineto
35362.6 30758.2 lineto
stroke
newpath
36262.5 29689.5 moveto
36318.8 29633.3 lineto
36262.5 29577.1 lineto
36206.3 29633.3 lineto
36262.5 29689.5 lineto
36262.5 29577.1 lineto
stroke
newpath
36881.2 29577.1 moveto
37106.2 29577.1 lineto
37218.7 29633.3 lineto
37274.9 29689.5 lineto
37387.4 29858.3 lineto
37443.6 30083.2 lineto
37443.6 30533.2 lineto
37387.4 30645.7 lineto
37331.1 30701.9 lineto
37218.7 30758.2 lineto
36993.7 30758.2 lineto
36881.2 30701.9 lineto
36825 30645.7 lineto
36768.7 30533.2 lineto
36768.7 30252 lineto
36825 30139.5 lineto
36881.2 30083.2 lineto
36993.7 30027 lineto
37218.7 30027 lineto
37331.1 30083.2 lineto
37387.4 30139.5 lineto
37443.6 30252 lineto
stroke
newpath
38174.8 30758.2 moveto
38287.3 30758.2 lineto
38399.8 30701.9 lineto
38456 30645.7 lineto
38512.2 30533.2 lineto
38568.5 30308.2 lineto
38568.5 30027 lineto
38512.2 29802 lineto
38456 29689.5 lineto
38399.8 29633.3 lineto
38287.3 29577.1 lineto
38174.8 29577.1 lineto
38062.3 29633.3 lineto
38006.1 29689.5 lineto
37949.8 29802 lineto
37893.6 30027 lineto
37893.6 30308.2 lineto
37949.8 30533.2 lineto
38006.1 30645.7 lineto
38062.3 30701.9 lineto
38174.8 30758.2 lineto
stroke
newpath
39299.6 30758.2 moveto
39412.1 30758.2 lineto
39524.6 30701.9 lineto
39580.9 30645.7 lineto
39637.1 30533.2 lineto
39693.3 30308.2 lineto
39693.3 30027 lineto
39637.1 29802 lineto
39580.9 29689.5 lineto
39524.6 29633.3 lineto
39412.1 29577.1 lineto
39299.6 29577.1 lineto
39187.2 29633.3 lineto
39130.9 29689.5 lineto
39074.7 29802 lineto
39018.4 30027 lineto
39018.4 30308.2 lineto
39074.7 30533.2 lineto
39130.9 30645.7 lineto
39187.2 30701.9 lineto
39299.6 30758.2 lineto
stroke
newpath
40199.5 29577.1 moveto
40199.5 30364.5 lineto
stroke
newpath
40199.5 30252 moveto
40255.8 30308.2 lineto
40368.3 30364.5 lineto
40537 30364.5 lineto
40649.5 30308.2 lineto
40705.7 30195.7 lineto
40705.7 29577.1 lineto
stroke
newpath
40705.7 30195.7 moveto
40762 30308.2 lineto
40874.4 30364.5 lineto
41043.2 30364.5 lineto
41155.7 30308.2 lineto
41211.9 30195.7 lineto
41211.9 29577.1 lineto
stroke
newpath
41774.3 29577.1 moveto
41774.3 30364.5 lineto
stroke
newpath
41774.3 30252 moveto
41830.6 30308.2 lineto
41943.1 30364.5 lineto
42111.8 30364.5 lineto
42224.3 30308.2 lineto
42280.5 30195.7 lineto
42280.5 29577.1 lineto
stroke
newpath
42280.5 30195.7 moveto
42336.8 30308.2 lineto
42449.2 30364.5 lineto
42618 30364.5 lineto
42730.5 30308.2 lineto
42786.7 30195.7 lineto
42786.7 29577.1 lineto
stroke
newpath
45092.7 30814.4 moveto
44080.3 29295.8 lineto
stroke
newpath
46611.2 30758.2 moveto
46723.7 30758.2 lineto
46836.2 30701.9 lineto
46892.4 30645.7 lineto
46948.7 30533.2 lineto
47004.9 30308.2 lineto
47004.9 30027 lineto
46948.7 29802 lineto
46892.4 29689.5 lineto
46836.2 29633.3 lineto
46723.7 29577.1 lineto
46611.2 29577.1 lineto
46498.7 29633.3 lineto
46442.5 29689.5 lineto
46386.3 29802 lineto
46330 30027 lineto
46330 30308.2 lineto
46386.3 30533.2 lineto
46442.5 30645.7 lineto
46498.7 30701.9 lineto
46611.2 30758.2 lineto
stroke
newpath
47511.1 29689.5 moveto
47567.4 29633.3 lineto
47511.1 29577.1 lineto
47454.9 29633.3 lineto
47511.1 29689.5 lineto
47511.1 29577.1 lineto
stroke
newpath
48298.5 30758.2 moveto
48411 30758.2 lineto
48523.5 30701.9 lineto
48579.7 30645.7 lineto
48636 30533.2 lineto
48692.2 30308.2 lineto
48692.2 30027 lineto
48636 29802 lineto
48579.7 29689.5 lineto
48523.5 29633.3 lineto
48411 29577.1 lineto
48298.5 29577.1 lineto
48186 29633.3 lineto
48129.8 29689.5 lineto
48073.5 29802 lineto
48017.3 30027 lineto
48017.3 30308.2 lineto
48073.5 30533.2 lineto
48129.8 30645.7 lineto
48186 30701.9 lineto
48298.5 30758.2 lineto
stroke
newpath
49085.9 30758.2 moveto
49817.1 30758.2 lineto
49423.4 30308.2 lineto
49592.1 30308.2 lineto
49704.6 30252 lineto
49760.8 30195.7 lineto
49817.1 30083.2 lineto
49817.1 29802 lineto
49760.8 29689.5 lineto
49704.6 29633.3 lineto
49592.1 29577.1 lineto
49254.6 29577.1 lineto
49142.2 29633.3 lineto
49085.9 29689.5 lineto
stroke
newpath
50885.7 30758.2 moveto
50323.3 30758.2 lineto
50267 30195.7 lineto
50323.3 30252 lineto
50435.7 30308.2 lineto
50717 30308.2 lineto
50829.4 30252 lineto
50885.7 30195.7 lineto
50941.9 30083.2 lineto
50941.9 29802 lineto
50885.7 29689.5 lineto
50829.4 29633.3 lineto
50717 29577.1 lineto
50435.7 29577.1 lineto
50323.3 29633.3 lineto
50267 29689.5 lineto
stroke
newpath
51954.3 30364.5 moveto
51954.3 29577.1 lineto
stroke
newpath
51673.1 30814.4 moveto
51391.9 29970.8 lineto
52123 29970.8 lineto
stroke
newpath
52516.7 30758.2 moveto
52516.7 30533.2 lineto
stroke
newpath
52966.7 30758.2 moveto
52966.7 30533.2 lineto
stroke
newpath
54710.2 29127.1 moveto
54654 29183.4 lineto
54541.5 29352.1 lineto
54485.2 29464.6 lineto
54429 29633.3 lineto
54372.8 29914.5 lineto
54372.8 30139.5 lineto
54429 30420.7 lineto
54485.2 30589.4 lineto
54541.5 30701.9 lineto
54654 30870.7 lineto
54710.2 30926.9 lineto
stroke
newpath
55103.9 30645.7 moveto
55160.2 30701.9 lineto
55272.6 30758.2 lineto
55553.9 30758.2 lineto
55666.3 30701.9 lineto
55722.6 30645.7 lineto
55778.8 30533.2 lineto
55778.8 30420.7 lineto
55722.6 30252 lineto
55047.7 29577.1 lineto
55778.8 29577.1 lineto
stroke
newpath
57184.9 29577.1 moveto
57184.9 30758.2 lineto
stroke
newpath
57691.1 29577.1 moveto
57691.1 30195.7 lineto
57634.8 30308.2 lineto
57522.4 30364.5 lineto
57353.6 30364.5 lineto
57241.1 30308.2 lineto
57184.9 30252 lineto
stroke
newpath
58422.2 29577.1 moveto
58309.8 29633.3 lineto
58253.5 29689.5 lineto
58197.3 29802 lineto
58197.3 30139.5 lineto
58253.5 30252 lineto
58309.8 30308.2 lineto
58422.2 30364.5 lineto
58591 30364.5 lineto
58703.5 30308.2 lineto
58759.7 30252 lineto
58816 30139.5 lineto
58816 29802 lineto
58759.7 29689.5 lineto
58703.5 29633.3 lineto
58591 29577.1 lineto
58422.2 29577.1 lineto
stroke
newpath
59490.9 29577.1 moveto
59378.4 29633.3 lineto
59322.1 29745.8 lineto
59322.1 30758.2 lineto
stroke
newpath
60390.8 29633.3 moveto
60278.3 29577.1 lineto
60053.3 29577.1 lineto
59940.8 29633.3 lineto
59884.6 29745.8 lineto
59884.6 30195.7 lineto
59940.8 30308.2 lineto
60053.3 30364.5 lineto
60278.3 30364.5 lineto
60390.8 30308.2 lineto
60447 30195.7 lineto
60447 30083.2 lineto
59884.6 29970.8 lineto
stroke
newpath
60896.9 29633.3 moveto
61009.4 29577.1 lineto
61234.4 29577.1 lineto
61346.9 29633.3 lineto
61403.1 29745.8 lineto
61403.1 29802 lineto
61346.9 29914.5 lineto
61234.4 29970.8 lineto
61065.7 29970.8 lineto
60953.2 30027 lineto
60896.9 30139.5 lineto
60896.9 30195.7 lineto
60953.2 30308.2 lineto
61065.7 30364.5 lineto
61234.4 30364.5 lineto
61346.9 30308.2 lineto
stroke
newpath
61796.8 29127.1 moveto
61853.1 29183.4 lineto
61965.6 29352.1 lineto
62021.8 29464.6 lineto
62078 29633.3 lineto
62134.3 29914.5 lineto
62134.3 30139.5 lineto
62078 30420.7 lineto
62021.8 30589.4 lineto
61965.6 30701.9 lineto
61853.1 30870.7 lineto
61796.8 30926.9 lineto
stroke
newpath
33000.5 26115.1 moveto
33000.5 30989.6 lineto
28126 30989.6 lineto
28126 26115.1 lineto
33000.5 26115.1 lineto
poly0
0 0 0 setrgbcolor
0 0 0 setrgbcolor
newpath
35643.9 29199.1 moveto
35418.9 29199.1 lineto
35306.4 29142.9 lineto
35250.1 29086.6 lineto
35137.7 28917.9 lineto
35081.4 28692.9 lineto
35081.4 28243 lineto
35137.7 28130.5 lineto
35193.9 28074.2 lineto
35306.4 28018 lineto
35531.4 28018 lineto
35643.9 28074.2 lineto
35700.1 28130.5 lineto
35756.3 28243 lineto
35756.3 28524.2 lineto
35700.1 28636.7 lineto
35643.9 28692.9 lineto
35531.4 28749.2 lineto
35306.4 28749.2 lineto
35193.9 28692.9 lineto
35137.7 28636.7 lineto
35081.4 28524.2 lineto
stroke
newpath
36262.5 28130.5 moveto
36318.8 28074.2 lineto
36262.5 28018 lineto
36206.3 28074.2 lineto
36262.5 28130.5 lineto
36262.5 28018 lineto
stroke
newpath
37443.6 28018 moveto
36768.7 28018 lineto
stroke
newpath
37106.2 28018 moveto
37106.2 29199.1 lineto
36993.7 29030.4 lineto
36881.2 28917.9 lineto
36768.7 28861.7 lineto
stroke
newpath
38174.8 29199.1 moveto
38287.3 29199.1 lineto
38399.8 29142.9 lineto
38456 29086.6 lineto
38512.2 28974.1 lineto
38568.5 28749.2 lineto
38568.5 28468 lineto
38512.2 28243 lineto
38456 28130.5 lineto
38399.8 28074.2 lineto
38287.3 28018 lineto
38174.8 28018 lineto
38062.3 28074.2 lineto
38006.1 28130.5 lineto
37949.8 28243 lineto
37893.6 28468 lineto
37893.6 28749.2 lineto
37949.8 28974.1 lineto
38006.1 29086.6 lineto
38062.3 29142.9 lineto
38174.8 29199.1 lineto
stroke
newpath
39299.6 29199.1 moveto
39412.1 29199.1 lineto
39524.6 29142.9 lineto
39580.9 29086.6 lineto
39637.1 28974.1 lineto
39693.3 28749.2 lineto
39693.3 28468 lineto
39637.1 28243 lineto
39580.9 28130.5 lineto
39524.6 28074.2 lineto
39412.1 28018 lineto
39299.6 28018 lineto
39187.2 28074.2 lineto
39130.9 28130.5 lineto
39074.7 28243 lineto
39018.4 28468 lineto
39018.4 28749.2 lineto
39074.7 28974.1 lineto
39130.9 29086.6 lineto
39187.2 29142.9 lineto
39299.6 29199.1 lineto
stroke
newpath
40199.5 28018 moveto
40199.5 28805.4 lineto
stroke
newpath
40199.5 28692.9 moveto
40255.8 28749.2 lineto
40368.3 28805.4 lineto
40537 28805.4 lineto
40649.5 28749.2 lineto
40705.7 28636.7 lineto
40705.7 28018 lineto
stroke
newpath
40705.7 28636.7 moveto
40762 28749.2 lineto
40874.4 28805.4 lineto
41043.2 28805.4 lineto
41155.7 28749.2 lineto
41211.9 28636.7 lineto
41211.9 28018 lineto
stroke
newpath
41774.3 28018 moveto
41774.3 28805.4 lineto
stroke
newpath
41774.3 28692.9 moveto
41830.6 28749.2 lineto
41943.1 28805.4 lineto
42111.8 28805.4 lineto
42224.3 28749.2 lineto
42280.5 28636.7 lineto
42280.5 28018 lineto
stroke
newpath
42280.5 28636.7 moveto
42336.8 28749.2 lineto
42449.2 28805.4 lineto
42618 28805.4 lineto
42730.5 28749.2 lineto
42786.7 28636.7 lineto
42786.7 28018 lineto
stroke
newpath
45092.7 29255.4 moveto
44080.3 27736.8 lineto
stroke
newpath
46611.2 29199.1 moveto
46723.7 29199.1 lineto
46836.2 29142.9 lineto
46892.4 29086.6 lineto
46948.7 28974.1 lineto
47004.9 28749.2 lineto
47004.9 28468 lineto
46948.7 28243 lineto
46892.4 28130.5 lineto
46836.2 28074.2 lineto
46723.7 28018 lineto
46611.2 28018 lineto
46498.7 28074.2 lineto
46442.5 28130.5 lineto
46386.3 28243 lineto
46330 28468 lineto
46330 28749.2 lineto
46386.3 28974.1 lineto
46442.5 29086.6 lineto
46498.7 29142.9 lineto
46611.2 29199.1 lineto
stroke
newpath
47511.1 28130.5 moveto
47567.4 28074.2 lineto
47511.1 28018 lineto
47454.9 28074.2 lineto
47511.1 28130.5 lineto
47511.1 28018 lineto
stroke
newpath
48017.3 29086.6 moveto
48073.5 29142.9 lineto
48186 29199.1 lineto
48467.2 29199.1 lineto
48579.7 29142.9 lineto
48636 29086.6 lineto
48692.2 28974.1 lineto
48692.2 28861.7 lineto
48636 28692.9 lineto
47961.1 28018 lineto
48692.2 28018 lineto
stroke
newpath
49704.6 28805.4 moveto
49704.6 28018 lineto
stroke
newpath
49423.4 29255.4 moveto
49142.2 28411.7 lineto
49873.3 28411.7 lineto
stroke
newpath
50548.2 29199.1 moveto
50660.7 29199.1 lineto
50773.2 29142.9 lineto
50829.4 29086.6 lineto
50885.7 28974.1 lineto
50941.9 28749.2 lineto
50941.9 28468 lineto
50885.7 28243 lineto
50829.4 28130.5 lineto
50773.2 28074.2 lineto
50660.7 28018 lineto
50548.2 28018 lineto
50435.7 28074.2 lineto
50379.5 28130.5 lineto
50323.3 28243 lineto
50267 28468 lineto
50267 28749.2 lineto
50323.3 28974.1 lineto
50379.5 29086.6 lineto
50435.7 29142.9 lineto
50548.2 29199.1 lineto
stroke
newpath
51391.9 29086.6 moveto
51448.1 29142.9 lineto
51560.6 29199.1 lineto
51841.8 29199.1 lineto
51954.3 29142.9 lineto
52010.6 29086.6 lineto
52066.8 28974.1 lineto
52066.8 28861.7 lineto
52010.6 28692.9 lineto
51335.6 28018 lineto
52066.8 28018 lineto
stroke
newpath
52516.7 29199.1 moveto
52516.7 28974.1 lineto
stroke
newpath
52966.7 29199.1 moveto
52966.7 28974.1 lineto
stroke
newpath
54710.2 27568.1 moveto
54654 27624.3 lineto
54541.5 27793 lineto
54485.2 27905.5 lineto
54429 28074.2 lineto
54372.8 28355.5 lineto
54372.8 28580.4 lineto
54429 28861.7 lineto
54485.2 29030.4 lineto
54541.5 29142.9 lineto
54654 29311.6 lineto
54710.2 29367.8 lineto
stroke
newpath
55047.7 29199.1 moveto
55778.8 29199.1 lineto
55385.1 28749.2 lineto
55553.9 28749.2 lineto
55666.3 28692.9 lineto
55722.6 28636.7 lineto
55778.8 28524.2 lineto
55778.8 28243 lineto
55722.6 28130.5 lineto
55666.3 28074.2 lineto
55553.9 28018 lineto
55216.4 28018 lineto
55103.9 28074.2 lineto
55047.7 28130.5 lineto
stroke
newpath
57184.9 28018 moveto
57184.9 29199.1 lineto
stroke
newpath
57691.1 28018 moveto
57691.1 28636.7 lineto
57634.8 28749.2 lineto
57522.4 28805.4 lineto
57353.6 28805.4 lineto
57241.1 28749.2 lineto
57184.9 28692.9 lineto
stroke
newpath
58422.2 28018 moveto
58309.8 28074.2 lineto
58253.5 28130.5 lineto
58197.3 28243 lineto
58197.3 28580.4 lineto
58253.5 28692.9 lineto
58309.8 28749.2 lineto
58422.2 28805.4 lineto
58591 28805.4 lineto
58703.5 28749.2 lineto
58759.7 28692.9 lineto
58816 28580.4 lineto
58816 28243 lineto
58759.7 28130.5 lineto
58703.5 28074.2 lineto
58591 28018 lineto
58422.2 28018 lineto
stroke
newpath
59490.9 28018 moveto
59378.4 28074.2 lineto
59322.1 28186.7 lineto
59322.1 29199.1 lineto
stroke
newpath
60390.8 28074.2 moveto
60278.3 28018 lineto
60053.3 28018 lineto
59940.8 28074.2 lineto
59884.6 28186.7 lineto
59884.6 28636.7 lineto
59940.8 28749.2 lineto
60053.3 28805.4 lineto
60278.3 28805.4 lineto
60390.8 28749.2 lineto
60447 28636.7 lineto
60447 28524.2 lineto
59884.6 28411.7 lineto
stroke
newpath
60896.9 28074.2 moveto
61009.4 28018 lineto
61234.4 28018 lineto
61346.9 28074.2 lineto
61403.1 28186.7 lineto
61403.1 28243 lineto
61346.9 28355.5 lineto
61234.4 28411.7 lineto
61065.7 28411.7 lineto
60953.2 28468 lineto
60896.9 28580.4 lineto
60896.9 28636.7 lineto
60953.2 28749.2 lineto
61065.7 28805.4 lineto
61234.4 28805.4 lineto
61346.9 28749.2 lineto
stroke
newpath
61796.8 27568.1 moveto
61853.1 27624.3 lineto
61965.6 27793 lineto
62021.8 27905.5 lineto
62078 28074.2 lineto
62134.3 28355.5 lineto
62134.3 28580.4 lineto
62078 28861.7 lineto
62021.8 29030.4 lineto
61965.6 29142.9 lineto
61853.1 29311.6 lineto
61796.8 29367.8 lineto
stroke
showpage
grestore
%%EOF
