%!PS-Adobe-3.0
%%Creator: PCBNEW
%%CreationDate: Mon Dec 06 13:15:38 2021
%%Title: C:\Users\Артем\вуз\Текущий сем\ТРСВТ\trsvt\Zelenskii\Zel_Art_Lab3\Zel_Art_Lab1-PTH-drl_map.ps
%%Pages: 1
%%PageOrder: Ascend
%%BoundingBox: 0 0 596 842
%%DocumentMedia: A4 595 842 0 () ()
%%Orientation: Landscape
%%EndComments
%%BeginProlog
/line { newpath moveto lineto stroke } bind def
/cir0 { newpath 0 360 arc stroke } bind def
/cir1 { newpath 0 360 arc gsave fill grestore stroke } bind def
/cir2 { newpath 0 360 arc gsave fill grestore stroke } bind def
/arc0 { newpath arc stroke } bind def
/arc1 { newpath 4 index 4 index moveto arc closepath gsave fill
    grestore stroke } bind def
/arc2 { newpath 4 index 4 index moveto arc closepath gsave fill
    grestore stroke } bind def
/poly0 { stroke } bind def
/poly1 { closepath gsave fill grestore stroke } bind def
/poly2 { closepath gsave fill grestore stroke } bind def
/rect0 { rectstroke } bind def
/rect1 { rectfill } bind def
/rect2 { rectfill } bind def
/linemode0 { 0 setlinecap 0 setlinejoin 0 setlinewidth } bind def
/linemode1 { 1 setlinecap 1 setlinejoin } bind def
/dashedline { [200] 100 setdash } bind def
/solidline { [] 0 setdash } bind def
/phantomshow { moveto
    /KicadFont findfont 0.000001 scalefont setfont
    show } bind def
/textshow { gsave
    findfont exch scalefont setfont concat 1 scale 0 0 moveto show
    } bind def
/reencodefont {
  findfont dup length dict begin
  { 1 index /FID ne
    { def }
    { pop pop } ifelse
  } forall
  /Encoding ISOLatin1Encoding def
  currentdict
  end } bind def
/KicadFont /Helvetica reencodefont definefont pop
/KicadFont-Bold /Helvetica-Bold reencodefont definefont pop
/KicadFont-Oblique /Helvetica-Oblique reencodefont definefont pop
/KicadFont-BoldOblique /Helvetica-BoldOblique reencodefont definefont pop
%%EndProlog
%%Page: 1 1
%%BeginPageSetup
gsave
0.0072 0.0072 scale
linemode1
82680 0 translate 90 rotate
115.675 setlinewidth
%%EndPageSetup
0 0 0 setrgbcolor
91.0825 setlinewidth
newpath
81021.6 37054.5 moveto
35908.4 37054.5 lineto
stroke
newpath
35908.4 37054.5 moveto
35908.4 78697.4 lineto
stroke
newpath
35908.4 78697.4 moveto
81021.6 78697.4 lineto
stroke
newpath
81021.6 78697.4 moveto
81021.6 37054.5 lineto
stroke
78.7399 setlinewidth
newpath
61174.7 54587.9 moveto
61539 54223.6 lineto
stroke
newpath
61539 54587.9 moveto
61174.7 54223.6 lineto
stroke
41692.2 55562.5 364.33 cir0
44005.7 55562.5 364.33 cir0
69454.1 42838.3 364.33 cir0
71767.6 42838.3 364.33 cir0
newpath
44005.7 43248.2 moveto
44005.7 42428.4 lineto
stroke
newpath
43595.8 42838.3 moveto
44415.5 42838.3 lineto
stroke
newpath
46319.2 43248.2 moveto
46319.2 42428.4 lineto
stroke
newpath
45909.3 42838.3 moveto
46729 42838.3 lineto
stroke
newpath
47591.3 69792.6 moveto
47591.3 73721.3 lineto
43662.6 73721.3 lineto
43662.6 69792.6 lineto
47591.3 69792.6 lineto
poly0
newpath
61235.5 69792.6 moveto
61235.5 73721.3 lineto
57306.7 73721.3 lineto
57306.7 69792.6 lineto
61235.5 69792.6 lineto
poly0
newpath
74888.7 69792.6 moveto
74888.7 73721.3 lineto
70960 73721.3 lineto
70960 69792.6 lineto
74888.7 69792.6 lineto
poly0
118.11 setlinewidth
0 0 0 setrgbcolor
0 0 0 setrgbcolor
newpath
36990.6 35175.5 moveto
36990.6 36356.6 lineto
37271.8 36356.6 lineto
37440.5 36300.3 lineto
37553 36187.9 lineto
37609.2 36075.4 lineto
37665.5 35850.4 lineto
37665.5 35681.7 lineto
37609.2 35456.7 lineto
37553 35344.2 lineto
37440.5 35231.7 lineto
37271.8 35175.5 lineto
36990.6 35175.5 lineto
stroke
newpath
38171.7 35175.5 moveto
38171.7 35962.9 lineto
stroke
newpath
38171.7 35737.9 moveto
38227.9 35850.4 lineto
38284.1 35906.6 lineto
38396.6 35962.9 lineto
38509.1 35962.9 lineto
stroke
newpath
38902.8 35175.5 moveto
38902.8 35962.9 lineto
stroke
newpath
38902.8 36356.6 moveto
38846.6 36300.3 lineto
38902.8 36244.1 lineto
38959.1 36300.3 lineto
38902.8 36356.6 lineto
38902.8 36244.1 lineto
stroke
newpath
39634 35175.5 moveto
39521.5 35231.7 lineto
39465.2 35344.2 lineto
39465.2 36356.6 lineto
stroke
newpath
40252.7 35175.5 moveto
40140.2 35231.7 lineto
40083.9 35344.2 lineto
40083.9 36356.6 lineto
stroke
newpath
41602.5 35175.5 moveto
41602.5 36356.6 lineto
41996.2 35512.9 lineto
42389.9 36356.6 lineto
42389.9 35175.5 lineto
stroke
newpath
43458.5 35175.5 moveto
43458.5 35794.2 lineto
43402.3 35906.6 lineto
43289.8 35962.9 lineto
43064.8 35962.9 lineto
42952.3 35906.6 lineto
stroke
newpath
43458.5 35231.7 moveto
43346 35175.5 lineto
43064.8 35175.5 lineto
42952.3 35231.7 lineto
42896.1 35344.2 lineto
42896.1 35456.7 lineto
42952.3 35569.2 lineto
43064.8 35625.4 lineto
43346 35625.4 lineto
43458.5 35681.7 lineto
stroke
newpath
44020.9 35962.9 moveto
44020.9 34781.8 lineto
stroke
newpath
44020.9 35906.6 moveto
44133.4 35962.9 lineto
44358.4 35962.9 lineto
44470.9 35906.6 lineto
44527.1 35850.4 lineto
44583.4 35737.9 lineto
44583.4 35400.5 lineto
44527.1 35288 lineto
44470.9 35231.7 lineto
44358.4 35175.5 lineto
44133.4 35175.5 lineto
44020.9 35231.7 lineto
stroke
newpath
45089.5 35288 moveto
45145.8 35231.7 lineto
45089.5 35175.5 lineto
45033.3 35231.7 lineto
45089.5 35288 lineto
45089.5 35175.5 lineto
stroke
newpath
45089.5 35906.6 moveto
45145.8 35850.4 lineto
45089.5 35794.2 lineto
45033.3 35850.4 lineto
45089.5 35906.6 lineto
45089.5 35794.2 lineto
stroke
newpath
35498.6 33411.6 moveto
35862.9 33047.3 lineto
stroke
newpath
35862.9 33411.6 moveto
35498.6 33047.3 lineto
stroke
0 0 0 setrgbcolor
0 0 0 setrgbcolor
newpath
37215.5 33876.3 moveto
37328 33876.3 lineto
37440.5 33820 lineto
37496.7 33763.8 lineto
37553 33651.3 lineto
37609.2 33426.3 lineto
37609.2 33145.1 lineto
37553 32920.1 lineto
37496.7 32807.7 lineto
37440.5 32751.4 lineto
37328 32695.2 lineto
37215.5 32695.2 lineto
37103 32751.4 lineto
37046.8 32807.7 lineto
36990.6 32920.1 lineto
36934.3 33145.1 lineto
36934.3 33426.3 lineto
36990.6 33651.3 lineto
37046.8 33763.8 lineto
37103 33820 lineto
37215.5 33876.3 lineto
stroke
newpath
38115.4 32807.7 moveto
38171.7 32751.4 lineto
38115.4 32695.2 lineto
38059.2 32751.4 lineto
38115.4 32807.7 lineto
38115.4 32695.2 lineto
stroke
newpath
39184 33482.6 moveto
39184 32695.2 lineto
stroke
newpath
38902.8 33932.5 moveto
38621.6 33088.9 lineto
39352.8 33088.9 lineto
stroke
newpath
40027.7 33876.3 moveto
40140.2 33876.3 lineto
40252.7 33820 lineto
40308.9 33763.8 lineto
40365.1 33651.3 lineto
40421.4 33426.3 lineto
40421.4 33145.1 lineto
40365.1 32920.1 lineto
40308.9 32807.7 lineto
40252.7 32751.4 lineto
40140.2 32695.2 lineto
40027.7 32695.2 lineto
39915.2 32751.4 lineto
39859 32807.7 lineto
39802.7 32920.1 lineto
39746.5 33145.1 lineto
39746.5 33426.3 lineto
39802.7 33651.3 lineto
39859 33763.8 lineto
39915.2 33820 lineto
40027.7 33876.3 lineto
stroke
newpath
41152.5 33876.3 moveto
41265 33876.3 lineto
41377.5 33820 lineto
41433.8 33763.8 lineto
41490 33651.3 lineto
41546.2 33426.3 lineto
41546.2 33145.1 lineto
41490 32920.1 lineto
41433.8 32807.7 lineto
41377.5 32751.4 lineto
41265 32695.2 lineto
41152.5 32695.2 lineto
41040.1 32751.4 lineto
40983.8 32807.7 lineto
40927.6 32920.1 lineto
40871.3 33145.1 lineto
40871.3 33426.3 lineto
40927.6 33651.3 lineto
40983.8 33763.8 lineto
41040.1 33820 lineto
41152.5 33876.3 lineto
stroke
newpath
42052.4 32695.2 moveto
42052.4 33482.6 lineto
stroke
newpath
42052.4 33370.1 moveto
42108.7 33426.3 lineto
42221.2 33482.6 lineto
42389.9 33482.6 lineto
42502.4 33426.3 lineto
42558.6 33313.8 lineto
42558.6 32695.2 lineto
stroke
newpath
42558.6 33313.8 moveto
42614.9 33426.3 lineto
42727.3 33482.6 lineto
42896.1 33482.6 lineto
43008.6 33426.3 lineto
43064.8 33313.8 lineto
43064.8 32695.2 lineto
stroke
newpath
43627.2 32695.2 moveto
43627.2 33482.6 lineto
stroke
newpath
43627.2 33370.1 moveto
43683.5 33426.3 lineto
43796 33482.6 lineto
43964.7 33482.6 lineto
44077.2 33426.3 lineto
44133.4 33313.8 lineto
44133.4 32695.2 lineto
stroke
newpath
44133.4 33313.8 moveto
44189.7 33426.3 lineto
44302.1 33482.6 lineto
44470.9 33482.6 lineto
44583.4 33426.3 lineto
44639.6 33313.8 lineto
44639.6 32695.2 lineto
stroke
newpath
46945.6 33932.5 moveto
45933.2 32414 lineto
stroke
newpath
48464.1 33876.3 moveto
48576.6 33876.3 lineto
48689.1 33820 lineto
48745.3 33763.8 lineto
48801.6 33651.3 lineto
48857.8 33426.3 lineto
48857.8 33145.1 lineto
48801.6 32920.1 lineto
48745.3 32807.7 lineto
48689.1 32751.4 lineto
48576.6 32695.2 lineto
48464.1 32695.2 lineto
48351.6 32751.4 lineto
48295.4 32807.7 lineto
48239.2 32920.1 lineto
48182.9 33145.1 lineto
48182.9 33426.3 lineto
48239.2 33651.3 lineto
48295.4 33763.8 lineto
48351.6 33820 lineto
48464.1 33876.3 lineto
stroke
newpath
49364 32807.7 moveto
49420.3 32751.4 lineto
49364 32695.2 lineto
49307.8 32751.4 lineto
49364 32807.7 lineto
49364 32695.2 lineto
stroke
newpath
50151.4 33876.3 moveto
50263.9 33876.3 lineto
50376.4 33820 lineto
50432.6 33763.8 lineto
50488.9 33651.3 lineto
50545.1 33426.3 lineto
50545.1 33145.1 lineto
50488.9 32920.1 lineto
50432.6 32807.7 lineto
50376.4 32751.4 lineto
50263.9 32695.2 lineto
50151.4 32695.2 lineto
50038.9 32751.4 lineto
49982.7 32807.7 lineto
49926.4 32920.1 lineto
49870.2 33145.1 lineto
49870.2 33426.3 lineto
49926.4 33651.3 lineto
49982.7 33763.8 lineto
50038.9 33820 lineto
50151.4 33876.3 lineto
stroke
newpath
51670 32695.2 moveto
50995.1 32695.2 lineto
stroke
newpath
51332.5 32695.2 moveto
51332.5 33876.3 lineto
51220 33707.5 lineto
51107.5 33595.1 lineto
50995.1 33538.8 lineto
stroke
newpath
52738.6 33876.3 moveto
52176.2 33876.3 lineto
52119.9 33313.8 lineto
52176.2 33370.1 lineto
52288.7 33426.3 lineto
52569.9 33426.3 lineto
52682.4 33370.1 lineto
52738.6 33313.8 lineto
52794.8 33201.4 lineto
52794.8 32920.1 lineto
52738.6 32807.7 lineto
52682.4 32751.4 lineto
52569.9 32695.2 lineto
52288.7 32695.2 lineto
52176.2 32751.4 lineto
52119.9 32807.7 lineto
stroke
newpath
53188.5 33876.3 moveto
53975.9 33876.3 lineto
53469.8 32695.2 lineto
stroke
newpath
54369.6 33876.3 moveto
54369.6 33651.3 lineto
stroke
newpath
54819.6 33876.3 moveto
54819.6 33651.3 lineto
stroke
newpath
56563.1 32245.2 moveto
56506.9 32301.5 lineto
56394.4 32470.2 lineto
56338.1 32582.7 lineto
56281.9 32751.4 lineto
56225.7 33032.6 lineto
56225.7 33257.6 lineto
56281.9 33538.8 lineto
56338.1 33707.5 lineto
56394.4 33820 lineto
56506.9 33988.8 lineto
56563.1 34045 lineto
stroke
newpath
57631.7 32695.2 moveto
56956.8 32695.2 lineto
stroke
newpath
57294.3 32695.2 moveto
57294.3 33876.3 lineto
57181.8 33707.5 lineto
57069.3 33595.1 lineto
56956.8 33538.8 lineto
stroke
newpath
59037.8 32695.2 moveto
59037.8 33876.3 lineto
stroke
newpath
59544 32695.2 moveto
59544 33313.8 lineto
59487.8 33426.3 lineto
59375.3 33482.6 lineto
59206.5 33482.6 lineto
59094.1 33426.3 lineto
59037.8 33370.1 lineto
stroke
newpath
60275.2 32695.2 moveto
60162.7 32751.4 lineto
60106.4 32807.7 lineto
60050.2 32920.1 lineto
60050.2 33257.6 lineto
60106.4 33370.1 lineto
60162.7 33426.3 lineto
60275.2 33482.6 lineto
60443.9 33482.6 lineto
60556.4 33426.3 lineto
60612.6 33370.1 lineto
60668.9 33257.6 lineto
60668.9 32920.1 lineto
60612.6 32807.7 lineto
60556.4 32751.4 lineto
60443.9 32695.2 lineto
60275.2 32695.2 lineto
stroke
newpath
61343.8 32695.2 moveto
61231.3 32751.4 lineto
61175 32863.9 lineto
61175 33876.3 lineto
stroke
newpath
62243.7 32751.4 moveto
62131.2 32695.2 lineto
61906.2 32695.2 lineto
61793.7 32751.4 lineto
61737.5 32863.9 lineto
61737.5 33313.8 lineto
61793.7 33426.3 lineto
61906.2 33482.6 lineto
62131.2 33482.6 lineto
62243.7 33426.3 lineto
62299.9 33313.8 lineto
62299.9 33201.4 lineto
61737.5 33088.9 lineto
stroke
newpath
62693.6 32245.2 moveto
62749.8 32301.5 lineto
62862.3 32470.2 lineto
62918.6 32582.7 lineto
62974.8 32751.4 lineto
63031.1 33032.6 lineto
63031.1 33257.6 lineto
62974.8 33538.8 lineto
62918.6 33707.5 lineto
62862.3 33820 lineto
62749.8 33988.8 lineto
62693.6 34045 lineto
stroke
35498.6 31670.4 364.33 cir0
0 0 0 setrgbcolor
0 0 0 setrgbcolor
newpath
37215.5 32317.2 moveto
37328 32317.2 lineto
37440.5 32261 lineto
37496.7 32204.7 lineto
37553 32092.2 lineto
37609.2 31867.3 lineto
37609.2 31586.1 lineto
37553 31361.1 lineto
37496.7 31248.6 lineto
37440.5 31192.4 lineto
37328 31136.1 lineto
37215.5 31136.1 lineto
37103 31192.4 lineto
37046.8 31248.6 lineto
36990.6 31361.1 lineto
36934.3 31586.1 lineto
36934.3 31867.3 lineto
36990.6 32092.2 lineto
37046.8 32204.7 lineto
37103 32261 lineto
37215.5 32317.2 lineto
stroke
newpath
38115.4 31248.6 moveto
38171.7 31192.4 lineto
38115.4 31136.1 lineto
38059.2 31192.4 lineto
38115.4 31248.6 lineto
38115.4 31136.1 lineto
stroke
newpath
38846.6 31811 moveto
38734.1 31867.3 lineto
38677.8 31923.5 lineto
38621.6 32036 lineto
38621.6 32092.2 lineto
38677.8 32204.7 lineto
38734.1 32261 lineto
38846.6 32317.2 lineto
39071.5 32317.2 lineto
39184 32261 lineto
39240.3 32204.7 lineto
39296.5 32092.2 lineto
39296.5 32036 lineto
39240.3 31923.5 lineto
39184 31867.3 lineto
39071.5 31811 lineto
38846.6 31811 lineto
38734.1 31754.8 lineto
38677.8 31698.5 lineto
38621.6 31586.1 lineto
38621.6 31361.1 lineto
38677.8 31248.6 lineto
38734.1 31192.4 lineto
38846.6 31136.1 lineto
39071.5 31136.1 lineto
39184 31192.4 lineto
39240.3 31248.6 lineto
39296.5 31361.1 lineto
39296.5 31586.1 lineto
39240.3 31698.5 lineto
39184 31754.8 lineto
39071.5 31811 lineto
stroke
newpath
40027.7 32317.2 moveto
40140.2 32317.2 lineto
40252.7 32261 lineto
40308.9 32204.7 lineto
40365.1 32092.2 lineto
40421.4 31867.3 lineto
40421.4 31586.1 lineto
40365.1 31361.1 lineto
40308.9 31248.6 lineto
40252.7 31192.4 lineto
40140.2 31136.1 lineto
40027.7 31136.1 lineto
39915.2 31192.4 lineto
39859 31248.6 lineto
39802.7 31361.1 lineto
39746.5 31586.1 lineto
39746.5 31867.3 lineto
39802.7 32092.2 lineto
39859 32204.7 lineto
39915.2 32261 lineto
40027.7 32317.2 lineto
stroke
newpath
41152.5 32317.2 moveto
41265 32317.2 lineto
41377.5 32261 lineto
41433.8 32204.7 lineto
41490 32092.2 lineto
41546.2 31867.3 lineto
41546.2 31586.1 lineto
41490 31361.1 lineto
41433.8 31248.6 lineto
41377.5 31192.4 lineto
41265 31136.1 lineto
41152.5 31136.1 lineto
41040.1 31192.4 lineto
40983.8 31248.6 lineto
40927.6 31361.1 lineto
40871.3 31586.1 lineto
40871.3 31867.3 lineto
40927.6 32092.2 lineto
40983.8 32204.7 lineto
41040.1 32261 lineto
41152.5 32317.2 lineto
stroke
newpath
42052.4 31136.1 moveto
42052.4 31923.5 lineto
stroke
newpath
42052.4 31811 moveto
42108.7 31867.3 lineto
42221.2 31923.5 lineto
42389.9 31923.5 lineto
42502.4 31867.3 lineto
42558.6 31754.8 lineto
42558.6 31136.1 lineto
stroke
newpath
42558.6 31754.8 moveto
42614.9 31867.3 lineto
42727.3 31923.5 lineto
42896.1 31923.5 lineto
43008.6 31867.3 lineto
43064.8 31754.8 lineto
43064.8 31136.1 lineto
stroke
newpath
43627.2 31136.1 moveto
43627.2 31923.5 lineto
stroke
newpath
43627.2 31811 moveto
43683.5 31867.3 lineto
43796 31923.5 lineto
43964.7 31923.5 lineto
44077.2 31867.3 lineto
44133.4 31754.8 lineto
44133.4 31136.1 lineto
stroke
newpath
44133.4 31754.8 moveto
44189.7 31867.3 lineto
44302.1 31923.5 lineto
44470.9 31923.5 lineto
44583.4 31867.3 lineto
44639.6 31754.8 lineto
44639.6 31136.1 lineto
stroke
newpath
46945.6 32373.5 moveto
45933.2 30854.9 lineto
stroke
newpath
48464.1 32317.2 moveto
48576.6 32317.2 lineto
48689.1 32261 lineto
48745.3 32204.7 lineto
48801.6 32092.2 lineto
48857.8 31867.3 lineto
48857.8 31586.1 lineto
48801.6 31361.1 lineto
48745.3 31248.6 lineto
48689.1 31192.4 lineto
48576.6 31136.1 lineto
48464.1 31136.1 lineto
48351.6 31192.4 lineto
48295.4 31248.6 lineto
48239.2 31361.1 lineto
48182.9 31586.1 lineto
48182.9 31867.3 lineto
48239.2 32092.2 lineto
48295.4 32204.7 lineto
48351.6 32261 lineto
48464.1 32317.2 lineto
stroke
newpath
49364 31248.6 moveto
49420.3 31192.4 lineto
49364 31136.1 lineto
49307.8 31192.4 lineto
49364 31248.6 lineto
49364 31136.1 lineto
stroke
newpath
50151.4 32317.2 moveto
50263.9 32317.2 lineto
50376.4 32261 lineto
50432.6 32204.7 lineto
50488.9 32092.2 lineto
50545.1 31867.3 lineto
50545.1 31586.1 lineto
50488.9 31361.1 lineto
50432.6 31248.6 lineto
50376.4 31192.4 lineto
50263.9 31136.1 lineto
50151.4 31136.1 lineto
50038.9 31192.4 lineto
49982.7 31248.6 lineto
49926.4 31361.1 lineto
49870.2 31586.1 lineto
49870.2 31867.3 lineto
49926.4 32092.2 lineto
49982.7 32204.7 lineto
50038.9 32261 lineto
50151.4 32317.2 lineto
stroke
newpath
50938.8 32317.2 moveto
51670 32317.2 lineto
51276.3 31867.3 lineto
51445 31867.3 lineto
51557.5 31811 lineto
51613.7 31754.8 lineto
51670 31642.3 lineto
51670 31361.1 lineto
51613.7 31248.6 lineto
51557.5 31192.4 lineto
51445 31136.1 lineto
51107.5 31136.1 lineto
50995.1 31192.4 lineto
50938.8 31248.6 lineto
stroke
newpath
52794.8 31136.1 moveto
52119.9 31136.1 lineto
stroke
newpath
52457.4 31136.1 moveto
52457.4 32317.2 lineto
52344.9 32148.5 lineto
52232.4 32036 lineto
52119.9 31979.8 lineto
stroke
newpath
53863.5 32317.2 moveto
53301 32317.2 lineto
53244.8 31754.8 lineto
53301 31811 lineto
53413.5 31867.3 lineto
53694.7 31867.3 lineto
53807.2 31811 lineto
53863.5 31754.8 lineto
53919.7 31642.3 lineto
53919.7 31361.1 lineto
53863.5 31248.6 lineto
53807.2 31192.4 lineto
53694.7 31136.1 lineto
53413.5 31136.1 lineto
53301 31192.4 lineto
53244.8 31248.6 lineto
stroke
newpath
54369.6 32317.2 moveto
54369.6 32092.2 lineto
stroke
newpath
54819.6 32317.2 moveto
54819.6 32092.2 lineto
stroke
newpath
56563.1 30686.2 moveto
56506.9 30742.4 lineto
56394.4 30911.1 lineto
56338.1 31023.6 lineto
56281.9 31192.4 lineto
56225.7 31473.6 lineto
56225.7 31698.5 lineto
56281.9 31979.8 lineto
56338.1 32148.5 lineto
56394.4 32261 lineto
56506.9 32429.7 lineto
56563.1 32485.9 lineto
stroke
newpath
57519.2 31923.5 moveto
57519.2 31136.1 lineto
stroke
newpath
57238 32373.5 moveto
56956.8 31529.8 lineto
57688 31529.8 lineto
stroke
newpath
59037.8 31136.1 moveto
59037.8 32317.2 lineto
stroke
newpath
59544 31136.1 moveto
59544 31754.8 lineto
59487.8 31867.3 lineto
59375.3 31923.5 lineto
59206.5 31923.5 lineto
59094.1 31867.3 lineto
59037.8 31811 lineto
stroke
newpath
60275.2 31136.1 moveto
60162.7 31192.4 lineto
60106.4 31248.6 lineto
60050.2 31361.1 lineto
60050.2 31698.5 lineto
60106.4 31811 lineto
60162.7 31867.3 lineto
60275.2 31923.5 lineto
60443.9 31923.5 lineto
60556.4 31867.3 lineto
60612.6 31811 lineto
60668.9 31698.5 lineto
60668.9 31361.1 lineto
60612.6 31248.6 lineto
60556.4 31192.4 lineto
60443.9 31136.1 lineto
60275.2 31136.1 lineto
stroke
newpath
61343.8 31136.1 moveto
61231.3 31192.4 lineto
61175 31304.8 lineto
61175 32317.2 lineto
stroke
newpath
62243.7 31192.4 moveto
62131.2 31136.1 lineto
61906.2 31136.1 lineto
61793.7 31192.4 lineto
61737.5 31304.8 lineto
61737.5 31754.8 lineto
61793.7 31867.3 lineto
61906.2 31923.5 lineto
62131.2 31923.5 lineto
62243.7 31867.3 lineto
62299.9 31754.8 lineto
62299.9 31642.3 lineto
61737.5 31529.8 lineto
stroke
newpath
62749.8 31192.4 moveto
62862.3 31136.1 lineto
63087.3 31136.1 lineto
63199.8 31192.4 lineto
63256 31304.8 lineto
63256 31361.1 lineto
63199.8 31473.6 lineto
63087.3 31529.8 lineto
62918.6 31529.8 lineto
62806.1 31586.1 lineto
62749.8 31698.5 lineto
62749.8 31754.8 lineto
62806.1 31867.3 lineto
62918.6 31923.5 lineto
63087.3 31923.5 lineto
63199.8 31867.3 lineto
stroke
newpath
63649.7 30686.2 moveto
63706 30742.4 lineto
63818.5 30911.1 lineto
63874.7 31023.6 lineto
63930.9 31192.4 lineto
63987.2 31473.6 lineto
63987.2 31698.5 lineto
63930.9 31979.8 lineto
63874.7 32148.5 lineto
63818.5 32261 lineto
63706 32429.7 lineto
63649.7 32485.9 lineto
stroke
newpath
35453 30521.2 moveto
35453 29701.5 lineto
stroke
newpath
35043.1 30111.4 moveto
35862.9 30111.4 lineto
stroke
0 0 0 setrgbcolor
0 0 0 setrgbcolor
newpath
37215.5 30758.2 moveto
37328 30758.2 lineto
37440.5 30701.9 lineto
37496.7 30645.7 lineto
37553 30533.2 lineto
37609.2 30308.2 lineto
37609.2 30027 lineto
37553 29802 lineto
37496.7 29689.5 lineto
37440.5 29633.3 lineto
37328 29577.1 lineto
37215.5 29577.1 lineto
37103 29633.3 lineto
37046.8 29689.5 lineto
36990.6 29802 lineto
36934.3 30027 lineto
36934.3 30308.2 lineto
36990.6 30533.2 lineto
37046.8 30645.7 lineto
37103 30701.9 lineto
37215.5 30758.2 lineto
stroke
newpath
38115.4 29689.5 moveto
38171.7 29633.3 lineto
38115.4 29577.1 lineto
38059.2 29633.3 lineto
38115.4 29689.5 lineto
38115.4 29577.1 lineto
stroke
newpath
38734.1 29577.1 moveto
38959.1 29577.1 lineto
39071.5 29633.3 lineto
39127.8 29689.5 lineto
39240.3 29858.3 lineto
39296.5 30083.2 lineto
39296.5 30533.2 lineto
39240.3 30645.7 lineto
39184 30701.9 lineto
39071.5 30758.2 lineto
38846.6 30758.2 lineto
38734.1 30701.9 lineto
38677.8 30645.7 lineto
38621.6 30533.2 lineto
38621.6 30252 lineto
38677.8 30139.5 lineto
38734.1 30083.2 lineto
38846.6 30027 lineto
39071.5 30027 lineto
39184 30083.2 lineto
39240.3 30139.5 lineto
39296.5 30252 lineto
stroke
newpath
40027.7 30758.2 moveto
40140.2 30758.2 lineto
40252.7 30701.9 lineto
40308.9 30645.7 lineto
40365.1 30533.2 lineto
40421.4 30308.2 lineto
40421.4 30027 lineto
40365.1 29802 lineto
40308.9 29689.5 lineto
40252.7 29633.3 lineto
40140.2 29577.1 lineto
40027.7 29577.1 lineto
39915.2 29633.3 lineto
39859 29689.5 lineto
39802.7 29802 lineto
39746.5 30027 lineto
39746.5 30308.2 lineto
39802.7 30533.2 lineto
39859 30645.7 lineto
39915.2 30701.9 lineto
40027.7 30758.2 lineto
stroke
newpath
41152.5 30758.2 moveto
41265 30758.2 lineto
41377.5 30701.9 lineto
41433.8 30645.7 lineto
41490 30533.2 lineto
41546.2 30308.2 lineto
41546.2 30027 lineto
41490 29802 lineto
41433.8 29689.5 lineto
41377.5 29633.3 lineto
41265 29577.1 lineto
41152.5 29577.1 lineto
41040.1 29633.3 lineto
40983.8 29689.5 lineto
40927.6 29802 lineto
40871.3 30027 lineto
40871.3 30308.2 lineto
40927.6 30533.2 lineto
40983.8 30645.7 lineto
41040.1 30701.9 lineto
41152.5 30758.2 lineto
stroke
newpath
42052.4 29577.1 moveto
42052.4 30364.5 lineto
stroke
newpath
42052.4 30252 moveto
42108.7 30308.2 lineto
42221.2 30364.5 lineto
42389.9 30364.5 lineto
42502.4 30308.2 lineto
42558.6 30195.7 lineto
42558.6 29577.1 lineto
stroke
newpath
42558.6 30195.7 moveto
42614.9 30308.2 lineto
42727.3 30364.5 lineto
42896.1 30364.5 lineto
43008.6 30308.2 lineto
43064.8 30195.7 lineto
43064.8 29577.1 lineto
stroke
newpath
43627.2 29577.1 moveto
43627.2 30364.5 lineto
stroke
newpath
43627.2 30252 moveto
43683.5 30308.2 lineto
43796 30364.5 lineto
43964.7 30364.5 lineto
44077.2 30308.2 lineto
44133.4 30195.7 lineto
44133.4 29577.1 lineto
stroke
newpath
44133.4 30195.7 moveto
44189.7 30308.2 lineto
44302.1 30364.5 lineto
44470.9 30364.5 lineto
44583.4 30308.2 lineto
44639.6 30195.7 lineto
44639.6 29577.1 lineto
stroke
newpath
46945.6 30814.4 moveto
45933.2 29295.8 lineto
stroke
newpath
48464.1 30758.2 moveto
48576.6 30758.2 lineto
48689.1 30701.9 lineto
48745.3 30645.7 lineto
48801.6 30533.2 lineto
48857.8 30308.2 lineto
48857.8 30027 lineto
48801.6 29802 lineto
48745.3 29689.5 lineto
48689.1 29633.3 lineto
48576.6 29577.1 lineto
48464.1 29577.1 lineto
48351.6 29633.3 lineto
48295.4 29689.5 lineto
48239.2 29802 lineto
48182.9 30027 lineto
48182.9 30308.2 lineto
48239.2 30533.2 lineto
48295.4 30645.7 lineto
48351.6 30701.9 lineto
48464.1 30758.2 lineto
stroke
newpath
49364 29689.5 moveto
49420.3 29633.3 lineto
49364 29577.1 lineto
49307.8 29633.3 lineto
49364 29689.5 lineto
49364 29577.1 lineto
stroke
newpath
50151.4 30758.2 moveto
50263.9 30758.2 lineto
50376.4 30701.9 lineto
50432.6 30645.7 lineto
50488.9 30533.2 lineto
50545.1 30308.2 lineto
50545.1 30027 lineto
50488.9 29802 lineto
50432.6 29689.5 lineto
50376.4 29633.3 lineto
50263.9 29577.1 lineto
50151.4 29577.1 lineto
50038.9 29633.3 lineto
49982.7 29689.5 lineto
49926.4 29802 lineto
49870.2 30027 lineto
49870.2 30308.2 lineto
49926.4 30533.2 lineto
49982.7 30645.7 lineto
50038.9 30701.9 lineto
50151.4 30758.2 lineto
stroke
newpath
50938.8 30758.2 moveto
51670 30758.2 lineto
51276.3 30308.2 lineto
51445 30308.2 lineto
51557.5 30252 lineto
51613.7 30195.7 lineto
51670 30083.2 lineto
51670 29802 lineto
51613.7 29689.5 lineto
51557.5 29633.3 lineto
51445 29577.1 lineto
51107.5 29577.1 lineto
50995.1 29633.3 lineto
50938.8 29689.5 lineto
stroke
newpath
52738.6 30758.2 moveto
52176.2 30758.2 lineto
52119.9 30195.7 lineto
52176.2 30252 lineto
52288.7 30308.2 lineto
52569.9 30308.2 lineto
52682.4 30252 lineto
52738.6 30195.7 lineto
52794.8 30083.2 lineto
52794.8 29802 lineto
52738.6 29689.5 lineto
52682.4 29633.3 lineto
52569.9 29577.1 lineto
52288.7 29577.1 lineto
52176.2 29633.3 lineto
52119.9 29689.5 lineto
stroke
newpath
53807.2 30364.5 moveto
53807.2 29577.1 lineto
stroke
newpath
53526 30814.4 moveto
53244.8 29970.8 lineto
53975.9 29970.8 lineto
stroke
newpath
54369.6 30758.2 moveto
54369.6 30533.2 lineto
stroke
newpath
54819.6 30758.2 moveto
54819.6 30533.2 lineto
stroke
newpath
56563.1 29127.1 moveto
56506.9 29183.4 lineto
56394.4 29352.1 lineto
56338.1 29464.6 lineto
56281.9 29633.3 lineto
56225.7 29914.5 lineto
56225.7 30139.5 lineto
56281.9 30420.7 lineto
56338.1 30589.4 lineto
56394.4 30701.9 lineto
56506.9 30870.6 lineto
56563.1 30926.9 lineto
stroke
newpath
56956.8 30645.7 moveto
57013.1 30701.9 lineto
57125.5 30758.2 lineto
57406.8 30758.2 lineto
57519.2 30701.9 lineto
57575.5 30645.7 lineto
57631.7 30533.2 lineto
57631.7 30420.7 lineto
57575.5 30252 lineto
56900.6 29577.1 lineto
57631.7 29577.1 lineto
stroke
newpath
59037.8 29577.1 moveto
59037.8 30758.2 lineto
stroke
newpath
59544 29577.1 moveto
59544 30195.7 lineto
59487.8 30308.2 lineto
59375.3 30364.5 lineto
59206.5 30364.5 lineto
59094.1 30308.2 lineto
59037.8 30252 lineto
stroke
newpath
60275.2 29577.1 moveto
60162.7 29633.3 lineto
60106.4 29689.5 lineto
60050.2 29802 lineto
60050.2 30139.5 lineto
60106.4 30252 lineto
60162.7 30308.2 lineto
60275.2 30364.5 lineto
60443.9 30364.5 lineto
60556.4 30308.2 lineto
60612.6 30252 lineto
60668.9 30139.5 lineto
60668.9 29802 lineto
60612.6 29689.5 lineto
60556.4 29633.3 lineto
60443.9 29577.1 lineto
60275.2 29577.1 lineto
stroke
newpath
61343.8 29577.1 moveto
61231.3 29633.3 lineto
61175 29745.8 lineto
61175 30758.2 lineto
stroke
newpath
62243.7 29633.3 moveto
62131.2 29577.1 lineto
61906.2 29577.1 lineto
61793.7 29633.3 lineto
61737.5 29745.8 lineto
61737.5 30195.7 lineto
61793.7 30308.2 lineto
61906.2 30364.5 lineto
62131.2 30364.5 lineto
62243.7 30308.2 lineto
62299.9 30195.7 lineto
62299.9 30083.2 lineto
61737.5 29970.8 lineto
stroke
newpath
62749.8 29633.3 moveto
62862.3 29577.1 lineto
63087.3 29577.1 lineto
63199.8 29633.3 lineto
63256 29745.8 lineto
63256 29802 lineto
63199.8 29914.5 lineto
63087.3 29970.8 lineto
62918.6 29970.8 lineto
62806.1 30027 lineto
62749.8 30139.5 lineto
62749.8 30195.7 lineto
62806.1 30308.2 lineto
62918.6 30364.5 lineto
63087.3 30364.5 lineto
63199.8 30308.2 lineto
stroke
newpath
63649.7 29127.1 moveto
63706 29183.4 lineto
63818.5 29352.1 lineto
63874.7 29464.6 lineto
63930.9 29633.3 lineto
63987.2 29914.5 lineto
63987.2 30139.5 lineto
63930.9 30420.7 lineto
63874.7 30589.4 lineto
63818.5 30701.9 lineto
63706 30870.6 lineto
63649.7 30926.9 lineto
stroke
newpath
35049.2 26587.9 moveto
35049.2 30516.7 lineto
31120.5 30516.7 lineto
31120.5 26587.9 lineto
35049.2 26587.9 lineto
poly0
0 0 0 setrgbcolor
0 0 0 setrgbcolor
newpath
37496.7 29199.1 moveto
37271.8 29199.1 lineto
37159.3 29142.9 lineto
37103 29086.6 lineto
36990.6 28917.9 lineto
36934.3 28692.9 lineto
36934.3 28243 lineto
36990.6 28130.5 lineto
37046.8 28074.3 lineto
37159.3 28018 lineto
37384.3 28018 lineto
37496.7 28074.3 lineto
37553 28130.5 lineto
37609.2 28243 lineto
37609.2 28524.2 lineto
37553 28636.7 lineto
37496.7 28692.9 lineto
37384.3 28749.2 lineto
37159.3 28749.2 lineto
37046.8 28692.9 lineto
36990.6 28636.7 lineto
36934.3 28524.2 lineto
stroke
newpath
38115.4 28130.5 moveto
38171.7 28074.3 lineto
38115.4 28018 lineto
38059.2 28074.3 lineto
38115.4 28130.5 lineto
38115.4 28018 lineto
stroke
newpath
39296.5 28018 moveto
38621.6 28018 lineto
stroke
newpath
38959.1 28018 moveto
38959.1 29199.1 lineto
38846.6 29030.4 lineto
38734.1 28917.9 lineto
38621.6 28861.7 lineto
stroke
newpath
40027.7 29199.1 moveto
40140.2 29199.1 lineto
40252.7 29142.9 lineto
40308.9 29086.6 lineto
40365.1 28974.1 lineto
40421.4 28749.2 lineto
40421.4 28468 lineto
40365.1 28243 lineto
40308.9 28130.5 lineto
40252.7 28074.3 lineto
40140.2 28018 lineto
40027.7 28018 lineto
39915.2 28074.3 lineto
39859 28130.5 lineto
39802.7 28243 lineto
39746.5 28468 lineto
39746.5 28749.2 lineto
39802.7 28974.1 lineto
39859 29086.6 lineto
39915.2 29142.9 lineto
40027.7 29199.1 lineto
stroke
newpath
41152.5 29199.1 moveto
41265 29199.1 lineto
41377.5 29142.9 lineto
41433.8 29086.6 lineto
41490 28974.1 lineto
41546.2 28749.2 lineto
41546.2 28468 lineto
41490 28243 lineto
41433.8 28130.5 lineto
41377.5 28074.3 lineto
41265 28018 lineto
41152.5 28018 lineto
41040.1 28074.3 lineto
40983.8 28130.5 lineto
40927.6 28243 lineto
40871.3 28468 lineto
40871.3 28749.2 lineto
40927.6 28974.1 lineto
40983.8 29086.6 lineto
41040.1 29142.9 lineto
41152.5 29199.1 lineto
stroke
newpath
42052.4 28018 moveto
42052.4 28805.4 lineto
stroke
newpath
42052.4 28692.9 moveto
42108.7 28749.2 lineto
42221.2 28805.4 lineto
42389.9 28805.4 lineto
42502.4 28749.2 lineto
42558.6 28636.7 lineto
42558.6 28018 lineto
stroke
newpath
42558.6 28636.7 moveto
42614.9 28749.2 lineto
42727.3 28805.4 lineto
42896.1 28805.4 lineto
43008.6 28749.2 lineto
43064.8 28636.7 lineto
43064.8 28018 lineto
stroke
newpath
43627.2 28018 moveto
43627.2 28805.4 lineto
stroke
newpath
43627.2 28692.9 moveto
43683.5 28749.2 lineto
43796 28805.4 lineto
43964.7 28805.4 lineto
44077.2 28749.2 lineto
44133.4 28636.7 lineto
44133.4 28018 lineto
stroke
newpath
44133.4 28636.7 moveto
44189.7 28749.2 lineto
44302.1 28805.4 lineto
44470.9 28805.4 lineto
44583.4 28749.2 lineto
44639.6 28636.7 lineto
44639.6 28018 lineto
stroke
newpath
46945.6 29255.4 moveto
45933.2 27736.8 lineto
stroke
newpath
48464.1 29199.1 moveto
48576.6 29199.1 lineto
48689.1 29142.9 lineto
48745.3 29086.6 lineto
48801.6 28974.1 lineto
48857.8 28749.2 lineto
48857.8 28468 lineto
48801.6 28243 lineto
48745.3 28130.5 lineto
48689.1 28074.3 lineto
48576.6 28018 lineto
48464.1 28018 lineto
48351.6 28074.3 lineto
48295.4 28130.5 lineto
48239.2 28243 lineto
48182.9 28468 lineto
48182.9 28749.2 lineto
48239.2 28974.1 lineto
48295.4 29086.6 lineto
48351.6 29142.9 lineto
48464.1 29199.1 lineto
stroke
newpath
49364 28130.5 moveto
49420.3 28074.3 lineto
49364 28018 lineto
49307.8 28074.3 lineto
49364 28130.5 lineto
49364 28018 lineto
stroke
newpath
49870.2 29086.6 moveto
49926.4 29142.9 lineto
50038.9 29199.1 lineto
50320.1 29199.1 lineto
50432.6 29142.9 lineto
50488.9 29086.6 lineto
50545.1 28974.1 lineto
50545.1 28861.7 lineto
50488.9 28692.9 lineto
49814 28018 lineto
50545.1 28018 lineto
stroke
newpath
51557.5 28805.4 moveto
51557.5 28018 lineto
stroke
newpath
51276.3 29255.4 moveto
50995.1 28411.7 lineto
51726.2 28411.7 lineto
stroke
newpath
52401.1 29199.1 moveto
52513.6 29199.1 lineto
52626.1 29142.9 lineto
52682.4 29086.6 lineto
52738.6 28974.1 lineto
52794.8 28749.2 lineto
52794.8 28468 lineto
52738.6 28243 lineto
52682.4 28130.5 lineto
52626.1 28074.3 lineto
52513.6 28018 lineto
52401.1 28018 lineto
52288.7 28074.3 lineto
52232.4 28130.5 lineto
52176.2 28243 lineto
52119.9 28468 lineto
52119.9 28749.2 lineto
52176.2 28974.1 lineto
52232.4 29086.6 lineto
52288.7 29142.9 lineto
52401.1 29199.1 lineto
stroke
newpath
53244.8 29086.6 moveto
53301 29142.9 lineto
53413.5 29199.1 lineto
53694.7 29199.1 lineto
53807.2 29142.9 lineto
53863.5 29086.6 lineto
53919.7 28974.1 lineto
53919.7 28861.7 lineto
53863.5 28692.9 lineto
53188.5 28018 lineto
53919.7 28018 lineto
stroke
newpath
54369.6 29199.1 moveto
54369.6 28974.1 lineto
stroke
newpath
54819.6 29199.1 moveto
54819.6 28974.1 lineto
stroke
newpath
56563.1 27568.1 moveto
56506.9 27624.3 lineto
56394.4 27793 lineto
56338.1 27905.5 lineto
56281.9 28074.3 lineto
56225.7 28355.5 lineto
56225.7 28580.4 lineto
56281.9 28861.7 lineto
56338.1 29030.4 lineto
56394.4 29142.9 lineto
56506.9 29311.6 lineto
56563.1 29367.8 lineto
stroke
newpath
56900.6 29199.1 moveto
57631.7 29199.1 lineto
57238 28749.2 lineto
57406.8 28749.2 lineto
57519.2 28692.9 lineto
57575.5 28636.7 lineto
57631.7 28524.2 lineto
57631.7 28243 lineto
57575.5 28130.5 lineto
57519.2 28074.3 lineto
57406.8 28018 lineto
57069.3 28018 lineto
56956.8 28074.3 lineto
56900.6 28130.5 lineto
stroke
newpath
59037.8 28018 moveto
59037.8 29199.1 lineto
stroke
newpath
59544 28018 moveto
59544 28636.7 lineto
59487.8 28749.2 lineto
59375.3 28805.4 lineto
59206.5 28805.4 lineto
59094.1 28749.2 lineto
59037.8 28692.9 lineto
stroke
newpath
60275.2 28018 moveto
60162.7 28074.3 lineto
60106.4 28130.5 lineto
60050.2 28243 lineto
60050.2 28580.4 lineto
60106.4 28692.9 lineto
60162.7 28749.2 lineto
60275.2 28805.4 lineto
60443.9 28805.4 lineto
60556.4 28749.2 lineto
60612.6 28692.9 lineto
60668.9 28580.4 lineto
60668.9 28243 lineto
60612.6 28130.5 lineto
60556.4 28074.3 lineto
60443.9 28018 lineto
60275.2 28018 lineto
stroke
newpath
61343.8 28018 moveto
61231.3 28074.3 lineto
61175 28186.7 lineto
61175 29199.1 lineto
stroke
newpath
62243.7 28074.3 moveto
62131.2 28018 lineto
61906.2 28018 lineto
61793.7 28074.3 lineto
61737.5 28186.7 lineto
61737.5 28636.7 lineto
61793.7 28749.2 lineto
61906.2 28805.4 lineto
62131.2 28805.4 lineto
62243.7 28749.2 lineto
62299.9 28636.7 lineto
62299.9 28524.2 lineto
61737.5 28411.7 lineto
stroke
newpath
62749.8 28074.3 moveto
62862.3 28018 lineto
63087.3 28018 lineto
63199.8 28074.3 lineto
63256 28186.7 lineto
63256 28243 lineto
63199.8 28355.5 lineto
63087.3 28411.7 lineto
62918.6 28411.7 lineto
62806.1 28468 lineto
62749.8 28580.4 lineto
62749.8 28636.7 lineto
62806.1 28749.2 lineto
62918.6 28805.4 lineto
63087.3 28805.4 lineto
63199.8 28749.2 lineto
stroke
newpath
63649.7 27568.1 moveto
63706 27624.3 lineto
63818.5 27793 lineto
63874.7 27905.5 lineto
63930.9 28074.3 lineto
63987.2 28355.5 lineto
63987.2 28580.4 lineto
63930.9 28861.7 lineto
63874.7 29030.4 lineto
63818.5 29142.9 lineto
63706 29311.6 lineto
63649.7 29367.8 lineto
stroke
showpage
grestore
%%EOF
