%!PS-Adobe-3.0
%%Creator: PCBNEW
%%CreationDate: Mon Dec 06 13:15:38 2021
%%Title: C:\Users\Артем\вуз\Текущий сем\ТРСВТ\trsvt\Zelenskii\Zel_Art_Lab3\Zel_Art_Lab1-NPTH-drl_map.ps
%%Pages: 1
%%PageOrder: Ascend
%%BoundingBox: 0 0 596 842
%%DocumentMedia: A4 595 842 0 () ()
%%Orientation: Landscape
%%EndComments
%%BeginProlog
/line { newpath moveto lineto stroke } bind def
/cir0 { newpath 0 360 arc stroke } bind def
/cir1 { newpath 0 360 arc gsave fill grestore stroke } bind def
/cir2 { newpath 0 360 arc gsave fill grestore stroke } bind def
/arc0 { newpath arc stroke } bind def
/arc1 { newpath 4 index 4 index moveto arc closepath gsave fill
    grestore stroke } bind def
/arc2 { newpath 4 index 4 index moveto arc closepath gsave fill
    grestore stroke } bind def
/poly0 { stroke } bind def
/poly1 { closepath gsave fill grestore stroke } bind def
/poly2 { closepath gsave fill grestore stroke } bind def
/rect0 { rectstroke } bind def
/rect1 { rectfill } bind def
/rect2 { rectfill } bind def
/linemode0 { 0 setlinecap 0 setlinejoin 0 setlinewidth } bind def
/linemode1 { 1 setlinecap 1 setlinejoin } bind def
/dashedline { [200] 100 setdash } bind def
/solidline { [] 0 setdash } bind def
/phantomshow { moveto
    /KicadFont findfont 0.000001 scalefont setfont
    show } bind def
/textshow { gsave
    findfont exch scalefont setfont concat 1 scale 0 0 moveto show
    } bind def
/reencodefont {
  findfont dup length dict begin
  { 1 index /FID ne
    { def }
    { pop pop } ifelse
  } forall
  /Encoding ISOLatin1Encoding def
  currentdict
  end } bind def
/KicadFont /Helvetica reencodefont definefont pop
/KicadFont-Bold /Helvetica-Bold reencodefont definefont pop
/KicadFont-Oblique /Helvetica-Oblique reencodefont definefont pop
/KicadFont-BoldOblique /Helvetica-BoldOblique reencodefont definefont pop
%%EndProlog
%%Page: 1 1
%%BeginPageSetup
gsave
0.0072 0.0072 scale
linemode1
82680 0 translate 90 rotate
115.675 setlinewidth
%%EndPageSetup
0 0 0 setrgbcolor
91.0825 setlinewidth
newpath
81021.6 37054.5 moveto
35908.4 37054.5 lineto
stroke
newpath
35908.4 37054.5 moveto
35908.4 78697.4 lineto
stroke
newpath
35908.4 78697.4 moveto
81021.6 78697.4 lineto
stroke
newpath
81021.6 78697.4 moveto
81021.6 37054.5 lineto
stroke
78.7399 setlinewidth
118.11 setlinewidth
0 0 0 setrgbcolor
0 0 0 setrgbcolor
newpath
36990.6 35175.5 moveto
36990.6 36356.6 lineto
37271.8 36356.6 lineto
37440.5 36300.3 lineto
37553 36187.9 lineto
37609.2 36075.4 lineto
37665.5 35850.4 lineto
37665.5 35681.7 lineto
37609.2 35456.7 lineto
37553 35344.2 lineto
37440.5 35231.7 lineto
37271.8 35175.5 lineto
36990.6 35175.5 lineto
stroke
newpath
38171.7 35175.5 moveto
38171.7 35962.9 lineto
stroke
newpath
38171.7 35737.9 moveto
38227.9 35850.4 lineto
38284.1 35906.6 lineto
38396.6 35962.9 lineto
38509.1 35962.9 lineto
stroke
newpath
38902.8 35175.5 moveto
38902.8 35962.9 lineto
stroke
newpath
38902.8 36356.6 moveto
38846.6 36300.3 lineto
38902.8 36244.1 lineto
38959.1 36300.3 lineto
38902.8 36356.6 lineto
38902.8 36244.1 lineto
stroke
newpath
39634 35175.5 moveto
39521.5 35231.7 lineto
39465.2 35344.2 lineto
39465.2 36356.6 lineto
stroke
newpath
40252.7 35175.5 moveto
40140.2 35231.7 lineto
40083.9 35344.2 lineto
40083.9 36356.6 lineto
stroke
newpath
41602.5 35175.5 moveto
41602.5 36356.6 lineto
41996.2 35512.9 lineto
42389.9 36356.6 lineto
42389.9 35175.5 lineto
stroke
newpath
43458.5 35175.5 moveto
43458.5 35794.2 lineto
43402.3 35906.6 lineto
43289.8 35962.9 lineto
43064.8 35962.9 lineto
42952.3 35906.6 lineto
stroke
newpath
43458.5 35231.7 moveto
43346 35175.5 lineto
43064.8 35175.5 lineto
42952.3 35231.7 lineto
42896.1 35344.2 lineto
42896.1 35456.7 lineto
42952.3 35569.2 lineto
43064.8 35625.4 lineto
43346 35625.4 lineto
43458.5 35681.7 lineto
stroke
newpath
44020.9 35962.9 moveto
44020.9 34781.8 lineto
stroke
newpath
44020.9 35906.6 moveto
44133.4 35962.9 lineto
44358.4 35962.9 lineto
44470.9 35906.6 lineto
44527.1 35850.4 lineto
44583.4 35737.9 lineto
44583.4 35400.5 lineto
44527.1 35288 lineto
44470.9 35231.7 lineto
44358.4 35175.5 lineto
44133.4 35175.5 lineto
44020.9 35231.7 lineto
stroke
newpath
45089.5 35288 moveto
45145.8 35231.7 lineto
45089.5 35175.5 lineto
45033.3 35231.7 lineto
45089.5 35288 lineto
45089.5 35175.5 lineto
stroke
newpath
45089.5 35906.6 moveto
45145.8 35850.4 lineto
45089.5 35794.2 lineto
45033.3 35850.4 lineto
45089.5 35906.6 lineto
45089.5 35794.2 lineto
stroke
showpage
grestore
%%EOF
