%TF.GenerationSoftware,KiCad,Pcbnew,(5.1.10)-1*%
%TF.CreationDate,2021-12-06T13:15:26+03:00*%
%TF.ProjectId,Zel_Art_Lab1,5a656c5f-4172-4745-9f4c-6162312e6b69,rev?*%
%TF.SameCoordinates,Original*%
%TF.FileFunction,Soldermask,Top*%
%TF.FilePolarity,Negative*%
%FSLAX46Y46*%
G04 Gerber Fmt 4.6, Leading zero omitted, Abs format (unit mm)*
G04 Created by KiCad (PCBNEW (5.1.10)-1) date 2021-12-06 13:15:26*
%MOMM*%
%LPD*%
G01*
G04 APERTURE LIST*
%ADD10R,1.750000X0.450000*%
%ADD11R,1.800000X1.800000*%
%ADD12C,1.800000*%
%ADD13O,1.600000X1.600000*%
%ADD14C,1.600000*%
%ADD15C,10.160000*%
G04 APERTURE END LIST*
D10*
%TO.C,U1*%
X155150000Y-70705000D03*
X155150000Y-71355000D03*
X155150000Y-72005000D03*
X155150000Y-72655000D03*
X155150000Y-73305000D03*
X155150000Y-73955000D03*
X155150000Y-74605000D03*
X155150000Y-75255000D03*
X155150000Y-75905000D03*
X155150000Y-76555000D03*
X155150000Y-77205000D03*
X155150000Y-77855000D03*
X155150000Y-78505000D03*
X155150000Y-79155000D03*
X162350000Y-79155000D03*
X162350000Y-78505000D03*
X162350000Y-77855000D03*
X162350000Y-77205000D03*
X162350000Y-76555000D03*
X162350000Y-75905000D03*
X162350000Y-75255000D03*
X162350000Y-74605000D03*
X162350000Y-73955000D03*
X162350000Y-73305000D03*
X162350000Y-72655000D03*
X162350000Y-72005000D03*
X162350000Y-71355000D03*
X162350000Y-70705000D03*
%TD*%
D11*
%TO.C,D1*%
X140970000Y-87630000D03*
D12*
X143510000Y-87630000D03*
%TD*%
D13*
%TO.C,R1*%
X171450000Y-87630000D03*
D14*
X168910000Y-87630000D03*
%TD*%
%TO.C,R2*%
X138430000Y-73660000D03*
D13*
X140970000Y-73660000D03*
%TD*%
D15*
%TO.C,Zel_lab21*%
X172720000Y-55880000D03*
X142750000Y-55880000D03*
X157730000Y-55880000D03*
%TD*%
M02*
