Drill report for C:\Users\Артем\вуз\Текущий сем\ТРСВТ\trsvt\Zelenskii\Zel_Art_Lab3\Zel_Art_Lab1.kicad_pcb
Created on 06.12.2021 13:15:53

Copper Layer Stackup:
    =============================================================
    L1 :  F.Cu                      front
    L2 :  B.Cu                      back


Drill file 'Zel_Art_Lab1-PTH.drl' contains
    plated through holes:
    =============================================================
    T1  0,400mm  0,0157"  (1 hole)
    T2  0,800mm  0,0315"  (4 holes)
    T3  0,900mm  0,0354"  (2 holes)
    T4  6,100mm  0,2402"  (3 holes)

    Total plated holes count 10


Drill file 'Zel_Art_Lab1-NPTH.drl' contains
    unplated through holes:
    =============================================================

    Total unplated holes count 0
