%TF.GenerationSoftware,KiCad,Pcbnew,(5.1.10)-1*%
%TF.CreationDate,2021-12-06T13:15:26+03:00*%
%TF.ProjectId,Zel_Art_Lab1,5a656c5f-4172-4745-9f4c-6162312e6b69,rev?*%
%TF.SameCoordinates,Original*%
%TF.FileFunction,Copper,L1,Top*%
%TF.FilePolarity,Positive*%
%FSLAX46Y46*%
G04 Gerber Fmt 4.6, Leading zero omitted, Abs format (unit mm)*
G04 Created by KiCad (PCBNEW (5.1.10)-1) date 2021-12-06 13:15:26*
%MOMM*%
%LPD*%
G01*
G04 APERTURE LIST*
%TA.AperFunction,SMDPad,CuDef*%
%ADD10R,1.750000X0.450000*%
%TD*%
%TA.AperFunction,ComponentPad*%
%ADD11R,1.800000X1.800000*%
%TD*%
%TA.AperFunction,ComponentPad*%
%ADD12C,1.800000*%
%TD*%
%TA.AperFunction,ComponentPad*%
%ADD13O,1.600000X1.600000*%
%TD*%
%TA.AperFunction,ComponentPad*%
%ADD14C,1.600000*%
%TD*%
%TA.AperFunction,ComponentPad*%
%ADD15C,10.160000*%
%TD*%
%TA.AperFunction,ViaPad*%
%ADD16C,0.600000*%
%TD*%
%TA.AperFunction,Conductor*%
%ADD17C,0.250000*%
%TD*%
%TA.AperFunction,Conductor*%
%ADD18C,0.300000*%
%TD*%
%TA.AperFunction,Conductor*%
%ADD19C,0.500000*%
%TD*%
G04 APERTURE END LIST*
D10*
%TO.P,U1,1*%
%TO.N,Net-(U1-Pad1)*%
X155150000Y-70705000D03*
%TO.P,U1,2*%
%TO.N,Net-(U1-Pad2)*%
X155150000Y-71355000D03*
%TO.P,U1,3*%
%TO.N,Net-(U1-Pad3)*%
X155150000Y-72005000D03*
%TO.P,U1,4*%
%TO.N,Net-(U1-Pad4)*%
X155150000Y-72655000D03*
%TO.P,U1,5*%
%TO.N,Net-(U1-Pad5)*%
X155150000Y-73305000D03*
%TO.P,U1,6*%
%TO.N,/input*%
X155150000Y-73955000D03*
%TO.P,U1,7*%
%TO.N,/uCtoLED*%
X155150000Y-74605000D03*
%TO.P,U1,8*%
%TO.N,GND*%
X155150000Y-75255000D03*
%TO.P,U1,9*%
%TO.N,Net-(U1-Pad9)*%
X155150000Y-75905000D03*
%TO.P,U1,10*%
%TO.N,Net-(U1-Pad10)*%
X155150000Y-76555000D03*
%TO.P,U1,11*%
%TO.N,Net-(U1-Pad11)*%
X155150000Y-77205000D03*
%TO.P,U1,12*%
%TO.N,Net-(U1-Pad12)*%
X155150000Y-77855000D03*
%TO.P,U1,13*%
%TO.N,Net-(U1-Pad13)*%
X155150000Y-78505000D03*
%TO.P,U1,14*%
%TO.N,Net-(U1-Pad14)*%
X155150000Y-79155000D03*
%TO.P,U1,15*%
%TO.N,Net-(U1-Pad15)*%
X162350000Y-79155000D03*
%TO.P,U1,16*%
%TO.N,Net-(U1-Pad16)*%
X162350000Y-78505000D03*
%TO.P,U1,17*%
%TO.N,Net-(U1-Pad17)*%
X162350000Y-77855000D03*
%TO.P,U1,18*%
%TO.N,Net-(U1-Pad18)*%
X162350000Y-77205000D03*
%TO.P,U1,19*%
%TO.N,GND*%
X162350000Y-76555000D03*
%TO.P,U1,20*%
%TO.N,VCC*%
X162350000Y-75905000D03*
%TO.P,U1,21*%
%TO.N,Net-(U1-Pad21)*%
X162350000Y-75255000D03*
%TO.P,U1,22*%
%TO.N,Net-(U1-Pad22)*%
X162350000Y-74605000D03*
%TO.P,U1,23*%
%TO.N,Net-(U1-Pad23)*%
X162350000Y-73955000D03*
%TO.P,U1,24*%
%TO.N,Net-(U1-Pad24)*%
X162350000Y-73305000D03*
%TO.P,U1,25*%
%TO.N,Net-(U1-Pad25)*%
X162350000Y-72655000D03*
%TO.P,U1,26*%
%TO.N,Net-(U1-Pad26)*%
X162350000Y-72005000D03*
%TO.P,U1,27*%
%TO.N,Net-(U1-Pad27)*%
X162350000Y-71355000D03*
%TO.P,U1,28*%
%TO.N,Net-(U1-Pad28)*%
X162350000Y-70705000D03*
%TD*%
D11*
%TO.P,D1,1*%
%TO.N,/uCtoLED*%
X140970000Y-87630000D03*
D12*
%TO.P,D1,2*%
%TO.N,/LEDtoR*%
X143510000Y-87630000D03*
%TD*%
D13*
%TO.P,R1,2*%
%TO.N,VCC*%
X171450000Y-87630000D03*
D14*
%TO.P,R1,1*%
%TO.N,/LEDtoR*%
X168910000Y-87630000D03*
%TD*%
%TO.P,R2,1*%
%TO.N,/input*%
X138430000Y-73660000D03*
D13*
%TO.P,R2,2*%
%TO.N,/INPUTtoR*%
X140970000Y-73660000D03*
%TD*%
D15*
%TO.P,Zel_lab21,1*%
%TO.N,VCC*%
X172720000Y-55880000D03*
%TO.P,Zel_lab21,3*%
%TO.N,GND*%
X142750000Y-55880000D03*
%TO.P,Zel_lab21,2*%
%TO.N,/INPUTtoR*%
X157730000Y-55880000D03*
%TD*%
D16*
%TO.N,GND*%
X160020000Y-74930000D03*
%TD*%
D17*
%TO.N,/LEDtoR*%
X143510000Y-87630000D02*
X168910000Y-87630000D01*
%TO.N,/uCtoLED*%
X140999998Y-87630000D02*
X140970000Y-87630000D01*
X154024998Y-74605000D02*
X140999998Y-87630000D01*
X155150000Y-74605000D02*
X154024998Y-74605000D01*
%TO.N,/INPUTtoR*%
X140970000Y-72640000D02*
X140970000Y-73660000D01*
X157730000Y-55880000D02*
X140970000Y-72640000D01*
D18*
%TO.N,GND*%
X162350000Y-76555000D02*
X161175000Y-76555000D01*
X155150000Y-75255000D02*
X156325000Y-75255000D01*
D19*
X156650000Y-74930000D02*
X156325000Y-75255000D01*
X160020000Y-74930000D02*
X156650000Y-74930000D01*
X160020000Y-75400000D02*
X161175000Y-76555000D01*
X160020000Y-74930000D02*
X160020000Y-75400000D01*
D18*
%TO.N,VCC*%
X162350000Y-75929999D02*
X162350000Y-75905000D01*
X163525000Y-75905000D02*
X162350000Y-75905000D01*
D19*
X172720000Y-66710000D02*
X163525000Y-75905000D01*
X172720000Y-55880000D02*
X172720000Y-66710000D01*
X171450000Y-83830000D02*
X163525000Y-75905000D01*
X171450000Y-87630000D02*
X171450000Y-83830000D01*
D17*
%TO.N,/input*%
X139605001Y-74835001D02*
X138430000Y-73660000D01*
X141534001Y-74835001D02*
X139605001Y-74835001D01*
X142414002Y-73955000D02*
X141534001Y-74835001D01*
X155150000Y-73955000D02*
X142414002Y-73955000D01*
%TD*%
M02*
