EESchema Schematic File Version 4
EELAYER 30 0
EELAYER END
$Descr A3 16535 11693
encoding utf-8
Sheet 1 1
Title "Урок 1"
Date ""
Rev ""
Comp ""
Comment1 ""
Comment2 "Сапарбаев Т.Р."
Comment3 ""
Comment4 ""
$EndDescr
$Comp
L Device:R R2
U 1 1 61752AEC
P 7300 5000
F 0 "R2" V 7507 5000 50  0000 C CNN
F 1 "1 k" V 7416 5000 50  0000 C CNN
F 2 "Resistor_THT:R_Axial_DIN0207_L6.3mm_D2.5mm_P2.54mm_Vertical" V 7230 5000 50  0001 C CNN
F 3 "~" H 7300 5000 50  0001 C CNN
	1    7300 5000
	0    -1   -1   0   
$EndComp
$Comp
L Device:LED D1
U 1 1 61755344
P 6800 5000
F 0 "D1" H 6793 5217 50  0000 C CNN
F 1 "LED" H 6793 5126 50  0000 C CNN
F 2 "LED_THT:LED_D5.0mm" H 6800 5000 50  0001 C CNN
F 3 "~" H 6800 5000 50  0001 C CNN
	1    6800 5000
	1    0    0    -1  
$EndComp
Wire Wire Line
	7450 5000 7650 5000
Wire Wire Line
	6100 5250 6400 5250
Wire Wire Line
	6400 5250 6400 5000
Wire Wire Line
	6400 5000 6650 5000
Text Label 6400 5200 0    50   ~ 0
uCtoLED
Wire Wire Line
	7150 5000 6950 5000
Text Label 7000 5000 3    50   ~ 0
LEDtoR
Wire Wire Line
	6100 5350 6700 5350
Text Label 6450 5350 0    50   ~ 0
INPUT
$Comp
L MCU_Microchip_PIC16:PIC16F18854-SO U1
U 1 1 617849C3
P 5600 5850
F 0 "U1" H 5250 6650 50  0000 C CNN
F 1 "PIC16F18854-SO" H 6050 6650 50  0000 C CNN
F 2 "Package_SO:SOIC-28W_7.5x17.9mm_P1.27mm" H 5600 4750 50  0001 C CNN
F 3 "http://ww1.microchip.com/downloads/en/DeviceDoc/PIC16(L)F18854%20Data%20Sheet_DS40001826C.pdf" H 5900 5250 50  0001 C CNN
	1    5600 5850
	1    0    0    -1  
$EndComp
Wire Wire Line
	5600 5050 5600 4700
Text Label 3550 7250 0    50   ~ 0
INPUTtoR
Text Label 4600 7250 0    50   ~ 0
INPUT
Wire Wire Line
	4400 7250 4850 7250
Wire Wire Line
	3300 7150 3400 7150
Wire Wire Line
	3400 7350 3400 7450
Wire Wire Line
	3300 7350 3400 7350
$Comp
L Device:R R1
U 1 1 617535D4
P 4250 7250
F 0 "R1" V 4043 7250 50  0000 C CNN
F 1 "100" V 4134 7250 50  0000 C CNN
F 2 "Resistor_THT:R_Axial_DIN0207_L6.3mm_D2.5mm_P2.54mm_Vertical" V 4180 7250 50  0001 C CNN
F 3 "~" H 4250 7250 50  0001 C CNN
	1    4250 7250
	0    1    1    0   
$EndComp
$Comp
L mylib:XP1 XP1
U 1 1 617B7AE1
P 3100 7250
F 0 "XP1" H 2858 7665 50  0000 C CNN
F 1 "XP1" H 2858 7574 50  0000 C CNN
F 2 "Connector:Banana_Jack_3Pin" H 3100 7250 50  0001 C CNN
F 3 "" H 3100 7250 50  0001 C CNN
	1    3100 7250
	1    0    0    -1  
$EndComp
NoConn ~ 5100 5250
NoConn ~ 5100 5350
NoConn ~ 5100 5450
NoConn ~ 5100 5550
NoConn ~ 5100 5650
NoConn ~ 5100 5750
NoConn ~ 5100 5850
NoConn ~ 5100 5950
NoConn ~ 5100 6050
NoConn ~ 5100 6150
NoConn ~ 5100 6250
NoConn ~ 5100 6350
NoConn ~ 5100 6450
NoConn ~ 6100 6450
NoConn ~ 6100 6350
NoConn ~ 6100 6250
NoConn ~ 6100 6150
NoConn ~ 6100 5950
NoConn ~ 6100 5850
NoConn ~ 6100 5750
NoConn ~ 6100 5650
NoConn ~ 6100 5550
NoConn ~ 6100 5450
Wire Wire Line
	6200 4350 6200 4450
Wire Wire Line
	6500 6850 6500 6950
$Comp
L power:PWR_FLAG #FLG02
U 1 1 61772300
P 6200 4350
F 0 "#FLG02" H 6200 4425 50  0001 C CNN
F 1 "PWR_FLAG" H 6200 4523 50  0000 C CNN
F 2 "" H 6200 4350 50  0001 C CNN
F 3 "~" H 6200 4350 50  0001 C CNN
	1    6200 4350
	1    0    0    -1  
$EndComp
$Comp
L power:PWR_FLAG #FLG01
U 1 1 61771C95
P 6500 6850
F 0 "#FLG01" H 6500 6925 50  0001 C CNN
F 1 "PWR_FLAG" H 6500 7023 50  0000 C CNN
F 2 "" H 6500 6850 50  0001 C CNN
F 3 "~" H 6500 6850 50  0001 C CNN
	1    6500 6850
	1    0    0    -1  
$EndComp
Wire Wire Line
	3400 4700 5600 4700
Wire Wire Line
	3400 4700 3400 7150
Wire Wire Line
	6200 4450 5600 4450
Wire Wire Line
	5600 4450 5600 4700
Connection ~ 5600 4700
Wire Wire Line
	7650 4700 5600 4700
Wire Wire Line
	7650 4700 7650 5000
Wire Wire Line
	3400 7450 5600 7450
Wire Wire Line
	5600 6650 5600 6950
Wire Wire Line
	6500 6950 5600 6950
Connection ~ 5600 6950
Wire Wire Line
	5600 6950 5600 7450
Wire Wire Line
	4100 7250 3300 7250
$EndSCHEMATC
