(kicad_pcb (version 20171130) (host pcbnew "(5.1.10)-1")

  (general
    (thickness 1.6)
    (drawings 4)
    (tracks 26)
    (zones 0)
    (modules 5)
    (nets 31)
  )

  (page A4)
  (layers
    (0 F.Cu signal)
    (31 B.Cu signal)
    (32 B.Adhes user)
    (33 F.Adhes user)
    (34 B.Paste user)
    (35 F.Paste user)
    (36 B.SilkS user)
    (37 F.SilkS user)
    (38 B.Mask user)
    (39 F.Mask user)
    (40 Dwgs.User user)
    (41 Cmts.User user)
    (42 Eco1.User user)
    (43 Eco2.User user)
    (44 Edge.Cuts user)
    (45 Margin user)
    (46 B.CrtYd user)
    (47 F.CrtYd user)
    (48 B.Fab user)
    (49 F.Fab user)
  )

  (setup
    (last_trace_width 0.25)
    (trace_clearance 0.25)
    (zone_clearance 0.508)
    (zone_45_only no)
    (trace_min 0.25)
    (via_size 0.8)
    (via_drill 0.4)
    (via_min_size 0.4)
    (via_min_drill 0.3)
    (uvia_size 0.3)
    (uvia_drill 0.1)
    (uvias_allowed no)
    (uvia_min_size 0.2)
    (uvia_min_drill 0.1)
    (edge_width 0.05)
    (segment_width 0.2)
    (pcb_text_width 0.3)
    (pcb_text_size 1.5 1.5)
    (mod_edge_width 0.12)
    (mod_text_size 1 1)
    (mod_text_width 0.15)
    (pad_size 1.524 1.524)
    (pad_drill 0.762)
    (pad_to_mask_clearance 0)
    (aux_axis_origin 0 0)
    (visible_elements FFFFFF7F)
    (pcbplotparams
      (layerselection 0x010fc_ffffffff)
      (usegerberextensions false)
      (usegerberattributes true)
      (usegerberadvancedattributes true)
      (creategerberjobfile true)
      (excludeedgelayer true)
      (linewidth 0.100000)
      (plotframeref false)
      (viasonmask false)
      (mode 1)
      (useauxorigin false)
      (hpglpennumber 1)
      (hpglpenspeed 20)
      (hpglpendiameter 15.000000)
      (psnegative false)
      (psa4output false)
      (plotreference true)
      (plotvalue true)
      (plotinvisibletext false)
      (padsonsilk false)
      (subtractmaskfromsilk false)
      (outputformat 1)
      (mirror false)
      (drillshape 0)
      (scaleselection 1)
      (outputdirectory ""))
  )

  (net 0 "")
  (net 1 /LEDtoR)
  (net 2 /uCtoLED)
  (net 3 VCC)
  (net 4 /INPUTtoR)
  (net 5 /INPUT)
  (net 6 "Net-(U1-Pad1)")
  (net 7 "Net-(U1-Pad2)")
  (net 8 "Net-(U1-Pad3)")
  (net 9 "Net-(U1-Pad4)")
  (net 10 "Net-(U1-Pad5)")
  (net 11 "Net-(U1-Pad6)")
  (net 12 "Net-(U1-Pad7)")
  (net 13 GND)
  (net 14 "Net-(U1-Pad9)")
  (net 15 "Net-(U1-Pad10)")
  (net 16 "Net-(U1-Pad11)")
  (net 17 "Net-(U1-Pad12)")
  (net 18 "Net-(U1-Pad13)")
  (net 19 "Net-(U1-Pad14)")
  (net 20 "Net-(U1-Pad15)")
  (net 21 "Net-(U1-Pad16)")
  (net 22 "Net-(U1-Pad17)")
  (net 23 "Net-(U1-Pad18)")
  (net 24 "Net-(U1-Pad19)")
  (net 25 "Net-(U1-Pad22)")
  (net 26 "Net-(U1-Pad23)")
  (net 27 "Net-(U1-Pad24)")
  (net 28 "Net-(U1-Pad26)")
  (net 29 "Net-(U1-Pad27)")
  (net 30 "Net-(U1-Pad28)")

  (net_class Default "Это класс цепей по умолчанию."
    (clearance 0.25)
    (trace_width 0.25)
    (via_dia 0.8)
    (via_drill 0.4)
    (uvia_dia 0.3)
    (uvia_drill 0.1)
    (diff_pair_width 0.25)
    (diff_pair_gap 0.25)
    (add_net /INPUT)
    (add_net /INPUTtoR)
    (add_net /LEDtoR)
    (add_net /uCtoLED)
    (add_net "Net-(U1-Pad1)")
    (add_net "Net-(U1-Pad10)")
    (add_net "Net-(U1-Pad11)")
    (add_net "Net-(U1-Pad12)")
    (add_net "Net-(U1-Pad13)")
    (add_net "Net-(U1-Pad14)")
    (add_net "Net-(U1-Pad15)")
    (add_net "Net-(U1-Pad16)")
    (add_net "Net-(U1-Pad17)")
    (add_net "Net-(U1-Pad18)")
    (add_net "Net-(U1-Pad19)")
    (add_net "Net-(U1-Pad2)")
    (add_net "Net-(U1-Pad22)")
    (add_net "Net-(U1-Pad23)")
    (add_net "Net-(U1-Pad24)")
    (add_net "Net-(U1-Pad26)")
    (add_net "Net-(U1-Pad27)")
    (add_net "Net-(U1-Pad28)")
    (add_net "Net-(U1-Pad3)")
    (add_net "Net-(U1-Pad4)")
    (add_net "Net-(U1-Pad5)")
    (add_net "Net-(U1-Pad6)")
    (add_net "Net-(U1-Pad7)")
    (add_net "Net-(U1-Pad9)")
  )

  (net_class Power ""
    (clearance 0.5)
    (trace_width 0.5)
    (via_dia 0.8)
    (via_drill 0.4)
    (uvia_dia 0.3)
    (uvia_drill 0.1)
    (diff_pair_width 0.25)
    (diff_pair_gap 0.25)
    (add_net GND)
    (add_net VCC)
  )

  (module LED_SMD:LED_1W_3W_R8 (layer F.Cu) (tedit 58AC980C) (tstamp 61970E0D)
    (at 194.31 124.46)
    (descr https://www.gme.cz/data/attachments/dsh.518-234.1.pdf)
    (tags "LED 1W 3W 5W")
    (path /616980F1)
    (attr smd)
    (fp_text reference D1 (at -5.08 -3.81) (layer F.SilkS)
      (effects (font (size 1 1) (thickness 0.15)))
    )
    (fp_text value LED (at 0 5.08) (layer F.Fab)
      (effects (font (size 1 1) (thickness 0.15)))
    )
    (fp_circle (center 0 0) (end 4.025 0) (layer F.Fab) (width 0.1))
    (fp_line (start 4.826 1.524) (end 4.826 0.508) (layer F.Fab) (width 0.1))
    (fp_line (start -5.334 -1.016) (end -4.318 -1.016) (layer F.Fab) (width 0.1))
    (fp_line (start 4.318 1.016) (end 5.334 1.016) (layer F.Fab) (width 0.1))
    (fp_circle (center 0 0) (end -4.3 0) (layer F.SilkS) (width 0.12))
    (fp_line (start -4.445 -0.127) (end -8.255 -0.127) (layer F.SilkS) (width 0.12))
    (fp_line (start -8.255 -0.127) (end -8.255 2.794) (layer F.SilkS) (width 0.12))
    (fp_line (start -8.255 2.794) (end -3.429 2.794) (layer F.SilkS) (width 0.12))
    (fp_line (start -4.59 -0.45) (end -8.55 -0.45) (layer F.CrtYd) (width 0.05))
    (fp_line (start -8.55 -0.45) (end -8.55 3.15) (layer F.CrtYd) (width 0.05))
    (fp_line (start -8.55 3.15) (end -3.37 3.15) (layer F.CrtYd) (width 0.05))
    (fp_line (start 3.37 -3.15) (end 8.55 -3.15) (layer F.CrtYd) (width 0.05))
    (fp_line (start 8.55 -3.15) (end 8.55 0.45) (layer F.CrtYd) (width 0.05))
    (fp_line (start 8.55 0.45) (end 4.59 0.45) (layer F.CrtYd) (width 0.05))
    (fp_line (start -1.27 0) (end 1.27 -1.27) (layer F.Fab) (width 0.1))
    (fp_line (start 1.27 -1.27) (end 1.27 1.27) (layer F.Fab) (width 0.1))
    (fp_line (start -1.27 0) (end 1.27 1.27) (layer F.Fab) (width 0.1))
    (fp_line (start 1.27 1.27) (end 1.27 0) (layer F.Fab) (width 0.1))
    (fp_line (start 1.27 0) (end 2.54 0) (layer F.Fab) (width 0.1))
    (fp_line (start -1.27 -1.27) (end -1.27 1.27) (layer F.Fab) (width 0.1))
    (fp_line (start -2.54 0) (end -1.27 0) (layer F.Fab) (width 0.1))
    (fp_text user %R (at 0 -2.54) (layer F.Fab)
      (effects (font (size 1 1) (thickness 0.15)))
    )
    (fp_arc (start 0 0) (end 4.59 0.45) (angle 131.3332206) (layer F.CrtYd) (width 0.05))
    (fp_arc (start 0 0) (end -4.59 -0.45) (angle 131.3332206) (layer F.CrtYd) (width 0.05))
    (pad 2 smd rect (at 6.35 -1.35) (size 3.5 2.7) (layers F.Cu F.Paste F.Mask)
      (net 1 /LEDtoR))
    (pad 1 smd rect (at -6.35 1.35) (size 3.5 2.7) (layers F.Cu F.Paste F.Mask)
      (net 2 /uCtoLED))
    (pad 3 smd circle (at 0 0) (size 5.7 5.7) (layers F.Cu F.Paste F.Mask))
    (model ${KISYS3DMOD}/LED_SMD.3dshapes/LED_1W_3W_R8.wrl
      (at (xyz 0 0 0))
      (scale (xyz 1 1 1))
      (rotate (xyz 0 0 0))
    )
  )

  (module Resistor_THT:R_Axial_DIN0207_L6.3mm_D2.5mm_P2.54mm_Vertical (layer F.Cu) (tedit 5AE5139B) (tstamp 61970E1C)
    (at 187.96 135.89)
    (descr "Resistor, Axial_DIN0207 series, Axial, Vertical, pin pitch=2.54mm, 0.25W = 1/4W, length*diameter=6.3*2.5mm^2, http://cdn-reichelt.de/documents/datenblatt/B400/1_4W%23YAG.pdf")
    (tags "Resistor Axial_DIN0207 series Axial Vertical pin pitch 2.54mm 0.25W = 1/4W length 6.3mm diameter 2.5mm")
    (path /6169666F)
    (fp_text reference R1 (at 1.27 -2.37) (layer F.SilkS)
      (effects (font (size 1 1) (thickness 0.15)))
    )
    (fp_text value "1 k" (at 1.27 2.37) (layer F.Fab)
      (effects (font (size 1 1) (thickness 0.15)))
    )
    (fp_line (start 3.59 -1.5) (end -1.5 -1.5) (layer F.CrtYd) (width 0.05))
    (fp_line (start 3.59 1.5) (end 3.59 -1.5) (layer F.CrtYd) (width 0.05))
    (fp_line (start -1.5 1.5) (end 3.59 1.5) (layer F.CrtYd) (width 0.05))
    (fp_line (start -1.5 -1.5) (end -1.5 1.5) (layer F.CrtYd) (width 0.05))
    (fp_line (start 1.37 0) (end 1.44 0) (layer F.SilkS) (width 0.12))
    (fp_line (start 0 0) (end 2.54 0) (layer F.Fab) (width 0.1))
    (fp_circle (center 0 0) (end 1.37 0) (layer F.SilkS) (width 0.12))
    (fp_circle (center 0 0) (end 1.25 0) (layer F.Fab) (width 0.1))
    (fp_text user %R (at 1.27 -2.37) (layer F.Fab)
      (effects (font (size 1 1) (thickness 0.15)))
    )
    (pad 1 thru_hole circle (at 0 0) (size 1.6 1.6) (drill 0.8) (layers *.Cu *.Mask)
      (net 3 VCC))
    (pad 2 thru_hole oval (at 2.54 0) (size 1.6 1.6) (drill 0.8) (layers *.Cu *.Mask)
      (net 1 /LEDtoR))
    (model ${KISYS3DMOD}/Resistor_THT.3dshapes/R_Axial_DIN0207_L6.3mm_D2.5mm_P2.54mm_Vertical.wrl
      (at (xyz 0 0 0))
      (scale (xyz 1 1 1))
      (rotate (xyz 0 0 0))
    )
  )

  (module Resistor_THT:R_Axial_DIN0207_L6.3mm_D2.5mm_P2.54mm_Vertical (layer F.Cu) (tedit 5AE5139B) (tstamp 61970E2B)
    (at 180.34 114.3)
    (descr "Resistor, Axial_DIN0207 series, Axial, Vertical, pin pitch=2.54mm, 0.25W = 1/4W, length*diameter=6.3*2.5mm^2, http://cdn-reichelt.de/documents/datenblatt/B400/1_4W%23YAG.pdf")
    (tags "Resistor Axial_DIN0207 series Axial Vertical pin pitch 2.54mm 0.25W = 1/4W length 6.3mm diameter 2.5mm")
    (path /61696B34)
    (fp_text reference R2 (at 1.27 -2.37) (layer F.SilkS)
      (effects (font (size 1 1) (thickness 0.15)))
    )
    (fp_text value 100 (at 1.27 2.37) (layer F.Fab)
      (effects (font (size 1 1) (thickness 0.15)))
    )
    (fp_text user %R (at 1.27 -2.37) (layer F.Fab)
      (effects (font (size 1 1) (thickness 0.15)))
    )
    (fp_circle (center 0 0) (end 1.25 0) (layer F.Fab) (width 0.1))
    (fp_circle (center 0 0) (end 1.37 0) (layer F.SilkS) (width 0.12))
    (fp_line (start 0 0) (end 2.54 0) (layer F.Fab) (width 0.1))
    (fp_line (start 1.37 0) (end 1.44 0) (layer F.SilkS) (width 0.12))
    (fp_line (start -1.5 -1.5) (end -1.5 1.5) (layer F.CrtYd) (width 0.05))
    (fp_line (start -1.5 1.5) (end 3.59 1.5) (layer F.CrtYd) (width 0.05))
    (fp_line (start 3.59 1.5) (end 3.59 -1.5) (layer F.CrtYd) (width 0.05))
    (fp_line (start 3.59 -1.5) (end -1.5 -1.5) (layer F.CrtYd) (width 0.05))
    (pad 2 thru_hole oval (at 2.54 0) (size 1.6 1.6) (drill 0.8) (layers *.Cu *.Mask)
      (net 4 /INPUTtoR))
    (pad 1 thru_hole circle (at 0 0) (size 1.6 1.6) (drill 0.8) (layers *.Cu *.Mask)
      (net 5 /INPUT))
    (model ${KISYS3DMOD}/Resistor_THT.3dshapes/R_Axial_DIN0207_L6.3mm_D2.5mm_P2.54mm_Vertical.wrl
      (at (xyz 0 0 0))
      (scale (xyz 1 1 1))
      (rotate (xyz 0 0 0))
    )
  )

  (module Package_SO:SOIC-28W_7.5x17.9mm_P1.27mm (layer F.Cu) (tedit 5D9F72B1) (tstamp 61970E5E)
    (at 172.72 125.73)
    (descr "SOIC, 28 Pin (JEDEC MS-013AE, https://www.analog.com/media/en/package-pcb-resources/package/35833120341221rw_28.pdf), generated with kicad-footprint-generator ipc_gullwing_generator.py")
    (tags "SOIC SO")
    (path /6173A050)
    (attr smd)
    (fp_text reference U1 (at 0 -9.9) (layer F.SilkS)
      (effects (font (size 1 1) (thickness 0.15)))
    )
    (fp_text value PIC18F24K50-xSO (at 0 9.9) (layer F.Fab)
      (effects (font (size 1 1) (thickness 0.15)))
    )
    (fp_line (start 5.93 -9.2) (end -5.93 -9.2) (layer F.CrtYd) (width 0.05))
    (fp_line (start 5.93 9.2) (end 5.93 -9.2) (layer F.CrtYd) (width 0.05))
    (fp_line (start -5.93 9.2) (end 5.93 9.2) (layer F.CrtYd) (width 0.05))
    (fp_line (start -5.93 -9.2) (end -5.93 9.2) (layer F.CrtYd) (width 0.05))
    (fp_line (start -3.75 -7.95) (end -2.75 -8.95) (layer F.Fab) (width 0.1))
    (fp_line (start -3.75 8.95) (end -3.75 -7.95) (layer F.Fab) (width 0.1))
    (fp_line (start 3.75 8.95) (end -3.75 8.95) (layer F.Fab) (width 0.1))
    (fp_line (start 3.75 -8.95) (end 3.75 8.95) (layer F.Fab) (width 0.1))
    (fp_line (start -2.75 -8.95) (end 3.75 -8.95) (layer F.Fab) (width 0.1))
    (fp_line (start -3.86 -8.815) (end -5.675 -8.815) (layer F.SilkS) (width 0.12))
    (fp_line (start -3.86 -9.06) (end -3.86 -8.815) (layer F.SilkS) (width 0.12))
    (fp_line (start 0 -9.06) (end -3.86 -9.06) (layer F.SilkS) (width 0.12))
    (fp_line (start 3.86 -9.06) (end 3.86 -8.815) (layer F.SilkS) (width 0.12))
    (fp_line (start 0 -9.06) (end 3.86 -9.06) (layer F.SilkS) (width 0.12))
    (fp_line (start -3.86 9.06) (end -3.86 8.815) (layer F.SilkS) (width 0.12))
    (fp_line (start 0 9.06) (end -3.86 9.06) (layer F.SilkS) (width 0.12))
    (fp_line (start 3.86 9.06) (end 3.86 8.815) (layer F.SilkS) (width 0.12))
    (fp_line (start 0 9.06) (end 3.86 9.06) (layer F.SilkS) (width 0.12))
    (fp_text user %R (at 0 0) (layer F.Fab)
      (effects (font (size 1 1) (thickness 0.15)))
    )
    (pad 1 smd roundrect (at -4.65 -8.255) (size 2.05 0.6) (layers F.Cu F.Paste F.Mask) (roundrect_rratio 0.25)
      (net 6 "Net-(U1-Pad1)"))
    (pad 2 smd roundrect (at -4.65 -6.985) (size 2.05 0.6) (layers F.Cu F.Paste F.Mask) (roundrect_rratio 0.25)
      (net 7 "Net-(U1-Pad2)"))
    (pad 3 smd roundrect (at -4.65 -5.715) (size 2.05 0.6) (layers F.Cu F.Paste F.Mask) (roundrect_rratio 0.25)
      (net 8 "Net-(U1-Pad3)"))
    (pad 4 smd roundrect (at -4.65 -4.445) (size 2.05 0.6) (layers F.Cu F.Paste F.Mask) (roundrect_rratio 0.25)
      (net 9 "Net-(U1-Pad4)"))
    (pad 5 smd roundrect (at -4.65 -3.175) (size 2.05 0.6) (layers F.Cu F.Paste F.Mask) (roundrect_rratio 0.25)
      (net 10 "Net-(U1-Pad5)"))
    (pad 6 smd roundrect (at -4.65 -1.905) (size 2.05 0.6) (layers F.Cu F.Paste F.Mask) (roundrect_rratio 0.25)
      (net 11 "Net-(U1-Pad6)"))
    (pad 7 smd roundrect (at -4.65 -0.635) (size 2.05 0.6) (layers F.Cu F.Paste F.Mask) (roundrect_rratio 0.25)
      (net 12 "Net-(U1-Pad7)"))
    (pad 8 smd roundrect (at -4.65 0.635) (size 2.05 0.6) (layers F.Cu F.Paste F.Mask) (roundrect_rratio 0.25)
      (net 13 GND))
    (pad 9 smd roundrect (at -4.65 1.905) (size 2.05 0.6) (layers F.Cu F.Paste F.Mask) (roundrect_rratio 0.25)
      (net 14 "Net-(U1-Pad9)"))
    (pad 10 smd roundrect (at -4.65 3.175) (size 2.05 0.6) (layers F.Cu F.Paste F.Mask) (roundrect_rratio 0.25)
      (net 15 "Net-(U1-Pad10)"))
    (pad 11 smd roundrect (at -4.65 4.445) (size 2.05 0.6) (layers F.Cu F.Paste F.Mask) (roundrect_rratio 0.25)
      (net 16 "Net-(U1-Pad11)"))
    (pad 12 smd roundrect (at -4.65 5.715) (size 2.05 0.6) (layers F.Cu F.Paste F.Mask) (roundrect_rratio 0.25)
      (net 17 "Net-(U1-Pad12)"))
    (pad 13 smd roundrect (at -4.65 6.985) (size 2.05 0.6) (layers F.Cu F.Paste F.Mask) (roundrect_rratio 0.25)
      (net 18 "Net-(U1-Pad13)"))
    (pad 14 smd roundrect (at -4.65 8.255) (size 2.05 0.6) (layers F.Cu F.Paste F.Mask) (roundrect_rratio 0.25)
      (net 19 "Net-(U1-Pad14)"))
    (pad 15 smd roundrect (at 4.65 8.255) (size 2.05 0.6) (layers F.Cu F.Paste F.Mask) (roundrect_rratio 0.25)
      (net 20 "Net-(U1-Pad15)"))
    (pad 16 smd roundrect (at 4.65 6.985) (size 2.05 0.6) (layers F.Cu F.Paste F.Mask) (roundrect_rratio 0.25)
      (net 21 "Net-(U1-Pad16)"))
    (pad 17 smd roundrect (at 4.65 5.715) (size 2.05 0.6) (layers F.Cu F.Paste F.Mask) (roundrect_rratio 0.25)
      (net 22 "Net-(U1-Pad17)"))
    (pad 18 smd roundrect (at 4.65 4.445) (size 2.05 0.6) (layers F.Cu F.Paste F.Mask) (roundrect_rratio 0.25)
      (net 23 "Net-(U1-Pad18)"))
    (pad 19 smd roundrect (at 4.65 3.175) (size 2.05 0.6) (layers F.Cu F.Paste F.Mask) (roundrect_rratio 0.25)
      (net 24 "Net-(U1-Pad19)"))
    (pad 20 smd roundrect (at 4.65 1.905) (size 2.05 0.6) (layers F.Cu F.Paste F.Mask) (roundrect_rratio 0.25)
      (net 3 VCC))
    (pad 21 smd roundrect (at 4.65 0.635) (size 2.05 0.6) (layers F.Cu F.Paste F.Mask) (roundrect_rratio 0.25)
      (net 2 /uCtoLED))
    (pad 22 smd roundrect (at 4.65 -0.635) (size 2.05 0.6) (layers F.Cu F.Paste F.Mask) (roundrect_rratio 0.25)
      (net 25 "Net-(U1-Pad22)"))
    (pad 23 smd roundrect (at 4.65 -1.905) (size 2.05 0.6) (layers F.Cu F.Paste F.Mask) (roundrect_rratio 0.25)
      (net 26 "Net-(U1-Pad23)"))
    (pad 24 smd roundrect (at 4.65 -3.175) (size 2.05 0.6) (layers F.Cu F.Paste F.Mask) (roundrect_rratio 0.25)
      (net 27 "Net-(U1-Pad24)"))
    (pad 25 smd roundrect (at 4.65 -4.445) (size 2.05 0.6) (layers F.Cu F.Paste F.Mask) (roundrect_rratio 0.25)
      (net 5 /INPUT))
    (pad 26 smd roundrect (at 4.65 -5.715) (size 2.05 0.6) (layers F.Cu F.Paste F.Mask) (roundrect_rratio 0.25)
      (net 28 "Net-(U1-Pad26)"))
    (pad 27 smd roundrect (at 4.65 -6.985) (size 2.05 0.6) (layers F.Cu F.Paste F.Mask) (roundrect_rratio 0.25)
      (net 29 "Net-(U1-Pad27)"))
    (pad 28 smd roundrect (at 4.65 -8.255) (size 2.05 0.6) (layers F.Cu F.Paste F.Mask) (roundrect_rratio 0.25)
      (net 30 "Net-(U1-Pad28)"))
    (model ${KISYS3DMOD}/Package_SO.3dshapes/SOIC-28W_7.5x17.9mm_P1.27mm.wrl
      (at (xyz 0 0 0))
      (scale (xyz 1 1 1))
      (rotate (xyz 0 0 0))
    )
  )

  (module Connector:Banana_Jack_3Pin (layer F.Cu) (tedit 5A1AB217) (tstamp 61970E74)
    (at 195.58 100.33 180)
    (descr "Triple banana socket, footprint - 3 x 6mm drills")
    (tags "banana socket")
    (path /61737B39)
    (fp_text reference X1 (at 7.75 -6.25) (layer F.SilkS)
      (effects (font (size 1 1) (thickness 0.15)))
    )
    (fp_text value Разъем (at 22.5 -6.25) (layer F.Fab)
      (effects (font (size 1 1) (thickness 0.15)))
    )
    (fp_arc (start 0 0) (end 0 5.25) (angle 180) (layer F.SilkS) (width 0.12))
    (fp_arc (start 30 0) (end 30 -5.25) (angle 180) (layer F.SilkS) (width 0.12))
    (fp_arc (start 30 0) (end 30 -5.5) (angle 180) (layer F.CrtYd) (width 0.05))
    (fp_arc (start 0 0) (end 0 5.5) (angle 180) (layer F.CrtYd) (width 0.05))
    (fp_text user %R (at 14.99 0) (layer F.Fab)
      (effects (font (size 0.8 0.8) (thickness 0.12)))
    )
    (fp_line (start 30 5.5) (end 0 5.5) (layer F.CrtYd) (width 0.05))
    (fp_line (start 0 -5.5) (end 30 -5.5) (layer F.CrtYd) (width 0.05))
    (fp_line (start 0 5.25) (end 30 5.25) (layer F.SilkS) (width 0.12))
    (fp_line (start 30 -5.25) (end 0 -5.25) (layer F.SilkS) (width 0.12))
    (fp_circle (center 30 0) (end 30 -2) (layer F.Fab) (width 0.1))
    (fp_circle (center 30 0) (end 30 -4.75) (layer F.Fab) (width 0.1))
    (fp_circle (center 15 0) (end 19.75 0) (layer F.Fab) (width 0.1))
    (fp_circle (center 15 0) (end 17 0) (layer F.Fab) (width 0.1))
    (fp_circle (center 0 0) (end 4.75 0) (layer F.Fab) (width 0.1))
    (fp_circle (center 0 0) (end 2 0) (layer F.Fab) (width 0.1))
    (pad 2 thru_hole circle (at 14.99 0 180) (size 10.16 10.16) (drill 6.1) (layers *.Cu *.Mask)
      (net 4 /INPUTtoR))
    (pad 3 thru_hole circle (at 29.97 0 180) (size 10.16 10.16) (drill 6.1) (layers *.Cu *.Mask)
      (net 13 GND))
    (pad 1 thru_hole circle (at 0 0 180) (size 10.16 10.16) (drill 6.1) (layers *.Cu *.Mask)
      (net 3 VCC))
    (model ${KISYS3DMOD}/Connector.3dshapes/Banana_Jack_3Pin.wrl
      (offset (xyz 14.9999997746626 0 0))
      (scale (xyz 2 2 2))
      (rotate (xyz 0 0 0))
    )
  )

  (gr_line (start 208.28 92.71) (end 208.28 142.24) (layer Edge.Cuts) (width 0.1))
  (gr_line (start 157.48 92.71) (end 208.28 92.71) (layer Edge.Cuts) (width 0.1))
  (gr_line (start 157.48 142.24) (end 157.48 92.71) (layer Edge.Cuts) (width 0.1))
  (gr_line (start 208.28 142.24) (end 157.48 142.24) (layer Edge.Cuts) (width 0.1))

  (segment (start 190.5 135.89) (end 200.66 135.89) (width 0.25) (layer F.Cu) (net 1))
  (segment (start 200.66 135.89) (end 200.66 123.11) (width 0.25) (layer F.Cu) (net 1))
  (segment (start 187.405 126.365) (end 187.96 125.81) (width 0.25) (layer F.Cu) (net 2))
  (segment (start 177.37 126.365) (end 187.405 126.365) (width 0.25) (layer F.Cu) (net 2))
  (segment (start 187.96 135.89) (end 184.15 135.89) (width 0.5) (layer F.Cu) (net 3))
  (segment (start 184.15 135.89) (end 184.15 128.27) (width 0.5) (layer F.Cu) (net 3))
  (segment (start 178.397808 127.635) (end 177.37 127.635) (width 0.5) (layer F.Cu) (net 3))
  (segment (start 179.032808 128.27) (end 178.397808 127.635) (width 0.5) (layer F.Cu) (net 3))
  (segment (start 184.15 128.27) (end 179.032808 128.27) (width 0.5) (layer F.Cu) (net 3))
  (segment (start 184.15 139.7) (end 184.15 135.89) (width 0.5) (layer F.Cu) (net 3))
  (segment (start 204.47 139.7) (end 184.15 139.7) (width 0.5) (layer F.Cu) (net 3))
  (segment (start 204.47 119.38) (end 204.47 139.7) (width 0.5) (layer F.Cu) (net 3))
  (segment (start 195.58 110.49) (end 204.47 119.38) (width 0.5) (layer F.Cu) (net 3))
  (segment (start 195.58 100.33) (end 195.58 110.49) (width 0.5) (layer F.Cu) (net 3))
  (segment (start 180.59 100.33) (end 180.59 108.2) (width 0.25) (layer F.Cu) (net 4))
  (segment (start 180.59 108.2) (end 182.88 110.49) (width 0.25) (layer F.Cu) (net 4))
  (segment (start 182.88 110.49) (end 182.88 114.3) (width 0.25) (layer F.Cu) (net 4))
  (segment (start 177.37 121.285) (end 179.705 121.285) (width 0.25) (layer F.Cu) (net 5))
  (segment (start 180.34 120.65) (end 180.34 114.3) (width 0.25) (layer F.Cu) (net 5))
  (segment (start 179.705 121.285) (end 180.34 120.65) (width 0.25) (layer F.Cu) (net 5))
  (via (at 165.1 123.19) (size 0.8) (drill 0.4) (layers F.Cu B.Cu) (net 13))
  (segment (start 165.1 124.422808) (end 165.1 123.19) (width 0.5) (layer F.Cu) (net 13))
  (segment (start 167.042192 126.365) (end 165.1 124.422808) (width 0.5) (layer F.Cu) (net 13))
  (segment (start 168.07 126.365) (end 167.042192 126.365) (width 0.5) (layer F.Cu) (net 13))
  (segment (start 165.1 100.84) (end 165.61 100.33) (width 0.5) (layer B.Cu) (net 13))
  (segment (start 165.1 123.19) (end 165.1 100.84) (width 0.5) (layer B.Cu) (net 13))

  (zone (net 13) (net_name GND) (layer B.Cu) (tstamp 61971A7A) (hatch edge 0.508)
    (connect_pads (clearance 0.508))
    (min_thickness 0.254)
    (fill yes (arc_segments 32) (thermal_gap 0.508) (thermal_bridge_width 0.508))
    (polygon
      (pts
        (xy 207.01 140.97) (xy 158.75 140.97) (xy 158.75 93.98) (xy 207.01 93.98)
      )
    )
    (filled_polygon
      (pts
        (xy 206.883 140.843) (xy 158.877 140.843) (xy 158.877 135.748665) (xy 186.525 135.748665) (xy 186.525 136.031335)
        (xy 186.580147 136.308574) (xy 186.68832 136.569727) (xy 186.845363 136.804759) (xy 187.045241 137.004637) (xy 187.280273 137.16168)
        (xy 187.541426 137.269853) (xy 187.818665 137.325) (xy 188.101335 137.325) (xy 188.378574 137.269853) (xy 188.639727 137.16168)
        (xy 188.874759 137.004637) (xy 189.074637 136.804759) (xy 189.23 136.572241) (xy 189.385363 136.804759) (xy 189.585241 137.004637)
        (xy 189.820273 137.16168) (xy 190.081426 137.269853) (xy 190.358665 137.325) (xy 190.641335 137.325) (xy 190.918574 137.269853)
        (xy 191.179727 137.16168) (xy 191.414759 137.004637) (xy 191.614637 136.804759) (xy 191.77168 136.569727) (xy 191.879853 136.308574)
        (xy 191.935 136.031335) (xy 191.935 135.748665) (xy 191.879853 135.471426) (xy 191.77168 135.210273) (xy 191.614637 134.975241)
        (xy 191.414759 134.775363) (xy 191.179727 134.61832) (xy 190.918574 134.510147) (xy 190.641335 134.455) (xy 190.358665 134.455)
        (xy 190.081426 134.510147) (xy 189.820273 134.61832) (xy 189.585241 134.775363) (xy 189.385363 134.975241) (xy 189.23 135.207759)
        (xy 189.074637 134.975241) (xy 188.874759 134.775363) (xy 188.639727 134.61832) (xy 188.378574 134.510147) (xy 188.101335 134.455)
        (xy 187.818665 134.455) (xy 187.541426 134.510147) (xy 187.280273 134.61832) (xy 187.045241 134.775363) (xy 186.845363 134.975241)
        (xy 186.68832 135.210273) (xy 186.580147 135.471426) (xy 186.525 135.748665) (xy 158.877 135.748665) (xy 158.877 114.158665)
        (xy 178.905 114.158665) (xy 178.905 114.441335) (xy 178.960147 114.718574) (xy 179.06832 114.979727) (xy 179.225363 115.214759)
        (xy 179.425241 115.414637) (xy 179.660273 115.57168) (xy 179.921426 115.679853) (xy 180.198665 115.735) (xy 180.481335 115.735)
        (xy 180.758574 115.679853) (xy 181.019727 115.57168) (xy 181.254759 115.414637) (xy 181.454637 115.214759) (xy 181.61 114.982241)
        (xy 181.765363 115.214759) (xy 181.965241 115.414637) (xy 182.200273 115.57168) (xy 182.461426 115.679853) (xy 182.738665 115.735)
        (xy 183.021335 115.735) (xy 183.298574 115.679853) (xy 183.559727 115.57168) (xy 183.794759 115.414637) (xy 183.994637 115.214759)
        (xy 184.15168 114.979727) (xy 184.259853 114.718574) (xy 184.315 114.441335) (xy 184.315 114.158665) (xy 184.259853 113.881426)
        (xy 184.15168 113.620273) (xy 183.994637 113.385241) (xy 183.794759 113.185363) (xy 183.559727 113.02832) (xy 183.298574 112.920147)
        (xy 183.021335 112.865) (xy 182.738665 112.865) (xy 182.461426 112.920147) (xy 182.200273 113.02832) (xy 181.965241 113.185363)
        (xy 181.765363 113.385241) (xy 181.61 113.617759) (xy 181.454637 113.385241) (xy 181.254759 113.185363) (xy 181.019727 113.02832)
        (xy 180.758574 112.920147) (xy 180.481335 112.865) (xy 180.198665 112.865) (xy 179.921426 112.920147) (xy 179.660273 113.02832)
        (xy 179.425241 113.185363) (xy 179.225363 113.385241) (xy 179.06832 113.620273) (xy 178.960147 113.881426) (xy 178.905 114.158665)
        (xy 158.877 114.158665) (xy 158.877 104.367196) (xy 161.752409 104.367196) (xy 162.338124 105.049416) (xy 163.321704 105.597045)
        (xy 164.393223 105.942265) (xy 165.511501 106.071808) (xy 166.633565 105.980697) (xy 167.716294 105.672433) (xy 168.718079 105.158863)
        (xy 168.881876 105.049416) (xy 169.467591 104.367196) (xy 165.61 100.509605) (xy 161.752409 104.367196) (xy 158.877 104.367196)
        (xy 158.877 100.231501) (xy 159.868192 100.231501) (xy 159.959303 101.353565) (xy 160.267567 102.436294) (xy 160.781137 103.438079)
        (xy 160.890584 103.601876) (xy 161.572804 104.187591) (xy 165.430395 100.33) (xy 165.789605 100.33) (xy 169.647196 104.187591)
        (xy 170.329416 103.601876) (xy 170.877045 102.618296) (xy 171.222265 101.546777) (xy 171.351808 100.428499) (xy 171.298105 99.767122)
        (xy 174.875 99.767122) (xy 174.875 100.892878) (xy 175.094625 101.997004) (xy 175.525433 103.037067) (xy 176.15087 103.9731)
        (xy 176.9469 104.76913) (xy 177.882933 105.394567) (xy 178.922996 105.825375) (xy 180.027122 106.045) (xy 181.152878 106.045)
        (xy 182.257004 105.825375) (xy 183.297067 105.394567) (xy 184.2331 104.76913) (xy 185.02913 103.9731) (xy 185.654567 103.037067)
        (xy 186.085375 101.997004) (xy 186.305 100.892878) (xy 186.305 99.767122) (xy 189.865 99.767122) (xy 189.865 100.892878)
        (xy 190.084625 101.997004) (xy 190.515433 103.037067) (xy 191.14087 103.9731) (xy 191.9369 104.76913) (xy 192.872933 105.394567)
        (xy 193.912996 105.825375) (xy 195.017122 106.045) (xy 196.142878 106.045) (xy 197.247004 105.825375) (xy 198.287067 105.394567)
        (xy 199.2231 104.76913) (xy 200.01913 103.9731) (xy 200.644567 103.037067) (xy 201.075375 101.997004) (xy 201.295 100.892878)
        (xy 201.295 99.767122) (xy 201.075375 98.662996) (xy 200.644567 97.622933) (xy 200.01913 96.6869) (xy 199.2231 95.89087)
        (xy 198.287067 95.265433) (xy 197.247004 94.834625) (xy 196.142878 94.615) (xy 195.017122 94.615) (xy 193.912996 94.834625)
        (xy 192.872933 95.265433) (xy 191.9369 95.89087) (xy 191.14087 96.6869) (xy 190.515433 97.622933) (xy 190.084625 98.662996)
        (xy 189.865 99.767122) (xy 186.305 99.767122) (xy 186.085375 98.662996) (xy 185.654567 97.622933) (xy 185.02913 96.6869)
        (xy 184.2331 95.89087) (xy 183.297067 95.265433) (xy 182.257004 94.834625) (xy 181.152878 94.615) (xy 180.027122 94.615)
        (xy 178.922996 94.834625) (xy 177.882933 95.265433) (xy 176.9469 95.89087) (xy 176.15087 96.6869) (xy 175.525433 97.622933)
        (xy 175.094625 98.662996) (xy 174.875 99.767122) (xy 171.298105 99.767122) (xy 171.260697 99.306435) (xy 170.952433 98.223706)
        (xy 170.438863 97.221921) (xy 170.329416 97.058124) (xy 169.647196 96.472409) (xy 165.789605 100.33) (xy 165.430395 100.33)
        (xy 161.572804 96.472409) (xy 160.890584 97.058124) (xy 160.342955 98.041704) (xy 159.997735 99.113223) (xy 159.868192 100.231501)
        (xy 158.877 100.231501) (xy 158.877 96.292804) (xy 161.752409 96.292804) (xy 165.61 100.150395) (xy 169.467591 96.292804)
        (xy 168.881876 95.610584) (xy 167.898296 95.062955) (xy 166.826777 94.717735) (xy 165.708499 94.588192) (xy 164.586435 94.679303)
        (xy 163.503706 94.987567) (xy 162.501921 95.501137) (xy 162.338124 95.610584) (xy 161.752409 96.292804) (xy 158.877 96.292804)
        (xy 158.877 94.107) (xy 206.883 94.107)
      )
    )
  )
)
