M48
; DRILL file {KiCad (5.1.10)-1} date 11/18/21 22:16:50
; FORMAT={-:-/ absolute / inch / decimal}
; #@! TF.CreationDate,2021-11-18T22:16:50+03:00
; #@! TF.GenerationSoftware,Kicad,Pcbnew,(5.1.10)-1
; #@! TF.FileFunction,Plated,1,2,PTH
FMAT,2
INCH
T1C0.0157
T2C0.0315
T3C0.2402
%
G90
G05
T1
X6.5Y-4.85
T2
X7.1Y-4.5
X7.2Y-4.5
X7.4Y-5.35
X7.5Y-5.35
T3
X6.5201Y-3.95
X7.1098Y-3.95
X7.7Y-3.95
T0
M30
