%TF.GenerationSoftware,KiCad,Pcbnew,(5.1.10)-1*%
%TF.CreationDate,2021-11-22T01:54:13+03:00*%
%TF.ProjectId,lab3,6c616233-2e6b-4696-9361-645f70636258,rev?*%
%TF.SameCoordinates,Original*%
%TF.FileFunction,Paste,Top*%
%TF.FilePolarity,Positive*%
%FSLAX46Y46*%
G04 Gerber Fmt 4.6, Leading zero omitted, Abs format (unit mm)*
G04 Created by KiCad (PCBNEW (5.1.10)-1) date 2021-11-22 01:54:13*
%MOMM*%
%LPD*%
G01*
G04 APERTURE LIST*
G04 APERTURE END LIST*
%TO.C,U1*%
G36*
G01*
X127579999Y-90974999D02*
X127579999Y-91274999D01*
G75*
G02*
X127429999Y-91424999I-150000J0D01*
G01*
X125679999Y-91424999D01*
G75*
G02*
X125529999Y-91274999I0J150000D01*
G01*
X125529999Y-90974999D01*
G75*
G02*
X125679999Y-90824999I150000J0D01*
G01*
X127429999Y-90824999D01*
G75*
G02*
X127579999Y-90974999I0J-150000D01*
G01*
G37*
G36*
G01*
X127579999Y-89704999D02*
X127579999Y-90004999D01*
G75*
G02*
X127429999Y-90154999I-150000J0D01*
G01*
X125679999Y-90154999D01*
G75*
G02*
X125529999Y-90004999I0J150000D01*
G01*
X125529999Y-89704999D01*
G75*
G02*
X125679999Y-89554999I150000J0D01*
G01*
X127429999Y-89554999D01*
G75*
G02*
X127579999Y-89704999I0J-150000D01*
G01*
G37*
G36*
G01*
X127579999Y-88434999D02*
X127579999Y-88734999D01*
G75*
G02*
X127429999Y-88884999I-150000J0D01*
G01*
X125679999Y-88884999D01*
G75*
G02*
X125529999Y-88734999I0J150000D01*
G01*
X125529999Y-88434999D01*
G75*
G02*
X125679999Y-88284999I150000J0D01*
G01*
X127429999Y-88284999D01*
G75*
G02*
X127579999Y-88434999I0J-150000D01*
G01*
G37*
G36*
G01*
X127579999Y-87164999D02*
X127579999Y-87464999D01*
G75*
G02*
X127429999Y-87614999I-150000J0D01*
G01*
X125679999Y-87614999D01*
G75*
G02*
X125529999Y-87464999I0J150000D01*
G01*
X125529999Y-87164999D01*
G75*
G02*
X125679999Y-87014999I150000J0D01*
G01*
X127429999Y-87014999D01*
G75*
G02*
X127579999Y-87164999I0J-150000D01*
G01*
G37*
G36*
G01*
X127579999Y-85894999D02*
X127579999Y-86194999D01*
G75*
G02*
X127429999Y-86344999I-150000J0D01*
G01*
X125679999Y-86344999D01*
G75*
G02*
X125529999Y-86194999I0J150000D01*
G01*
X125529999Y-85894999D01*
G75*
G02*
X125679999Y-85744999I150000J0D01*
G01*
X127429999Y-85744999D01*
G75*
G02*
X127579999Y-85894999I0J-150000D01*
G01*
G37*
G36*
G01*
X127579999Y-84624999D02*
X127579999Y-84924999D01*
G75*
G02*
X127429999Y-85074999I-150000J0D01*
G01*
X125679999Y-85074999D01*
G75*
G02*
X125529999Y-84924999I0J150000D01*
G01*
X125529999Y-84624999D01*
G75*
G02*
X125679999Y-84474999I150000J0D01*
G01*
X127429999Y-84474999D01*
G75*
G02*
X127579999Y-84624999I0J-150000D01*
G01*
G37*
G36*
G01*
X127579999Y-83354999D02*
X127579999Y-83654999D01*
G75*
G02*
X127429999Y-83804999I-150000J0D01*
G01*
X125679999Y-83804999D01*
G75*
G02*
X125529999Y-83654999I0J150000D01*
G01*
X125529999Y-83354999D01*
G75*
G02*
X125679999Y-83204999I150000J0D01*
G01*
X127429999Y-83204999D01*
G75*
G02*
X127579999Y-83354999I0J-150000D01*
G01*
G37*
G36*
G01*
X127579999Y-82084999D02*
X127579999Y-82384999D01*
G75*
G02*
X127429999Y-82534999I-150000J0D01*
G01*
X125679999Y-82534999D01*
G75*
G02*
X125529999Y-82384999I0J150000D01*
G01*
X125529999Y-82084999D01*
G75*
G02*
X125679999Y-81934999I150000J0D01*
G01*
X127429999Y-81934999D01*
G75*
G02*
X127579999Y-82084999I0J-150000D01*
G01*
G37*
G36*
G01*
X127579999Y-80814999D02*
X127579999Y-81114999D01*
G75*
G02*
X127429999Y-81264999I-150000J0D01*
G01*
X125679999Y-81264999D01*
G75*
G02*
X125529999Y-81114999I0J150000D01*
G01*
X125529999Y-80814999D01*
G75*
G02*
X125679999Y-80664999I150000J0D01*
G01*
X127429999Y-80664999D01*
G75*
G02*
X127579999Y-80814999I0J-150000D01*
G01*
G37*
G36*
G01*
X136879999Y-80814999D02*
X136879999Y-81114999D01*
G75*
G02*
X136729999Y-81264999I-150000J0D01*
G01*
X134979999Y-81264999D01*
G75*
G02*
X134829999Y-81114999I0J150000D01*
G01*
X134829999Y-80814999D01*
G75*
G02*
X134979999Y-80664999I150000J0D01*
G01*
X136729999Y-80664999D01*
G75*
G02*
X136879999Y-80814999I0J-150000D01*
G01*
G37*
G36*
G01*
X136879999Y-82084999D02*
X136879999Y-82384999D01*
G75*
G02*
X136729999Y-82534999I-150000J0D01*
G01*
X134979999Y-82534999D01*
G75*
G02*
X134829999Y-82384999I0J150000D01*
G01*
X134829999Y-82084999D01*
G75*
G02*
X134979999Y-81934999I150000J0D01*
G01*
X136729999Y-81934999D01*
G75*
G02*
X136879999Y-82084999I0J-150000D01*
G01*
G37*
G36*
G01*
X136879999Y-83354999D02*
X136879999Y-83654999D01*
G75*
G02*
X136729999Y-83804999I-150000J0D01*
G01*
X134979999Y-83804999D01*
G75*
G02*
X134829999Y-83654999I0J150000D01*
G01*
X134829999Y-83354999D01*
G75*
G02*
X134979999Y-83204999I150000J0D01*
G01*
X136729999Y-83204999D01*
G75*
G02*
X136879999Y-83354999I0J-150000D01*
G01*
G37*
G36*
G01*
X136879999Y-84624999D02*
X136879999Y-84924999D01*
G75*
G02*
X136729999Y-85074999I-150000J0D01*
G01*
X134979999Y-85074999D01*
G75*
G02*
X134829999Y-84924999I0J150000D01*
G01*
X134829999Y-84624999D01*
G75*
G02*
X134979999Y-84474999I150000J0D01*
G01*
X136729999Y-84474999D01*
G75*
G02*
X136879999Y-84624999I0J-150000D01*
G01*
G37*
G36*
G01*
X136879999Y-85894999D02*
X136879999Y-86194999D01*
G75*
G02*
X136729999Y-86344999I-150000J0D01*
G01*
X134979999Y-86344999D01*
G75*
G02*
X134829999Y-86194999I0J150000D01*
G01*
X134829999Y-85894999D01*
G75*
G02*
X134979999Y-85744999I150000J0D01*
G01*
X136729999Y-85744999D01*
G75*
G02*
X136879999Y-85894999I0J-150000D01*
G01*
G37*
G36*
G01*
X136879999Y-87164999D02*
X136879999Y-87464999D01*
G75*
G02*
X136729999Y-87614999I-150000J0D01*
G01*
X134979999Y-87614999D01*
G75*
G02*
X134829999Y-87464999I0J150000D01*
G01*
X134829999Y-87164999D01*
G75*
G02*
X134979999Y-87014999I150000J0D01*
G01*
X136729999Y-87014999D01*
G75*
G02*
X136879999Y-87164999I0J-150000D01*
G01*
G37*
G36*
G01*
X136879999Y-88434999D02*
X136879999Y-88734999D01*
G75*
G02*
X136729999Y-88884999I-150000J0D01*
G01*
X134979999Y-88884999D01*
G75*
G02*
X134829999Y-88734999I0J150000D01*
G01*
X134829999Y-88434999D01*
G75*
G02*
X134979999Y-88284999I150000J0D01*
G01*
X136729999Y-88284999D01*
G75*
G02*
X136879999Y-88434999I0J-150000D01*
G01*
G37*
G36*
G01*
X136879999Y-89704999D02*
X136879999Y-90004999D01*
G75*
G02*
X136729999Y-90154999I-150000J0D01*
G01*
X134979999Y-90154999D01*
G75*
G02*
X134829999Y-90004999I0J150000D01*
G01*
X134829999Y-89704999D01*
G75*
G02*
X134979999Y-89554999I150000J0D01*
G01*
X136729999Y-89554999D01*
G75*
G02*
X136879999Y-89704999I0J-150000D01*
G01*
G37*
G36*
G01*
X136879999Y-90974999D02*
X136879999Y-91274999D01*
G75*
G02*
X136729999Y-91424999I-150000J0D01*
G01*
X134979999Y-91424999D01*
G75*
G02*
X134829999Y-91274999I0J150000D01*
G01*
X134829999Y-90974999D01*
G75*
G02*
X134979999Y-90824999I150000J0D01*
G01*
X136729999Y-90824999D01*
G75*
G02*
X136879999Y-90974999I0J-150000D01*
G01*
G37*
%TD*%
M02*
