%TF.GenerationSoftware,KiCad,Pcbnew,(5.1.10)-1*%
%TF.CreationDate,2021-11-22T01:54:13+03:00*%
%TF.ProjectId,lab3,6c616233-2e6b-4696-9361-645f70636258,rev?*%
%TF.SameCoordinates,Original*%
%TF.FileFunction,Soldermask,Bot*%
%TF.FilePolarity,Negative*%
%FSLAX46Y46*%
G04 Gerber Fmt 4.6, Leading zero omitted, Abs format (unit mm)*
G04 Created by KiCad (PCBNEW (5.1.10)-1) date 2021-11-22 01:54:13*
%MOMM*%
%LPD*%
G01*
G04 APERTURE LIST*
%ADD10C,1.800000*%
%ADD11R,1.800000X1.800000*%
%ADD12C,1.600000*%
%ADD13O,1.600000X1.600000*%
%ADD14C,10.160000*%
G04 APERTURE END LIST*
D10*
%TO.C,D1*%
X116840000Y-90170000D03*
D11*
X119380000Y-90170000D03*
%TD*%
D12*
%TO.C,R1*%
X125730000Y-96520000D03*
D13*
X125730000Y-99060000D03*
%TD*%
%TO.C,R2*%
X111760000Y-86360000D03*
D12*
X111760000Y-83820000D03*
%TD*%
D14*
%TO.C,X1*%
X120910000Y-107950000D03*
X135890000Y-107950000D03*
X105920000Y-107950000D03*
%TD*%
M02*
