%TF.GenerationSoftware,KiCad,Pcbnew,(5.1.10)-1*%
%TF.CreationDate,2021-12-16T22:25:24+03:00*%
%TF.ProjectId,tutorial1,7475746f-7269-4616-9c31-2e6b69636164,rev?*%
%TF.SameCoordinates,Original*%
%TF.FileFunction,Soldermask,Top*%
%TF.FilePolarity,Negative*%
%FSLAX46Y46*%
G04 Gerber Fmt 4.6, Leading zero omitted, Abs format (unit mm)*
G04 Created by KiCad (PCBNEW (5.1.10)-1) date 2021-12-16 22:25:24*
%MOMM*%
%LPD*%
G01*
G04 APERTURE LIST*
%ADD10R,1.800000X1.800000*%
%ADD11C,1.800000*%
%ADD12C,1.600000*%
%ADD13O,1.600000X1.600000*%
%ADD14C,10.160000*%
G04 APERTURE END LIST*
D10*
%TO.C,D1*%
X120650000Y-87630000D03*
D11*
X118110000Y-87630000D03*
%TD*%
D12*
%TO.C,R1*%
X113030000Y-109220000D03*
D13*
X113030000Y-106680000D03*
%TD*%
%TO.C,R2*%
X157480000Y-91440000D03*
D12*
X157480000Y-88900000D03*
%TD*%
%TO.C,U2*%
G36*
G01*
X130845000Y-100660000D02*
X130595000Y-100660000D01*
G75*
G02*
X130470000Y-100535000I0J125000D01*
G01*
X130470000Y-98885000D01*
G75*
G02*
X130595000Y-98760000I125000J0D01*
G01*
X130845000Y-98760000D01*
G75*
G02*
X130970000Y-98885000I0J-125000D01*
G01*
X130970000Y-100535000D01*
G75*
G02*
X130845000Y-100660000I-125000J0D01*
G01*
G37*
G36*
G01*
X131495000Y-100660000D02*
X131245000Y-100660000D01*
G75*
G02*
X131120000Y-100535000I0J125000D01*
G01*
X131120000Y-98885000D01*
G75*
G02*
X131245000Y-98760000I125000J0D01*
G01*
X131495000Y-98760000D01*
G75*
G02*
X131620000Y-98885000I0J-125000D01*
G01*
X131620000Y-100535000D01*
G75*
G02*
X131495000Y-100660000I-125000J0D01*
G01*
G37*
G36*
G01*
X132145000Y-100660000D02*
X131895000Y-100660000D01*
G75*
G02*
X131770000Y-100535000I0J125000D01*
G01*
X131770000Y-98885000D01*
G75*
G02*
X131895000Y-98760000I125000J0D01*
G01*
X132145000Y-98760000D01*
G75*
G02*
X132270000Y-98885000I0J-125000D01*
G01*
X132270000Y-100535000D01*
G75*
G02*
X132145000Y-100660000I-125000J0D01*
G01*
G37*
G36*
G01*
X132795000Y-100660000D02*
X132545000Y-100660000D01*
G75*
G02*
X132420000Y-100535000I0J125000D01*
G01*
X132420000Y-98885000D01*
G75*
G02*
X132545000Y-98760000I125000J0D01*
G01*
X132795000Y-98760000D01*
G75*
G02*
X132920000Y-98885000I0J-125000D01*
G01*
X132920000Y-100535000D01*
G75*
G02*
X132795000Y-100660000I-125000J0D01*
G01*
G37*
G36*
G01*
X133445000Y-100660000D02*
X133195000Y-100660000D01*
G75*
G02*
X133070000Y-100535000I0J125000D01*
G01*
X133070000Y-98885000D01*
G75*
G02*
X133195000Y-98760000I125000J0D01*
G01*
X133445000Y-98760000D01*
G75*
G02*
X133570000Y-98885000I0J-125000D01*
G01*
X133570000Y-100535000D01*
G75*
G02*
X133445000Y-100660000I-125000J0D01*
G01*
G37*
G36*
G01*
X134095000Y-100660000D02*
X133845000Y-100660000D01*
G75*
G02*
X133720000Y-100535000I0J125000D01*
G01*
X133720000Y-98885000D01*
G75*
G02*
X133845000Y-98760000I125000J0D01*
G01*
X134095000Y-98760000D01*
G75*
G02*
X134220000Y-98885000I0J-125000D01*
G01*
X134220000Y-100535000D01*
G75*
G02*
X134095000Y-100660000I-125000J0D01*
G01*
G37*
G36*
G01*
X134745000Y-100660000D02*
X134495000Y-100660000D01*
G75*
G02*
X134370000Y-100535000I0J125000D01*
G01*
X134370000Y-98885000D01*
G75*
G02*
X134495000Y-98760000I125000J0D01*
G01*
X134745000Y-98760000D01*
G75*
G02*
X134870000Y-98885000I0J-125000D01*
G01*
X134870000Y-100535000D01*
G75*
G02*
X134745000Y-100660000I-125000J0D01*
G01*
G37*
G36*
G01*
X135395000Y-100660000D02*
X135145000Y-100660000D01*
G75*
G02*
X135020000Y-100535000I0J125000D01*
G01*
X135020000Y-98885000D01*
G75*
G02*
X135145000Y-98760000I125000J0D01*
G01*
X135395000Y-98760000D01*
G75*
G02*
X135520000Y-98885000I0J-125000D01*
G01*
X135520000Y-100535000D01*
G75*
G02*
X135395000Y-100660000I-125000J0D01*
G01*
G37*
G36*
G01*
X136045000Y-100660000D02*
X135795000Y-100660000D01*
G75*
G02*
X135670000Y-100535000I0J125000D01*
G01*
X135670000Y-98885000D01*
G75*
G02*
X135795000Y-98760000I125000J0D01*
G01*
X136045000Y-98760000D01*
G75*
G02*
X136170000Y-98885000I0J-125000D01*
G01*
X136170000Y-100535000D01*
G75*
G02*
X136045000Y-100660000I-125000J0D01*
G01*
G37*
G36*
G01*
X136695000Y-100660000D02*
X136445000Y-100660000D01*
G75*
G02*
X136320000Y-100535000I0J125000D01*
G01*
X136320000Y-98885000D01*
G75*
G02*
X136445000Y-98760000I125000J0D01*
G01*
X136695000Y-98760000D01*
G75*
G02*
X136820000Y-98885000I0J-125000D01*
G01*
X136820000Y-100535000D01*
G75*
G02*
X136695000Y-100660000I-125000J0D01*
G01*
G37*
G36*
G01*
X136695000Y-93660000D02*
X136445000Y-93660000D01*
G75*
G02*
X136320000Y-93535000I0J125000D01*
G01*
X136320000Y-91885000D01*
G75*
G02*
X136445000Y-91760000I125000J0D01*
G01*
X136695000Y-91760000D01*
G75*
G02*
X136820000Y-91885000I0J-125000D01*
G01*
X136820000Y-93535000D01*
G75*
G02*
X136695000Y-93660000I-125000J0D01*
G01*
G37*
G36*
G01*
X136045000Y-93660000D02*
X135795000Y-93660000D01*
G75*
G02*
X135670000Y-93535000I0J125000D01*
G01*
X135670000Y-91885000D01*
G75*
G02*
X135795000Y-91760000I125000J0D01*
G01*
X136045000Y-91760000D01*
G75*
G02*
X136170000Y-91885000I0J-125000D01*
G01*
X136170000Y-93535000D01*
G75*
G02*
X136045000Y-93660000I-125000J0D01*
G01*
G37*
G36*
G01*
X135395000Y-93660000D02*
X135145000Y-93660000D01*
G75*
G02*
X135020000Y-93535000I0J125000D01*
G01*
X135020000Y-91885000D01*
G75*
G02*
X135145000Y-91760000I125000J0D01*
G01*
X135395000Y-91760000D01*
G75*
G02*
X135520000Y-91885000I0J-125000D01*
G01*
X135520000Y-93535000D01*
G75*
G02*
X135395000Y-93660000I-125000J0D01*
G01*
G37*
G36*
G01*
X134745000Y-93660000D02*
X134495000Y-93660000D01*
G75*
G02*
X134370000Y-93535000I0J125000D01*
G01*
X134370000Y-91885000D01*
G75*
G02*
X134495000Y-91760000I125000J0D01*
G01*
X134745000Y-91760000D01*
G75*
G02*
X134870000Y-91885000I0J-125000D01*
G01*
X134870000Y-93535000D01*
G75*
G02*
X134745000Y-93660000I-125000J0D01*
G01*
G37*
G36*
G01*
X134095000Y-93660000D02*
X133845000Y-93660000D01*
G75*
G02*
X133720000Y-93535000I0J125000D01*
G01*
X133720000Y-91885000D01*
G75*
G02*
X133845000Y-91760000I125000J0D01*
G01*
X134095000Y-91760000D01*
G75*
G02*
X134220000Y-91885000I0J-125000D01*
G01*
X134220000Y-93535000D01*
G75*
G02*
X134095000Y-93660000I-125000J0D01*
G01*
G37*
G36*
G01*
X133445000Y-93660000D02*
X133195000Y-93660000D01*
G75*
G02*
X133070000Y-93535000I0J125000D01*
G01*
X133070000Y-91885000D01*
G75*
G02*
X133195000Y-91760000I125000J0D01*
G01*
X133445000Y-91760000D01*
G75*
G02*
X133570000Y-91885000I0J-125000D01*
G01*
X133570000Y-93535000D01*
G75*
G02*
X133445000Y-93660000I-125000J0D01*
G01*
G37*
G36*
G01*
X132795000Y-93660000D02*
X132545000Y-93660000D01*
G75*
G02*
X132420000Y-93535000I0J125000D01*
G01*
X132420000Y-91885000D01*
G75*
G02*
X132545000Y-91760000I125000J0D01*
G01*
X132795000Y-91760000D01*
G75*
G02*
X132920000Y-91885000I0J-125000D01*
G01*
X132920000Y-93535000D01*
G75*
G02*
X132795000Y-93660000I-125000J0D01*
G01*
G37*
G36*
G01*
X132145000Y-93660000D02*
X131895000Y-93660000D01*
G75*
G02*
X131770000Y-93535000I0J125000D01*
G01*
X131770000Y-91885000D01*
G75*
G02*
X131895000Y-91760000I125000J0D01*
G01*
X132145000Y-91760000D01*
G75*
G02*
X132270000Y-91885000I0J-125000D01*
G01*
X132270000Y-93535000D01*
G75*
G02*
X132145000Y-93660000I-125000J0D01*
G01*
G37*
G36*
G01*
X131495000Y-93660000D02*
X131245000Y-93660000D01*
G75*
G02*
X131120000Y-93535000I0J125000D01*
G01*
X131120000Y-91885000D01*
G75*
G02*
X131245000Y-91760000I125000J0D01*
G01*
X131495000Y-91760000D01*
G75*
G02*
X131620000Y-91885000I0J-125000D01*
G01*
X131620000Y-93535000D01*
G75*
G02*
X131495000Y-93660000I-125000J0D01*
G01*
G37*
G36*
G01*
X130845000Y-93660000D02*
X130595000Y-93660000D01*
G75*
G02*
X130470000Y-93535000I0J125000D01*
G01*
X130470000Y-91885000D01*
G75*
G02*
X130595000Y-91760000I125000J0D01*
G01*
X130845000Y-91760000D01*
G75*
G02*
X130970000Y-91885000I0J-125000D01*
G01*
X130970000Y-93535000D01*
G75*
G02*
X130845000Y-93660000I-125000J0D01*
G01*
G37*
%TD*%
D14*
%TO.C,X1*%
X122170000Y-128270000D03*
X152140000Y-128270000D03*
X137160000Y-128270000D03*
%TD*%
M02*
