%TF.GenerationSoftware,KiCad,Pcbnew,(5.1.10)-1*%
%TF.CreationDate,2021-11-23T20:15:36+03:00*%
%TF.ProjectId,Zel_Art_Lab1,5a656c5f-4172-4745-9f4c-6162312e6b69,rev?*%
%TF.SameCoordinates,Original*%
%TF.FileFunction,Copper,L1,Top*%
%TF.FilePolarity,Positive*%
%FSLAX46Y46*%
G04 Gerber Fmt 4.6, Leading zero omitted, Abs format (unit mm)*
G04 Created by KiCad (PCBNEW (5.1.10)-1) date 2021-11-23 20:15:36*
%MOMM*%
%LPD*%
G01*
G04 APERTURE LIST*
%TA.AperFunction,ComponentPad*%
%ADD10C,10.160000*%
%TD*%
%TA.AperFunction,ComponentPad*%
%ADD11O,1.600000X1.600000*%
%TD*%
%TA.AperFunction,ComponentPad*%
%ADD12R,1.600000X1.600000*%
%TD*%
%TA.AperFunction,ComponentPad*%
%ADD13C,1.600000*%
%TD*%
%TA.AperFunction,ComponentPad*%
%ADD14C,1.800000*%
%TD*%
%TA.AperFunction,ComponentPad*%
%ADD15R,1.800000X1.800000*%
%TD*%
%TA.AperFunction,Conductor*%
%ADD16C,0.250000*%
%TD*%
%TA.AperFunction,Conductor*%
%ADD17C,0.500000*%
%TD*%
G04 APERTURE END LIST*
D10*
%TO.P,Zel_lab21,2*%
%TO.N,/INPUTtoR*%
X147320000Y-48260000D03*
%TO.P,Zel_lab21,3*%
%TO.N,GND*%
X132340000Y-48260000D03*
%TO.P,Zel_lab21,1*%
%TO.N,VCC*%
X162310000Y-48260000D03*
%TD*%
D11*
%TO.P,U1,28*%
%TO.N,Net-(U1-Pad28)*%
X152960000Y-63720000D03*
%TO.P,U1,14*%
%TO.N,Net-(U1-Pad14)*%
X145340000Y-96740000D03*
%TO.P,U1,27*%
%TO.N,Net-(U1-Pad27)*%
X152960000Y-66260000D03*
%TO.P,U1,13*%
%TO.N,Net-(U1-Pad13)*%
X145340000Y-94200000D03*
%TO.P,U1,26*%
%TO.N,Net-(U1-Pad26)*%
X152960000Y-68800000D03*
%TO.P,U1,12*%
%TO.N,Net-(U1-Pad12)*%
X145340000Y-91660000D03*
%TO.P,U1,25*%
%TO.N,Net-(U1-Pad25)*%
X152960000Y-71340000D03*
%TO.P,U1,11*%
%TO.N,Net-(U1-Pad11)*%
X145340000Y-89120000D03*
%TO.P,U1,24*%
%TO.N,Net-(U1-Pad24)*%
X152960000Y-73880000D03*
%TO.P,U1,10*%
%TO.N,Net-(U1-Pad10)*%
X145340000Y-86580000D03*
%TO.P,U1,23*%
%TO.N,Net-(U1-Pad23)*%
X152960000Y-76420000D03*
%TO.P,U1,9*%
%TO.N,Net-(U1-Pad9)*%
X145340000Y-84040000D03*
%TO.P,U1,22*%
%TO.N,Net-(U1-Pad22)*%
X152960000Y-78960000D03*
%TO.P,U1,8*%
%TO.N,GND*%
X145340000Y-81500000D03*
%TO.P,U1,21*%
%TO.N,Net-(U1-Pad21)*%
X152960000Y-81500000D03*
%TO.P,U1,7*%
%TO.N,/uCtoLED*%
X145340000Y-78960000D03*
%TO.P,U1,20*%
%TO.N,VCC*%
X152960000Y-84040000D03*
%TO.P,U1,6*%
%TO.N,/input*%
X145340000Y-76420000D03*
%TO.P,U1,19*%
%TO.N,GND*%
X152960000Y-86580000D03*
%TO.P,U1,5*%
%TO.N,Net-(U1-Pad5)*%
X145340000Y-73880000D03*
%TO.P,U1,18*%
%TO.N,Net-(U1-Pad18)*%
X152960000Y-89120000D03*
%TO.P,U1,4*%
%TO.N,Net-(U1-Pad4)*%
X145340000Y-71340000D03*
%TO.P,U1,17*%
%TO.N,Net-(U1-Pad17)*%
X152960000Y-91660000D03*
%TO.P,U1,3*%
%TO.N,Net-(U1-Pad3)*%
X145340000Y-68800000D03*
%TO.P,U1,16*%
%TO.N,Net-(U1-Pad16)*%
X152960000Y-94200000D03*
%TO.P,U1,2*%
%TO.N,Net-(U1-Pad2)*%
X145340000Y-66260000D03*
%TO.P,U1,15*%
%TO.N,Net-(U1-Pad15)*%
X152960000Y-96740000D03*
D12*
%TO.P,U1,1*%
%TO.N,Net-(U1-Pad1)*%
X145340000Y-63720000D03*
%TD*%
D11*
%TO.P,R2,2*%
%TO.N,/INPUTtoR*%
X142240000Y-58420000D03*
D13*
%TO.P,R2,1*%
%TO.N,/input*%
X139700000Y-58420000D03*
%TD*%
D11*
%TO.P,R1,2*%
%TO.N,VCC*%
X165100000Y-102870000D03*
D13*
%TO.P,R1,1*%
%TO.N,/LEDtoR*%
X162560000Y-102870000D03*
%TD*%
D14*
%TO.P,D1,2*%
%TO.N,/LEDtoR*%
X137160000Y-102870000D03*
D15*
%TO.P,D1,1*%
%TO.N,/uCtoLED*%
X134620000Y-102870000D03*
%TD*%
D16*
%TO.N,/LEDtoR*%
X137160000Y-102870000D02*
X162560000Y-102870000D01*
%TO.N,/uCtoLED*%
X134620000Y-89680000D02*
X145340000Y-78960000D01*
X134620000Y-102870000D02*
X134620000Y-89680000D01*
%TO.N,/INPUTtoR*%
X142240000Y-53340000D02*
X142240000Y-58420000D01*
X147320000Y-48260000D02*
X142240000Y-53340000D01*
D17*
%TO.N,VCC*%
X162310000Y-74690000D02*
X152960000Y-84040000D01*
X162310000Y-48260000D02*
X162310000Y-74690000D01*
X163860001Y-101630001D02*
X165100000Y-102870000D01*
X163860001Y-94940001D02*
X163860001Y-101630001D01*
X152960000Y-84040000D02*
X163860001Y-94940001D01*
D16*
%TO.N,/input*%
X139700000Y-70780000D02*
X145340000Y-76420000D01*
X139700000Y-58420000D02*
X139700000Y-70780000D01*
%TD*%
M02*
