EESchema Schematic File Version 4
EELAYER 30 0
EELAYER END
$Descr A3 16535 11693
encoding utf-8
Sheet 1 1
Title "Урок 1"
Date ""
Rev ""
Comp ""
Comment1 ""
Comment2 ""
Comment3 ""
Comment4 ""
$EndDescr
$Comp
L power:VCC #PWR05
U 1 1 6172CCC6
P 3250 3550
F 0 "#PWR05" H 3250 3400 50  0001 C CNN
F 1 "VCC" H 3265 3723 50  0000 C CNN
F 2 "" H 3250 3550 50  0001 C CNN
F 3 "" H 3250 3550 50  0001 C CNN
	1    3250 3550
	1    0    0    -1  
$EndComp
Text Label 4250 3650 0    50   ~ 0
input
$Comp
L power:GND #PWR07
U 1 1 61735D11
P 3350 3900
F 0 "#PWR07" H 3350 3650 50  0001 C CNN
F 1 "GND" H 3355 3727 50  0000 C CNN
F 2 "" H 3350 3900 50  0001 C CNN
F 3 "" H 3350 3900 50  0001 C CNN
	1    3350 3900
	1    0    0    -1  
$EndComp
Wire Wire Line
	3350 3750 3350 3900
$Comp
L power:PWR_FLAG #FLG01
U 1 1 61736D50
P 4200 5450
F 0 "#FLG01" H 4200 5525 50  0001 C CNN
F 1 "PWR_FLAG" H 4200 5623 50  0000 C CNN
F 2 "" H 4200 5450 50  0001 C CNN
F 3 "~" H 4200 5450 50  0001 C CNN
	1    4200 5450
	1    0    0    -1  
$EndComp
$Comp
L power:PWR_FLAG #FLG02
U 1 1 617372E1
P 4650 5450
F 0 "#FLG02" H 4650 5525 50  0001 C CNN
F 1 "PWR_FLAG" H 4650 5623 50  0000 C CNN
F 2 "" H 4650 5450 50  0001 C CNN
F 3 "~" H 4650 5450 50  0001 C CNN
	1    4650 5450
	1    0    0    -1  
$EndComp
$Comp
L power:GND #PWR03
U 1 1 617376D0
P 4200 5650
F 0 "#PWR03" H 4200 5400 50  0001 C CNN
F 1 "GND" H 4205 5477 50  0000 C CNN
F 2 "" H 4200 5650 50  0001 C CNN
F 3 "" H 4200 5650 50  0001 C CNN
	1    4200 5650
	1    0    0    -1  
$EndComp
$Comp
L power:VCC #PWR04
U 1 1 617383E4
P 4650 5700
F 0 "#PWR04" H 4650 5550 50  0001 C CNN
F 1 "VCC" H 4665 5873 50  0000 C CNN
F 2 "" H 4650 5700 50  0001 C CNN
F 3 "" H 4650 5700 50  0001 C CNN
	1    4650 5700
	-1   0    0    1   
$EndComp
Wire Wire Line
	4200 5650 4200 5450
Wire Wire Line
	4650 5450 4650 5700
Text Notes 7200 6850 0    50   ~ 0
Зеленкий ИУ6-72Б
Wire Wire Line
	3200 3750 3350 3750
Wire Wire Line
	3200 3550 3250 3550
Wire Wire Line
	4100 3650 4250 3650
$Comp
L Device:R R2
U 1 1 6171ECB1
P 3950 3650
F 0 "R2" V 3750 3650 50  0000 C CNN
F 1 "100" V 3834 3650 50  0000 C CNN
F 2 "Resistor_THT:R_Axial_DIN0207_L6.3mm_D2.5mm_P2.54mm_Vertical" V 3880 3650 50  0001 C CNN
F 3 "~" H 3950 3650 50  0001 C CNN
F 4 "Резисторы" H 3950 3650 60  0001 C CNN "Группа"
	1    3950 3650
	0    1    1    0   
$EndComp
Wire Wire Line
	3200 3650 3800 3650
Text Label 3350 3650 0    50   ~ 0
INPUTtoR
$Comp
L MCU_Microchip_PIC18:PIC18F24K50-xSS U1
U 1 1 61730EEF
P 6150 4950
F 0 "U1" H 5500 6300 50  0000 C CNN
F 1 "PIC18F24K50-xSS" H 5650 6150 50  0000 C CNN
F 2 "Package_SO:SSOP-28_5.3x10.2mm_P0.65mm" H 6150 4950 50  0001 C CNN
F 3 "http://ww1.microchip.com/downloads/en/devicedoc/30000684B.pdf" H 3250 3600 50  0001 C CNN
	1    6150 4950
	1    0    0    -1  
$EndComp
NoConn ~ 5150 4050
NoConn ~ 5150 4150
NoConn ~ 5150 4250
NoConn ~ 5150 4350
NoConn ~ 5150 4650
NoConn ~ 5150 4750
NoConn ~ 5150 5150
NoConn ~ 5150 5250
NoConn ~ 5150 5350
NoConn ~ 5150 5450
NoConn ~ 5150 5550
NoConn ~ 7150 5750
NoConn ~ 7150 5350
NoConn ~ 7150 5250
NoConn ~ 7150 5150
NoConn ~ 7150 4050
NoConn ~ 7150 4150
NoConn ~ 7150 4250
NoConn ~ 7150 4350
NoConn ~ 7150 4450
NoConn ~ 7150 4550
NoConn ~ 7150 4650
NoConn ~ 7150 4750
$Comp
L power:VCC #PWR0101
U 1 1 61737045
P 6350 3500
F 0 "#PWR0101" H 6350 3350 50  0001 C CNN
F 1 "VCC" H 6365 3673 50  0000 C CNN
F 2 "" H 6350 3500 50  0001 C CNN
F 3 "" H 6350 3500 50  0001 C CNN
	1    6350 3500
	1    0    0    -1  
$EndComp
$Comp
L power:GND #PWR0102
U 1 1 61737D3D
P 6150 6350
F 0 "#PWR0102" H 6150 6100 50  0001 C CNN
F 1 "GND" H 6155 6177 50  0000 C CNN
F 2 "" H 6150 6350 50  0001 C CNN
F 3 "" H 6150 6350 50  0001 C CNN
	1    6150 6350
	1    0    0    -1  
$EndComp
$Comp
L power:GND #PWR0103
U 1 1 617382F0
P 6050 6350
F 0 "#PWR0103" H 6050 6100 50  0001 C CNN
F 1 "GND" H 6055 6177 50  0000 C CNN
F 2 "" H 6050 6350 50  0001 C CNN
F 3 "" H 6050 6350 50  0001 C CNN
	1    6050 6350
	1    0    0    -1  
$EndComp
Wire Wire Line
	6350 3500 6350 3550
Wire Wire Line
	6350 3550 6150 3550
Wire Wire Line
	6150 3550 6150 3650
Wire Wire Line
	6050 6150 6050 6350
Wire Wire Line
	6150 6150 6150 6350
Wire Wire Line
	4950 4450 5150 4450
Text Label 4950 4450 0    50   ~ 0
input
$Comp
L Device:LED D1
U 1 1 618D8C5A
P 4500 4650
F 0 "D1" H 4493 4867 50  0000 C CNN
F 1 "LED" H 4493 4776 50  0000 C CNN
F 2 "LED_THT:LED_D5.0mm" H 4500 4650 50  0001 C CNN
F 3 "~" H 4500 4650 50  0001 C CNN
F 4 "Диоды" H 4500 4650 60  0001 C CNN "Группа"
	1    4500 4650
	-1   0    0    1   
$EndComp
Wire Wire Line
	5150 4550 4900 4550
Wire Wire Line
	4900 4550 4900 4650
Wire Wire Line
	4900 4650 4650 4650
Wire Wire Line
	4050 4650 4350 4650
Text Label 4900 4600 2    50   ~ 0
uCtoLED
Text Label 4300 4650 3    50   ~ 0
LEDtoR
$Comp
L Device:R R1
U 1 1 618D8C66
P 3900 4650
F 0 "R1" H 3970 4696 50  0000 L CNN
F 1 "1 k" H 3970 4605 50  0000 L CNN
F 2 "Resistor_THT:R_Axial_DIN0207_L6.3mm_D2.5mm_P2.54mm_Vertical" V 3830 4650 50  0001 C CNN
F 3 "~" H 3900 4650 50  0001 C CNN
F 4 "Резисторы" H 3900 4650 60  0001 C CNN "Группа"
	1    3900 4650
	0    1    1    0   
$EndComp
$Comp
L power:VCC #PWR0104
U 1 1 618D8C6C
P 3600 4700
F 0 "#PWR0104" H 3600 4550 50  0001 C CNN
F 1 "VCC" H 3615 4873 50  0000 C CNN
F 2 "" H 3600 4700 50  0001 C CNN
F 3 "" H 3600 4700 50  0001 C CNN
	1    3600 4700
	-1   0    0    1   
$EndComp
Wire Wire Line
	3600 4700 3600 4650
Wire Wire Line
	3600 4650 3750 4650
$Comp
L Zel_Art_Lab1-rescue:разъем Zel_lab21
U 1 1 618ECD6E
P 2350 3750
F 0 "Zel_lab21" H 2833 4265 50  0000 C CNN
F 1 "разъем" H 2833 4174 50  0000 C CNN
F 2 "Connector:Banana_Jack_3Pin" V 3000 3700 50  0001 C CNN
F 3 "~" V 3000 3700 50  0001 C CNN
F 4 "Разъем" H 2350 3750 60  0001 C CNN "Группа"
	1    2350 3750
	1    0    0    -1  
$EndComp
$EndSCHEMATC
