(export (version D)
  (design
    (source "C:\\Users\\Артем\\вуз\\Текущий сем\\ТРСВТ\\trsvt\\Zelenskii\\Zel_Art_Lab2\\Zel_Art_Lab1.sch")
    (date "03.12.2021 12:29:32")
    (tool "Eeschema (5.1.10)-1")
    (sheet (number 1) (name /) (tstamps /)
      (title_block
        (title "Урок 1")
        (company)
        (rev)
        (date)
        (source Zel_Art_Lab1.sch)
        (comment (number 1) (value ""))
        (comment (number 2) (value ""))
        (comment (number 3) (value ""))
        (comment (number 4) (value "")))))
  (components
    (comp (ref R2)
      (value 100)
      (footprint Resistor_THT:R_Axial_DIN0207_L6.3mm_D2.5mm_P2.54mm_Vertical)
      (datasheet ~)
      (fields
        (field (name Группа) Резисторы))
      (libsource (lib Device) (part R) (description Resistor))
      (sheetpath (names /) (tstamps /))
      (tstamp 6171ECB1))
    (comp (ref U1)
      (value PIC18F24K50-xSS)
      (footprint Package_SO:SSOP-28_5.3x10.2mm_P0.65mm)
      (datasheet http://ww1.microchip.com/downloads/en/devicedoc/30000684B.pdf)
      (libsource (lib MCU_Microchip_PIC18) (part PIC18F24K50-xSS) (description "16K Flash, 2K SRAM, 256 EEPROM, USB, nanoWatt XLP, 2.3V to 5.5V, SSOP28"))
      (sheetpath (names /) (tstamps /))
      (tstamp 61730EEF))
    (comp (ref D1)
      (value LED)
      (footprint LED_THT:LED_D5.0mm)
      (datasheet ~)
      (fields
        (field (name Группа) Диоды))
      (libsource (lib Device) (part LED) (description "Light emitting diode"))
      (sheetpath (names /) (tstamps /))
      (tstamp 618D8C5A))
    (comp (ref R1)
      (value "1 k")
      (footprint Resistor_THT:R_Axial_DIN0207_L6.3mm_D2.5mm_P2.54mm_Vertical)
      (datasheet ~)
      (fields
        (field (name Группа) Резисторы))
      (libsource (lib Device) (part R) (description Resistor))
      (sheetpath (names /) (tstamps /))
      (tstamp 618D8C66))
    (comp (ref Zel_lab21)
      (value разъем)
      (footprint Connector:Banana_Jack_3Pin)
      (datasheet ~)
      (fields
        (field (name Группа) Разъем))
      (libsource (lib Zel_Art_Lab1-rescue) (part разъем) (description "DC ammeter"))
      (sheetpath (names /) (tstamps /))
      (tstamp 618ECD6E)))
  (libparts
    (libpart (lib Device) (part LED)
      (description "Light emitting diode")
      (docs ~)
      (footprints
        (fp LED*)
        (fp LED_SMD:*)
        (fp LED_THT:*))
      (fields
        (field (name Reference) D)
        (field (name Value) LED))
      (pins
        (pin (num 1) (name K) (type passive))
        (pin (num 2) (name A) (type passive))))
    (libpart (lib Device) (part R)
      (description Resistor)
      (docs ~)
      (footprints
        (fp R_*))
      (fields
        (field (name Reference) R)
        (field (name Value) R))
      (pins
        (pin (num 1) (name ~) (type passive))
        (pin (num 2) (name ~) (type passive))))
    (libpart (lib MCU_Microchip_PIC18) (part PIC18F24K50-xSS)
      (aliases
        (alias PIC18LF24K50-xSS)
        (alias PIC18F25K50-xSS)
        (alias PIC18LF25K50-xSS))
      (description "16K Flash, 2K SRAM, 256 EEPROM, USB, nanoWatt XLP, 2.3V to 5.5V, SSOP28")
      (docs http://ww1.microchip.com/downloads/en/devicedoc/30000684B.pdf)
      (footprints
        (fp SSOP*5.3x10.2mm*P0.65mm*))
      (fields
        (field (name Reference) U)
        (field (name Value) PIC18F24K50-xSS)
        (field (name Footprint) Package_SO:SSOP-28_5.3x10.2mm_P0.65mm))
      (pins
        (pin (num 1) (name RE3/Vpp/~MCLR~) (type input))
        (pin (num 2) (name RA0) (type BiDi))
        (pin (num 3) (name RA1) (type BiDi))
        (pin (num 4) (name RA2) (type BiDi))
        (pin (num 5) (name RA3) (type BiDi))
        (pin (num 6) (name RA4) (type BiDi))
        (pin (num 7) (name RA5) (type BiDi))
        (pin (num 8) (name VSS) (type power_in))
        (pin (num 9) (name RA7/OSC1/CLKI) (type input))
        (pin (num 10) (name RA6/OSC2/CLKO) (type output))
        (pin (num 11) (name RC0) (type BiDi))
        (pin (num 12) (name RC1) (type BiDi))
        (pin (num 13) (name RC2) (type BiDi))
        (pin (num 14) (name VUSB3V3/VDDCORE) (type BiDi))
        (pin (num 15) (name D-) (type BiDi))
        (pin (num 16) (name D+) (type BiDi))
        (pin (num 17) (name RC6) (type BiDi))
        (pin (num 18) (name RC7) (type BiDi))
        (pin (num 19) (name VSS) (type power_in))
        (pin (num 20) (name VDD) (type power_in))
        (pin (num 21) (name RB0) (type BiDi))
        (pin (num 22) (name RB1) (type BiDi))
        (pin (num 23) (name RB2) (type BiDi))
        (pin (num 24) (name RB3) (type BiDi))
        (pin (num 25) (name RB4) (type BiDi))
        (pin (num 26) (name RB5) (type BiDi))
        (pin (num 27) (name RB6/PGC) (type BiDi))
        (pin (num 28) (name RB7/PGD) (type BiDi))))
    (libpart (lib Zel_Art_Lab1-rescue) (part разъем)
      (description "DC ammeter")
      (docs ~)
      (fields
        (field (name Reference) Zel_lab2)
        (field (name Value) разъем))
      (pins
        (pin (num 1) (name VCC) (type power_in))
        (pin (num 2) (name INPUT) (type passive))
        (pin (num 3) (name GND) (type passive)))))
  (libraries
    (library (logical Device)
      (uri "C:\\Program Files\\KiCad\\share\\kicad\\library/Device.lib"))
    (library (logical MCU_Microchip_PIC18)
      (uri "C:\\Program Files\\KiCad\\share\\kicad\\library/MCU_Microchip_PIC18.lib"))
    (library (logical Zel_Art_Lab1-rescue)
      (uri "C:\\Users\\Артем\\вуз\\Текущий сем\\ТРСВТ\\trsvt\\Zelenskii\\Zel_Art_Lab2/Zel_Art_Lab1-rescue.lib")))
  (nets
    (net (code 1) (name "Net-(U1-Pad28)")
      (node (ref U1) (pin 28)))
    (net (code 2) (name GND)
      (node (ref Zel_lab21) (pin 3))
      (node (ref U1) (pin 8))
      (node (ref U1) (pin 19)))
    (net (code 3) (name "Net-(U1-Pad21)")
      (node (ref U1) (pin 21)))
    (net (code 4) (name "Net-(U1-Pad22)")
      (node (ref U1) (pin 22)))
    (net (code 5) (name "Net-(U1-Pad23)")
      (node (ref U1) (pin 23)))
    (net (code 6) (name "Net-(U1-Pad24)")
      (node (ref U1) (pin 24)))
    (net (code 7) (name "Net-(U1-Pad25)")
      (node (ref U1) (pin 25)))
    (net (code 8) (name "Net-(U1-Pad26)")
      (node (ref U1) (pin 26)))
    (net (code 9) (name "Net-(U1-Pad27)")
      (node (ref U1) (pin 27)))
    (net (code 10) (name "Net-(U1-Pad14)")
      (node (ref U1) (pin 14)))
    (net (code 11) (name "Net-(U1-Pad15)")
      (node (ref U1) (pin 15)))
    (net (code 12) (name "Net-(U1-Pad16)")
      (node (ref U1) (pin 16)))
    (net (code 13) (name "Net-(U1-Pad1)")
      (node (ref U1) (pin 1)))
    (net (code 14) (name "Net-(U1-Pad18)")
      (node (ref U1) (pin 18)))
    (net (code 15) (name "Net-(U1-Pad17)")
      (node (ref U1) (pin 17)))
    (net (code 16) (name "Net-(U1-Pad13)")
      (node (ref U1) (pin 13)))
    (net (code 17) (name "Net-(U1-Pad12)")
      (node (ref U1) (pin 12)))
    (net (code 18) (name "Net-(U1-Pad11)")
      (node (ref U1) (pin 11)))
    (net (code 19) (name "Net-(U1-Pad9)")
      (node (ref U1) (pin 9)))
    (net (code 20) (name "Net-(U1-Pad10)")
      (node (ref U1) (pin 10)))
    (net (code 21) (name "Net-(U1-Pad5)")
      (node (ref U1) (pin 5)))
    (net (code 22) (name /LEDtoR)
      (node (ref D1) (pin 2))
      (node (ref R1) (pin 1)))
    (net (code 23) (name /uCtoLED)
      (node (ref U1) (pin 7))
      (node (ref D1) (pin 1)))
    (net (code 24) (name "Net-(U1-Pad4)")
      (node (ref U1) (pin 4)))
    (net (code 25) (name /input)
      (node (ref R2) (pin 1))
      (node (ref U1) (pin 6)))
    (net (code 26) (name VCC)
      (node (ref U1) (pin 20))
      (node (ref R1) (pin 2))
      (node (ref Zel_lab21) (pin 1)))
    (net (code 27) (name /INPUTtoR)
      (node (ref R2) (pin 2))
      (node (ref Zel_lab21) (pin 2)))
    (net (code 28) (name "Net-(U1-Pad3)")
      (node (ref U1) (pin 3)))
    (net (code 29) (name "Net-(U1-Pad2)")
      (node (ref U1) (pin 2)))))