EESchema Schematic File Version 4
EELAYER 30 0
EELAYER END
$Descr A3 16535 11693
encoding utf-8
Sheet 1 1
Title "Схема электрическая \\n принципиальная"
Date ""
Rev ""
Comp "МГТУ им. Н.Э. Баумана\\n группа ИУ6-73Б "
Comment1 "Дешифратор сообщений азбуки Морзе"
Comment2 "Большакова Е.Д."
Comment3 "Бычков Б.И."
Comment4 ""
$EndDescr
$Comp
L MCU_Microchip_ATmega:ATmega328P-PU DD2
U 1 1 618BECD7
P 5000 5400
F 0 "DD2" H 4356 5446 50  0000 R CNN
F 1 "ATmega328P-PU" H 4356 5355 50  0000 R CNN
F 2 "Package_DIP:DIP-28_W7.62mm" H 5000 5400 50  0001 C CIN
F 3 "http://ww1.microchip.com/downloads/en/DeviceDoc/ATmega328_P%20AVR%20MCU%20with%20picoPower%20Technology%20Data%20Sheet%2040001984A.pdf" H 5000 5400 50  0001 C CNN
	1    5000 5400
	1    0    0    -1  
$EndComp
NoConn ~ 8800 4500
NoConn ~ 8800 4600
$Comp
L Own_components:TTP223B DD3
U 1 1 618CCC3A
P 12450 7150
F 0 "DD3" H 12400 7450 50  0000 L CNN
F 1 "TTP223B" H 12300 6850 50  0000 L CNN
F 2 "" H 12450 7400 50  0001 C CNN
F 3 "" H 12450 7400 50  0001 C CNN
	1    12450 7150
	1    0    0    -1  
$EndComp
$Comp
L Switch:SW_Push SW1
U 1 1 61903364
P 12450 5100
F 0 "SW1" H 12450 5385 50  0000 C CNN
F 1 "SW_Push" H 12450 5294 50  0000 C CNN
F 2 "" H 12450 5300 50  0001 C CNN
F 3 "~" H 12450 5300 50  0001 C CNN
	1    12450 5100
	1    0    0    -1  
$EndComp
$Comp
L Switch:SW_SPST SW2
U 1 1 6190474F
P 10050 5850
F 0 "SW2" H 10050 6085 50  0000 C CNN
F 1 "SW_SPST" H 10050 5994 50  0000 C CNN
F 2 "" H 10050 5850 50  0001 C CNN
F 3 "~" H 10050 5850 50  0001 C CNN
	1    10050 5850
	-1   0    0    -1  
$EndComp
$Comp
L Switch:SW_SPST SW3
U 1 1 6190546E
P 10050 6850
F 0 "SW3" H 10050 7085 50  0000 C CNN
F 1 "SW_SPST" H 10050 6994 50  0000 C CNN
F 2 "" H 10050 6850 50  0001 C CNN
F 3 "~" H 10050 6850 50  0001 C CNN
	1    10050 6850
	-1   0    0    -1  
$EndComp
$Comp
L Display_Character:NHD-0420H1Z DPY1
U 1 1 618C49B4
P 8400 4300
F 0 "DPY1" H 8850 4950 50  0000 C CNN
F 1 "WH0802A-NGG-CT" H 9100 4850 50  0000 C CNN
F 2 "Display:NHD-0420H1Z" H 8400 3400 50  0001 C CNN
F 3 "" H 8500 4200 50  0001 C CNN
	1    8400 4300
	1    0    0    -1  
$EndComp
Wire Wire Line
	8000 4200 5600 4200
Wire Wire Line
	5600 4300 8000 4300
Wire Wire Line
	5600 4400 8000 4400
Wire Wire Line
	8000 4800 5600 4800
Wire Wire Line
	5600 4900 8000 4900
Entry Wire Line
	6150 5700 6250 5800
Entry Wire Line
	6150 5900 6250 6000
Entry Wire Line
	6150 6000 6250 6100
Entry Wire Line
	6150 6200 6250 6300
Entry Wire Line
	6150 6300 6250 6400
Entry Wire Line
	6150 6500 6250 6600
Wire Wire Line
	6150 5700 5900 5700
Wire Wire Line
	5600 5900 6150 5900
Wire Wire Line
	5600 6000 6150 6000
Wire Wire Line
	5600 6200 6150 6200
Wire Wire Line
	5600 6300 6150 6300
Wire Wire Line
	5600 6500 6150 6500
Entry Wire Line
	11350 5100 11250 5200
Entry Wire Line
	11150 5850 11250 5950
Entry Wire Line
	11150 6850 11250 6950
Entry Wire Line
	11350 7150 11250 7250
Wire Wire Line
	12250 5100 11900 5100
Wire Wire Line
	10250 6850 10700 6850
Wire Wire Line
	12150 7150 11350 7150
Text Label 5950 5700 0    50   ~ 0
reset
Text Label 5950 5900 0    50   ~ 0
TX
Text Label 5950 6000 0    50   ~ 0
RX
Text Label 5950 6200 0    50   ~ 0
lang
Text Label 5900 6300 0    50   ~ 0
disp_ch
Text Label 5950 6500 0    50   ~ 0
data
Text Label 11400 5100 0    50   ~ 0
reset
Text Label 11100 5850 2    50   ~ 0
lang
Text Label 11100 6850 2    50   ~ 0
disp_ch
Text Label 11400 7150 0    50   ~ 0
data
$Comp
L Device:C C4
U 1 1 6197D99E
P 11900 5400
F 0 "C4" H 12015 5446 50  0000 L CNN
F 1 "100uF" H 12015 5355 50  0000 L CNN
F 2 "" H 11938 5250 50  0001 C CNN
F 3 "~" H 11900 5400 50  0001 C CNN
	1    11900 5400
	1    0    0    -1  
$EndComp
Connection ~ 11900 5100
Wire Wire Line
	11900 5100 11350 5100
Wire Wire Line
	11900 5250 11900 5100
Wire Wire Line
	12650 5100 13000 5100
Wire Wire Line
	13000 5100 13000 5200
Wire Wire Line
	11900 5550 11900 5650
Wire Wire Line
	9850 5850 9500 5850
Wire Wire Line
	9500 5850 9500 5950
Wire Wire Line
	9850 6850 9500 6850
Wire Wire Line
	9500 6850 9500 6950
Wire Wire Line
	12150 7250 12050 7250
Wire Wire Line
	12050 7250 12050 7350
Wire Wire Line
	12150 7050 12050 7050
$Comp
L power:+5V #PWR015
U 1 1 61999A33
P 12050 6550
F 0 "#PWR015" H 12050 6400 50  0001 C CNN
F 1 "+5V" H 12065 6723 50  0000 C CNN
F 2 "" H 12050 6550 50  0001 C CNN
F 3 "" H 12050 6550 50  0001 C CNN
	1    12050 6550
	1    0    0    -1  
$EndComp
Wire Wire Line
	10250 5850 10700 5850
$Comp
L power:+5V #PWR07
U 1 1 61998AC0
P 11900 4550
F 0 "#PWR07" H 11900 4400 50  0001 C CNN
F 1 "+5V" H 11915 4723 50  0000 C CNN
F 2 "" H 11900 4550 50  0001 C CNN
F 3 "" H 11900 4550 50  0001 C CNN
	1    11900 4550
	1    0    0    -1  
$EndComp
Wire Wire Line
	11900 4650 11900 4550
Wire Wire Line
	11900 4950 11900 5100
$Comp
L Device:R R4
U 1 1 6197D0D1
P 11900 4800
F 0 "R4" H 11970 4846 50  0000 L CNN
F 1 "10k" H 11970 4755 50  0000 L CNN
F 2 "" V 11830 4800 50  0001 C CNN
F 3 "~" H 11900 4800 50  0001 C CNN
	1    11900 4800
	1    0    0    -1  
$EndComp
$Comp
L power:+5V #PWR010
U 1 1 619A2162
P 10700 5300
F 0 "#PWR010" H 10700 5150 50  0001 C CNN
F 1 "+5V" H 10715 5473 50  0000 C CNN
F 2 "" H 10700 5300 50  0001 C CNN
F 3 "" H 10700 5300 50  0001 C CNN
	1    10700 5300
	1    0    0    -1  
$EndComp
Wire Wire Line
	10700 5400 10700 5300
Wire Wire Line
	10700 5700 10700 5850
$Comp
L Device:R R5
U 1 1 619A216A
P 10700 5550
F 0 "R5" H 10770 5596 50  0000 L CNN
F 1 "10k" H 10770 5505 50  0000 L CNN
F 2 "" V 10630 5550 50  0001 C CNN
F 3 "~" H 10700 5550 50  0001 C CNN
	1    10700 5550
	1    0    0    -1  
$EndComp
$Comp
L power:+5V #PWR013
U 1 1 619A4129
P 10700 6300
F 0 "#PWR013" H 10700 6150 50  0001 C CNN
F 1 "+5V" H 10715 6473 50  0000 C CNN
F 2 "" H 10700 6300 50  0001 C CNN
F 3 "" H 10700 6300 50  0001 C CNN
	1    10700 6300
	1    0    0    -1  
$EndComp
Wire Wire Line
	10700 6400 10700 6300
Wire Wire Line
	10700 6700 10700 6850
$Comp
L Device:R R6
U 1 1 619A4131
P 10700 6550
F 0 "R6" H 10770 6596 50  0000 L CNN
F 1 "10k" H 10770 6505 50  0000 L CNN
F 2 "" V 10630 6550 50  0001 C CNN
F 3 "~" H 10700 6550 50  0001 C CNN
	1    10700 6550
	1    0    0    -1  
$EndComp
Connection ~ 10700 5850
Wire Wire Line
	10700 5850 11150 5850
Connection ~ 10700 6850
Wire Wire Line
	10700 6850 11150 6850
Wire Wire Line
	6000 3700 8000 3700
Wire Wire Line
	5600 5600 6000 5600
Wire Wire Line
	6000 3700 6000 5600
Wire Wire Line
	8000 3900 6100 3900
Wire Wire Line
	6100 3900 6100 5100
Wire Wire Line
	5600 5100 6100 5100
Wire Wire Line
	8000 3800 7950 3800
Wire Wire Line
	7950 3800 7950 5200
Wire Wire Line
	7950 5200 8150 5200
Wire Wire Line
	8400 5200 8400 5100
Wire Wire Line
	8150 5200 8150 5250
Connection ~ 8150 5200
Wire Wire Line
	8150 5200 8400 5200
Wire Wire Line
	8400 3500 8400 3400
Wire Wire Line
	8400 3400 8450 3400
Wire Wire Line
	8500 3400 8500 3500
$Comp
L power:+5V #PWR02
U 1 1 61912F12
P 5750 2300
F 0 "#PWR02" H 5750 2150 50  0001 C CNN
F 1 "+5V" H 5765 2473 50  0000 C CNN
F 2 "" H 5750 2300 50  0001 C CNN
F 3 "" H 5750 2300 50  0001 C CNN
	1    5750 2300
	1    0    0    -1  
$EndComp
Wire Wire Line
	8450 3400 8450 3300
Connection ~ 8450 3400
Wire Wire Line
	8450 3400 8500 3400
Connection ~ 5900 5700
Wire Wire Line
	5900 5700 5600 5700
Wire Wire Line
	5900 2850 5900 5700
Wire Wire Line
	5750 2950 5750 3050
Wire Wire Line
	5400 2950 5750 2950
Wire Wire Line
	5400 2850 5900 2850
$Comp
L Own_components:ISP6PIN XP2
U 1 1 61991E6E
P 5100 2700
F 0 "XP2" H 5100 3150 50  0000 C CNN
F 1 "ISP6PIN" H 5100 2350 50  0000 C CNN
F 2 "" H 5100 3150 50  0001 C CNN
F 3 "" H 5100 3150 50  0001 C CNN
	1    5100 2700
	1    0    0    -1  
$EndComp
Wire Wire Line
	5750 2300 5750 2550
Wire Wire Line
	5750 2550 5400 2550
Wire Wire Line
	5400 2750 6750 2750
Wire Wire Line
	6750 2750 6750 4500
Wire Wire Line
	6750 4500 5600 4500
Wire Wire Line
	6850 4700 5600 4700
Wire Wire Line
	5400 2650 6850 2650
Wire Wire Line
	6850 2650 6850 4700
Wire Wire Line
	5600 4600 6650 4600
Wire Wire Line
	5400 2450 6650 2450
Text Notes 4700 3150 0    50   ~ 0
Разъем программатора
$Comp
L FTDI:FTDI232 DD4
U 1 1 619C456E
P 5050 8250
F 0 "DD4" H 4992 8665 50  0000 C CNN
F 1 "FTDI232" H 4992 8574 50  0000 C CNN
F 2 "" H 5000 8400 50  0001 C CNN
F 3 "" H 5000 8400 50  0001 C CNN
	1    5050 8250
	-1   0    0    -1  
$EndComp
$Comp
L USBminiB:USBminiB XP3
U 1 1 619C5E14
P 4850 8650
F 0 "XP3" H 4950 9000 50  0000 R CNN
F 1 "USBminiB" H 4850 8300 50  0001 C CNN
F 2 "" H 4950 8950 50  0001 C CNN
F 3 "" H 5050 9000 50  0001 C CNN
	1    4850 8650
	-1   0    0    -1  
$EndComp
Wire Wire Line
	5600 8500 5700 8500
Wire Wire Line
	5700 8500 5700 8400
Wire Wire Line
	5600 8800 5700 8800
Wire Wire Line
	5700 8800 5700 8900
Wire Wire Line
	5600 8600 6500 8600
Wire Wire Line
	6500 8600 6500 7600
Wire Wire Line
	5600 8700 6600 8700
Wire Wire Line
	6600 8700 6600 7600
Entry Wire Line
	6500 7500 6600 7600
Entry Wire Line
	6400 7500 6500 7600
$Comp
L power:+5V #PWR018
U 1 1 619D31F2
P 5700 8400
F 0 "#PWR018" H 5700 8250 50  0001 C CNN
F 1 "+5V" H 5715 8573 50  0000 C CNN
F 2 "" H 5700 8400 50  0001 C CNN
F 3 "" H 5700 8400 50  0001 C CNN
	1    5700 8400
	1    0    0    -1  
$EndComp
Text Label 6600 7750 0    50   ~ 0
RX
Text Label 6500 7750 0    50   ~ 0
TX
$Comp
L Own_components:Питание XP1
U 1 1 619ED32A
P 9900 2450
F 0 "XP1" H 9900 2650 50  0000 C CNN
F 1 "Питание" H 9900 2250 50  0000 C CNN
F 2 "" H 9950 2650 50  0001 C CNN
F 3 "" H 9950 2650 50  0001 C CNN
	1    9900 2450
	1    0    0    -1  
$EndComp
$Comp
L Device:CP C1
U 1 1 619F8CFD
P 10950 2500
F 0 "C1" H 11068 2546 50  0000 L CNN
F 1 "100uF" H 11068 2455 50  0000 L CNN
F 2 "" H 10988 2350 50  0001 C CNN
F 3 "~" H 10950 2500 50  0001 C CNN
	1    10950 2500
	1    0    0    -1  
$EndComp
$Comp
L Device:CP C2
U 1 1 619F98EB
P 12200 2500
F 0 "C2" H 12318 2546 50  0000 L CNN
F 1 "10uF" H 12318 2455 50  0000 L CNN
F 2 "" H 12238 2350 50  0001 C CNN
F 3 "~" H 12200 2500 50  0001 C CNN
	1    12200 2500
	1    0    0    -1  
$EndComp
$Comp
L Device:CP C3
U 1 1 619FA102
P 12750 2500
F 0 "C3" H 12868 2546 50  0000 L CNN
F 1 "1uf" H 12868 2455 50  0000 L CNN
F 2 "" H 12788 2350 50  0001 C CNN
F 3 "~" H 12750 2500 50  0001 C CNN
	1    12750 2500
	1    0    0    -1  
$EndComp
Wire Wire Line
	10400 2450 10550 2450
Wire Wire Line
	10550 2450 10550 2300
Wire Wire Line
	10550 2300 10950 2300
Wire Wire Line
	10400 2550 10550 2550
Wire Wire Line
	10550 2550 10550 2700
Wire Wire Line
	10550 2700 10950 2700
Wire Wire Line
	11600 2700 11600 2600
Wire Wire Line
	11900 2300 12200 2300
Wire Wire Line
	12750 2300 12750 2350
Wire Wire Line
	12750 2650 12750 2700
Wire Wire Line
	12750 2700 12200 2700
Connection ~ 11600 2700
Wire Wire Line
	10950 2350 10950 2300
Connection ~ 10950 2300
Wire Wire Line
	10950 2300 11300 2300
Wire Wire Line
	10950 2650 10950 2700
Connection ~ 10950 2700
Wire Wire Line
	10950 2700 11600 2700
Wire Wire Line
	12200 2650 12200 2700
Connection ~ 12200 2700
Wire Wire Line
	12200 2700 11600 2700
Wire Wire Line
	12200 2350 12200 2300
Connection ~ 12200 2300
Wire Wire Line
	12200 2300 12750 2300
Wire Wire Line
	12750 2300 12750 2100
Connection ~ 12750 2300
Wire Wire Line
	11600 2700 11600 2800
$Comp
L power:+5V #PWR05
U 1 1 61A17435
P 8450 3300
F 0 "#PWR05" H 8450 3150 50  0001 C CNN
F 1 "+5V" H 8465 3473 50  0000 C CNN
F 2 "" H 8450 3300 50  0001 C CNN
F 3 "" H 8450 3300 50  0001 C CNN
	1    8450 3300
	1    0    0    -1  
$EndComp
$Comp
L power:+5V #PWR01
U 1 1 61A17CE9
P 12750 2100
F 0 "#PWR01" H 12750 1950 50  0001 C CNN
F 1 "+5V" H 12765 2273 50  0000 C CNN
F 2 "" H 12750 2100 50  0001 C CNN
F 3 "" H 12750 2100 50  0001 C CNN
	1    12750 2100
	1    0    0    -1  
$EndComp
Wire Wire Line
	5000 3900 5000 3800
Wire Wire Line
	5000 3800 5050 3800
Wire Wire Line
	5100 3800 5100 3900
Wire Wire Line
	5050 3800 5050 3700
Connection ~ 5050 3800
Wire Wire Line
	5050 3800 5100 3800
$Comp
L power:+5V #PWR06
U 1 1 61A2D58B
P 5050 3700
F 0 "#PWR06" H 5050 3550 50  0001 C CNN
F 1 "+5V" H 5065 3873 50  0000 C CNN
F 2 "" H 5050 3700 50  0001 C CNN
F 3 "" H 5050 3700 50  0001 C CNN
	1    5050 3700
	1    0    0    -1  
$EndComp
Wire Wire Line
	5000 6900 5000 7000
NoConn ~ 5600 5200
NoConn ~ 5600 5300
NoConn ~ 5600 5400
NoConn ~ 5600 5500
NoConn ~ 5600 6100
NoConn ~ 5600 6400
NoConn ~ 5600 6600
NoConn ~ 4400 4200
$Comp
L power:Earth #PWR016
U 1 1 619313A1
P 5000 7000
F 0 "#PWR016" H 5000 6750 50  0001 C CNN
F 1 "Earth" H 5000 6850 50  0001 C CNN
F 2 "" H 5000 7000 50  0001 C CNN
F 3 "~" H 5000 7000 50  0001 C CNN
	1    5000 7000
	1    0    0    -1  
$EndComp
$Comp
L power:Earth #PWR019
U 1 1 61933304
P 5700 8900
F 0 "#PWR019" H 5700 8650 50  0001 C CNN
F 1 "Earth" H 5700 8750 50  0001 C CNN
F 2 "" H 5700 8900 50  0001 C CNN
F 3 "~" H 5700 8900 50  0001 C CNN
	1    5700 8900
	1    0    0    -1  
$EndComp
$Comp
L power:Earth #PWR09
U 1 1 619371E3
P 8150 5250
F 0 "#PWR09" H 8150 5000 50  0001 C CNN
F 1 "Earth" H 8150 5100 50  0001 C CNN
F 2 "" H 8150 5250 50  0001 C CNN
F 3 "~" H 8150 5250 50  0001 C CNN
	1    8150 5250
	1    0    0    -1  
$EndComp
$Comp
L power:Earth #PWR04
U 1 1 6193B3BA
P 5750 3050
F 0 "#PWR04" H 5750 2800 50  0001 C CNN
F 1 "Earth" H 5750 2900 50  0001 C CNN
F 2 "" H 5750 3050 50  0001 C CNN
F 3 "~" H 5750 3050 50  0001 C CNN
	1    5750 3050
	1    0    0    -1  
$EndComp
$Comp
L power:Earth #PWR03
U 1 1 6193F057
P 11600 2800
F 0 "#PWR03" H 11600 2550 50  0001 C CNN
F 1 "Earth" H 11600 2650 50  0001 C CNN
F 2 "" H 11600 2800 50  0001 C CNN
F 3 "~" H 11600 2800 50  0001 C CNN
	1    11600 2800
	1    0    0    -1  
$EndComp
$Comp
L power:Earth #PWR011
U 1 1 61944163
P 11900 5650
F 0 "#PWR011" H 11900 5400 50  0001 C CNN
F 1 "Earth" H 11900 5500 50  0001 C CNN
F 2 "" H 11900 5650 50  0001 C CNN
F 3 "~" H 11900 5650 50  0001 C CNN
	1    11900 5650
	1    0    0    -1  
$EndComp
$Comp
L power:Earth #PWR012
U 1 1 6194A1DF
P 9500 5950
F 0 "#PWR012" H 9500 5700 50  0001 C CNN
F 1 "Earth" H 9500 5800 50  0001 C CNN
F 2 "" H 9500 5950 50  0001 C CNN
F 3 "~" H 9500 5950 50  0001 C CNN
	1    9500 5950
	1    0    0    -1  
$EndComp
$Comp
L power:Earth #PWR014
U 1 1 6194DB96
P 9500 6950
F 0 "#PWR014" H 9500 6700 50  0001 C CNN
F 1 "Earth" H 9500 6800 50  0001 C CNN
F 2 "" H 9500 6950 50  0001 C CNN
F 3 "~" H 9500 6950 50  0001 C CNN
	1    9500 6950
	1    0    0    -1  
$EndComp
$Comp
L power:Earth #PWR017
U 1 1 6195132A
P 12050 7350
F 0 "#PWR017" H 12050 7100 50  0001 C CNN
F 1 "Earth" H 12050 7200 50  0001 C CNN
F 2 "" H 12050 7350 50  0001 C CNN
F 3 "~" H 12050 7350 50  0001 C CNN
	1    12050 7350
	1    0    0    -1  
$EndComp
$Comp
L power:Earth #PWR08
U 1 1 61955202
P 13000 5200
F 0 "#PWR08" H 13000 4950 50  0001 C CNN
F 1 "Earth" H 13000 5050 50  0001 C CNN
F 2 "" H 13000 5200 50  0001 C CNN
F 3 "~" H 13000 5200 50  0001 C CNN
	1    13000 5200
	1    0    0    -1  
$EndComp
Text Notes 4300 8700 0    50   ~ 0
к ПЭВМ
Text Label 6450 2450 0    50   ~ 0
MISO
Text Label 6450 2650 0    50   ~ 0
SCK
Text Label 6450 2750 0    50   ~ 0
MOSI
Text Label 5600 2850 0    50   ~ 0
reset
Text Label 5700 5100 0    50   ~ 0
E_disp
Text Label 5700 5600 0    50   ~ 0
RS_disp
$Comp
L Regulator_Linear:L78L05_SOT89 DD1
U 1 1 619585D1
P 11600 2300
F 0 "DD1" H 11600 2542 50  0000 C CNN
F 1 "L78L05_SOT89" H 11600 2451 50  0000 C CNN
F 2 "Package_TO_SOT_SMD:SOT-89-3" H 11600 2500 50  0001 C CIN
F 3 "http://www.st.com/content/ccc/resource/technical/document/datasheet/15/55/e5/aa/23/5b/43/fd/CD00000446.pdf/files/CD00000446.pdf/jcr:content/translations/en.CD00000446.pdf" H 11600 2250 50  0001 C CNN
	1    11600 2300
	1    0    0    -1  
$EndComp
$Comp
L Device:R R1
U 1 1 6195CB6C
P 7100 4500
F 0 "R1" V 7150 4350 50  0000 C CNN
F 1 "330" V 7050 4700 50  0000 C CNN
F 2 "" V 7030 4500 50  0001 C CNN
F 3 "~" H 7100 4500 50  0001 C CNN
	1    7100 4500
	0    1    1    0   
$EndComp
$Comp
L Device:R R2
U 1 1 6195DBFB
P 7350 4600
F 0 "R2" V 7400 4450 50  0000 C CNN
F 1 "330" V 7300 4800 50  0000 C CNN
F 2 "" V 7280 4600 50  0001 C CNN
F 3 "~" H 7350 4600 50  0001 C CNN
	1    7350 4600
	0    1    1    0   
$EndComp
$Comp
L Device:R R3
U 1 1 6195DE9B
P 7600 4700
F 0 "R3" V 7650 4550 50  0000 C CNN
F 1 "330" V 7550 4900 50  0000 C CNN
F 2 "" V 7530 4700 50  0001 C CNN
F 3 "~" H 7600 4700 50  0001 C CNN
	1    7600 4700
	0    1    1    0   
$EndComp
Wire Wire Line
	6650 2450 6650 4600
Wire Wire Line
	6950 4500 6750 4500
Connection ~ 6750 4500
Wire Wire Line
	7250 4500 8000 4500
Wire Wire Line
	7500 4600 8000 4600
Wire Wire Line
	7750 4700 8000 4700
Wire Wire Line
	7450 4700 6850 4700
Connection ~ 6850 4700
Wire Wire Line
	7200 4600 6650 4600
Connection ~ 6650 4600
Connection ~ 5000 3800
$Comp
L power:GND #PWR020
U 1 1 61C185C4
P 3750 3800
F 0 "#PWR020" H 3750 3550 50  0001 C CNN
F 1 "GND" V 3755 3672 50  0000 R CNN
F 2 "" H 3750 3800 50  0001 C CNN
F 3 "" H 3750 3800 50  0001 C CNN
	1    3750 3800
	0    1    1    0   
$EndComp
Wire Wire Line
	4250 3800 3750 3800
Wire Wire Line
	4550 3800 5000 3800
$Comp
L Device:C C5
U 1 1 61C0B51D
P 4400 3800
F 0 "C5" V 4148 3800 50  0000 C CNN
F 1 "100nF" V 4239 3800 50  0000 C CNN
F 2 "" H 4438 3650 50  0001 C CNN
F 3 "~" H 4400 3800 50  0001 C CNN
	1    4400 3800
	0    1    1    0   
$EndComp
$Comp
L power:GND #PWR021
U 1 1 61C282D4
P 7150 3400
F 0 "#PWR021" H 7150 3150 50  0001 C CNN
F 1 "GND" V 7155 3272 50  0000 R CNN
F 2 "" H 7150 3400 50  0001 C CNN
F 3 "" H 7150 3400 50  0001 C CNN
	1    7150 3400
	0    1    1    0   
$EndComp
Wire Wire Line
	7650 3400 7150 3400
Wire Wire Line
	7950 3400 8400 3400
$Comp
L Device:C C6
U 1 1 61C282DC
P 7800 3400
F 0 "C6" V 7548 3400 50  0000 C CNN
F 1 "100nF" V 7639 3400 50  0000 C CNN
F 2 "" H 7838 3250 50  0001 C CNN
F 3 "~" H 7800 3400 50  0001 C CNN
	1    7800 3400
	0    1    1    0   
$EndComp
Connection ~ 8400 3400
Wire Wire Line
	12050 6550 12050 6700
$Comp
L power:GND #PWR022
U 1 1 61C35546
P 13300 6700
F 0 "#PWR022" H 13300 6450 50  0001 C CNN
F 1 "GND" V 13305 6572 50  0000 R CNN
F 2 "" H 13300 6700 50  0001 C CNN
F 3 "" H 13300 6700 50  0001 C CNN
	1    13300 6700
	0    -1   1    0   
$EndComp
Wire Wire Line
	12800 6700 13300 6700
Wire Wire Line
	12500 6700 12050 6700
$Comp
L Device:C C7
U 1 1 61C3554E
P 12650 6700
F 0 "C7" V 12398 6700 50  0000 C CNN
F 1 "100nF" V 12489 6700 50  0000 C CNN
F 2 "" H 12688 6550 50  0001 C CNN
F 3 "~" H 12650 6700 50  0001 C CNN
	1    12650 6700
	0    -1   1    0   
$EndComp
Connection ~ 12050 6700
Wire Wire Line
	12050 6700 12050 7050
Wire Bus Line
	6250 7500 11250 7500
Wire Bus Line
	11250 5000 11250 7500
Wire Bus Line
	6250 5700 6250 7500
$EndSCHEMATC
