EESchema Schematic File Version 4
EELAYER 30 0
EELAYER END
$Descr A3 16535 11693
encoding utf-8
Sheet 1 1
Title "Урок1"
Date ""
Rev ""
Comp ""
Comment1 ""
Comment2 ""
Comment3 ""
Comment4 ""
$EndDescr
Wire Wire Line
	5700 6200 5700 6350
$Comp
L power:GND #PWR01
U 1 1 616A9F0F
P 5700 6350
F 0 "#PWR01" H 5700 6100 50  0001 C CNN
F 1 "GND" H 5705 6177 50  0000 C CNN
F 2 "" H 5700 6350 50  0001 C CNN
F 3 "" H 5700 6350 50  0001 C CNN
	1    5700 6350
	1    0    0    -1  
$EndComp
$Comp
L power:VCC #PWR02
U 1 1 616A6F14
P 6050 6200
F 0 "#PWR02" H 6050 6050 50  0001 C CNN
F 1 "VCC" H 6065 6373 50  0000 C CNN
F 2 "" H 6050 6200 50  0001 C CNN
F 3 "" H 6050 6200 50  0001 C CNN
	1    6050 6200
	1    0    0    -1  
$EndComp
$Comp
L power:PWR_FLAG #FLG01
U 1 1 616A69D1
P 5700 6200
F 0 "#FLG01" H 5700 6275 50  0001 C CNN
F 1 "PWR_FLAG" H 5700 6373 50  0000 C CNN
F 2 "" H 5700 6200 50  0001 C CNN
F 3 "~" H 5700 6200 50  0001 C CNN
	1    5700 6200
	1    0    0    -1  
$EndComp
$Comp
L power:PWR_FLAG #FLG02
U 1 1 616A6577
P 6050 6350
F 0 "#FLG02" H 6050 6425 50  0001 C CNN
F 1 "PWR_FLAG" H 6050 6523 50  0000 C CNN
F 2 "" H 6050 6350 50  0001 C CNN
F 3 "~" H 6050 6350 50  0001 C CNN
	1    6050 6350
	-1   0    0    1   
$EndComp
Text Label 10600 6400 0    50   ~ 0
INPUTtoR
Text Label 10450 4400 1    50   ~ 0
LEDtoR
Text Label 9700 4550 0    50   ~ 0
uCtoLED
Text Label 9900 4700 0    50   ~ 0
INPUT
Text Label 11500 6400 0    50   ~ 0
INPUT
Wire Wire Line
	11250 6400 11800 6400
Wire Wire Line
	10450 6400 10950 6400
Wire Wire Line
	9700 4400 9700 4600
Wire Wire Line
	10050 4400 9700 4400
Wire Wire Line
	10550 6500 10450 6500
Wire Wire Line
	10550 6600 10550 6500
Wire Wire Line
	10550 6300 10450 6300
Wire Wire Line
	10550 6150 10550 6300
Wire Wire Line
	10550 4400 10350 4400
Wire Wire Line
	11000 4400 10850 4400
Wire Wire Line
	11000 4200 11000 4400
$Comp
L power:GND #PWR06
U 1 1 6169F398
P 10550 6600
F 0 "#PWR06" H 10550 6350 50  0001 C CNN
F 1 "GND" H 10555 6427 50  0000 C CNN
F 2 "" H 10550 6600 50  0001 C CNN
F 3 "" H 10550 6600 50  0001 C CNN
	1    10550 6600
	1    0    0    -1  
$EndComp
$Comp
L power:GND #PWR04
U 1 1 6169EC9F
P 7850 6000
F 0 "#PWR04" H 7850 5750 50  0001 C CNN
F 1 "GND" H 7855 5827 50  0000 C CNN
F 2 "" H 7850 6000 50  0001 C CNN
F 3 "" H 7850 6000 50  0001 C CNN
	1    7850 6000
	1    0    0    -1  
$EndComp
$Comp
L power:VCC #PWR05
U 1 1 6169E6E1
P 10550 6150
F 0 "#PWR05" H 10550 6000 50  0001 C CNN
F 1 "VCC" H 10565 6323 50  0000 C CNN
F 2 "" H 10550 6150 50  0001 C CNN
F 3 "" H 10550 6150 50  0001 C CNN
	1    10550 6150
	1    0    0    -1  
$EndComp
$Comp
L power:VCC #PWR07
U 1 1 6169CF6E
P 11000 4200
F 0 "#PWR07" H 11000 4050 50  0001 C CNN
F 1 "VCC" H 11015 4373 50  0000 C CNN
F 2 "" H 11000 4200 50  0001 C CNN
F 3 "" H 11000 4200 50  0001 C CNN
	1    11000 4200
	1    0    0    -1  
$EndComp
$Comp
L power:VCC #PWR03
U 1 1 6169A55D
P 7850 4150
F 0 "#PWR03" H 7850 4000 50  0001 C CNN
F 1 "VCC" H 7865 4323 50  0000 C CNN
F 2 "" H 7850 4150 50  0001 C CNN
F 3 "" H 7850 4150 50  0001 C CNN
	1    7850 4150
	1    0    0    -1  
$EndComp
$Comp
L Device:LED D1
U 1 1 61697C57
P 10200 4400
F 0 "D1" H 10193 4617 50  0000 C CNN
F 1 "LED" H 10193 4526 50  0000 C CNN
F 2 "LED_THT:LED_D5.0mm" H 10200 4400 50  0001 C CNN
F 3 "~" H 10200 4400 50  0001 C CNN
F 4 "Диоды" H 10200 4400 60  0001 C CNN "Группа"
	1    10200 4400
	1    0    0    -1  
$EndComp
$Comp
L Device:R R1
U 1 1 61696A41
P 11100 6400
F 0 "R1" V 11307 6400 50  0000 C CNN
F 1 "100" V 11216 6400 50  0000 C CNN
F 2 "Resistor_THT:R_Axial_DIN0207_L6.3mm_D2.5mm_P2.54mm_Vertical" V 11030 6400 50  0001 C CNN
F 3 "~" H 11100 6400 50  0001 C CNN
F 4 "Резисторы" H 11100 6400 60  0001 C CNN "Группа"
	1    11100 6400
	0    -1   -1   0   
$EndComp
$Comp
L Device:R R2
U 1 1 616965FF
P 10700 4400
F 0 "R2" V 10493 4400 50  0000 C CNN
F 1 "1k" V 10584 4400 50  0000 C CNN
F 2 "Resistor_THT:R_Axial_DIN0207_L6.3mm_D2.5mm_P2.54mm_Vertical" V 10630 4400 50  0001 C CNN
F 3 "~" H 10700 4400 50  0001 C CNN
	1    10700 4400
	0    1    1    0   
$EndComp
Wire Wire Line
	6050 6200 6050 6350
$Comp
L myLib:ConnectorGOST X1
U 1 1 61731764
P 10200 6400
F 0 "X1" H 10100 6700 50  0000 C CNN
F 1 "ConnectorGOST" H 10750 6700 50  0000 C CNN
F 2 "Connector:Banana_Jack_3Pin" H 10200 6400 50  0001 C CNN
F 3 "" H 10200 6400 50  0001 C CNN
	1    10200 6400
	-1   0    0    -1  
$EndComp
$Comp
L MCU_Microchip_PIC18:PIC18F13K50-EP U1
U 1 1 61735407
P 7850 5100
F 0 "U1" H 6600 5850 50  0000 C CNN
F 1 "PIC18F13K50-EP" H 8950 5850 50  0000 C CNN
F 2 "Package_DIP:DIP-20_W7.62mm" H 7850 5100 50  0001 C CIN
F 3 "http://ww1.microchip.com/downloads/en/devicedoc/41350c.pdf" H 7850 5200 50  0001 C CNN
	1    7850 5100
	1    0    0    -1  
$EndComp
Wire Wire Line
	7850 4150 7850 4300
Wire Wire Line
	9350 4600 9700 4600
Wire Wire Line
	9350 4700 10200 4700
Wire Wire Line
	7850 6000 7850 5900
NoConn ~ 9350 4800
NoConn ~ 9350 4900
NoConn ~ 9350 5000
NoConn ~ 9350 5100
NoConn ~ 9350 5200
NoConn ~ 9350 5300
NoConn ~ 9350 5500
NoConn ~ 6350 5600
NoConn ~ 6350 5500
NoConn ~ 6350 5400
NoConn ~ 6350 5300
NoConn ~ 6350 5000
NoConn ~ 6350 4900
NoConn ~ 6350 4800
NoConn ~ 6350 4700
NoConn ~ 6350 4600
$EndSCHEMATC
