EESchema Schematic File Version 4
EELAYER 30 0
EELAYER END
$Descr A3 16535 11693
encoding utf-8
Sheet 1 1
Title ""
Date ""
Rev ""
Comp ""
Comment1 ""
Comment2 ""
Comment3 ""
Comment4 ""
$EndDescr
$Comp
L Device:R R2
U 1 1 61BB62BA
P 7700 4500
F 0 "R2" V 7907 4500 50  0000 C CNN
F 1 "1 k" V 7816 4500 50  0000 C CNN
F 2 "Resistor_THT:R_Axial_DIN0207_L6.3mm_D2.5mm_P2.54mm_Vertical" V 7630 4500 50  0001 C CNN
F 3 "~" H 7700 4500 50  0001 C CNN
	1    7700 4500
	0    -1   -1   0   
$EndComp
$Comp
L Device:R R1
U 1 1 61BB8BD7
P 4750 6850
F 0 "R1" V 4543 6850 50  0000 C CNN
F 1 "100" V 4634 6850 50  0000 C CNN
F 2 "Resistor_THT:R_Axial_DIN0207_L6.3mm_D2.5mm_P2.54mm_Vertical" V 4680 6850 50  0001 C CNN
F 3 "~" H 4750 6850 50  0001 C CNN
	1    4750 6850
	0    1    1    0   
$EndComp
$Comp
L Device:LED D1
U 1 1 61BBA1C6
P 7000 4500
F 0 "D1" H 6993 4717 50  0000 C CNN
F 1 "LED" H 6993 4626 50  0000 C CNN
F 2 "LED_THT:LED_D5.0mm" H 7000 4500 50  0001 C CNN
F 3 "~" H 7000 4500 50  0001 C CNN
	1    7000 4500
	1    0    0    -1  
$EndComp
$Comp
L MCU_Microchip_PIC16:PIC16F18854-SO U1
U 1 1 61BBAAD3
P 5800 5450
F 0 "U1" H 5800 6431 50  0000 C CNN
F 1 "PIC16F18854-SO" H 5800 6340 50  0000 C CNN
F 2 "Package_SO:SOIC-28W_7.5x17.9mm_P1.27mm" H 5800 4350 50  0001 C CNN
F 3 "http://ww1.microchip.com/downloads/en/DeviceDoc/PIC16(L)F18854%20Data%20Sheet_DS40001826C.pdf" H 6100 4850 50  0001 C CNN
	1    5800 5450
	1    0    0    -1  
$EndComp
Wire Wire Line
	7550 4500 7150 4500
$Comp
L power:PWR_FLAG #FLG02
U 1 1 61BC3F42
P 6550 6800
F 0 "#FLG02" H 6550 6875 50  0001 C CNN
F 1 "PWR_FLAG" H 6550 6973 50  0000 C CNN
F 2 "" H 6550 6800 50  0001 C CNN
F 3 "~" H 6550 6800 50  0001 C CNN
	1    6550 6800
	1    0    0    -1  
$EndComp
$Comp
L power:PWR_FLAG #FLG01
U 1 1 61BC4AC4
P 6300 4200
F 0 "#FLG01" H 6300 4275 50  0001 C CNN
F 1 "PWR_FLAG" H 6300 4373 50  0000 C CNN
F 2 "" H 6300 4200 50  0001 C CNN
F 3 "~" H 6300 4200 50  0001 C CNN
	1    6300 4200
	1    0    0    -1  
$EndComp
Wire Wire Line
	6300 4200 5800 4200
Wire Wire Line
	5800 4200 5800 4650
Wire Wire Line
	6550 6800 5800 6800
Wire Wire Line
	5800 6800 5800 6250
Wire Wire Line
	4900 6850 5300 6850
Wire Wire Line
	4250 6950 5800 6950
Wire Wire Line
	5800 6950 5800 6800
Connection ~ 5800 6800
Wire Wire Line
	4250 4200 5800 4200
Connection ~ 5800 4200
Wire Wire Line
	6300 4950 6800 4950
Wire Wire Line
	6300 4850 6400 4850
Wire Wire Line
	6400 4850 6400 4500
Wire Wire Line
	6400 4500 6850 4500
Wire Wire Line
	6300 4200 7850 4200
Wire Wire Line
	7850 4200 7850 4500
Connection ~ 6300 4200
Wire Wire Line
	4250 6850 4600 6850
Text Label 4250 6850 0    50   ~ 0
INPUTtoR
$Comp
L xp1:XP1 XP1
U 1 1 61BB7662
P 4050 6850
F 0 "XP1" H 3808 7265 50  0000 C CNN
F 1 "XP" H 3808 7174 50  0000 C CNN
F 2 "Connector:Banana_Jack_3Pin" H 4050 6850 50  0001 C CNN
F 3 "" H 4050 6850 50  0001 C CNN
	1    4050 6850
	1    0    0    -1  
$EndComp
Text Label 5000 6850 0    50   ~ 0
INPUT
Text Label 6500 4950 0    50   ~ 0
INPUT
Text Label 6500 4500 0    50   ~ 0
uCtoLED
Text Label 7200 4500 0    50   ~ 0
LEDtoR
NoConn ~ 6300 6050
NoConn ~ 6300 5950
NoConn ~ 6300 5850
NoConn ~ 6300 5750
NoConn ~ 6300 5550
NoConn ~ 6300 5450
NoConn ~ 6300 5350
NoConn ~ 6300 5250
NoConn ~ 6300 5150
NoConn ~ 6300 5050
NoConn ~ 5300 6050
NoConn ~ 5300 5950
NoConn ~ 5300 5850
NoConn ~ 5300 5750
NoConn ~ 5300 5650
NoConn ~ 5300 5550
NoConn ~ 5300 5450
NoConn ~ 5300 5350
NoConn ~ 5300 5250
NoConn ~ 5300 5150
NoConn ~ 5300 5050
NoConn ~ 5300 4950
NoConn ~ 5300 4850
Text Label 4300 6950 0    50   ~ 0
GND
Text Label 4250 6300 0    50   ~ 0
VCC
Wire Wire Line
	4250 6750 4250 4200
$EndSCHEMATC
