EESchema Schematic File Version 4
EELAYER 30 0
EELAYER END
$Descr A3 16535 11693
encoding utf-8
Sheet 1 1
Title "Контрольно-измерительное устройство"
Date ""
Rev ""
Comp ""
Comment1 ""
Comment2 ""
Comment3 ""
Comment4 ""
$EndDescr
$Comp
L MCU_Microchip_ATmega:ATmega8515-16AU U2
U 1 1 619FE08B
P 7700 3500
F 0 "U2" H 7700 5681 50  0000 C CNN
F 1 "ATmega8515-16AU" H 7700 5590 50  0000 C CNN
F 2 "Package_QFP:TQFP-44_10x10mm_P0.8mm" H 7700 3500 50  0001 C CIN
F 3 "http://ww1.microchip.com/downloads/en/DeviceDoc/doc2512.pdf" H 7700 3500 50  0001 C CNN
	1    7700 3500
	1    0    0    -1  
$EndComp
Wire Bus Line
	9250 1550 9250 6000
Wire Bus Line
	9250 6000 6350 6000
Wire Bus Line
	6350 6000 6350 1550
$Comp
L Switch:SW_Push SW1
U 1 1 61A01D75
P 3600 5050
F 0 "SW1" H 3600 5335 50  0000 C CNN
F 1 "SW_Push" H 3600 5244 50  0000 C CNN
F 2 "Button_Switch_THT:SW_Tactile_SKHH_Angled" H 3600 5250 50  0001 C CNN
F 3 "~" H 3600 5250 50  0001 C CNN
	1    3600 5050
	1    0    0    -1  
$EndComp
$Comp
L power:VCC #PWR0101
U 1 1 61A02744
P 2850 5050
F 0 "#PWR0101" H 2850 4900 50  0001 C CNN
F 1 "VCC" V 2865 5177 50  0000 L CNN
F 2 "" H 2850 5050 50  0001 C CNN
F 3 "" H 2850 5050 50  0001 C CNN
	1    2850 5050
	0    -1   -1   0   
$EndComp
Wire Wire Line
	2850 5050 3400 5050
$Comp
L Switch:SW_Push SW2
U 1 1 61A04CE1
P 5600 5700
F 0 "SW2" H 5600 5985 50  0000 C CNN
F 1 "SW_Push" H 5600 5894 50  0000 C CNN
F 2 "Button_Switch_THT:SW_Tactile_SKHH_Angled" H 5600 5900 50  0001 C CNN
F 3 "~" H 5600 5900 50  0001 C CNN
	1    5600 5700
	1    0    0    -1  
$EndComp
$Comp
L power:VCC #PWR0103
U 1 1 61A04CE7
P 4850 5700
F 0 "#PWR0103" H 4850 5550 50  0001 C CNN
F 1 "VCC" V 4865 5827 50  0000 L CNN
F 2 "" H 4850 5700 50  0001 C CNN
F 3 "" H 4850 5700 50  0001 C CNN
	1    4850 5700
	0    -1   -1   0   
$EndComp
Wire Wire Line
	4850 5700 5400 5700
$Comp
L Device:R R2
U 1 1 61A050D9
P 5950 6250
F 0 "R2" H 6020 6296 50  0000 L CNN
F 1 "1k" H 6020 6205 50  0000 L CNN
F 2 "Resistor_THT:R_Axial_DIN0207_L6.3mm_D2.5mm_P2.54mm_Vertical" V 5880 6250 50  0001 C CNN
F 3 "~" H 5950 6250 50  0001 C CNN
	1    5950 6250
	1    0    0    -1  
$EndComp
Wire Wire Line
	5800 5700 5950 5700
Wire Wire Line
	5950 5700 5950 6100
Connection ~ 5950 5700
Wire Wire Line
	5950 5700 6350 5700
$Comp
L Switch:SW_Push SW3
U 1 1 61A05641
P 6850 7450
F 0 "SW3" H 6850 7735 50  0000 C CNN
F 1 "SW_Push" H 6850 7644 50  0000 C CNN
F 2 "Button_Switch_THT:SW_Tactile_SKHH_Angled" H 6850 7650 50  0001 C CNN
F 3 "~" H 6850 7650 50  0001 C CNN
	1    6850 7450
	1    0    0    -1  
$EndComp
$Comp
L power:GND #PWR0105
U 1 1 61A06053
P 5950 7450
F 0 "#PWR0105" H 5950 7200 50  0001 C CNN
F 1 "GND" V 5955 7322 50  0000 R CNN
F 2 "" H 5950 7450 50  0001 C CNN
F 3 "" H 5950 7450 50  0001 C CNN
	1    5950 7450
	0    1    1    0   
$EndComp
$Comp
L Device:C C3
U 1 1 61A06A6A
P 7400 8050
F 0 "C3" H 7515 8096 50  0000 L CNN
F 1 "100m" H 7515 8005 50  0000 L CNN
F 2 "Capacitor_SMD:C_0805_2012Metric" H 7438 7900 50  0001 C CNN
F 3 "~" H 7400 8050 50  0001 C CNN
	1    7400 8050
	1    0    0    -1  
$EndComp
$Comp
L Device:R R3
U 1 1 61A07418
P 7400 6750
F 0 "R3" H 7470 6796 50  0000 L CNN
F 1 "10k" H 7470 6705 50  0000 L CNN
F 2 "Resistor_THT:R_Axial_DIN0207_L6.3mm_D2.5mm_P2.54mm_Vertical" V 7330 6750 50  0001 C CNN
F 3 "~" H 7400 6750 50  0001 C CNN
	1    7400 6750
	1    0    0    -1  
$EndComp
$Comp
L power:GND #PWR0106
U 1 1 61A07C29
P 7400 8450
F 0 "#PWR0106" H 7400 8200 50  0001 C CNN
F 1 "GND" V 7405 8322 50  0000 R CNN
F 2 "" H 7400 8450 50  0001 C CNN
F 3 "" H 7400 8450 50  0001 C CNN
	1    7400 8450
	1    0    0    -1  
$EndComp
$Comp
L power:VCC #PWR0107
U 1 1 61A07C91
P 7400 6300
F 0 "#PWR0107" H 7400 6150 50  0001 C CNN
F 1 "VCC" H 7415 6473 50  0000 C CNN
F 2 "" H 7400 6300 50  0001 C CNN
F 3 "" H 7400 6300 50  0001 C CNN
	1    7400 6300
	1    0    0    -1  
$EndComp
Wire Wire Line
	5950 7450 6650 7450
Wire Wire Line
	7050 7450 7400 7450
Wire Wire Line
	7400 7450 7400 6900
Wire Wire Line
	7400 7900 7400 7450
Connection ~ 7400 7450
Wire Wire Line
	7400 6600 7400 6300
Wire Wire Line
	7400 8450 7400 8200
Wire Wire Line
	7400 7450 7800 7450
Wire Wire Line
	7800 7450 7800 6000
$Comp
L Device:Resonator Y1
U 1 1 61A094D9
P 8500 7200
F 0 "Y1" H 8500 7448 50  0000 C CNN
F 1 "Resonator" H 8500 7357 50  0000 C CNN
F 2 "Crystal:Crystal_HC49-U-3Pin_Vertical" H 8475 7200 50  0001 C CNN
F 3 "~" H 8475 7200 50  0001 C CNN
	1    8500 7200
	1    0    0    -1  
$EndComp
$Comp
L power:GND #PWR0108
U 1 1 61A0A96C
P 8500 7400
F 0 "#PWR0108" H 8500 7150 50  0001 C CNN
F 1 "GND" V 8505 7272 50  0000 R CNN
F 2 "" H 8500 7400 50  0001 C CNN
F 3 "" H 8500 7400 50  0001 C CNN
	1    8500 7400
	1    0    0    -1  
$EndComp
Wire Wire Line
	8650 7200 8800 7200
Wire Wire Line
	8800 7200 8800 6000
Wire Wire Line
	8350 7200 8200 7200
Wire Wire Line
	8200 7200 8200 6000
$Comp
L Interface_UART:MAX232 U3
U 1 1 61A0B7E9
P 11900 2550
F 0 "U3" H 11900 3931 50  0000 C CNN
F 1 "MAX232" H 11900 3840 50  0000 C CNN
F 2 "Package_DIP:DIP-16_W7.62mm" H 11950 1500 50  0001 L CNN
F 3 "http://www.ti.com/lit/ds/symlink/max232.pdf" H 11900 2650 50  0001 C CNN
	1    11900 2550
	1    0    0    -1  
$EndComp
Wire Wire Line
	11100 1650 10700 1650
Wire Wire Line
	10400 1650 10200 1650
Wire Wire Line
	10200 1650 10200 1950
Wire Wire Line
	10200 1950 11100 1950
Wire Wire Line
	12700 1650 13300 1650
Wire Wire Line
	13600 1650 13750 1650
Wire Wire Line
	13750 1650 13750 1950
Wire Wire Line
	13750 1950 12700 1950
Wire Wire Line
	11100 2650 9250 2650
Wire Wire Line
	11100 3050 9250 3050
$Comp
L Display_Character:HY1602E DS1
U 1 1 61A12FF7
P 12950 5650
F 0 "DS1" H 12950 6631 50  0000 C CNN
F 1 "HY1602E" H 12950 6540 50  0000 C CNN
F 2 "Display:HY1602E" H 12950 4750 50  0001 C CIN
F 3 "http://www.icbank.com/data/ICBShop/board/HY1602E.pdf" H 13150 5750 50  0001 C CNN
	1    12950 5650
	1    0    0    -1  
$EndComp
$Comp
L power:GND #PWR0110
U 1 1 61A13710
P 12000 4800
F 0 "#PWR0110" H 12000 4550 50  0001 C CNN
F 1 "GND" H 12005 4627 50  0000 C CNN
F 2 "" H 12000 4800 50  0001 C CNN
F 3 "" H 12000 4800 50  0001 C CNN
	1    12000 4800
	-1   0    0    1   
$EndComp
$Comp
L power:VCC #PWR0111
U 1 1 61A1790B
P 12950 4500
F 0 "#PWR0111" H 12950 4350 50  0001 C CNN
F 1 "VCC" H 12965 4673 50  0000 C CNN
F 2 "" H 12950 4500 50  0001 C CNN
F 3 "" H 12950 4500 50  0001 C CNN
	1    12950 4500
	1    0    0    -1  
$EndComp
Wire Wire Line
	12950 4500 12950 4700
Wire Wire Line
	12550 6050 9400 6050
Wire Wire Line
	9400 6050 9400 5800
Wire Wire Line
	9400 5800 9250 5800
Wire Wire Line
	12550 6150 9350 6150
Wire Wire Line
	9350 6150 9350 5850
Wire Wire Line
	9350 5850 9250 5850
Wire Wire Line
	12550 6250 9300 6250
Wire Wire Line
	9300 6250 9300 5900
Wire Wire Line
	9300 5900 9250 5900
Wire Wire Line
	12550 5950 9450 5950
Wire Wire Line
	9450 5950 9450 5750
Wire Wire Line
	9450 5750 9250 5750
Wire Wire Line
	12550 5050 9250 5050
Wire Wire Line
	12550 5350 9250 5350
Text Label 6100 5050 0    50   ~ 0
START
Text Label 6150 5700 0    50   ~ 0
STOP
Text Label 7800 6250 1    50   ~ 0
RESET
Text Label 8200 6250 1    50   ~ 0
XTAL1
Text Label 8800 6250 1    50   ~ 0
XTAL2
Text Label 9300 2650 0    50   ~ 0
TX
Text Label 9300 3050 0    50   ~ 0
RX
Text Label 9300 5050 0    50   ~ 0
E
Text Label 9300 5350 0    50   ~ 0
RS
Text Label 9300 5750 0    50   ~ 0
D4
Text Label 9500 6050 0    50   ~ 0
D5
Text Label 9500 6150 0    50   ~ 0
D6
Text Label 9500 6250 0    50   ~ 0
D7
Wire Wire Line
	7100 1800 6350 1800
Wire Wire Line
	7100 2000 6350 2000
Wire Wire Line
	7100 2200 6350 2200
$Comp
L power:VCC #PWR0115
U 1 1 61A36663
P 7700 1150
F 0 "#PWR0115" H 7700 1000 50  0001 C CNN
F 1 "VCC" H 7715 1323 50  0000 C CNN
F 2 "" H 7700 1150 50  0001 C CNN
F 3 "" H 7700 1150 50  0001 C CNN
	1    7700 1150
	1    0    0    -1  
$EndComp
Wire Wire Line
	7700 1150 7700 1350
$Comp
L power:GND #PWR0116
U 1 1 61A38FA5
P 7700 5650
F 0 "#PWR0116" H 7700 5400 50  0001 C CNN
F 1 "GND" H 7705 5477 50  0000 C CNN
F 2 "" H 7700 5650 50  0001 C CNN
F 3 "" H 7700 5650 50  0001 C CNN
	1    7700 5650
	1    0    0    -1  
$EndComp
Wire Wire Line
	7700 5500 7700 5650
Wire Wire Line
	8300 3600 9250 3600
Wire Wire Line
	8300 3700 9250 3700
Wire Wire Line
	8300 3800 9250 3800
Wire Wire Line
	8300 3900 9250 3900
Wire Wire Line
	8300 4000 9250 4000
Wire Wire Line
	8300 4100 9250 4100
Wire Wire Line
	8300 1800 9250 1800
Wire Wire Line
	8300 1900 9250 1900
Wire Wire Line
	8300 4500 9250 4500
Wire Wire Line
	8300 4600 9250 4600
Wire Wire Line
	8300 3200 9250 3200
Wire Wire Line
	8300 3300 9250 3300
Wire Wire Line
	8300 3400 9250 3400
NoConn ~ 8300 2000
NoConn ~ 8300 2100
NoConn ~ 8300 2200
NoConn ~ 8300 2300
NoConn ~ 8300 2400
NoConn ~ 8300 2500
NoConn ~ 8300 2700
NoConn ~ 8300 2800
NoConn ~ 8300 2900
NoConn ~ 8300 3000
NoConn ~ 8300 3100
NoConn ~ 7100 4500
NoConn ~ 7100 4600
NoConn ~ 7100 4700
NoConn ~ 8300 4700
NoConn ~ 8300 4800
NoConn ~ 8300 4900
NoConn ~ 8300 5000
NoConn ~ 8300 5100
NoConn ~ 8300 5200
NoConn ~ 8300 4200
NoConn ~ 8300 4300
NoConn ~ 13350 5050
NoConn ~ 13350 5650
NoConn ~ 13350 5750
$Comp
L Device:C C7
U 1 1 61AA36EF
P 13950 2150
F 0 "C7" V 13698 2150 50  0000 C CNN
F 1 "1m" V 13789 2150 50  0000 C CNN
F 2 "Capacitor_SMD:C_0805_2012Metric" H 13988 2000 50  0001 C CNN
F 3 "~" H 13950 2150 50  0001 C CNN
	1    13950 2150
	0    1    1    0   
$EndComp
$Comp
L power:VCC #PWR0117
U 1 1 61AA719E
P 14550 2150
F 0 "#PWR0117" H 14550 2000 50  0001 C CNN
F 1 "VCC" V 14565 2278 50  0000 L CNN
F 2 "" H 14550 2150 50  0001 C CNN
F 3 "" H 14550 2150 50  0001 C CNN
	1    14550 2150
	0    1    1    0   
$EndComp
Wire Wire Line
	14100 2150 14300 2150
Wire Wire Line
	11900 1350 11900 1250
Wire Wire Line
	11900 1250 14300 1250
Wire Wire Line
	14300 1250 14300 2150
Connection ~ 14300 2150
Wire Wire Line
	14300 2150 14550 2150
Text Label 6400 1800 0    50   ~ 0
RESET
Text Label 6400 2000 0    50   ~ 0
XTAL1
Text Label 6400 2200 0    50   ~ 0
XTAL2
Text Label 9000 1800 0    50   ~ 0
START
Text Label 9000 1900 0    50   ~ 0
STOP
Text Label 9100 4500 0    50   ~ 0
RX
Text Label 9100 4600 0    50   ~ 0
TX
Text Label 9100 3600 0    50   ~ 0
RS
Text Label 9100 3700 0    50   ~ 0
E
Text Label 9100 3800 0    50   ~ 0
D4
Text Label 9100 3900 0    50   ~ 0
D5
Text Label 9100 4000 0    50   ~ 0
D6
Text Label 9100 4100 0    50   ~ 0
D7
$Comp
L schemeLib:IDC-06MS XP2
U 1 1 61ABC310
P 4200 2500
F 0 "XP2" H 4442 2715 50  0000 C CNN
F 1 "IDC-06MS" H 4442 2624 50  0000 C CNN
F 2 "Connector_Dsub:DSUB-9_Female_Horizontal_P2.77x2.54mm_EdgePinOffset9.40mm" H 4300 2500 50  0001 C CNN
F 3 "" H 4300 2500 50  0001 C CNN
	1    4200 2500
	-1   0    0    -1  
$EndComp
Wire Wire Line
	4300 2700 6350 2700
Wire Wire Line
	4300 2800 6350 2800
Wire Wire Line
	4300 2900 6350 2900
Wire Wire Line
	4300 3000 6350 3000
$Comp
L power:GND #PWR0119
U 1 1 61ACA82B
P 4900 3500
F 0 "#PWR0119" H 4900 3250 50  0001 C CNN
F 1 "GND" H 4905 3327 50  0000 C CNN
F 2 "" H 4900 3500 50  0001 C CNN
F 3 "" H 4900 3500 50  0001 C CNN
	1    4900 3500
	1    0    0    -1  
$EndComp
$Comp
L power:VCC #PWR0120
U 1 1 61ACAF1D
P 4900 2150
F 0 "#PWR0120" H 4900 2000 50  0001 C CNN
F 1 "VCC" H 4915 2323 50  0000 C CNN
F 2 "" H 4900 2150 50  0001 C CNN
F 3 "" H 4900 2150 50  0001 C CNN
	1    4900 2150
	1    0    0    -1  
$EndComp
Wire Wire Line
	4300 2600 4900 2600
Wire Wire Line
	4900 2600 4900 2150
Wire Wire Line
	4300 3100 4900 3100
Wire Wire Line
	4900 3100 4900 3500
Text Label 6050 2700 0    50   ~ 0
MISO
Text Label 6050 2800 0    50   ~ 0
SCK
Text Label 6050 2900 0    50   ~ 0
MOSI
Text Label 6050 3000 0    50   ~ 0
RESET
Text Label 9000 3200 0    50   ~ 0
MOSI
Text Label 9000 3300 0    50   ~ 0
MISO
Text Label 9000 3400 0    50   ~ 0
SCK
$Comp
L schemeLib:DB9F XS1
U 1 1 61AD67C4
P 14500 2850
F 0 "XS1" H 14500 2900 50  0000 L CNN
F 1 "DB9F" H 14900 2900 50  0000 L CNN
F 2 "Connector_Dsub:DSUB-9_Female_Horizontal_P2.77x2.54mm_EdgePinOffset9.40mm" H 14500 2850 50  0001 C CNN
F 3 "" H 14500 2850 50  0001 C CNN
	1    14500 2850
	1    0    0    -1  
$EndComp
Wire Wire Line
	14400 3100 13400 3100
Wire Wire Line
	13400 3100 13400 2650
Wire Wire Line
	13400 2650 12700 2650
Wire Wire Line
	12700 3050 13300 3050
Wire Wire Line
	13300 3050 13300 3200
Wire Wire Line
	13300 3200 14400 3200
NoConn ~ 14400 3000
NoConn ~ 14400 3300
NoConn ~ 14400 3500
NoConn ~ 14400 3600
NoConn ~ 14400 3700
NoConn ~ 14400 3800
NoConn ~ 12700 2850
NoConn ~ 11100 2850
NoConn ~ 11100 3250
NoConn ~ 12700 3250
Wire Wire Line
	4250 5050 6350 5050
Wire Wire Line
	3800 5050 4250 5050
Connection ~ 4250 5050
Wire Wire Line
	4250 5350 4250 5050
$Comp
L Device:R R1
U 1 1 61A034AC
P 4250 5500
F 0 "R1" H 4320 5546 50  0000 L CNN
F 1 "1k" H 4320 5455 50  0000 L CNN
F 2 "Resistor_THT:R_Axial_DIN0207_L6.3mm_D2.5mm_P2.54mm_Vertical" V 4180 5500 50  0001 C CNN
F 3 "~" H 4250 5500 50  0001 C CNN
	1    4250 5500
	1    0    0    -1  
$EndComp
NoConn ~ 12700 2150
NoConn ~ 12700 2450
$Comp
L Device:C C5
U 1 1 61AFE6B9
P 5200 2600
F 0 "C5" V 4948 2600 50  0000 C CNN
F 1 "0.1m" V 5039 2600 50  0000 C CNN
F 2 "Capacitor_SMD:C_0805_2012Metric" H 5238 2450 50  0001 C CNN
F 3 "~" H 5200 2600 50  0001 C CNN
	1    5200 2600
	0    1    1    0   
$EndComp
Wire Wire Line
	5050 2600 4900 2600
Connection ~ 4900 2600
$Comp
L power:GND #PWR0123
U 1 1 61B038B6
P 5600 2600
F 0 "#PWR0123" H 5600 2350 50  0001 C CNN
F 1 "GND" V 5605 2472 50  0000 R CNN
F 2 "" H 5600 2600 50  0001 C CNN
F 3 "" H 5600 2600 50  0001 C CNN
	1    5600 2600
	0    -1   -1   0   
$EndComp
Wire Wire Line
	5350 2600 5600 2600
$Comp
L Device:C C8
U 1 1 61B09C68
P 8050 1350
F 0 "C8" V 7798 1350 50  0000 C CNN
F 1 "0.1m" V 7889 1350 50  0000 C CNN
F 2 "Capacitor_SMD:C_0805_2012Metric" H 8088 1200 50  0001 C CNN
F 3 "~" H 8050 1350 50  0001 C CNN
	1    8050 1350
	0    1    1    0   
$EndComp
$Comp
L power:GND #PWR0124
U 1 1 61B0A0F2
P 8500 1350
F 0 "#PWR0124" H 8500 1100 50  0001 C CNN
F 1 "GND" V 8505 1222 50  0000 R CNN
F 2 "" H 8500 1350 50  0001 C CNN
F 3 "" H 8500 1350 50  0001 C CNN
	1    8500 1350
	0    -1   -1   0   
$EndComp
Wire Wire Line
	7900 1350 7700 1350
Connection ~ 7700 1350
Wire Wire Line
	7700 1350 7700 1500
Wire Wire Line
	8200 1350 8500 1350
$Comp
L Device:C C9
U 1 1 61B143D4
P 13300 4700
F 0 "C9" V 13048 4700 50  0000 C CNN
F 1 "0.1m" V 13139 4700 50  0000 C CNN
F 2 "Capacitor_SMD:C_0805_2012Metric" H 13338 4550 50  0001 C CNN
F 3 "~" H 13300 4700 50  0001 C CNN
	1    13300 4700
	0    1    1    0   
$EndComp
$Comp
L power:GND #PWR0125
U 1 1 61B14F19
P 13750 4700
F 0 "#PWR0125" H 13750 4450 50  0001 C CNN
F 1 "GND" V 13755 4572 50  0000 R CNN
F 2 "" H 13750 4700 50  0001 C CNN
F 3 "" H 13750 4700 50  0001 C CNN
	1    13750 4700
	0    -1   -1   0   
$EndComp
Wire Wire Line
	13450 4700 13750 4700
Wire Wire Line
	13150 4700 12950 4700
Connection ~ 12950 4700
Wire Wire Line
	12950 4700 12950 4850
$Comp
L Device:CP C4
U 1 1 61B21BC0
P 10550 1650
F 0 "C4" V 10295 1650 50  0000 C CNN
F 1 "1m" V 10386 1650 50  0000 C CNN
F 2 "Capacitor_THT:CP_Radial_D18.0mm_P7.50mm" H 10588 1500 50  0001 C CNN
F 3 "~" H 10550 1650 50  0001 C CNN
	1    10550 1650
	0    1    1    0   
$EndComp
$Comp
L Device:CP C6
U 1 1 61B22ACC
P 13450 1650
F 0 "C6" V 13705 1650 50  0000 C CNN
F 1 "1m" V 13614 1650 50  0000 C CNN
F 2 "Capacitor_THT:CP_Radial_D18.0mm_P7.50mm" H 13488 1500 50  0001 C CNN
F 3 "~" H 13450 1650 50  0001 C CNN
	1    13450 1650
	0    -1   -1   0   
$EndComp
$Comp
L power:GND #PWR0104
U 1 1 61AE1BA5
P 5950 6550
F 0 "#PWR0104" H 5950 6300 50  0001 C CNN
F 1 "GND" H 5955 6377 50  0000 C CNN
F 2 "" H 5950 6550 50  0001 C CNN
F 3 "" H 5950 6550 50  0001 C CNN
	1    5950 6550
	1    0    0    -1  
$EndComp
Wire Wire Line
	5950 6400 5950 6550
$Comp
L power:GND #PWR0121
U 1 1 61AF295B
P 14200 3400
F 0 "#PWR0121" H 14200 3150 50  0001 C CNN
F 1 "GND" V 14205 3272 50  0000 R CNN
F 2 "" H 14200 3400 50  0001 C CNN
F 3 "" H 14200 3400 50  0001 C CNN
	1    14200 3400
	0    1    1    0   
$EndComp
Wire Wire Line
	14200 3400 14400 3400
$Comp
L power:GND #PWR0102
U 1 1 61AF866C
P 4250 5650
F 0 "#PWR0102" H 4250 5400 50  0001 C CNN
F 1 "GND" H 4255 5477 50  0000 C CNN
F 2 "" H 4250 5650 50  0001 C CNN
F 3 "" H 4250 5650 50  0001 C CNN
	1    4250 5650
	1    0    0    -1  
$EndComp
$Comp
L power:GND #PWR0118
U 1 1 61B03A5B
P 13600 2150
F 0 "#PWR0118" H 13600 1900 50  0001 C CNN
F 1 "GND" V 13605 2022 50  0000 R CNN
F 2 "" H 13600 2150 50  0001 C CNN
F 3 "" H 13600 2150 50  0001 C CNN
	1    13600 2150
	0    1    1    0   
$EndComp
Wire Wire Line
	13800 2150 13600 2150
$Comp
L power:GND #PWR0112
U 1 1 61B09902
P 11900 3750
F 0 "#PWR0112" H 11900 3500 50  0001 C CNN
F 1 "GND" H 11905 3577 50  0000 C CNN
F 2 "" H 11900 3750 50  0001 C CNN
F 3 "" H 11900 3750 50  0001 C CNN
	1    11900 3750
	1    0    0    -1  
$EndComp
$Comp
L power:PWR_FLAG #FLG0102
U 1 1 61AC9061
P 3050 7850
F 0 "#FLG0102" H 3050 7925 50  0001 C CNN
F 1 "PWR_FLAG" H 3050 8023 50  0000 C CNN
F 2 "" H 3050 7850 50  0001 C CNN
F 3 "~" H 3050 7850 50  0001 C CNN
	1    3050 7850
	1    0    0    -1  
$EndComp
$Comp
L power:GND #PWR0113
U 1 1 61AC9FA3
P 3050 8000
F 0 "#PWR0113" H 3050 7750 50  0001 C CNN
F 1 "GND" H 3055 7827 50  0000 C CNN
F 2 "" H 3050 8000 50  0001 C CNN
F 3 "" H 3050 8000 50  0001 C CNN
	1    3050 8000
	1    0    0    -1  
$EndComp
Wire Wire Line
	3050 7850 3050 8000
Wire Wire Line
	12950 6450 12000 6450
Wire Wire Line
	12000 4800 12000 6450
NoConn ~ 12550 5250
NoConn ~ 12550 5550
NoConn ~ 12550 5650
NoConn ~ 12550 5750
NoConn ~ 12550 5850
Wire Wire Line
	3200 10450 3400 10450
Wire Wire Line
	3400 10450 3400 10650
$Comp
L Regulator_Linear:LM7805_TO220 U1
U 1 1 61B3AFFA
P 4250 10350
F 0 "U1" H 4250 10592 50  0000 C CNN
F 1 "LM7805_TO220" H 4250 10501 50  0000 C CNN
F 2 "Package_DIP:DIP-4_W7.62mm" H 4250 10575 50  0001 C CIN
F 3 "https://www.onsemi.cn/PowerSolutions/document/MC7800-D.PDF" H 4250 10300 50  0001 C CNN
	1    4250 10350
	1    0    0    -1  
$EndComp
Wire Wire Line
	4250 10650 4850 10650
Connection ~ 4250 10650
Wire Wire Line
	4250 10650 4250 10900
$Comp
L power:GND #PWR0122
U 1 1 61B4FA23
P 4250 10900
F 0 "#PWR0122" H 4250 10650 50  0001 C CNN
F 1 "GND" H 4255 10727 50  0000 C CNN
F 2 "" H 4250 10900 50  0001 C CNN
F 3 "" H 4250 10900 50  0001 C CNN
	1    4250 10900
	1    0    0    -1  
$EndComp
$Comp
L power:VCC #PWR0126
U 1 1 61B50463
P 5100 10350
F 0 "#PWR0126" H 5100 10200 50  0001 C CNN
F 1 "VCC" V 5115 10478 50  0000 L CNN
F 2 "" H 5100 10350 50  0001 C CNN
F 3 "" H 5100 10350 50  0001 C CNN
	1    5100 10350
	0    1    1    0   
$EndComp
$Comp
L schemeLib:MPW-2R XP1
U 1 1 61B2E2D4
P 3100 10150
F 0 "XP1" H 3650 10150 50  0000 C CNN
F 1 "MPW-2R" H 3250 10150 50  0000 C CNN
F 2 "Connector:Banana_Jack_2Pin" H 3100 10150 50  0001 C CNN
F 3 "" H 3100 10150 50  0001 C CNN
	1    3100 10150
	-1   0    0    -1  
$EndComp
Wire Wire Line
	3200 10350 3700 10350
Wire Wire Line
	3400 10650 3700 10650
Wire Wire Line
	4550 10350 4850 10350
$Comp
L Device:C C1
U 1 1 61CB22CF
P 3700 10500
F 0 "C1" H 3815 10546 50  0000 L CNN
F 1 "0.33uF" H 3815 10455 50  0000 L CNN
F 2 "Capacitor_SMD:C_0805_2012Metric" H 3738 10350 50  0001 C CNN
F 3 "~" H 3700 10500 50  0001 C CNN
	1    3700 10500
	1    0    0    -1  
$EndComp
Connection ~ 3700 10350
Wire Wire Line
	3700 10350 3950 10350
Connection ~ 3700 10650
Wire Wire Line
	3700 10650 4250 10650
$Comp
L Device:C C2
U 1 1 61CB284F
P 4850 10500
F 0 "C2" H 4965 10546 50  0000 L CNN
F 1 "0.1uF" H 4965 10455 50  0000 L CNN
F 2 "Capacitor_SMD:C_0805_2012Metric" H 4888 10350 50  0001 C CNN
F 3 "~" H 4850 10500 50  0001 C CNN
	1    4850 10500
	1    0    0    -1  
$EndComp
Connection ~ 4850 10350
Wire Wire Line
	4850 10350 5100 10350
$EndSCHEMATC
