%TF.GenerationSoftware,KiCad,Pcbnew,(5.1.10-1-10_14)*%
%TF.CreationDate,2021-12-28T00:11:52+03:00*%
%TF.ProjectId,lab5,6c616235-2e6b-4696-9361-645f70636258,rev?*%
%TF.SameCoordinates,Original*%
%TF.FileFunction,Copper,L1,Top*%
%TF.FilePolarity,Positive*%
%FSLAX46Y46*%
G04 Gerber Fmt 4.6, Leading zero omitted, Abs format (unit mm)*
G04 Created by KiCad (PCBNEW (5.1.10-1-10_14)) date 2021-12-28 00:11:52*
%MOMM*%
%LPD*%
G01*
G04 APERTURE LIST*
%TA.AperFunction,ComponentPad*%
%ADD10R,1.600000X1.600000*%
%TD*%
%TA.AperFunction,ComponentPad*%
%ADD11O,1.600000X1.600000*%
%TD*%
%TA.AperFunction,ComponentPad*%
%ADD12R,1.800000X1.800000*%
%TD*%
%TA.AperFunction,ComponentPad*%
%ADD13C,1.800000*%
%TD*%
%TA.AperFunction,ComponentPad*%
%ADD14C,1.200000*%
%TD*%
%TA.AperFunction,ComponentPad*%
%ADD15O,2.400000X1.200000*%
%TD*%
%TA.AperFunction,ComponentPad*%
%ADD16O,2.100000X1.200000*%
%TD*%
%TA.AperFunction,SMDPad,CuDef*%
%ADD17R,0.500000X2.000000*%
%TD*%
%TA.AperFunction,ComponentPad*%
%ADD18C,10.160000*%
%TD*%
%TA.AperFunction,SMDPad,CuDef*%
%ADD19R,1.600000X1.400000*%
%TD*%
%TA.AperFunction,SMDPad,CuDef*%
%ADD20R,1.750000X0.450000*%
%TD*%
%TA.AperFunction,ComponentPad*%
%ADD21R,1.524000X1.524000*%
%TD*%
%TA.AperFunction,ComponentPad*%
%ADD22C,1.524000*%
%TD*%
%TA.AperFunction,SMDPad,CuDef*%
%ADD23R,3.800000X2.000000*%
%TD*%
%TA.AperFunction,SMDPad,CuDef*%
%ADD24R,1.500000X2.000000*%
%TD*%
%TA.AperFunction,ComponentPad*%
%ADD25C,1.000000*%
%TD*%
%TA.AperFunction,SMDPad,CuDef*%
%ADD26R,2.200000X1.600000*%
%TD*%
%TA.AperFunction,ViaPad*%
%ADD27C,0.800000*%
%TD*%
%TA.AperFunction,Conductor*%
%ADD28C,0.250000*%
%TD*%
%TA.AperFunction,Conductor*%
%ADD29C,0.500000*%
%TD*%
G04 APERTURE END LIST*
%TO.P,C6,2*%
%TO.N,+5V*%
%TA.AperFunction,SMDPad,CuDef*%
G36*
G01*
X172600000Y-153210000D02*
X172400000Y-153210000D01*
G75*
G02*
X172300000Y-153110000I0J100000D01*
G01*
X172300000Y-152850000D01*
G75*
G02*
X172400000Y-152750000I100000J0D01*
G01*
X172600000Y-152750000D01*
G75*
G02*
X172700000Y-152850000I0J-100000D01*
G01*
X172700000Y-153110000D01*
G75*
G02*
X172600000Y-153210000I-100000J0D01*
G01*
G37*
%TD.AperFunction*%
%TO.P,C6,1*%
%TO.N,GND*%
%TA.AperFunction,SMDPad,CuDef*%
G36*
G01*
X172600000Y-153850000D02*
X172400000Y-153850000D01*
G75*
G02*
X172300000Y-153750000I0J100000D01*
G01*
X172300000Y-153490000D01*
G75*
G02*
X172400000Y-153390000I100000J0D01*
G01*
X172600000Y-153390000D01*
G75*
G02*
X172700000Y-153490000I0J-100000D01*
G01*
X172700000Y-153750000D01*
G75*
G02*
X172600000Y-153850000I-100000J0D01*
G01*
G37*
%TD.AperFunction*%
%TD*%
%TO.P,C4,1*%
%TO.N,Net-(C4-Pad1)*%
%TA.AperFunction,SMDPad,CuDef*%
G36*
G01*
X188800000Y-151550000D02*
X188600000Y-151550000D01*
G75*
G02*
X188500000Y-151450000I0J100000D01*
G01*
X188500000Y-151190000D01*
G75*
G02*
X188600000Y-151090000I100000J0D01*
G01*
X188800000Y-151090000D01*
G75*
G02*
X188900000Y-151190000I0J-100000D01*
G01*
X188900000Y-151450000D01*
G75*
G02*
X188800000Y-151550000I-100000J0D01*
G01*
G37*
%TD.AperFunction*%
%TO.P,C4,2*%
%TO.N,GND*%
%TA.AperFunction,SMDPad,CuDef*%
G36*
G01*
X188800000Y-150910000D02*
X188600000Y-150910000D01*
G75*
G02*
X188500000Y-150810000I0J100000D01*
G01*
X188500000Y-150550000D01*
G75*
G02*
X188600000Y-150450000I100000J0D01*
G01*
X188800000Y-150450000D01*
G75*
G02*
X188900000Y-150550000I0J-100000D01*
G01*
X188900000Y-150810000D01*
G75*
G02*
X188800000Y-150910000I-100000J0D01*
G01*
G37*
%TD.AperFunction*%
%TD*%
%TO.P,C5,2*%
%TO.N,GND*%
%TA.AperFunction,SMDPad,CuDef*%
G36*
G01*
X188910000Y-148900000D02*
X188910000Y-149100000D01*
G75*
G02*
X188810000Y-149200000I-100000J0D01*
G01*
X188550000Y-149200000D01*
G75*
G02*
X188450000Y-149100000I0J100000D01*
G01*
X188450000Y-148900000D01*
G75*
G02*
X188550000Y-148800000I100000J0D01*
G01*
X188810000Y-148800000D01*
G75*
G02*
X188910000Y-148900000I0J-100000D01*
G01*
G37*
%TD.AperFunction*%
%TO.P,C5,1*%
%TO.N,Net-(C5-Pad1)*%
%TA.AperFunction,SMDPad,CuDef*%
G36*
G01*
X189550000Y-148900000D02*
X189550000Y-149100000D01*
G75*
G02*
X189450000Y-149200000I-100000J0D01*
G01*
X189190000Y-149200000D01*
G75*
G02*
X189090000Y-149100000I0J100000D01*
G01*
X189090000Y-148900000D01*
G75*
G02*
X189190000Y-148800000I100000J0D01*
G01*
X189450000Y-148800000D01*
G75*
G02*
X189550000Y-148900000I0J-100000D01*
G01*
G37*
%TD.AperFunction*%
%TD*%
D10*
%TO.P,U2,1*%
%TO.N,Net-(SW6-Pad1)*%
X139700000Y-146050000D03*
D11*
%TO.P,U2,21*%
%TO.N,Net-(U2-Pad21)*%
X187960000Y-130810000D03*
%TO.P,U2,2*%
%TO.N,Net-(U2-Pad2)*%
X142240000Y-146050000D03*
%TO.P,U2,22*%
%TO.N,Net-(U2-Pad22)*%
X185420000Y-130810000D03*
%TO.P,U2,3*%
%TO.N,Net-(U2-Pad3)*%
X144780000Y-146050000D03*
%TO.P,U2,23*%
%TO.N,Net-(U2-Pad23)*%
X182880000Y-130810000D03*
%TO.P,U2,4*%
%TO.N,Net-(U2-Pad4)*%
X147320000Y-146050000D03*
%TO.P,U2,24*%
%TO.N,Net-(U2-Pad24)*%
X180340000Y-130810000D03*
%TO.P,U2,5*%
%TO.N,Net-(U2-Pad5)*%
X149860000Y-146050000D03*
%TO.P,U2,25*%
%TO.N,Net-(U2-Pad25)*%
X177800000Y-130810000D03*
%TO.P,U2,6*%
%TO.N,/MOSI*%
X152400000Y-146050000D03*
%TO.P,U2,26*%
%TO.N,Net-(U2-Pad26)*%
X175260000Y-130810000D03*
%TO.P,U2,7*%
%TO.N,/MISO*%
X154940000Y-146050000D03*
%TO.P,U2,27*%
%TO.N,Net-(U2-Pad27)*%
X172720000Y-130810000D03*
%TO.P,U2,8*%
%TO.N,/SCK*%
X157480000Y-146050000D03*
%TO.P,U2,28*%
%TO.N,Net-(U2-Pad28)*%
X170180000Y-130810000D03*
%TO.P,U2,9*%
%TO.N,/RST*%
X160020000Y-146050000D03*
%TO.P,U2,29*%
%TO.N,Net-(U2-Pad29)*%
X167640000Y-130810000D03*
%TO.P,U2,10*%
%TO.N,/RXD*%
X162560000Y-146050000D03*
%TO.P,U2,30*%
%TO.N,Net-(U2-Pad30)*%
X165100000Y-130810000D03*
%TO.P,U2,11*%
%TO.N,/TXD*%
X165100000Y-146050000D03*
%TO.P,U2,31*%
%TO.N,Net-(U2-Pad31)*%
X162560000Y-130810000D03*
%TO.P,U2,12*%
%TO.N,Net-(U2-Pad12)*%
X167640000Y-146050000D03*
%TO.P,U2,32*%
%TO.N,Net-(U2-Pad32)*%
X160020000Y-130810000D03*
%TO.P,U2,13*%
%TO.N,Net-(U2-Pad13)*%
X170180000Y-146050000D03*
%TO.P,U2,33*%
%TO.N,/1500\u043C*%
X157480000Y-130810000D03*
%TO.P,U2,14*%
%TO.N,Net-(U2-Pad14)*%
X172720000Y-146050000D03*
%TO.P,U2,34*%
%TO.N,/400\u043C*%
X154940000Y-130810000D03*
%TO.P,U2,15*%
%TO.N,Net-(U2-Pad15)*%
X175260000Y-146050000D03*
%TO.P,U2,35*%
%TO.N,/100\u043C*%
X152400000Y-130810000D03*
%TO.P,U2,16*%
%TO.N,Net-(U2-Pad16)*%
X177800000Y-146050000D03*
%TO.P,U2,36*%
%TO.N,Net-(SW5-Pad1)*%
X149860000Y-130810000D03*
%TO.P,U2,17*%
%TO.N,Net-(U2-Pad17)*%
X180340000Y-146050000D03*
%TO.P,U2,37*%
%TO.N,Net-(SW4-Pad1)*%
X147320000Y-130810000D03*
%TO.P,U2,18*%
%TO.N,Net-(C5-Pad1)*%
X182880000Y-146050000D03*
%TO.P,U2,38*%
%TO.N,Net-(SW3-Pad1)*%
X144780000Y-130810000D03*
%TO.P,U2,19*%
%TO.N,Net-(C4-Pad1)*%
X185420000Y-146050000D03*
%TO.P,U2,39*%
%TO.N,Net-(SW2-Pad1)*%
X142240000Y-130810000D03*
%TO.P,U2,20*%
%TO.N,GND*%
X187960000Y-146050000D03*
%TO.P,U2,40*%
%TO.N,+5V*%
X139700000Y-130810000D03*
%TD*%
%TO.P,C1,2*%
%TO.N,Net-(C1-Pad2)*%
%TA.AperFunction,SMDPad,CuDef*%
G36*
G01*
X185070000Y-157850000D02*
X185270000Y-157850000D01*
G75*
G02*
X185370000Y-157950000I0J-100000D01*
G01*
X185370000Y-158210000D01*
G75*
G02*
X185270000Y-158310000I-100000J0D01*
G01*
X185070000Y-158310000D01*
G75*
G02*
X184970000Y-158210000I0J100000D01*
G01*
X184970000Y-157950000D01*
G75*
G02*
X185070000Y-157850000I100000J0D01*
G01*
G37*
%TD.AperFunction*%
%TO.P,C1,1*%
%TO.N,GND*%
%TA.AperFunction,SMDPad,CuDef*%
G36*
G01*
X185070000Y-157210000D02*
X185270000Y-157210000D01*
G75*
G02*
X185370000Y-157310000I0J-100000D01*
G01*
X185370000Y-157570000D01*
G75*
G02*
X185270000Y-157670000I-100000J0D01*
G01*
X185070000Y-157670000D01*
G75*
G02*
X184970000Y-157570000I0J100000D01*
G01*
X184970000Y-157310000D01*
G75*
G02*
X185070000Y-157210000I100000J0D01*
G01*
G37*
%TD.AperFunction*%
%TD*%
%TO.P,C7,2*%
%TO.N,+5V*%
%TA.AperFunction,SMDPad,CuDef*%
G36*
G01*
X139600000Y-128170000D02*
X139800000Y-128170000D01*
G75*
G02*
X139900000Y-128270000I0J-100000D01*
G01*
X139900000Y-128530000D01*
G75*
G02*
X139800000Y-128630000I-100000J0D01*
G01*
X139600000Y-128630000D01*
G75*
G02*
X139500000Y-128530000I0J100000D01*
G01*
X139500000Y-128270000D01*
G75*
G02*
X139600000Y-128170000I100000J0D01*
G01*
G37*
%TD.AperFunction*%
%TO.P,C7,1*%
%TO.N,GND*%
%TA.AperFunction,SMDPad,CuDef*%
G36*
G01*
X139600000Y-127530000D02*
X139800000Y-127530000D01*
G75*
G02*
X139900000Y-127630000I0J-100000D01*
G01*
X139900000Y-127890000D01*
G75*
G02*
X139800000Y-127990000I-100000J0D01*
G01*
X139600000Y-127990000D01*
G75*
G02*
X139500000Y-127890000I0J100000D01*
G01*
X139500000Y-127630000D01*
G75*
G02*
X139600000Y-127530000I100000J0D01*
G01*
G37*
%TD.AperFunction*%
%TD*%
%TO.P,C8,1*%
%TO.N,+5V*%
%TA.AperFunction,SMDPad,CuDef*%
G36*
G01*
X162295000Y-116200000D02*
X162295000Y-116000000D01*
G75*
G02*
X162395000Y-115900000I100000J0D01*
G01*
X162655000Y-115900000D01*
G75*
G02*
X162755000Y-116000000I0J-100000D01*
G01*
X162755000Y-116200000D01*
G75*
G02*
X162655000Y-116300000I-100000J0D01*
G01*
X162395000Y-116300000D01*
G75*
G02*
X162295000Y-116200000I0J100000D01*
G01*
G37*
%TD.AperFunction*%
%TO.P,C8,2*%
%TO.N,GND*%
%TA.AperFunction,SMDPad,CuDef*%
G36*
G01*
X162935000Y-116200000D02*
X162935000Y-116000000D01*
G75*
G02*
X163035000Y-115900000I100000J0D01*
G01*
X163295000Y-115900000D01*
G75*
G02*
X163395000Y-116000000I0J-100000D01*
G01*
X163395000Y-116200000D01*
G75*
G02*
X163295000Y-116300000I-100000J0D01*
G01*
X163035000Y-116300000D01*
G75*
G02*
X162935000Y-116200000I0J100000D01*
G01*
G37*
%TD.AperFunction*%
%TD*%
%TO.P,C9,2*%
%TO.N,GND*%
%TA.AperFunction,SMDPad,CuDef*%
G36*
G01*
X158500000Y-154910000D02*
X158300000Y-154910000D01*
G75*
G02*
X158200000Y-154810000I0J100000D01*
G01*
X158200000Y-154550000D01*
G75*
G02*
X158300000Y-154450000I100000J0D01*
G01*
X158500000Y-154450000D01*
G75*
G02*
X158600000Y-154550000I0J-100000D01*
G01*
X158600000Y-154810000D01*
G75*
G02*
X158500000Y-154910000I-100000J0D01*
G01*
G37*
%TD.AperFunction*%
%TO.P,C9,1*%
%TO.N,+5V*%
%TA.AperFunction,SMDPad,CuDef*%
G36*
G01*
X158500000Y-155550000D02*
X158300000Y-155550000D01*
G75*
G02*
X158200000Y-155450000I0J100000D01*
G01*
X158200000Y-155190000D01*
G75*
G02*
X158300000Y-155090000I100000J0D01*
G01*
X158500000Y-155090000D01*
G75*
G02*
X158600000Y-155190000I0J-100000D01*
G01*
X158600000Y-155450000D01*
G75*
G02*
X158500000Y-155550000I-100000J0D01*
G01*
G37*
%TD.AperFunction*%
%TD*%
D12*
%TO.P,D1,1*%
%TO.N,GND*%
X148060000Y-123720000D03*
D13*
%TO.P,D1,2*%
%TO.N,Net-(D1-Pad2)*%
X150600000Y-123720000D03*
%TD*%
D12*
%TO.P,D2,1*%
%TO.N,GND*%
X153800000Y-123720000D03*
D13*
%TO.P,D2,2*%
%TO.N,Net-(D2-Pad2)*%
X156340000Y-123720000D03*
%TD*%
%TO.P,D3,2*%
%TO.N,Net-(D3-Pad2)*%
X162040000Y-123720000D03*
D12*
%TO.P,D3,1*%
%TO.N,GND*%
X159500000Y-123720000D03*
%TD*%
D14*
%TO.P,J1,1*%
%TO.N,+5V*%
X198000000Y-160400000D03*
%TO.P,J1,2*%
%TO.N,/D-*%
X198000000Y-157900000D03*
%TO.P,J1,3*%
%TO.N,/D+*%
X198000000Y-155900000D03*
%TO.P,J1,4*%
%TO.N,GND*%
X198000000Y-153400000D03*
%TO.P,J1,5*%
X196500000Y-152900000D03*
%TO.P,J1,6*%
%TO.N,N/C*%
X196500000Y-154900000D03*
%TO.P,J1,7*%
X196500000Y-156900000D03*
%TO.P,J1,8*%
X196500000Y-158900000D03*
%TO.P,J1,9*%
X196500000Y-160900000D03*
D15*
%TO.P,J1,10*%
X197250000Y-150500000D03*
X197250000Y-163300000D03*
D16*
X205750000Y-150500000D03*
X205750000Y-163300000D03*
%TD*%
D17*
%TO.P,J2,6*%
%TO.N,GND*%
X154050000Y-154950000D03*
%TO.P,J2,5*%
%TO.N,/RST*%
X154050000Y-151650000D03*
%TO.P,J2,4*%
%TO.N,/MOSI*%
X155050000Y-154950000D03*
%TO.P,J2,3*%
%TO.N,/SCK*%
X155050000Y-151650000D03*
%TO.P,J2,2*%
%TO.N,+5V*%
X156050000Y-154950000D03*
%TO.P,J2,1*%
%TO.N,/MISO*%
X156050000Y-151650000D03*
%TD*%
D18*
%TO.P,J3,1*%
%TO.N,Net-(C2-Pad1)*%
X145800000Y-171600000D03*
%TO.P,J3,2*%
%TO.N,GND*%
X175770000Y-171600000D03*
%TD*%
%TO.P,R1,2*%
%TO.N,Net-(D1-Pad2)*%
%TA.AperFunction,SMDPad,CuDef*%
G36*
G01*
X152500000Y-127860000D02*
X152300000Y-127860000D01*
G75*
G02*
X152200000Y-127760000I0J100000D01*
G01*
X152200000Y-127500000D01*
G75*
G02*
X152300000Y-127400000I100000J0D01*
G01*
X152500000Y-127400000D01*
G75*
G02*
X152600000Y-127500000I0J-100000D01*
G01*
X152600000Y-127760000D01*
G75*
G02*
X152500000Y-127860000I-100000J0D01*
G01*
G37*
%TD.AperFunction*%
%TO.P,R1,1*%
%TO.N,/100\u043C*%
%TA.AperFunction,SMDPad,CuDef*%
G36*
G01*
X152500000Y-128500000D02*
X152300000Y-128500000D01*
G75*
G02*
X152200000Y-128400000I0J100000D01*
G01*
X152200000Y-128140000D01*
G75*
G02*
X152300000Y-128040000I100000J0D01*
G01*
X152500000Y-128040000D01*
G75*
G02*
X152600000Y-128140000I0J-100000D01*
G01*
X152600000Y-128400000D01*
G75*
G02*
X152500000Y-128500000I-100000J0D01*
G01*
G37*
%TD.AperFunction*%
%TD*%
%TO.P,R2,2*%
%TO.N,Net-(D2-Pad2)*%
%TA.AperFunction,SMDPad,CuDef*%
G36*
G01*
X155040000Y-127860000D02*
X154840000Y-127860000D01*
G75*
G02*
X154740000Y-127760000I0J100000D01*
G01*
X154740000Y-127500000D01*
G75*
G02*
X154840000Y-127400000I100000J0D01*
G01*
X155040000Y-127400000D01*
G75*
G02*
X155140000Y-127500000I0J-100000D01*
G01*
X155140000Y-127760000D01*
G75*
G02*
X155040000Y-127860000I-100000J0D01*
G01*
G37*
%TD.AperFunction*%
%TO.P,R2,1*%
%TO.N,/400\u043C*%
%TA.AperFunction,SMDPad,CuDef*%
G36*
G01*
X155040000Y-128500000D02*
X154840000Y-128500000D01*
G75*
G02*
X154740000Y-128400000I0J100000D01*
G01*
X154740000Y-128140000D01*
G75*
G02*
X154840000Y-128040000I100000J0D01*
G01*
X155040000Y-128040000D01*
G75*
G02*
X155140000Y-128140000I0J-100000D01*
G01*
X155140000Y-128400000D01*
G75*
G02*
X155040000Y-128500000I-100000J0D01*
G01*
G37*
%TD.AperFunction*%
%TD*%
%TO.P,R3,1*%
%TO.N,/1500\u043C*%
%TA.AperFunction,SMDPad,CuDef*%
G36*
G01*
X157580000Y-128475000D02*
X157380000Y-128475000D01*
G75*
G02*
X157280000Y-128375000I0J100000D01*
G01*
X157280000Y-128115000D01*
G75*
G02*
X157380000Y-128015000I100000J0D01*
G01*
X157580000Y-128015000D01*
G75*
G02*
X157680000Y-128115000I0J-100000D01*
G01*
X157680000Y-128375000D01*
G75*
G02*
X157580000Y-128475000I-100000J0D01*
G01*
G37*
%TD.AperFunction*%
%TO.P,R3,2*%
%TO.N,Net-(D3-Pad2)*%
%TA.AperFunction,SMDPad,CuDef*%
G36*
G01*
X157580000Y-127835000D02*
X157380000Y-127835000D01*
G75*
G02*
X157280000Y-127735000I0J100000D01*
G01*
X157280000Y-127475000D01*
G75*
G02*
X157380000Y-127375000I100000J0D01*
G01*
X157580000Y-127375000D01*
G75*
G02*
X157680000Y-127475000I0J-100000D01*
G01*
X157680000Y-127735000D01*
G75*
G02*
X157580000Y-127835000I-100000J0D01*
G01*
G37*
%TD.AperFunction*%
%TD*%
D19*
%TO.P,SW1,3*%
%TO.N,N/C*%
X162300000Y-161950000D03*
%TO.P,SW1,4*%
X170300000Y-161950000D03*
%TO.P,SW1,1*%
%TO.N,GND*%
X162300000Y-157450000D03*
%TO.P,SW1,2*%
%TO.N,/RST*%
X170300000Y-157450000D03*
%TD*%
%TO.P,SW2,2*%
%TO.N,GND*%
X129820000Y-130510000D03*
%TO.P,SW2,1*%
%TO.N,Net-(SW2-Pad1)*%
X121820000Y-130510000D03*
%TO.P,SW2,4*%
%TO.N,N/C*%
X129820000Y-135010000D03*
%TO.P,SW2,3*%
X121820000Y-135010000D03*
%TD*%
%TO.P,SW3,3*%
%TO.N,N/C*%
X121820000Y-142630000D03*
%TO.P,SW3,4*%
X129820000Y-142630000D03*
%TO.P,SW3,1*%
%TO.N,Net-(SW3-Pad1)*%
X121820000Y-138130000D03*
%TO.P,SW3,2*%
%TO.N,GND*%
X129820000Y-138130000D03*
%TD*%
%TO.P,SW4,3*%
%TO.N,N/C*%
X121710001Y-149865001D03*
%TO.P,SW4,4*%
X129710001Y-149865001D03*
%TO.P,SW4,1*%
%TO.N,Net-(SW4-Pad1)*%
X121710001Y-145365001D03*
%TO.P,SW4,2*%
%TO.N,GND*%
X129710001Y-145365001D03*
%TD*%
%TO.P,SW5,2*%
%TO.N,GND*%
X129710001Y-153215001D03*
%TO.P,SW5,1*%
%TO.N,Net-(SW5-Pad1)*%
X121710001Y-153215001D03*
%TO.P,SW5,4*%
%TO.N,N/C*%
X129710001Y-157715001D03*
%TO.P,SW5,3*%
X121710001Y-157715001D03*
%TD*%
%TO.P,SW6,3*%
%TO.N,N/C*%
X121710001Y-165565001D03*
%TO.P,SW6,4*%
X129710001Y-165565001D03*
%TO.P,SW6,1*%
%TO.N,Net-(SW6-Pad1)*%
X121710001Y-161065001D03*
%TO.P,SW6,2*%
%TO.N,GND*%
X129710001Y-161065001D03*
%TD*%
D20*
%TO.P,U1,28*%
%TO.N,Net-(U1-Pad28)*%
X182420000Y-150995000D03*
%TO.P,U1,27*%
%TO.N,Net-(U1-Pad27)*%
X182420000Y-151645000D03*
%TO.P,U1,26*%
%TO.N,GND*%
X182420000Y-152295000D03*
%TO.P,U1,25*%
X182420000Y-152945000D03*
%TO.P,U1,24*%
%TO.N,N/C*%
X182420000Y-153595000D03*
%TO.P,U1,23*%
%TO.N,Net-(U1-Pad23)*%
X182420000Y-154245000D03*
%TO.P,U1,22*%
%TO.N,Net-(U1-Pad22)*%
X182420000Y-154895000D03*
%TO.P,U1,21*%
%TO.N,GND*%
X182420000Y-155545000D03*
%TO.P,U1,20*%
%TO.N,+5V*%
X182420000Y-156195000D03*
%TO.P,U1,19*%
%TO.N,/RST*%
X182420000Y-156845000D03*
%TO.P,U1,18*%
%TO.N,GND*%
X182420000Y-157495000D03*
%TO.P,U1,17*%
%TO.N,Net-(C1-Pad2)*%
X182420000Y-158145000D03*
%TO.P,U1,16*%
%TO.N,/D-*%
X182420000Y-158795000D03*
%TO.P,U1,15*%
%TO.N,/D+*%
X182420000Y-159445000D03*
%TO.P,U1,14*%
%TO.N,Net-(U1-Pad14)*%
X175220000Y-159445000D03*
%TO.P,U1,13*%
%TO.N,Net-(U1-Pad13)*%
X175220000Y-158795000D03*
%TO.P,U1,12*%
%TO.N,Net-(U1-Pad12)*%
X175220000Y-158145000D03*
%TO.P,U1,11*%
%TO.N,Net-(U1-Pad11)*%
X175220000Y-157495000D03*
%TO.P,U1,10*%
%TO.N,Net-(U1-Pad10)*%
X175220000Y-156845000D03*
%TO.P,U1,9*%
%TO.N,Net-(U1-Pad9)*%
X175220000Y-156195000D03*
%TO.P,U1,8*%
%TO.N,N/C*%
X175220000Y-155545000D03*
%TO.P,U1,7*%
%TO.N,GND*%
X175220000Y-154895000D03*
%TO.P,U1,6*%
%TO.N,Net-(U1-Pad6)*%
X175220000Y-154245000D03*
%TO.P,U1,5*%
%TO.N,/TXD*%
X175220000Y-153595000D03*
%TO.P,U1,4*%
%TO.N,+5V*%
X175220000Y-152945000D03*
%TO.P,U1,3*%
%TO.N,Net-(U1-Pad3)*%
X175220000Y-152295000D03*
%TO.P,U1,2*%
%TO.N,Net-(U1-Pad2)*%
X175220000Y-151645000D03*
%TO.P,U1,1*%
%TO.N,/RXD*%
X175220000Y-150995000D03*
%TD*%
D21*
%TO.P,U3,1*%
%TO.N,GND*%
X164000000Y-112280000D03*
D22*
%TO.P,U3,2*%
%TO.N,+5V*%
X161460000Y-112280000D03*
%TO.P,U3,3*%
X158920000Y-112280000D03*
%TO.P,U3,4*%
%TO.N,Net-(U2-Pad2)*%
X156380000Y-112280000D03*
%TO.P,U3,5*%
%TO.N,Net-(U2-Pad3)*%
X153840000Y-112280000D03*
%TO.P,U3,6*%
%TO.N,Net-(U2-Pad4)*%
X151300000Y-112280000D03*
%TO.P,U3,7*%
%TO.N,Net-(U2-Pad21)*%
X148760000Y-112280000D03*
%TO.P,U3,8*%
%TO.N,Net-(U2-Pad22)*%
X146220000Y-112280000D03*
%TO.P,U3,9*%
%TO.N,Net-(U2-Pad23)*%
X143680000Y-112280000D03*
%TO.P,U3,10*%
%TO.N,Net-(U2-Pad24)*%
X141140000Y-112280000D03*
%TO.P,U3,11*%
%TO.N,Net-(U2-Pad25)*%
X138600000Y-112280000D03*
%TO.P,U3,12*%
%TO.N,Net-(U2-Pad26)*%
X136060000Y-112280000D03*
%TO.P,U3,13*%
%TO.N,Net-(U2-Pad27)*%
X133520000Y-112280000D03*
%TO.P,U3,14*%
%TO.N,Net-(U2-Pad28)*%
X130980000Y-112280000D03*
%TD*%
D23*
%TO.P,U4,2*%
%TO.N,+5V*%
X143700000Y-154350000D03*
D24*
X143700000Y-160650000D03*
%TO.P,U4,3*%
%TO.N,Net-(C2-Pad1)*%
X146000000Y-160650000D03*
%TO.P,U4,1*%
%TO.N,GND*%
X141400000Y-160650000D03*
%TD*%
D25*
%TO.P,Y1,2*%
%TO.N,Net-(C5-Pad1)*%
X194190000Y-142490000D03*
%TO.P,Y1,1*%
%TO.N,Net-(C4-Pad1)*%
X196730000Y-142490000D03*
%TD*%
D26*
%TO.P,C2,2*%
%TO.N,GND*%
X137000000Y-165200000D03*
%TO.P,C2,1*%
%TO.N,Net-(C2-Pad1)*%
X140000000Y-165200000D03*
%TD*%
%TO.P,C3,2*%
%TO.N,GND*%
X147600000Y-150200000D03*
%TO.P,C3,1*%
%TO.N,+5V*%
X144600000Y-150200000D03*
%TD*%
D27*
%TO.N,GND*%
X131600000Y-153200000D03*
X131600000Y-145400000D03*
X131600000Y-138200000D03*
X131600000Y-130500000D03*
X165300000Y-116100000D03*
X160600000Y-154700000D03*
X149800000Y-150200000D03*
X134500000Y-161000000D03*
X173300000Y-154625000D03*
X153185507Y-154914493D03*
X185700000Y-156500000D03*
X145900000Y-124900000D03*
X184200000Y-152300000D03*
X191300000Y-144300000D03*
%TO.N,+5V*%
X148800000Y-147800000D03*
X157300000Y-155300000D03*
X173500000Y-153000000D03*
X184721947Y-155464071D03*
%TO.N,Net-(C5-Pad1)*%
X189611992Y-149611992D03*
%TO.N,/RST*%
X170300000Y-155400000D03*
X184395495Y-156856078D03*
%TD*%
D28*
%TO.N,GND*%
X131590000Y-130510000D02*
X131600000Y-130500000D01*
X129820000Y-130510000D02*
X131590000Y-130510000D01*
X129890000Y-138200000D02*
X129820000Y-138130000D01*
X131600000Y-138200000D02*
X129890000Y-138200000D01*
X129745000Y-145400000D02*
X129710001Y-145365001D01*
X131600000Y-145400000D02*
X129745000Y-145400000D01*
X129725002Y-153200000D02*
X129710001Y-153215001D01*
X131600000Y-153200000D02*
X129725002Y-153200000D01*
X162300000Y-157400000D02*
X162300000Y-157450000D01*
X182420000Y-152980000D02*
X182434999Y-152994999D01*
X182420000Y-152945000D02*
X182420000Y-152980000D01*
X163165000Y-116100000D02*
X165300000Y-116100000D01*
X160580000Y-154680000D02*
X160600000Y-154700000D01*
X158400000Y-154680000D02*
X160580000Y-154680000D01*
X162300000Y-156400000D02*
X160600000Y-154700000D01*
X162300000Y-157450000D02*
X162300000Y-156400000D01*
X134305010Y-127794990D02*
X131600000Y-130500000D01*
X139640000Y-127760000D02*
X139605010Y-127794990D01*
X139605010Y-127794990D02*
X134305010Y-127794990D01*
X139700000Y-127760000D02*
X139640000Y-127760000D01*
X147600000Y-150200000D02*
X149800000Y-150200000D01*
X134434999Y-161065001D02*
X134500000Y-161000000D01*
X129710001Y-161065001D02*
X134434999Y-161065001D01*
X134850000Y-160650000D02*
X134500000Y-161000000D01*
X141400000Y-160650000D02*
X134850000Y-160650000D01*
X137000000Y-165200000D02*
X135400000Y-165200000D01*
X134500000Y-164300000D02*
X134500000Y-161000000D01*
X135400000Y-165200000D02*
X134500000Y-164300000D01*
X187960000Y-148280000D02*
X188680000Y-149000000D01*
X187960000Y-146050000D02*
X187960000Y-148280000D01*
X182420000Y-155545000D02*
X183545002Y-155545000D01*
X183802246Y-155295001D02*
X183795001Y-155295001D01*
X183545002Y-155545000D02*
X183795001Y-155295001D01*
X173570000Y-154895000D02*
X173300000Y-154625000D01*
X175220000Y-154895000D02*
X173570000Y-154895000D01*
X172500000Y-153825000D02*
X173300000Y-154625000D01*
X172500000Y-153620000D02*
X172500000Y-153825000D01*
X153221014Y-154950000D02*
X153185507Y-154914493D01*
X154050000Y-154950000D02*
X153221014Y-154950000D01*
X181295000Y-157495000D02*
X182420000Y-157495000D01*
X181294998Y-155545000D02*
X181169999Y-155669999D01*
X181169999Y-155669999D02*
X181169999Y-157370001D01*
X182420000Y-155545000D02*
X181294998Y-155545000D01*
X181169999Y-157370001D02*
X181295000Y-157495000D01*
X185170000Y-157030000D02*
X185700000Y-156500000D01*
X185170000Y-157440000D02*
X185170000Y-157030000D01*
X155075001Y-122444999D02*
X153800000Y-123720000D01*
X158224999Y-122444999D02*
X155075001Y-122444999D01*
X159500000Y-123720000D02*
X158224999Y-122444999D01*
X149335001Y-122444999D02*
X148060000Y-123720000D01*
X152524999Y-122444999D02*
X149335001Y-122444999D01*
X153800000Y-123720000D02*
X152524999Y-122444999D01*
X147080000Y-123720000D02*
X145900000Y-124900000D01*
X148060000Y-123720000D02*
X147080000Y-123720000D01*
X188700000Y-149020000D02*
X188680000Y-149000000D01*
X188680000Y-149000000D02*
X188680000Y-150660000D01*
X183795001Y-155295001D02*
X184200000Y-154890002D01*
X182420000Y-152945000D02*
X183555000Y-152945000D01*
X183555000Y-152945000D02*
X184200000Y-152300000D01*
X184195000Y-152295000D02*
X184200000Y-152300000D01*
X182420000Y-152295000D02*
X184195000Y-152295000D01*
X184200000Y-154890002D02*
X184200000Y-152300000D01*
X189550000Y-146050000D02*
X191300000Y-144300000D01*
X187960000Y-146050000D02*
X189550000Y-146050000D01*
%TO.N,Net-(C1-Pad2)*%
X183545000Y-158145000D02*
X182420000Y-158145000D01*
X183610002Y-158080000D02*
X183545000Y-158145000D01*
X185170000Y-158080000D02*
X183610002Y-158080000D01*
%TO.N,Net-(C2-Pad1)*%
X145985010Y-160664990D02*
X146000000Y-160650000D01*
X145800000Y-171600000D02*
X146020000Y-171380000D01*
D29*
X140000000Y-165800000D02*
X140000000Y-165200000D01*
X145800000Y-171600000D02*
X140000000Y-165800000D01*
X146000000Y-162150000D02*
X146000000Y-160650000D01*
X142950000Y-165200000D02*
X146000000Y-162150000D01*
X140000000Y-165200000D02*
X142950000Y-165200000D01*
D28*
%TO.N,+5V*%
X175155000Y-152945000D02*
X175120000Y-152980000D01*
X175220000Y-152945000D02*
X175155000Y-152945000D01*
D29*
X143700000Y-151100000D02*
X144600000Y-150200000D01*
X143700000Y-154350000D02*
X143700000Y-151100000D01*
X147000000Y-147800000D02*
X148800000Y-147800000D01*
X144600000Y-150200000D02*
X147000000Y-147800000D01*
X156400000Y-155300000D02*
X156050000Y-154950000D01*
X157300000Y-155300000D02*
X156400000Y-155300000D01*
D28*
X158380000Y-155300000D02*
X158400000Y-155320000D01*
X157300000Y-155300000D02*
X158380000Y-155300000D01*
X172520000Y-153000000D02*
X172500000Y-152980000D01*
X173500000Y-153000000D02*
X172520000Y-153000000D01*
X173555000Y-152945000D02*
X175220000Y-152945000D01*
X173500000Y-153000000D02*
X173555000Y-152945000D01*
X183991018Y-156195000D02*
X182420000Y-156195000D01*
X184721947Y-155464071D02*
X183991018Y-156195000D01*
X161460000Y-115035000D02*
X162525000Y-116100000D01*
X161460000Y-112280000D02*
X161460000Y-115035000D01*
X139700000Y-130810000D02*
X139700000Y-128400000D01*
D29*
X143700000Y-160650000D02*
X143700000Y-154350000D01*
D28*
%TO.N,Net-(C4-Pad1)*%
X196730000Y-143590000D02*
X196730000Y-142490000D01*
X196730000Y-143640986D02*
X196730000Y-143590000D01*
X189050986Y-151320000D02*
X196730000Y-143640986D01*
X188700000Y-151320000D02*
X189050986Y-151320000D01*
X188403242Y-151285010D02*
X185420000Y-148301768D01*
X188685010Y-151285010D02*
X188403242Y-151285010D01*
X188700000Y-151300000D02*
X188685010Y-151285010D01*
X188700000Y-151320000D02*
X188700000Y-151300000D01*
X185420000Y-148301768D02*
X185420000Y-146050000D01*
%TO.N,Net-(C5-Pad1)*%
X194190000Y-144130000D02*
X189320000Y-149000000D01*
X194190000Y-142490000D02*
X194190000Y-144130000D01*
X189320000Y-149320000D02*
X189611992Y-149611992D01*
X189320000Y-149000000D02*
X189320000Y-149320000D01*
%TO.N,Net-(D1-Pad2)*%
X152400000Y-125520000D02*
X150600000Y-123720000D01*
X152400000Y-127630000D02*
X152400000Y-125520000D01*
%TO.N,Net-(D2-Pad2)*%
X154940000Y-125120000D02*
X156340000Y-123720000D01*
X154940000Y-127630000D02*
X154940000Y-125120000D01*
%TO.N,Net-(D3-Pad2)*%
X161975002Y-123720000D02*
X162040000Y-123720000D01*
X158090002Y-127605000D02*
X161975002Y-123720000D01*
X157480000Y-127605000D02*
X158090002Y-127605000D01*
%TO.N,/D-*%
X196056998Y-157900000D02*
X198000000Y-157900000D01*
X195161998Y-158795000D02*
X196056998Y-157900000D01*
X182420000Y-158795000D02*
X195161998Y-158795000D01*
%TO.N,/D+*%
X197968001Y-158875001D02*
X198468001Y-158875001D01*
X196968001Y-159875001D02*
X197968001Y-158875001D01*
X198975001Y-158368001D02*
X198975001Y-156875001D01*
X196031999Y-159875001D02*
X196968001Y-159875001D01*
X195601998Y-159445000D02*
X196031999Y-159875001D01*
X198975001Y-156875001D02*
X198000000Y-155900000D01*
X198468001Y-158875001D02*
X198975001Y-158368001D01*
X182420000Y-159445000D02*
X195601998Y-159445000D01*
%TO.N,/MISO*%
X156050000Y-147160000D02*
X154940000Y-146050000D01*
X156050000Y-151650000D02*
X156050000Y-147160000D01*
%TO.N,/SCK*%
X157480000Y-152145002D02*
X157480000Y-146050000D01*
X156600001Y-153025001D02*
X157480000Y-152145002D01*
X155175001Y-153025001D02*
X156600001Y-153025001D01*
X155050000Y-152900000D02*
X155175001Y-153025001D01*
X155050000Y-151650000D02*
X155050000Y-152900000D01*
%TO.N,/MOSI*%
X152400000Y-155225002D02*
X152400000Y-146050000D01*
X155050000Y-155875002D02*
X154600001Y-156325001D01*
X153499999Y-156325001D02*
X152400000Y-155225002D01*
X154600001Y-156325001D02*
X153499999Y-156325001D01*
X155050000Y-154950000D02*
X155050000Y-155875002D01*
%TO.N,/RST*%
X156807111Y-153525011D02*
X160020000Y-150312122D01*
X160020000Y-150312122D02*
X160020000Y-146050000D01*
X154050000Y-152607120D02*
X154967891Y-153525011D01*
X154967891Y-153525011D02*
X156807111Y-153525011D01*
X154050000Y-151650000D02*
X154050000Y-152607120D01*
X167157878Y-157450000D02*
X160020000Y-150312122D01*
X170300000Y-157450000D02*
X167157878Y-157450000D01*
X170300000Y-155400000D02*
X170300000Y-157450000D01*
X184384417Y-156845000D02*
X184395495Y-156856078D01*
X182420000Y-156845000D02*
X184384417Y-156845000D01*
%TO.N,/100\u043C*%
X152400000Y-130810000D02*
X152400000Y-128270000D01*
%TO.N,/400\u043C*%
X154940000Y-130810000D02*
X154940000Y-128270000D01*
%TO.N,/1500\u043C*%
X157480000Y-130810000D02*
X157480000Y-128245000D01*
%TO.N,Net-(SW2-Pad1)*%
X123295001Y-131985001D02*
X141064999Y-131985001D01*
X141064999Y-131985001D02*
X142240000Y-130810000D01*
X121820000Y-130510000D02*
X123295001Y-131985001D01*
%TO.N,Net-(SW3-Pad1)*%
X138535001Y-137054999D02*
X144780000Y-130810000D01*
X122895001Y-137054999D02*
X138535001Y-137054999D01*
X121820000Y-138130000D02*
X122895001Y-137054999D01*
%TO.N,Net-(SW4-Pad1)*%
X134424999Y-143705001D02*
X147320000Y-130810000D01*
X123370001Y-143705001D02*
X134424999Y-143705001D01*
X121710001Y-145365001D02*
X123370001Y-143705001D01*
%TO.N,Net-(SW5-Pad1)*%
X122785002Y-152140000D02*
X129610004Y-152140000D01*
X149860000Y-131890004D02*
X149860000Y-130810000D01*
X129610004Y-152140000D02*
X149860000Y-131890004D01*
X121710001Y-153215001D02*
X122785002Y-152140000D01*
%TO.N,Net-(SW6-Pad1)*%
X130810002Y-158790002D02*
X139700000Y-149900004D01*
X123035000Y-158790002D02*
X130810002Y-158790002D01*
X139700000Y-149900004D02*
X139700000Y-146050000D01*
X121710001Y-160115001D02*
X123035000Y-158790002D01*
X121710001Y-161065001D02*
X121710001Y-160115001D01*
%TO.N,/RXD*%
X167505000Y-150995000D02*
X162560000Y-146050000D01*
X175220000Y-150995000D02*
X167505000Y-150995000D01*
%TO.N,/TXD*%
X176470001Y-153470001D02*
X176470001Y-150469999D01*
X176345002Y-153595000D02*
X176470001Y-153470001D01*
X176470001Y-150469999D02*
X176395001Y-150394999D01*
X175220000Y-153595000D02*
X176345002Y-153595000D01*
X174105001Y-150394999D02*
X174100000Y-150400000D01*
X176395001Y-150394999D02*
X174105001Y-150394999D01*
X169450000Y-150400000D02*
X165100000Y-146050000D01*
X174100000Y-150400000D02*
X169450000Y-150400000D01*
%TO.N,Net-(U2-Pad21)*%
X178500000Y-117000000D02*
X153480000Y-117000000D01*
X185900000Y-124400000D02*
X178500000Y-117000000D01*
X153480000Y-117000000D02*
X148760000Y-112280000D01*
X185920000Y-124400000D02*
X185900000Y-124400000D01*
X187960000Y-126440000D02*
X185920000Y-124400000D01*
X187960000Y-130810000D02*
X187960000Y-126440000D01*
%TO.N,Net-(U2-Pad22)*%
X178117870Y-117500000D02*
X185420000Y-124802130D01*
X185420000Y-124802130D02*
X185420000Y-130810000D01*
X151440000Y-117500000D02*
X178117870Y-117500000D01*
X146220000Y-112280000D02*
X151440000Y-117500000D01*
%TO.N,Net-(U2-Pad23)*%
X149400000Y-118000000D02*
X143680000Y-112280000D01*
X177700000Y-118000000D02*
X149400000Y-118000000D01*
X182880000Y-123180000D02*
X177700000Y-118000000D01*
X182880000Y-130810000D02*
X182880000Y-123180000D01*
%TO.N,Net-(U2-Pad24)*%
X147360000Y-118500000D02*
X141140000Y-112280000D01*
X177200000Y-118500000D02*
X147360000Y-118500000D01*
X180340000Y-121640000D02*
X180340000Y-130810000D01*
X177200000Y-118500000D02*
X180340000Y-121640000D01*
%TO.N,Net-(U2-Pad25)*%
X177800000Y-120200000D02*
X177800000Y-130810000D01*
X176600000Y-119000000D02*
X177800000Y-120200000D01*
X145320000Y-119000000D02*
X176600000Y-119000000D01*
X138600000Y-112280000D02*
X145320000Y-119000000D01*
%TO.N,Net-(U2-Pad26)*%
X175260000Y-119860000D02*
X175260000Y-130810000D01*
X174900000Y-119500000D02*
X175260000Y-119860000D01*
X143280000Y-119500000D02*
X174900000Y-119500000D01*
X136060000Y-112280000D02*
X143280000Y-119500000D01*
%TO.N,Net-(U2-Pad27)*%
X172720000Y-120520000D02*
X172720000Y-130810000D01*
X172200000Y-120000000D02*
X172720000Y-120520000D01*
X141240000Y-120000000D02*
X172200000Y-120000000D01*
X133520000Y-112280000D02*
X141240000Y-120000000D01*
%TO.N,Net-(U2-Pad28)*%
X170180000Y-120780020D02*
X170180000Y-130810000D01*
X139200010Y-120500010D02*
X169899990Y-120500010D01*
X169899990Y-120500010D02*
X170180000Y-120780020D01*
X130980000Y-112280000D02*
X139200010Y-120500010D01*
%TD*%
M02*
