%TF.GenerationSoftware,KiCad,Pcbnew,(5.1.10-1-10_14)*%
%TF.CreationDate,2021-12-28T00:11:52+03:00*%
%TF.ProjectId,lab5,6c616235-2e6b-4696-9361-645f70636258,rev?*%
%TF.SameCoordinates,Original*%
%TF.FileFunction,Legend,Top*%
%TF.FilePolarity,Positive*%
%FSLAX46Y46*%
G04 Gerber Fmt 4.6, Leading zero omitted, Abs format (unit mm)*
G04 Created by KiCad (PCBNEW (5.1.10-1-10_14)) date 2021-12-28 00:11:52*
%MOMM*%
%LPD*%
G01*
G04 APERTURE LIST*
%ADD10C,0.120000*%
%ADD11C,0.150000*%
G04 APERTURE END LIST*
D10*
%TO.C,U2*%
X138370000Y-131970000D02*
X138370000Y-137430000D01*
X189290000Y-131970000D02*
X138370000Y-131970000D01*
X189290000Y-144890000D02*
X189290000Y-131970000D01*
X138370000Y-144890000D02*
X189290000Y-144890000D01*
X138370000Y-139430000D02*
X138370000Y-144890000D01*
X138370000Y-137430000D02*
G75*
G02*
X138370000Y-139430000I0J-1000000D01*
G01*
%TO.C,D1*%
X147770000Y-124800000D02*
X147770000Y-124956000D01*
X147770000Y-122484000D02*
X147770000Y-122640000D01*
X151002335Y-122641392D02*
G75*
G03*
X147770000Y-122484484I-1672335J-1078608D01*
G01*
X151002335Y-124798608D02*
G75*
G02*
X147770000Y-124955516I-1672335J1078608D01*
G01*
X150371130Y-122640163D02*
G75*
G03*
X148289039Y-122640000I-1041130J-1079837D01*
G01*
X150371130Y-124799837D02*
G75*
G02*
X148289039Y-124800000I-1041130J1079837D01*
G01*
%TO.C,D2*%
X153510000Y-124800000D02*
X153510000Y-124956000D01*
X153510000Y-122484000D02*
X153510000Y-122640000D01*
X156742335Y-122641392D02*
G75*
G03*
X153510000Y-122484484I-1672335J-1078608D01*
G01*
X156742335Y-124798608D02*
G75*
G02*
X153510000Y-124955516I-1672335J1078608D01*
G01*
X156111130Y-122640163D02*
G75*
G03*
X154029039Y-122640000I-1041130J-1079837D01*
G01*
X156111130Y-124799837D02*
G75*
G02*
X154029039Y-124800000I-1041130J1079837D01*
G01*
%TO.C,D3*%
X159210000Y-122484000D02*
X159210000Y-122640000D01*
X159210000Y-124800000D02*
X159210000Y-124956000D01*
X161811130Y-124799837D02*
G75*
G02*
X159729039Y-124800000I-1041130J1079837D01*
G01*
X161811130Y-122640163D02*
G75*
G03*
X159729039Y-122640000I-1041130J-1079837D01*
G01*
X162442335Y-124798608D02*
G75*
G02*
X159210000Y-124955516I-1672335J1078608D01*
G01*
X162442335Y-122641392D02*
G75*
G03*
X159210000Y-122484484I-1672335J-1078608D01*
G01*
%TO.C,J1*%
X209810000Y-163860000D02*
X209810000Y-149940000D01*
X209810000Y-149940000D02*
X206700000Y-149940000D01*
X209810000Y-163860000D02*
X206700000Y-163860000D01*
X204800000Y-163860000D02*
X198350000Y-163860000D01*
X204800000Y-149940000D02*
X198350000Y-149940000D01*
X195440000Y-163860000D02*
X195440000Y-149940000D01*
X195440000Y-149940000D02*
X196150000Y-149940000D01*
X195440000Y-163860000D02*
X196150000Y-163860000D01*
%TO.C,J2*%
X156610000Y-152090000D02*
X156610000Y-154510000D01*
X153490000Y-152090000D02*
X153490000Y-154510000D01*
X156560000Y-150710000D02*
X156560000Y-152090000D01*
X156610000Y-152090000D02*
X156560000Y-152090000D01*
X156610000Y-154510000D02*
X156560000Y-154510000D01*
X153540000Y-152090000D02*
X153490000Y-152090000D01*
X153540000Y-154510000D02*
X153490000Y-154510000D01*
%TO.C,J3*%
X175800000Y-166350000D02*
X145800000Y-166350000D01*
X145800000Y-176850000D02*
X175800000Y-176850000D01*
X175800000Y-176850000D02*
G75*
G03*
X175800000Y-166350000I0J5250000D01*
G01*
X145800000Y-166350000D02*
G75*
G03*
X145800000Y-176850000I0J-5250000D01*
G01*
%TO.C,SW1*%
X169200000Y-156450000D02*
X163400000Y-156450000D01*
X169300000Y-162950000D02*
X163300000Y-162950000D01*
X169400000Y-158400000D02*
X169400000Y-161000000D01*
X163200000Y-158400000D02*
X163200000Y-161000000D01*
X161200000Y-157400000D02*
X161200000Y-156400000D01*
X161200000Y-156400000D02*
X162200000Y-156400000D01*
%TO.C,SW2*%
X120720000Y-129460000D02*
X121720000Y-129460000D01*
X120720000Y-130460000D02*
X120720000Y-129460000D01*
X122720000Y-131460000D02*
X122720000Y-134060000D01*
X128920000Y-131460000D02*
X128920000Y-134060000D01*
X128820000Y-136010000D02*
X122820000Y-136010000D01*
X128720000Y-129510000D02*
X122920000Y-129510000D01*
%TO.C,SW3*%
X128720000Y-137130000D02*
X122920000Y-137130000D01*
X128820000Y-143630000D02*
X122820000Y-143630000D01*
X128920000Y-139080000D02*
X128920000Y-141680000D01*
X122720000Y-139080000D02*
X122720000Y-141680000D01*
X120720000Y-138080000D02*
X120720000Y-137080000D01*
X120720000Y-137080000D02*
X121720000Y-137080000D01*
%TO.C,SW4*%
X128610001Y-144365001D02*
X122810001Y-144365001D01*
X128710001Y-150865001D02*
X122710001Y-150865001D01*
X128810001Y-146315001D02*
X128810001Y-148915001D01*
X122610001Y-146315001D02*
X122610001Y-148915001D01*
X120610001Y-145315001D02*
X120610001Y-144315001D01*
X120610001Y-144315001D02*
X121610001Y-144315001D01*
%TO.C,SW5*%
X120610001Y-152165001D02*
X121610001Y-152165001D01*
X120610001Y-153165001D02*
X120610001Y-152165001D01*
X122610001Y-154165001D02*
X122610001Y-156765001D01*
X128810001Y-154165001D02*
X128810001Y-156765001D01*
X128710001Y-158715001D02*
X122710001Y-158715001D01*
X128610001Y-152215001D02*
X122810001Y-152215001D01*
%TO.C,SW6*%
X128610001Y-160065001D02*
X122810001Y-160065001D01*
X128710001Y-166565001D02*
X122710001Y-166565001D01*
X128810001Y-162015001D02*
X128810001Y-164615001D01*
X122610001Y-162015001D02*
X122610001Y-164615001D01*
X120610001Y-161015001D02*
X120610001Y-160015001D01*
X120610001Y-160015001D02*
X121610001Y-160015001D01*
D11*
%TO.C,U1*%
X175945000Y-149895000D02*
X175945000Y-150470000D01*
X181695000Y-149895000D02*
X181695000Y-150545000D01*
X181695000Y-160545000D02*
X181695000Y-159895000D01*
X175945000Y-160545000D02*
X175945000Y-159895000D01*
X175945000Y-149895000D02*
X181695000Y-149895000D01*
X175945000Y-160545000D02*
X181695000Y-160545000D01*
X175945000Y-150470000D02*
X174345000Y-150470000D01*
D10*
%TO.C,U3*%
X132000000Y-100280000D02*
X132000000Y-82280000D01*
X194000000Y-100280000D02*
X132000000Y-100280000D01*
X194000000Y-82280000D02*
X194000000Y-100280000D01*
X132000000Y-82280000D02*
X194000000Y-82280000D01*
X125000000Y-107280000D02*
X125000000Y-78280000D01*
X126000000Y-107280000D02*
X125000000Y-107280000D01*
X126000000Y-108280000D02*
X126000000Y-107280000D01*
X200000000Y-108280000D02*
X126000000Y-108280000D01*
X200000000Y-107280000D02*
X200000000Y-108280000D01*
X201000000Y-107280000D02*
X200000000Y-107280000D01*
X201000000Y-78280000D02*
X201000000Y-107280000D01*
X125000000Y-78280000D02*
X201000000Y-78280000D01*
X165500000Y-115280000D02*
X162500000Y-115280000D01*
X204920000Y-70680000D02*
X204920000Y-114960000D01*
X120640000Y-70680000D02*
X204920000Y-70680000D01*
X120640000Y-114960000D02*
X120640000Y-70680000D01*
X204920000Y-114960000D02*
X120640000Y-114960000D01*
%TO.C,U4*%
X140290000Y-161600000D02*
X140290000Y-155590000D01*
X147110000Y-159350000D02*
X147110000Y-155590000D01*
X140290000Y-155590000D02*
X141550000Y-155590000D01*
X147110000Y-155590000D02*
X145850000Y-155590000D01*
%TO.C,Y1*%
X197160000Y-139690000D02*
X197160000Y-128790000D01*
X197160000Y-128790000D02*
X193760000Y-128790000D01*
X193760000Y-128790000D02*
X193760000Y-139690000D01*
X193760000Y-139690000D02*
X197160000Y-139690000D01*
X196060000Y-139690000D02*
X196730000Y-141090000D01*
X196730000Y-141090000D02*
X196730000Y-141790000D01*
X194860000Y-139690000D02*
X194190000Y-141090000D01*
X194190000Y-141090000D02*
X194190000Y-141790000D01*
%TO.C,C2*%
X136740000Y-163440000D02*
X136740000Y-164140000D01*
X136740000Y-166960000D02*
X136740000Y-166260000D01*
X139370563Y-166960000D02*
X136740000Y-166960000D01*
X139370563Y-163440000D02*
X136740000Y-163440000D01*
X140070563Y-166260000D02*
X139370563Y-166960000D01*
X140070563Y-164140000D02*
X139370563Y-163440000D01*
X140875000Y-166635000D02*
X140500000Y-166635000D01*
X140687500Y-166822500D02*
X140687500Y-166447500D01*
%TO.C,C3*%
X147860000Y-151960000D02*
X147860000Y-151260000D01*
X147860000Y-148440000D02*
X147860000Y-149140000D01*
X145229437Y-148440000D02*
X147860000Y-148440000D01*
X145229437Y-151960000D02*
X147860000Y-151960000D01*
X144529437Y-149140000D02*
X145229437Y-148440000D01*
X144529437Y-151260000D02*
X145229437Y-151960000D01*
X143725000Y-148765000D02*
X144100000Y-148765000D01*
X143912500Y-148577500D02*
X143912500Y-148952500D01*
%TO.C,C6*%
D11*
X171807142Y-153466666D02*
X171854761Y-153514285D01*
X171902380Y-153657142D01*
X171902380Y-153752380D01*
X171854761Y-153895238D01*
X171759523Y-153990476D01*
X171664285Y-154038095D01*
X171473809Y-154085714D01*
X171330952Y-154085714D01*
X171140476Y-154038095D01*
X171045238Y-153990476D01*
X170950000Y-153895238D01*
X170902380Y-153752380D01*
X170902380Y-153657142D01*
X170950000Y-153514285D01*
X170997619Y-153466666D01*
X170902380Y-152609523D02*
X170902380Y-152800000D01*
X170950000Y-152895238D01*
X170997619Y-152942857D01*
X171140476Y-153038095D01*
X171330952Y-153085714D01*
X171711904Y-153085714D01*
X171807142Y-153038095D01*
X171854761Y-152990476D01*
X171902380Y-152895238D01*
X171902380Y-152704761D01*
X171854761Y-152609523D01*
X171807142Y-152561904D01*
X171711904Y-152514285D01*
X171473809Y-152514285D01*
X171378571Y-152561904D01*
X171330952Y-152609523D01*
X171283333Y-152704761D01*
X171283333Y-152895238D01*
X171330952Y-152990476D01*
X171378571Y-153038095D01*
X171473809Y-153085714D01*
%TO.C,C4*%
X188007142Y-151166666D02*
X188054761Y-151214285D01*
X188102380Y-151357142D01*
X188102380Y-151452380D01*
X188054761Y-151595238D01*
X187959523Y-151690476D01*
X187864285Y-151738095D01*
X187673809Y-151785714D01*
X187530952Y-151785714D01*
X187340476Y-151738095D01*
X187245238Y-151690476D01*
X187150000Y-151595238D01*
X187102380Y-151452380D01*
X187102380Y-151357142D01*
X187150000Y-151214285D01*
X187197619Y-151166666D01*
X187435714Y-150309523D02*
X188102380Y-150309523D01*
X187054761Y-150547619D02*
X187769047Y-150785714D01*
X187769047Y-150166666D01*
%TO.C,C5*%
X188833333Y-150407142D02*
X188785714Y-150454761D01*
X188642857Y-150502380D01*
X188547619Y-150502380D01*
X188404761Y-150454761D01*
X188309523Y-150359523D01*
X188261904Y-150264285D01*
X188214285Y-150073809D01*
X188214285Y-149930952D01*
X188261904Y-149740476D01*
X188309523Y-149645238D01*
X188404761Y-149550000D01*
X188547619Y-149502380D01*
X188642857Y-149502380D01*
X188785714Y-149550000D01*
X188833333Y-149597619D01*
X189738095Y-149502380D02*
X189261904Y-149502380D01*
X189214285Y-149978571D01*
X189261904Y-149930952D01*
X189357142Y-149883333D01*
X189595238Y-149883333D01*
X189690476Y-149930952D01*
X189738095Y-149978571D01*
X189785714Y-150073809D01*
X189785714Y-150311904D01*
X189738095Y-150407142D01*
X189690476Y-150454761D01*
X189595238Y-150502380D01*
X189357142Y-150502380D01*
X189261904Y-150454761D01*
X189214285Y-150407142D01*
%TO.C,U2*%
X136822380Y-139191904D02*
X137631904Y-139191904D01*
X137727142Y-139144285D01*
X137774761Y-139096666D01*
X137822380Y-139001428D01*
X137822380Y-138810952D01*
X137774761Y-138715714D01*
X137727142Y-138668095D01*
X137631904Y-138620476D01*
X136822380Y-138620476D01*
X136917619Y-138191904D02*
X136870000Y-138144285D01*
X136822380Y-138049047D01*
X136822380Y-137810952D01*
X136870000Y-137715714D01*
X136917619Y-137668095D01*
X137012857Y-137620476D01*
X137108095Y-137620476D01*
X137250952Y-137668095D01*
X137822380Y-138239523D01*
X137822380Y-137620476D01*
%TO.C,C1*%
X186577142Y-157926666D02*
X186624761Y-157974285D01*
X186672380Y-158117142D01*
X186672380Y-158212380D01*
X186624761Y-158355238D01*
X186529523Y-158450476D01*
X186434285Y-158498095D01*
X186243809Y-158545714D01*
X186100952Y-158545714D01*
X185910476Y-158498095D01*
X185815238Y-158450476D01*
X185720000Y-158355238D01*
X185672380Y-158212380D01*
X185672380Y-158117142D01*
X185720000Y-157974285D01*
X185767619Y-157926666D01*
X186672380Y-156974285D02*
X186672380Y-157545714D01*
X186672380Y-157260000D02*
X185672380Y-157260000D01*
X185815238Y-157355238D01*
X185910476Y-157450476D01*
X185958095Y-157545714D01*
%TO.C,C7*%
X141107142Y-128246666D02*
X141154761Y-128294285D01*
X141202380Y-128437142D01*
X141202380Y-128532380D01*
X141154761Y-128675238D01*
X141059523Y-128770476D01*
X140964285Y-128818095D01*
X140773809Y-128865714D01*
X140630952Y-128865714D01*
X140440476Y-128818095D01*
X140345238Y-128770476D01*
X140250000Y-128675238D01*
X140202380Y-128532380D01*
X140202380Y-128437142D01*
X140250000Y-128294285D01*
X140297619Y-128246666D01*
X140202380Y-127913333D02*
X140202380Y-127246666D01*
X141202380Y-127675238D01*
%TO.C,C8*%
X162678333Y-115407142D02*
X162630714Y-115454761D01*
X162487857Y-115502380D01*
X162392619Y-115502380D01*
X162249761Y-115454761D01*
X162154523Y-115359523D01*
X162106904Y-115264285D01*
X162059285Y-115073809D01*
X162059285Y-114930952D01*
X162106904Y-114740476D01*
X162154523Y-114645238D01*
X162249761Y-114550000D01*
X162392619Y-114502380D01*
X162487857Y-114502380D01*
X162630714Y-114550000D01*
X162678333Y-114597619D01*
X163249761Y-114930952D02*
X163154523Y-114883333D01*
X163106904Y-114835714D01*
X163059285Y-114740476D01*
X163059285Y-114692857D01*
X163106904Y-114597619D01*
X163154523Y-114550000D01*
X163249761Y-114502380D01*
X163440238Y-114502380D01*
X163535476Y-114550000D01*
X163583095Y-114597619D01*
X163630714Y-114692857D01*
X163630714Y-114740476D01*
X163583095Y-114835714D01*
X163535476Y-114883333D01*
X163440238Y-114930952D01*
X163249761Y-114930952D01*
X163154523Y-114978571D01*
X163106904Y-115026190D01*
X163059285Y-115121428D01*
X163059285Y-115311904D01*
X163106904Y-115407142D01*
X163154523Y-115454761D01*
X163249761Y-115502380D01*
X163440238Y-115502380D01*
X163535476Y-115454761D01*
X163583095Y-115407142D01*
X163630714Y-115311904D01*
X163630714Y-115121428D01*
X163583095Y-115026190D01*
X163535476Y-114978571D01*
X163440238Y-114930952D01*
%TO.C,C9*%
X157707142Y-155166666D02*
X157754761Y-155214285D01*
X157802380Y-155357142D01*
X157802380Y-155452380D01*
X157754761Y-155595238D01*
X157659523Y-155690476D01*
X157564285Y-155738095D01*
X157373809Y-155785714D01*
X157230952Y-155785714D01*
X157040476Y-155738095D01*
X156945238Y-155690476D01*
X156850000Y-155595238D01*
X156802380Y-155452380D01*
X156802380Y-155357142D01*
X156850000Y-155214285D01*
X156897619Y-155166666D01*
X157802380Y-154690476D02*
X157802380Y-154500000D01*
X157754761Y-154404761D01*
X157707142Y-154357142D01*
X157564285Y-154261904D01*
X157373809Y-154214285D01*
X156992857Y-154214285D01*
X156897619Y-154261904D01*
X156850000Y-154309523D01*
X156802380Y-154404761D01*
X156802380Y-154595238D01*
X156850000Y-154690476D01*
X156897619Y-154738095D01*
X156992857Y-154785714D01*
X157230952Y-154785714D01*
X157326190Y-154738095D01*
X157373809Y-154690476D01*
X157421428Y-154595238D01*
X157421428Y-154404761D01*
X157373809Y-154309523D01*
X157326190Y-154261904D01*
X157230952Y-154214285D01*
%TO.C,D1*%
X148591904Y-121212380D02*
X148591904Y-120212380D01*
X148830000Y-120212380D01*
X148972857Y-120260000D01*
X149068095Y-120355238D01*
X149115714Y-120450476D01*
X149163333Y-120640952D01*
X149163333Y-120783809D01*
X149115714Y-120974285D01*
X149068095Y-121069523D01*
X148972857Y-121164761D01*
X148830000Y-121212380D01*
X148591904Y-121212380D01*
X150115714Y-121212380D02*
X149544285Y-121212380D01*
X149830000Y-121212380D02*
X149830000Y-120212380D01*
X149734761Y-120355238D01*
X149639523Y-120450476D01*
X149544285Y-120498095D01*
%TO.C,D2*%
X154331904Y-121212380D02*
X154331904Y-120212380D01*
X154570000Y-120212380D01*
X154712857Y-120260000D01*
X154808095Y-120355238D01*
X154855714Y-120450476D01*
X154903333Y-120640952D01*
X154903333Y-120783809D01*
X154855714Y-120974285D01*
X154808095Y-121069523D01*
X154712857Y-121164761D01*
X154570000Y-121212380D01*
X154331904Y-121212380D01*
X155284285Y-120307619D02*
X155331904Y-120260000D01*
X155427142Y-120212380D01*
X155665238Y-120212380D01*
X155760476Y-120260000D01*
X155808095Y-120307619D01*
X155855714Y-120402857D01*
X155855714Y-120498095D01*
X155808095Y-120640952D01*
X155236666Y-121212380D01*
X155855714Y-121212380D01*
%TO.C,D3*%
X160031904Y-121212380D02*
X160031904Y-120212380D01*
X160270000Y-120212380D01*
X160412857Y-120260000D01*
X160508095Y-120355238D01*
X160555714Y-120450476D01*
X160603333Y-120640952D01*
X160603333Y-120783809D01*
X160555714Y-120974285D01*
X160508095Y-121069523D01*
X160412857Y-121164761D01*
X160270000Y-121212380D01*
X160031904Y-121212380D01*
X160936666Y-120212380D02*
X161555714Y-120212380D01*
X161222380Y-120593333D01*
X161365238Y-120593333D01*
X161460476Y-120640952D01*
X161508095Y-120688571D01*
X161555714Y-120783809D01*
X161555714Y-121021904D01*
X161508095Y-121117142D01*
X161460476Y-121164761D01*
X161365238Y-121212380D01*
X161079523Y-121212380D01*
X160984285Y-121164761D01*
X160936666Y-121117142D01*
%TO.C,J1*%
X193852380Y-157233333D02*
X194566666Y-157233333D01*
X194709523Y-157280952D01*
X194804761Y-157376190D01*
X194852380Y-157519047D01*
X194852380Y-157614285D01*
X194852380Y-156233333D02*
X194852380Y-156804761D01*
X194852380Y-156519047D02*
X193852380Y-156519047D01*
X193995238Y-156614285D01*
X194090476Y-156709523D01*
X194138095Y-156804761D01*
%TO.C,J2*%
X157062380Y-153633333D02*
X157776666Y-153633333D01*
X157919523Y-153680952D01*
X158014761Y-153776190D01*
X158062380Y-153919047D01*
X158062380Y-154014285D01*
X157157619Y-153204761D02*
X157110000Y-153157142D01*
X157062380Y-153061904D01*
X157062380Y-152823809D01*
X157110000Y-152728571D01*
X157157619Y-152680952D01*
X157252857Y-152633333D01*
X157348095Y-152633333D01*
X157490952Y-152680952D01*
X158062380Y-153252380D01*
X158062380Y-152633333D01*
%TO.C,J3*%
X160451666Y-164812380D02*
X160451666Y-165526666D01*
X160404047Y-165669523D01*
X160308809Y-165764761D01*
X160165952Y-165812380D01*
X160070714Y-165812380D01*
X160832619Y-164812380D02*
X161451666Y-164812380D01*
X161118333Y-165193333D01*
X161261190Y-165193333D01*
X161356428Y-165240952D01*
X161404047Y-165288571D01*
X161451666Y-165383809D01*
X161451666Y-165621904D01*
X161404047Y-165717142D01*
X161356428Y-165764761D01*
X161261190Y-165812380D01*
X160975476Y-165812380D01*
X160880238Y-165764761D01*
X160832619Y-165717142D01*
%TO.C,R1*%
X151802380Y-128116666D02*
X151326190Y-128450000D01*
X151802380Y-128688095D02*
X150802380Y-128688095D01*
X150802380Y-128307142D01*
X150850000Y-128211904D01*
X150897619Y-128164285D01*
X150992857Y-128116666D01*
X151135714Y-128116666D01*
X151230952Y-128164285D01*
X151278571Y-128211904D01*
X151326190Y-128307142D01*
X151326190Y-128688095D01*
X151802380Y-127164285D02*
X151802380Y-127735714D01*
X151802380Y-127450000D02*
X150802380Y-127450000D01*
X150945238Y-127545238D01*
X151040476Y-127640476D01*
X151088095Y-127735714D01*
%TO.C,R2*%
X154342380Y-128116666D02*
X153866190Y-128450000D01*
X154342380Y-128688095D02*
X153342380Y-128688095D01*
X153342380Y-128307142D01*
X153390000Y-128211904D01*
X153437619Y-128164285D01*
X153532857Y-128116666D01*
X153675714Y-128116666D01*
X153770952Y-128164285D01*
X153818571Y-128211904D01*
X153866190Y-128307142D01*
X153866190Y-128688095D01*
X153437619Y-127735714D02*
X153390000Y-127688095D01*
X153342380Y-127592857D01*
X153342380Y-127354761D01*
X153390000Y-127259523D01*
X153437619Y-127211904D01*
X153532857Y-127164285D01*
X153628095Y-127164285D01*
X153770952Y-127211904D01*
X154342380Y-127783333D01*
X154342380Y-127164285D01*
%TO.C,R3*%
X156882380Y-128091666D02*
X156406190Y-128425000D01*
X156882380Y-128663095D02*
X155882380Y-128663095D01*
X155882380Y-128282142D01*
X155930000Y-128186904D01*
X155977619Y-128139285D01*
X156072857Y-128091666D01*
X156215714Y-128091666D01*
X156310952Y-128139285D01*
X156358571Y-128186904D01*
X156406190Y-128282142D01*
X156406190Y-128663095D01*
X155882380Y-127758333D02*
X155882380Y-127139285D01*
X156263333Y-127472619D01*
X156263333Y-127329761D01*
X156310952Y-127234523D01*
X156358571Y-127186904D01*
X156453809Y-127139285D01*
X156691904Y-127139285D01*
X156787142Y-127186904D01*
X156834761Y-127234523D01*
X156882380Y-127329761D01*
X156882380Y-127615476D01*
X156834761Y-127710714D01*
X156787142Y-127758333D01*
%TO.C,SW1*%
X164966666Y-155804761D02*
X165109523Y-155852380D01*
X165347619Y-155852380D01*
X165442857Y-155804761D01*
X165490476Y-155757142D01*
X165538095Y-155661904D01*
X165538095Y-155566666D01*
X165490476Y-155471428D01*
X165442857Y-155423809D01*
X165347619Y-155376190D01*
X165157142Y-155328571D01*
X165061904Y-155280952D01*
X165014285Y-155233333D01*
X164966666Y-155138095D01*
X164966666Y-155042857D01*
X165014285Y-154947619D01*
X165061904Y-154900000D01*
X165157142Y-154852380D01*
X165395238Y-154852380D01*
X165538095Y-154900000D01*
X165871428Y-154852380D02*
X166109523Y-155852380D01*
X166300000Y-155138095D01*
X166490476Y-155852380D01*
X166728571Y-154852380D01*
X167633333Y-155852380D02*
X167061904Y-155852380D01*
X167347619Y-155852380D02*
X167347619Y-154852380D01*
X167252380Y-154995238D01*
X167157142Y-155090476D01*
X167061904Y-155138095D01*
%TO.C,SW2*%
X124486666Y-128864761D02*
X124629523Y-128912380D01*
X124867619Y-128912380D01*
X124962857Y-128864761D01*
X125010476Y-128817142D01*
X125058095Y-128721904D01*
X125058095Y-128626666D01*
X125010476Y-128531428D01*
X124962857Y-128483809D01*
X124867619Y-128436190D01*
X124677142Y-128388571D01*
X124581904Y-128340952D01*
X124534285Y-128293333D01*
X124486666Y-128198095D01*
X124486666Y-128102857D01*
X124534285Y-128007619D01*
X124581904Y-127960000D01*
X124677142Y-127912380D01*
X124915238Y-127912380D01*
X125058095Y-127960000D01*
X125391428Y-127912380D02*
X125629523Y-128912380D01*
X125820000Y-128198095D01*
X126010476Y-128912380D01*
X126248571Y-127912380D01*
X126581904Y-128007619D02*
X126629523Y-127960000D01*
X126724761Y-127912380D01*
X126962857Y-127912380D01*
X127058095Y-127960000D01*
X127105714Y-128007619D01*
X127153333Y-128102857D01*
X127153333Y-128198095D01*
X127105714Y-128340952D01*
X126534285Y-128912380D01*
X127153333Y-128912380D01*
%TO.C,SW3*%
X124486666Y-136484761D02*
X124629523Y-136532380D01*
X124867619Y-136532380D01*
X124962857Y-136484761D01*
X125010476Y-136437142D01*
X125058095Y-136341904D01*
X125058095Y-136246666D01*
X125010476Y-136151428D01*
X124962857Y-136103809D01*
X124867619Y-136056190D01*
X124677142Y-136008571D01*
X124581904Y-135960952D01*
X124534285Y-135913333D01*
X124486666Y-135818095D01*
X124486666Y-135722857D01*
X124534285Y-135627619D01*
X124581904Y-135580000D01*
X124677142Y-135532380D01*
X124915238Y-135532380D01*
X125058095Y-135580000D01*
X125391428Y-135532380D02*
X125629523Y-136532380D01*
X125820000Y-135818095D01*
X126010476Y-136532380D01*
X126248571Y-135532380D01*
X126534285Y-135532380D02*
X127153333Y-135532380D01*
X126820000Y-135913333D01*
X126962857Y-135913333D01*
X127058095Y-135960952D01*
X127105714Y-136008571D01*
X127153333Y-136103809D01*
X127153333Y-136341904D01*
X127105714Y-136437142D01*
X127058095Y-136484761D01*
X126962857Y-136532380D01*
X126677142Y-136532380D01*
X126581904Y-136484761D01*
X126534285Y-136437142D01*
%TO.C,SW4*%
X124376667Y-143719762D02*
X124519524Y-143767381D01*
X124757620Y-143767381D01*
X124852858Y-143719762D01*
X124900477Y-143672143D01*
X124948096Y-143576905D01*
X124948096Y-143481667D01*
X124900477Y-143386429D01*
X124852858Y-143338810D01*
X124757620Y-143291191D01*
X124567143Y-143243572D01*
X124471905Y-143195953D01*
X124424286Y-143148334D01*
X124376667Y-143053096D01*
X124376667Y-142957858D01*
X124424286Y-142862620D01*
X124471905Y-142815001D01*
X124567143Y-142767381D01*
X124805239Y-142767381D01*
X124948096Y-142815001D01*
X125281429Y-142767381D02*
X125519524Y-143767381D01*
X125710001Y-143053096D01*
X125900477Y-143767381D01*
X126138572Y-142767381D01*
X126948096Y-143100715D02*
X126948096Y-143767381D01*
X126710001Y-142719762D02*
X126471905Y-143434048D01*
X127090953Y-143434048D01*
%TO.C,SW5*%
X124376667Y-151569762D02*
X124519524Y-151617381D01*
X124757620Y-151617381D01*
X124852858Y-151569762D01*
X124900477Y-151522143D01*
X124948096Y-151426905D01*
X124948096Y-151331667D01*
X124900477Y-151236429D01*
X124852858Y-151188810D01*
X124757620Y-151141191D01*
X124567143Y-151093572D01*
X124471905Y-151045953D01*
X124424286Y-150998334D01*
X124376667Y-150903096D01*
X124376667Y-150807858D01*
X124424286Y-150712620D01*
X124471905Y-150665001D01*
X124567143Y-150617381D01*
X124805239Y-150617381D01*
X124948096Y-150665001D01*
X125281429Y-150617381D02*
X125519524Y-151617381D01*
X125710001Y-150903096D01*
X125900477Y-151617381D01*
X126138572Y-150617381D01*
X126995715Y-150617381D02*
X126519524Y-150617381D01*
X126471905Y-151093572D01*
X126519524Y-151045953D01*
X126614762Y-150998334D01*
X126852858Y-150998334D01*
X126948096Y-151045953D01*
X126995715Y-151093572D01*
X127043334Y-151188810D01*
X127043334Y-151426905D01*
X126995715Y-151522143D01*
X126948096Y-151569762D01*
X126852858Y-151617381D01*
X126614762Y-151617381D01*
X126519524Y-151569762D01*
X126471905Y-151522143D01*
%TO.C,SW6*%
X124376667Y-159419762D02*
X124519524Y-159467381D01*
X124757620Y-159467381D01*
X124852858Y-159419762D01*
X124900477Y-159372143D01*
X124948096Y-159276905D01*
X124948096Y-159181667D01*
X124900477Y-159086429D01*
X124852858Y-159038810D01*
X124757620Y-158991191D01*
X124567143Y-158943572D01*
X124471905Y-158895953D01*
X124424286Y-158848334D01*
X124376667Y-158753096D01*
X124376667Y-158657858D01*
X124424286Y-158562620D01*
X124471905Y-158515001D01*
X124567143Y-158467381D01*
X124805239Y-158467381D01*
X124948096Y-158515001D01*
X125281429Y-158467381D02*
X125519524Y-159467381D01*
X125710001Y-158753096D01*
X125900477Y-159467381D01*
X126138572Y-158467381D01*
X126948096Y-158467381D02*
X126757620Y-158467381D01*
X126662381Y-158515001D01*
X126614762Y-158562620D01*
X126519524Y-158705477D01*
X126471905Y-158895953D01*
X126471905Y-159276905D01*
X126519524Y-159372143D01*
X126567143Y-159419762D01*
X126662381Y-159467381D01*
X126852858Y-159467381D01*
X126948096Y-159419762D01*
X126995715Y-159372143D01*
X127043334Y-159276905D01*
X127043334Y-159038810D01*
X126995715Y-158943572D01*
X126948096Y-158895953D01*
X126852858Y-158848334D01*
X126662381Y-158848334D01*
X126567143Y-158895953D01*
X126519524Y-158943572D01*
X126471905Y-159038810D01*
%TO.C,U1*%
X178058095Y-148422380D02*
X178058095Y-149231904D01*
X178105714Y-149327142D01*
X178153333Y-149374761D01*
X178248571Y-149422380D01*
X178439047Y-149422380D01*
X178534285Y-149374761D01*
X178581904Y-149327142D01*
X178629523Y-149231904D01*
X178629523Y-148422380D01*
X179629523Y-149422380D02*
X179058095Y-149422380D01*
X179343809Y-149422380D02*
X179343809Y-148422380D01*
X179248571Y-148565238D01*
X179153333Y-148660476D01*
X179058095Y-148708095D01*
%TO.C,U3*%
X202068095Y-115642380D02*
X202068095Y-116451904D01*
X202115714Y-116547142D01*
X202163333Y-116594761D01*
X202258571Y-116642380D01*
X202449047Y-116642380D01*
X202544285Y-116594761D01*
X202591904Y-116547142D01*
X202639523Y-116451904D01*
X202639523Y-115642380D01*
X203020476Y-115642380D02*
X203639523Y-115642380D01*
X203306190Y-116023333D01*
X203449047Y-116023333D01*
X203544285Y-116070952D01*
X203591904Y-116118571D01*
X203639523Y-116213809D01*
X203639523Y-116451904D01*
X203591904Y-116547142D01*
X203544285Y-116594761D01*
X203449047Y-116642380D01*
X203163333Y-116642380D01*
X203068095Y-116594761D01*
X203020476Y-116547142D01*
%TO.C,U4*%
X138652380Y-158261904D02*
X139461904Y-158261904D01*
X139557142Y-158214285D01*
X139604761Y-158166666D01*
X139652380Y-158071428D01*
X139652380Y-157880952D01*
X139604761Y-157785714D01*
X139557142Y-157738095D01*
X139461904Y-157690476D01*
X138652380Y-157690476D01*
X138985714Y-156785714D02*
X139652380Y-156785714D01*
X138604761Y-157023809D02*
X139319047Y-157261904D01*
X139319047Y-156642857D01*
%TO.C,Y1*%
X198456190Y-139966190D02*
X198932380Y-139966190D01*
X197932380Y-140299523D02*
X198456190Y-139966190D01*
X197932380Y-139632857D01*
X198932380Y-138775714D02*
X198932380Y-139347142D01*
X198932380Y-139061428D02*
X197932380Y-139061428D01*
X198075238Y-139156666D01*
X198170476Y-139251904D01*
X198218095Y-139347142D01*
%TO.C,C2*%
X138333333Y-168257142D02*
X138285714Y-168304761D01*
X138142857Y-168352380D01*
X138047619Y-168352380D01*
X137904761Y-168304761D01*
X137809523Y-168209523D01*
X137761904Y-168114285D01*
X137714285Y-167923809D01*
X137714285Y-167780952D01*
X137761904Y-167590476D01*
X137809523Y-167495238D01*
X137904761Y-167400000D01*
X138047619Y-167352380D01*
X138142857Y-167352380D01*
X138285714Y-167400000D01*
X138333333Y-167447619D01*
X138714285Y-167447619D02*
X138761904Y-167400000D01*
X138857142Y-167352380D01*
X139095238Y-167352380D01*
X139190476Y-167400000D01*
X139238095Y-167447619D01*
X139285714Y-167542857D01*
X139285714Y-167638095D01*
X139238095Y-167780952D01*
X138666666Y-168352380D01*
X139285714Y-168352380D01*
%TO.C,C3*%
X145933333Y-147857142D02*
X145885714Y-147904761D01*
X145742857Y-147952380D01*
X145647619Y-147952380D01*
X145504761Y-147904761D01*
X145409523Y-147809523D01*
X145361904Y-147714285D01*
X145314285Y-147523809D01*
X145314285Y-147380952D01*
X145361904Y-147190476D01*
X145409523Y-147095238D01*
X145504761Y-147000000D01*
X145647619Y-146952380D01*
X145742857Y-146952380D01*
X145885714Y-147000000D01*
X145933333Y-147047619D01*
X146266666Y-146952380D02*
X146885714Y-146952380D01*
X146552380Y-147333333D01*
X146695238Y-147333333D01*
X146790476Y-147380952D01*
X146838095Y-147428571D01*
X146885714Y-147523809D01*
X146885714Y-147761904D01*
X146838095Y-147857142D01*
X146790476Y-147904761D01*
X146695238Y-147952380D01*
X146409523Y-147952380D01*
X146314285Y-147904761D01*
X146266666Y-147857142D01*
%TD*%
M02*
