M48
; DRILL file {KiCad (5.1.10)-1} date 12/16/21 22:34:28
; FORMAT={-:-/ absolute / inch / decimal}
; #@! TF.CreationDate,2021-12-16T22:34:28+03:00
; #@! TF.GenerationSoftware,Kicad,Pcbnew,(5.1.10)-1
; #@! TF.FileFunction,Plated,1,4,PTH
FMAT,2
INCH
T1C0.0315
T2C0.0354
T3C0.2402
%
G90
G05
T1
X4.45Y-4.2
X4.45Y-4.3
X6.2Y-3.5
X6.2Y-3.6
T2
X4.65Y-3.45
X4.75Y-3.45
T3
X4.8098Y-5.05
X5.4Y-5.05
X5.9898Y-5.05
T0
M30
