EESchema Schematic File Version 4
EELAYER 30 0
EELAYER END
$Descr A3 16535 11693
encoding utf-8
Sheet 1 1
Title "Схема электрическая принципиальная"
Date ""
Rev ""
Comp "МГТУ им. Н.Э.Баумана ИУ6-72Б"
Comment1 "Лабораторная работа 1"
Comment2 "Лебедев Е.В."
Comment3 "Хохлов С.А."
Comment4 ""
$EndDescr
$Comp
L Device:R R1
U 1 1 616CA53E
P 13700 3000
F 0 "R1" V 13907 3000 50  0000 C CNN
F 1 "1k" V 13816 3000 50  0000 C CNN
F 2 "Resistor_THT:R_Axial_DIN0207_L6.3mm_D2.5mm_P2.54mm_Vertical" V 13630 3000 50  0001 C CNN
F 3 "~" H 13700 3000 50  0001 C CNN
	1    13700 3000
	0    -1   -1   0   
$EndComp
$Comp
L Device:LED D1
U 1 1 616CE4FF
P 13150 3000
F 0 "D1" H 13143 3217 50  0000 C CNN
F 1 "LED" H 13143 3126 50  0000 C CNN
F 2 "LED_THT:LED_D5.0mm" H 13150 3000 50  0001 C CNN
F 3 "~" H 13150 3000 50  0001 C CNN
	1    13150 3000
	1    0    0    -1  
$EndComp
$Comp
L power:VCC #PWR03
U 1 1 616D9F3C
P 13950 2900
F 0 "#PWR03" H 13950 2750 50  0001 C CNN
F 1 "VCC" H 13965 3073 50  0000 C CNN
F 2 "" H 13950 2900 50  0001 C CNN
F 3 "" H 13950 2900 50  0001 C CNN
	1    13950 2900
	1    0    0    -1  
$EndComp
Wire Wire Line
	13850 3000 13950 3000
Wire Wire Line
	13950 3000 13950 2900
Wire Wire Line
	10200 4600 10350 4600
Text Label 12950 3500 0    50   ~ 0
INPUT
Text Label 12750 3200 0    50   ~ 0
uCtoLED
Wire Wire Line
	13300 3000 13550 3000
Text Label 13450 3300 1    50   ~ 0
LEDtoR
Text Notes 9300 4200 0    50   ~ 0
Новый компонент разъем (п. 2.1 ЛР2):
Wire Wire Line
	10200 4700 10500 4700
$Comp
L MCU_Microchip_PIC18:PIC18F27J53_ISS U1
U 1 1 6175A0D8
P 11750 3800
F 0 "U1" H 11100 4800 50  0000 C CNN
F 1 "PIC18F27J53_ISS" H 12250 4750 50  0000 C CNN
F 2 "Package_SO:SSOP-28_5.3x10.2mm_P0.65mm" H 11750 2650 50  0001 C CNN
F 3 "http://ww1.microchip.com/downloads/en/DeviceDoc/30009964C.pdf" H 11750 3750 50  0001 C CNN
	1    11750 3800
	1    0    0    -1  
$EndComp
$Comp
L power:VCC #PWR0101
U 1 1 6175D0CD
P 11750 2550
F 0 "#PWR0101" H 11750 2400 50  0001 C CNN
F 1 "VCC" H 11765 2723 50  0000 C CNN
F 2 "" H 11750 2550 50  0001 C CNN
F 3 "" H 11750 2550 50  0001 C CNN
	1    11750 2550
	1    0    0    -1  
$EndComp
$Comp
L power:PWR_FLAG #FLG0101
U 1 1 6175DF5F
P 12050 2550
F 0 "#FLG0101" H 12050 2625 50  0001 C CNN
F 1 "PWR_FLAG" H 12050 2723 50  0000 C CNN
F 2 "" H 12050 2550 50  0001 C CNN
F 3 "~" H 12050 2550 50  0001 C CNN
	1    12050 2550
	1    0    0    -1  
$EndComp
Wire Wire Line
	11750 2800 11750 2650
Wire Wire Line
	12050 2550 12050 2650
Wire Wire Line
	12050 2650 11750 2650
Connection ~ 11750 2650
Wire Wire Line
	11750 2650 11750 2550
$Comp
L power:GND #PWR0102
U 1 1 6175EF80
P 11750 5100
F 0 "#PWR0102" H 11750 4850 50  0001 C CNN
F 1 "GND" H 11755 4927 50  0000 C CNN
F 2 "" H 11750 5100 50  0001 C CNN
F 3 "" H 11750 5100 50  0001 C CNN
	1    11750 5100
	1    0    0    -1  
$EndComp
$Comp
L power:PWR_FLAG #FLG0102
U 1 1 6175F64D
P 11750 5400
F 0 "#FLG0102" H 11750 5475 50  0001 C CNN
F 1 "PWR_FLAG" H 11750 5573 50  0000 C CNN
F 2 "" H 11750 5400 50  0001 C CNN
F 3 "~" H 11750 5400 50  0001 C CNN
	1    11750 5400
	1    0    0    1   
$EndComp
Wire Wire Line
	11750 4800 11750 4950
Wire Wire Line
	11750 5400 12000 5400
Wire Wire Line
	12000 5400 12000 4950
Wire Wire Line
	12000 4950 11750 4950
Connection ~ 11750 4950
Wire Wire Line
	11750 4950 11750 5100
Wire Wire Line
	12550 3000 13000 3000
Wire Wire Line
	10350 2650 11750 2650
Wire Wire Line
	10350 2650 10350 4600
NoConn ~ 10950 3000
NoConn ~ 10950 3100
NoConn ~ 10950 3200
NoConn ~ 10950 3300
NoConn ~ 10950 3500
NoConn ~ 10950 3600
NoConn ~ 10950 3700
NoConn ~ 12550 4600
NoConn ~ 12550 4500
NoConn ~ 12550 4400
NoConn ~ 12550 4300
NoConn ~ 12550 4100
NoConn ~ 12550 4000
NoConn ~ 12550 3900
NoConn ~ 12550 3700
NoConn ~ 12550 3600
NoConn ~ 12550 3400
NoConn ~ 12550 3300
NoConn ~ 12550 3200
NoConn ~ 12550 3100
NoConn ~ 11650 2800
NoConn ~ 11850 2800
$Comp
L myLib:XP1 XP1
U 1 1 616EF09C
P 9400 4400
F 0 "XP1" H 9758 4515 50  0000 C CNN
F 1 "XP1" H 9758 4424 50  0000 C CNN
F 2 "Connector:Banana_Jack_3Pin" H 9400 4400 50  0001 C CNN
F 3 "" H 9400 4400 50  0001 C CNN
	1    9400 4400
	1    0    0    -1  
$EndComp
Wire Wire Line
	10500 4950 11750 4950
Wire Wire Line
	10500 4700 10500 4950
Wire Wire Line
	10200 4800 10200 5750
Wire Wire Line
	10200 5750 13300 5750
Wire Wire Line
	13300 5750 13300 4400
$Comp
L Device:R R2
U 1 1 619B1F63
P 13450 4400
F 0 "R2" V 13657 4400 50  0000 C CNN
F 1 "100" V 13566 4400 50  0000 C CNN
F 2 "Resistor_THT:R_Axial_DIN0207_L6.3mm_D2.5mm_P2.54mm_Vertical" V 13380 4400 50  0001 C CNN
F 3 "~" H 13450 4400 50  0001 C CNN
	1    13450 4400
	0    -1   -1   0   
$EndComp
Wire Wire Line
	13600 4400 13600 3500
Wire Wire Line
	12550 3500 13600 3500
$EndSCHEMATC
