EESchema Schematic File Version 4
EELAYER 30 0
EELAYER END
$Descr A3 16535 11693
encoding utf-8
Sheet 1 1
Title "Система управления электроприборами"
Date ""
Rev ""
Comp ""
Comment1 ""
Comment2 "Альшевских М.В."
Comment3 "Хартов В.Я."
Comment4 ""
$EndDescr
$Comp
L Relay:ADW11 K1
U 1 1 61B7EC08
P 12200 3100
F 0 "K1" H 12630 3146 50  0000 L CNN
F 1 "ADW11" H 12630 3055 50  0000 L CNN
F 2 "Relay_THT:Relay_1P1T_NO_10x24x18.8mm_Panasonic_ADW11xxxxW_THT" H 13525 3050 50  0001 C CNN
F 3 "https://www.panasonic-electric-works.com/pew/es/downloads/ds_dw_hl_en.pdf" H 12200 3100 50  0001 C CNN
F 4 "Реле" H 12200 3100 60  0001 C CNN "Группа"
	1    12200 3100
	1    0    0    -1  
$EndComp
$Comp
L Timer_RTC:DS1307+ U2
U 1 1 61B4AB93
P 7100 5400
F 0 "U2" H 7350 5900 50  0000 L CNN
F 1 "DS1307+" H 7250 5800 50  0000 L CNN
F 2 "Package_DIP:DIP-8_W7.62mm" H 7100 4900 50  0001 C CNN
F 3 "https://datasheets.maximintegrated.com/en/ds/DS1307.pdf" H 7100 5200 50  0001 C CNN
F 4 "Микросхема" H 7100 5400 60  0001 C CNN "Группа"
	1    7100 5400
	1    0    0    -1  
$EndComp
$Comp
L Device:Crystal X2
U 1 1 61BAFF82
P 5900 5650
F 0 "X2" V 5854 5519 50  0000 R CNN
F 1 "32.768KHz" V 5945 5519 50  0000 R CNN
F 2 "Crystal:Crystal_AT310_D3.0mm_L10.0mm_Horizontal" H 5900 5650 50  0001 C CNN
F 3 "~" H 5900 5650 50  0001 C CNN
F 4 "Кристал" H 5900 5650 60  0001 C CNN "Группа"
	1    5900 5650
	0    -1   1    0   
$EndComp
Wire Wire Line
	6600 5500 6400 5500
Wire Wire Line
	6400 5500 6400 5400
Wire Wire Line
	6400 5400 5900 5400
Wire Wire Line
	5900 5400 5900 5500
Wire Wire Line
	5900 5800 5900 5900
Wire Wire Line
	5900 5900 6450 5900
Wire Wire Line
	6450 5900 6450 5600
Wire Wire Line
	6450 5600 6600 5600
$Comp
L power:+5V #PWR0101
U 1 1 61BB61DA
P 6500 4600
F 0 "#PWR0101" H 6500 4450 50  0001 C CNN
F 1 "+5V" H 6515 4773 50  0000 C CNN
F 2 "" H 6500 4600 50  0001 C CNN
F 3 "" H 6500 4600 50  0001 C CNN
	1    6500 4600
	1    0    0    -1  
$EndComp
$Comp
L Device:R R3
U 1 1 61BF0056
P 6500 4950
F 0 "R3" H 6570 4996 50  0000 L CNN
F 1 "4.7k" H 6570 4905 50  0000 L CNN
F 2 "Resistor_SMD:R_0201_0603Metric_Pad0.64x0.40mm_HandSolder" V 6430 4950 50  0001 C CNN
F 3 "~" H 6500 4950 50  0001 C CNN
F 4 "Резисторы" H 6500 4950 60  0001 C CNN "Группа"
	1    6500 4950
	1    0    0    -1  
$EndComp
Wire Wire Line
	6600 5300 5950 5300
Wire Wire Line
	6600 5200 6500 5200
Wire Wire Line
	6500 5100 6500 5200
Wire Wire Line
	6500 4800 6500 4750
Wire Wire Line
	6500 4750 7000 4750
$Comp
L Device:R R2
U 1 1 61BFC956
P 5950 5000
F 0 "R2" H 6020 5046 50  0000 L CNN
F 1 "4.7k" H 6020 4955 50  0000 L CNN
F 2 "Resistor_SMD:R_0201_0603Metric_Pad0.64x0.40mm_HandSolder" V 5880 5000 50  0001 C CNN
F 3 "~" H 5950 5000 50  0001 C CNN
F 4 "Резисторы" H 5950 5000 60  0001 C CNN "Группа"
	1    5950 5000
	1    0    0    -1  
$EndComp
Wire Wire Line
	5950 5150 5950 5300
Wire Wire Line
	5950 4850 5950 4750
Wire Wire Line
	5950 4750 6500 4750
Connection ~ 6500 4750
Wire Wire Line
	7000 4750 7000 5000
Wire Wire Line
	6500 4600 6500 4750
NoConn ~ 7100 5000
NoConn ~ 7600 5400
$Comp
L Transistor_BJT:2N2219 Q1
U 1 1 61B2858A
P 11900 3700
F 0 "Q1" H 12090 3746 50  0000 L CNN
F 1 "2N2219" H 12090 3655 50  0000 L CNN
F 2 "Package_TO_SOT_THT:TO-39-3" H 12100 3625 50  0001 L CIN
F 3 "http://www.onsemi.com/pub_link/Collateral/2N2219-D.PDF" H 11900 3700 50  0001 L CNN
F 4 "Транзисторы" H 11900 3700 60  0001 C CNN "Группа"
	1    11900 3700
	1    0    0    -1  
$EndComp
Wire Wire Line
	12000 3900 12000 4150
$Comp
L Device:R R4
U 1 1 61B2E044
P 11250 3700
F 0 "R4" V 11150 3650 50  0000 L CNN
F 1 "300" V 11340 3630 50  0000 L CNN
F 2 "Resistor_SMD:R_0201_0603Metric_Pad0.64x0.40mm_HandSolder" V 11180 3700 50  0001 C CNN
F 3 "~" H 11250 3700 50  0001 C CNN
F 4 "Резисторы" H 11250 3700 60  0001 C CNN "Группа"
	1    11250 3700
	0    1    1    0   
$EndComp
Wire Wire Line
	11400 3700 11700 3700
Wire Wire Line
	12000 3400 12000 3450
Text GLabel 6350 5200 0    50   Input ~ 0
SCL
Wire Wire Line
	6350 5200 6500 5200
Connection ~ 6500 5200
Connection ~ 5950 5300
Text GLabel 13050 2650 2    50   Input ~ 0
out1
Text GLabel 13050 3525 2    50   Input ~ 0
out2
Wire Wire Line
	12400 3400 12400 3525
Wire Wire Line
	12400 3525 13050 3525
Wire Wire Line
	13050 2650 12500 2650
Wire Wire Line
	12500 2650 12500 2800
$Comp
L Device:D D2
U 1 1 61BAB751
P 11500 3100
F 0 "D2" V 11546 3020 50  0001 R CNN
F 1 "D5" V 11500 3180 50  0000 L CNN
F 2 "Diode_SMD:D_0201_0603Metric_Pad0.64x0.40mm_HandSolder" H 11500 3100 50  0001 C CNN
F 3 "~" H 11500 3100 50  0001 C CNN
F 4 "Диоды" H 11500 3100 60  0001 C CNN "Группа"
	1    11500 3100
	0    1    1    0   
$EndComp
Wire Wire Line
	11500 3250 11500 3450
Wire Wire Line
	11500 3450 12000 3450
Connection ~ 12000 3450
Wire Wire Line
	12000 3450 12000 3500
Wire Wire Line
	11500 2950 11500 2750
Wire Wire Line
	11500 2750 12000 2750
Wire Wire Line
	12000 2750 12000 2800
$Comp
L Relay:ADW11 K2
U 1 1 61BBB899
P 15050 3050
F 0 "K2" H 15480 3096 50  0000 L CNN
F 1 "ADW11" H 15480 3005 50  0000 L CNN
F 2 "Relay_THT:Relay_1P1T_NO_10x24x18.8mm_Panasonic_ADW11xxxxW_THT" H 16375 3000 50  0001 C CNN
F 3 "https://www.panasonic-electric-works.com/pew/es/downloads/ds_dw_hl_en.pdf" H 15050 3050 50  0001 C CNN
F 4 "Реле" H 15050 3050 60  0001 C CNN "Группа"
	1    15050 3050
	1    0    0    -1  
$EndComp
$Comp
L Transistor_BJT:2N2219 Q2
U 1 1 61BBB89F
P 14750 3650
F 0 "Q2" H 14940 3696 50  0000 L CNN
F 1 "2N2219" H 14940 3605 50  0000 L CNN
F 2 "Package_TO_SOT_THT:TO-39-3" H 14950 3575 50  0001 L CIN
F 3 "http://www.onsemi.com/pub_link/Collateral/2N2219-D.PDF" H 14750 3650 50  0001 L CNN
F 4 "Транзисторы" H 14750 3650 60  0001 C CNN "Группа"
	1    14750 3650
	1    0    0    -1  
$EndComp
Wire Wire Line
	14850 3850 14850 4100
$Comp
L Device:R R5
U 1 1 61BBB8AC
P 14100 3650
F 0 "R5" V 14000 3600 50  0000 L CNN
F 1 "300" V 14190 3580 50  0000 L CNN
F 2 "Resistor_SMD:R_0201_0603Metric_Pad0.64x0.40mm_HandSolder" V 14030 3650 50  0001 C CNN
F 3 "~" H 14100 3650 50  0001 C CNN
F 4 "Резисторы" H 14100 3650 60  0001 C CNN "Группа"
	1    14100 3650
	0    1    1    0   
$EndComp
Wire Wire Line
	14250 3650 14550 3650
Wire Wire Line
	14850 3350 14850 3400
Text GLabel 15900 2600 2    50   Input ~ 0
out1
Text GLabel 15900 3475 2    50   Input ~ 0
out2
Wire Wire Line
	15250 3350 15250 3475
Wire Wire Line
	15250 3475 15900 3475
Wire Wire Line
	15900 2600 15350 2600
Wire Wire Line
	15350 2600 15350 2750
$Comp
L Device:D D6
U 1 1 61BBB8C3
P 14350 3050
F 0 "D6" V 14396 2970 50  0001 R CNN
F 1 "D6" V 14350 3130 50  0000 L CNN
F 2 "Diode_SMD:D_0201_0603Metric_Pad0.64x0.40mm_HandSolder" H 14350 3050 50  0001 C CNN
F 3 "~" H 14350 3050 50  0001 C CNN
F 4 "Диоды" H 14350 3050 60  0001 C CNN "Группа"
	1    14350 3050
	0    1    1    0   
$EndComp
Wire Wire Line
	14350 3200 14350 3400
Wire Wire Line
	14350 3400 14850 3400
Connection ~ 14850 3400
Wire Wire Line
	14850 3400 14850 3450
Wire Wire Line
	14350 2900 14350 2700
Wire Wire Line
	14350 2700 14850 2700
Wire Wire Line
	14850 2700 14850 2750
$Comp
L Relay:ADW11 K3
U 1 1 61BBFD33
P 12200 5300
F 0 "K3" H 12630 5346 50  0000 L CNN
F 1 "ADW11" H 12630 5255 50  0000 L CNN
F 2 "Relay_THT:Relay_1P1T_NO_10x24x18.8mm_Panasonic_ADW11xxxxW_THT" H 13525 5250 50  0001 C CNN
F 3 "https://www.panasonic-electric-works.com/pew/es/downloads/ds_dw_hl_en.pdf" H 12200 5300 50  0001 C CNN
F 4 "Реле" H 12200 5300 60  0001 C CNN "Группа"
	1    12200 5300
	1    0    0    -1  
$EndComp
$Comp
L Transistor_BJT:2N2219 Q3
U 1 1 61BBFD39
P 11900 5900
F 0 "Q3" H 12090 5946 50  0000 L CNN
F 1 "2N2219" H 12090 5855 50  0000 L CNN
F 2 "Package_TO_SOT_THT:TO-39-3" H 12100 5825 50  0001 L CIN
F 3 "http://www.onsemi.com/pub_link/Collateral/2N2219-D.PDF" H 11900 5900 50  0001 L CNN
F 4 "Транзисторы" H 11900 5900 60  0001 C CNN "Группа"
	1    11900 5900
	1    0    0    -1  
$EndComp
$Comp
L Kurs_lib:GND #PWR0102
U 1 1 61BBFD3F
P 12000 6300
F 0 "#PWR0102" H 12000 6050 50  0001 C CNN
F 1 "GND" H 12000 6400 50  0000 C CNN
F 2 "" H 12000 6300 50  0001 C CNN
F 3 "" H 12000 6300 50  0001 C CNN
	1    12000 6300
	-1   0    0    1   
$EndComp
$Comp
L Device:R R6
U 1 1 61BBFD46
P 11250 5900
F 0 "R6" V 11150 5850 50  0000 L CNN
F 1 "300" V 11340 5830 50  0000 L CNN
F 2 "Resistor_SMD:R_0201_0603Metric_Pad0.64x0.40mm_HandSolder" V 11180 5900 50  0001 C CNN
F 3 "~" H 11250 5900 50  0001 C CNN
F 4 "Резисторы" H 11250 5900 60  0001 C CNN "Группа"
	1    11250 5900
	0    1    1    0   
$EndComp
Wire Wire Line
	11400 5900 11700 5900
Wire Wire Line
	12000 5600 12000 5650
Text GLabel 13050 4850 2    50   Input ~ 0
out1
Text GLabel 13050 5725 2    50   Input ~ 0
out2
Wire Wire Line
	12400 5600 12400 5725
Wire Wire Line
	12400 5725 13050 5725
Wire Wire Line
	13050 4850 12500 4850
Wire Wire Line
	12500 4850 12500 5000
$Comp
L Device:D D3
U 1 1 61BBFD5D
P 11500 5300
F 0 "D3" V 11546 5220 50  0001 R CNN
F 1 "D7" V 11500 5380 50  0000 L CNN
F 2 "Diode_SMD:D_0201_0603Metric_Pad0.64x0.40mm_HandSolder" H 11500 5300 50  0001 C CNN
F 3 "~" H 11500 5300 50  0001 C CNN
F 4 "Диоды" H 11500 5300 60  0001 C CNN "Группа"
	1    11500 5300
	0    1    1    0   
$EndComp
Wire Wire Line
	11500 5450 11500 5650
Wire Wire Line
	11500 5650 12000 5650
Connection ~ 12000 5650
Wire Wire Line
	12000 5650 12000 5700
Wire Wire Line
	11500 5150 11500 4950
Wire Wire Line
	11500 4950 12000 4950
Wire Wire Line
	12000 4950 12000 5000
$Comp
L Relay:ADW11 K4
U 1 1 61BC518C
P 15050 5200
F 0 "K4" H 15480 5246 50  0000 L CNN
F 1 "ADW11" H 15480 5155 50  0000 L CNN
F 2 "Relay_THT:Relay_1P1T_NO_10x24x18.8mm_Panasonic_ADW11xxxxW_THT" H 16375 5150 50  0001 C CNN
F 3 "https://www.panasonic-electric-works.com/pew/es/downloads/ds_dw_hl_en.pdf" H 15050 5200 50  0001 C CNN
F 4 "Реле" H 15050 5200 60  0001 C CNN "Группа"
	1    15050 5200
	1    0    0    -1  
$EndComp
$Comp
L Transistor_BJT:2N2219 Q4
U 1 1 61BC5192
P 14750 5800
F 0 "Q4" H 14940 5846 50  0000 L CNN
F 1 "2N2219" H 14940 5755 50  0000 L CNN
F 2 "Package_TO_SOT_THT:TO-39-3" H 14950 5725 50  0001 L CIN
F 3 "http://www.onsemi.com/pub_link/Collateral/2N2219-D.PDF" H 14750 5800 50  0001 L CNN
F 4 "Транзисторы" H 14750 5800 60  0001 C CNN "Группа"
	1    14750 5800
	1    0    0    -1  
$EndComp
$Comp
L Kurs_lib:GND #PWR0103
U 1 1 61BC5198
P 14850 6350
F 0 "#PWR0103" H 14850 6100 50  0001 C CNN
F 1 "GND" H 14850 6450 50  0000 C CNN
F 2 "" H 14850 6350 50  0001 C CNN
F 3 "" H 14850 6350 50  0001 C CNN
	1    14850 6350
	-1   0    0    1   
$EndComp
$Comp
L Device:R R7
U 1 1 61BC519F
P 14100 5800
F 0 "R7" V 14000 5750 50  0000 L CNN
F 1 "300" V 14190 5730 50  0000 L CNN
F 2 "Resistor_SMD:R_0201_0603Metric_Pad0.64x0.40mm_HandSolder" V 14030 5800 50  0001 C CNN
F 3 "~" H 14100 5800 50  0001 C CNN
F 4 "Резисторы" H 14100 5800 60  0001 C CNN "Группа"
	1    14100 5800
	0    1    1    0   
$EndComp
Wire Wire Line
	14250 5800 14550 5800
Wire Wire Line
	14850 5500 14850 5550
Text GLabel 15900 4750 2    50   Input ~ 0
out1
Text GLabel 15900 5625 2    50   Input ~ 0
out2
Wire Wire Line
	15250 5500 15250 5625
Wire Wire Line
	15250 5625 15900 5625
Wire Wire Line
	15900 4750 15350 4750
Wire Wire Line
	15350 4750 15350 4900
$Comp
L Device:D D7
U 1 1 61BC51B6
P 14350 5200
F 0 "D7" V 14396 5120 50  0001 R CNN
F 1 "D8" V 14350 5280 50  0000 L CNN
F 2 "Diode_SMD:D_0201_0603Metric_Pad0.64x0.40mm_HandSolder" H 14350 5200 50  0001 C CNN
F 3 "~" H 14350 5200 50  0001 C CNN
F 4 "Диоды" H 14350 5200 60  0001 C CNN "Группа"
	1    14350 5200
	0    1    1    0   
$EndComp
Wire Wire Line
	14350 5350 14350 5550
Wire Wire Line
	14350 5550 14850 5550
Connection ~ 14850 5550
Wire Wire Line
	14850 5550 14850 5600
Wire Wire Line
	14350 5050 14350 4850
Wire Wire Line
	14350 4850 14850 4850
Wire Wire Line
	14850 4850 14850 4900
$Comp
L Device:R R12
U 1 1 61C0F256
P 1500 9950
F 0 "R12" H 1570 9996 50  0000 L CNN
F 1 "300" H 1570 9905 50  0000 L CNN
F 2 "Resistor_SMD:R_0201_0603Metric_Pad0.64x0.40mm_HandSolder" V 1430 9950 50  0001 C CNN
F 3 "~" H 1500 9950 50  0001 C CNN
F 4 "Резисторы" H 1500 9950 60  0001 C CNN "Группа"
	1    1500 9950
	1    0    0    -1  
$EndComp
Wire Wire Line
	1500 10100 1500 10300
$Comp
L Device:LED D13
U 1 1 61C208E6
P 1500 9450
F 0 "D13" V 1539 9332 50  0000 R CNN
F 1 "LED" V 1448 9332 50  0000 R CNN
F 2 "Diode_SMD:D_0201_0603Metric_Pad0.64x0.40mm_HandSolder" H 1500 9450 50  0001 C CNN
F 3 "~" H 1500 9450 50  0001 C CNN
F 4 "Диоды" H 1500 9450 60  0001 C CNN "Группа"
	1    1500 9450
	0    -1   -1   0   
$EndComp
Wire Wire Line
	1500 9600 1500 9800
$Comp
L power:+5V #PWR0104
U 1 1 61C2EF12
P 1500 9100
F 0 "#PWR0104" H 1500 8950 50  0001 C CNN
F 1 "+5V" H 1515 9273 50  0000 C CNN
F 2 "" H 1500 9100 50  0001 C CNN
F 3 "" H 1500 9100 50  0001 C CNN
	1    1500 9100
	1    0    0    -1  
$EndComp
Wire Wire Line
	1500 9100 1500 9300
$Comp
L power:+5V #PWR0105
U 1 1 61B48FD5
P 12000 2670
F 0 "#PWR0105" H 12000 2520 50  0001 C CNN
F 1 "+5V" H 12015 2843 50  0000 C CNN
F 2 "" H 12000 2670 50  0001 C CNN
F 3 "" H 12000 2670 50  0001 C CNN
	1    12000 2670
	1    0    0    -1  
$EndComp
Wire Wire Line
	12000 2670 12000 2750
Connection ~ 12000 2750
$Comp
L power:+5V #PWR0106
U 1 1 61B5DE53
P 14850 2630
F 0 "#PWR0106" H 14850 2480 50  0001 C CNN
F 1 "+5V" H 14865 2803 50  0000 C CNN
F 2 "" H 14850 2630 50  0001 C CNN
F 3 "" H 14850 2630 50  0001 C CNN
	1    14850 2630
	1    0    0    -1  
$EndComp
Wire Wire Line
	14850 2630 14850 2700
Connection ~ 14850 2700
$Comp
L power:+5V #PWR0107
U 1 1 61B6B9B3
P 12000 4890
F 0 "#PWR0107" H 12000 4740 50  0001 C CNN
F 1 "+5V" H 12015 5063 50  0000 C CNN
F 2 "" H 12000 4890 50  0001 C CNN
F 3 "" H 12000 4890 50  0001 C CNN
	1    12000 4890
	1    0    0    -1  
$EndComp
Wire Wire Line
	12000 4890 12000 4950
Connection ~ 12000 4950
$Comp
L power:+5V #PWR0108
U 1 1 61B796AB
P 14850 4780
F 0 "#PWR0108" H 14850 4630 50  0001 C CNN
F 1 "+5V" H 14865 4953 50  0000 C CNN
F 2 "" H 14850 4780 50  0001 C CNN
F 3 "" H 14850 4780 50  0001 C CNN
	1    14850 4780
	1    0    0    -1  
$EndComp
Wire Wire Line
	14850 4780 14850 4850
Connection ~ 14850 4850
$Comp
L Kurs_lib:GND #PWR0109
U 1 1 61BAA5B3
P 7100 6000
F 0 "#PWR0109" H 7100 5750 50  0001 C CNN
F 1 "GND" H 7100 6100 50  0000 C CNN
F 2 "" H 7100 6000 50  0001 C CNN
F 3 "" H 7100 6000 50  0001 C CNN
	1    7100 6000
	-1   0    0    1   
$EndComp
Wire Wire Line
	7100 5800 7100 5950
Wire Wire Line
	14850 6000 14850 6300
Wire Wire Line
	12000 6100 12000 6250
$Comp
L Kurs_lib:GND #PWR0110
U 1 1 61DED15F
P 14850 4150
F 0 "#PWR0110" H 14850 3900 50  0001 C CNN
F 1 "GND" H 14850 4250 50  0000 C CNN
F 2 "" H 14850 4150 50  0001 C CNN
F 3 "" H 14850 4150 50  0001 C CNN
	1    14850 4150
	-1   0    0    1   
$EndComp
$Comp
L Kurs_lib:GND #PWR0111
U 1 1 61DED9D6
P 12000 4200
F 0 "#PWR0111" H 12000 3950 50  0001 C CNN
F 1 "GND" H 12000 4300 50  0000 C CNN
F 2 "" H 12000 4200 50  0001 C CNN
F 3 "" H 12000 4200 50  0001 C CNN
	1    12000 4200
	-1   0    0    1   
$EndComp
$Comp
L Kurs_lib:GND #PWR0112
U 1 1 61DF125A
P 1500 10350
F 0 "#PWR0112" H 1500 10100 50  0001 C CNN
F 1 "GND" H 1500 10450 50  0000 C CNN
F 2 "" H 1500 10350 50  0001 C CNN
F 3 "" H 1500 10350 50  0001 C CNN
	1    1500 10350
	-1   0    0    1   
$EndComp
$Comp
L Kurs_lib:GND #PWR0113
U 1 1 61DF0948
P 3900 3300
F 0 "#PWR0113" H 3900 3050 50  0001 C CNN
F 1 "GND" H 3900 3400 50  0000 C CNN
F 2 "" H 3900 3300 50  0001 C CNN
F 3 "" H 3900 3300 50  0001 C CNN
	1    3900 3300
	-1   0    0    1   
$EndComp
Wire Wire Line
	4450 2850 4400 2850
Text GLabel 4450 2850 2    50   Input ~ 0
Reset
Wire Wire Line
	3900 2150 3900 2200
$Comp
L power:+5V #PWR0114
U 1 1 61B7E3B9
P 3900 2150
F 0 "#PWR0114" H 3900 2000 50  0001 C CNN
F 1 "+5V" H 3915 2323 50  0000 C CNN
F 2 "" H 3900 2150 50  0001 C CNN
F 3 "" H 3900 2150 50  0001 C CNN
	1    3900 2150
	1    0    0    -1  
$EndComp
Wire Wire Line
	3900 3150 3900 3250
$Comp
L Connector:AVR-ISP-6 J1
U 1 1 61B7071A
P 4000 2750
F 0 "J1" H 3671 2846 50  0000 R CNN
F 1 "AVR-ISP-6" H 3671 2755 50  0000 R CNN
F 2 "Connector_PinHeader_2.54mm:PinHeader_2x03_P2.54mm_Vertical" V 3750 2800 50  0001 C CNN
F 3 " ~" H 2725 2200 50  0001 C CNN
F 4 "Коннектор" H 4000 2750 60  0001 C CNN "Группа"
	1    4000 2750
	1    0    0    -1  
$EndComp
$Comp
L Interface_USB:CP2102N-A01-GQFN24 U4
U 1 1 61B94884
P 9450 2950
F 0 "U4" H 8600 3900 50  0000 C CNN
F 1 "CP2102N-A01-GQFN24" H 8600 3750 50  0000 C CNN
F 2 "Package_DFN_QFN:QFN-24-1EP_4x4mm_P0.5mm_EP2.6x2.6mm" H 9900 2150 50  0001 L CNN
F 3 "https://www.silabs.com/documents/public/data-sheets/cp2102n-datasheet.pdf" H 9500 1900 50  0001 C CNN
F 4 "Интерфейс" H 9450 2950 60  0001 C CNN "Группа"
	1    9450 2950
	1    0    0    -1  
$EndComp
$Comp
L Kurs_lib:GND #PWR0115
U 1 1 61DEF1F7
P 14850 8500
F 0 "#PWR0115" H 14850 8250 50  0001 C CNN
F 1 "GND" H 14850 8600 50  0000 C CNN
F 2 "" H 14850 8500 50  0001 C CNN
F 3 "" H 14850 8500 50  0001 C CNN
	1    14850 8500
	-1   0    0    1   
$EndComp
Connection ~ 14850 7050
Wire Wire Line
	14850 6960 14850 7050
$Comp
L power:+5V #PWR0116
U 1 1 61BA4DDC
P 14850 6960
F 0 "#PWR0116" H 14850 6810 50  0001 C CNN
F 1 "+5V" H 14865 7133 50  0000 C CNN
F 2 "" H 14850 6960 50  0001 C CNN
F 3 "" H 14850 6960 50  0001 C CNN
	1    14850 6960
	1    0    0    -1  
$EndComp
Wire Wire Line
	14850 7050 14850 7100
Wire Wire Line
	14350 7050 14850 7050
Wire Wire Line
	14350 7250 14350 7050
Wire Wire Line
	14850 7750 14850 7800
Connection ~ 14850 7750
Wire Wire Line
	14350 7750 14850 7750
Wire Wire Line
	14350 7550 14350 7750
$Comp
L Device:D D8
U 1 1 61BD95C3
P 14350 7400
F 0 "D8" V 14396 7320 50  0001 R CNN
F 1 "D10" V 14350 7480 50  0000 L CNN
F 2 "Diode_SMD:D_0201_0603Metric_Pad0.64x0.40mm_HandSolder" H 14350 7400 50  0001 C CNN
F 3 "~" H 14350 7400 50  0001 C CNN
F 4 "Диоды" H 14350 7400 60  0001 C CNN "Группа"
	1    14350 7400
	0    1    1    0   
$EndComp
Wire Wire Line
	15350 6950 15350 7100
Wire Wire Line
	15900 6950 15350 6950
Wire Wire Line
	15250 7825 15900 7825
Wire Wire Line
	15250 7700 15250 7825
Text GLabel 15900 7825 2    50   Input ~ 0
out2
Text GLabel 15900 6950 2    50   Input ~ 0
out1
Wire Wire Line
	14850 7700 14850 7750
Wire Wire Line
	14250 8000 14550 8000
$Comp
L Device:R R9
U 1 1 61BD95AC
P 14100 8000
F 0 "R9" V 14000 7950 50  0000 L CNN
F 1 "300" V 14190 7930 50  0000 L CNN
F 2 "Resistor_SMD:R_0201_0603Metric_Pad0.64x0.40mm_HandSolder" V 14030 8000 50  0001 C CNN
F 3 "~" H 14100 8000 50  0001 C CNN
F 4 "Резисторы" H 14100 8000 60  0001 C CNN "Группа"
	1    14100 8000
	0    1    1    0   
$EndComp
Wire Wire Line
	14850 8200 14850 8450
$Comp
L Transistor_BJT:2N2219 Q6
U 1 1 61BD959F
P 14750 8000
F 0 "Q6" H 14940 8046 50  0000 L CNN
F 1 "2N2219" H 14940 7955 50  0000 L CNN
F 2 "Package_TO_SOT_THT:TO-39-3" H 14950 7925 50  0001 L CIN
F 3 "http://www.onsemi.com/pub_link/Collateral/2N2219-D.PDF" H 14750 8000 50  0001 L CNN
F 4 "Транзисторы" H 14750 8000 60  0001 C CNN "Группа"
	1    14750 8000
	1    0    0    -1  
$EndComp
$Comp
L Relay:ADW11 K6
U 1 1 61BD9599
P 15050 7400
F 0 "K6" H 15480 7446 50  0000 L CNN
F 1 "ADW11" H 15480 7355 50  0000 L CNN
F 2 "Relay_THT:Relay_1P1T_NO_10x24x18.8mm_Panasonic_ADW11xxxxW_THT" H 16375 7350 50  0001 C CNN
F 3 "https://www.panasonic-electric-works.com/pew/es/downloads/ds_dw_hl_en.pdf" H 15050 7400 50  0001 C CNN
F 4 "Реле" H 15050 7400 60  0001 C CNN "Группа"
	1    15050 7400
	1    0    0    -1  
$EndComp
$Comp
L Kurs_lib:GND #PWR0117
U 1 1 61DEF986
P 12000 8500
F 0 "#PWR0117" H 12000 8250 50  0001 C CNN
F 1 "GND" H 12000 8600 50  0000 C CNN
F 2 "" H 12000 8500 50  0001 C CNN
F 3 "" H 12000 8500 50  0001 C CNN
	1    12000 8500
	-1   0    0    1   
$EndComp
Wire Wire Line
	12000 7050 12000 7100
Connection ~ 12000 7050
Wire Wire Line
	12000 6990 12000 7050
$Comp
L power:+5V #PWR0118
U 1 1 61BB4109
P 12000 6990
F 0 "#PWR0118" H 12000 6840 50  0001 C CNN
F 1 "+5V" H 12015 7163 50  0000 C CNN
F 2 "" H 12000 6990 50  0001 C CNN
F 3 "" H 12000 6990 50  0001 C CNN
	1    12000 6990
	1    0    0    -1  
$EndComp
Wire Wire Line
	11500 7050 12000 7050
Wire Wire Line
	11500 7250 11500 7050
Wire Wire Line
	12000 7750 12000 7800
Connection ~ 12000 7750
Wire Wire Line
	11500 7750 12000 7750
Wire Wire Line
	11500 7550 11500 7750
$Comp
L Device:D D4
U 1 1 61BD04A7
P 11500 7400
F 0 "D4" V 11546 7320 50  0001 R CNN
F 1 "D9" V 11500 7480 50  0000 L CNN
F 2 "Diode_SMD:D_0201_0603Metric_Pad0.64x0.40mm_HandSolder" H 11500 7400 50  0001 C CNN
F 3 "~" H 11500 7400 50  0001 C CNN
F 4 "Диоды" H 11500 7400 60  0001 C CNN "Группа"
	1    11500 7400
	0    1    1    0   
$EndComp
Wire Wire Line
	12500 6950 12500 7100
Wire Wire Line
	13050 6950 12500 6950
Wire Wire Line
	12400 7825 13050 7825
Wire Wire Line
	12400 7700 12400 7825
Text GLabel 13050 7825 2    50   Input ~ 0
out2
Text GLabel 13050 6950 2    50   Input ~ 0
out1
Wire Wire Line
	12000 7700 12000 7750
Wire Wire Line
	11400 8000 11700 8000
$Comp
L Device:R R8
U 1 1 61BD0490
P 11250 8000
F 0 "R8" V 11150 7950 50  0000 L CNN
F 1 "300" V 11340 7930 50  0000 L CNN
F 2 "Resistor_SMD:R_0201_0603Metric_Pad0.64x0.40mm_HandSolder" V 11180 8000 50  0001 C CNN
F 3 "~" H 11250 8000 50  0001 C CNN
F 4 "Резисторы" H 11250 8000 60  0001 C CNN "Группа"
	1    11250 8000
	0    1    1    0   
$EndComp
Wire Wire Line
	12000 8200 12000 8450
$Comp
L Transistor_BJT:2N2219 Q5
U 1 1 61BD0483
P 11900 8000
F 0 "Q5" H 12090 8046 50  0000 L CNN
F 1 "2N2219" H 12090 7955 50  0000 L CNN
F 2 "Package_TO_SOT_THT:TO-39-3" H 12100 7925 50  0001 L CIN
F 3 "http://www.onsemi.com/pub_link/Collateral/2N2219-D.PDF" H 11900 8000 50  0001 L CNN
F 4 "Транзисторы" H 11900 8000 60  0001 C CNN "Группа"
	1    11900 8000
	1    0    0    -1  
$EndComp
$Comp
L Relay:ADW11 K5
U 1 1 61BD047D
P 12200 7400
F 0 "K5" H 12630 7446 50  0000 L CNN
F 1 "ADW11" H 12630 7355 50  0000 L CNN
F 2 "Relay_THT:Relay_1P1T_NO_10x24x18.8mm_Panasonic_ADW11xxxxW_THT" H 13525 7350 50  0001 C CNN
F 3 "https://www.panasonic-electric-works.com/pew/es/downloads/ds_dw_hl_en.pdf" H 12200 7400 50  0001 C CNN
F 4 "Реле" H 12200 7400 60  0001 C CNN "Группа"
	1    12200 7400
	1    0    0    -1  
$EndComp
$Comp
L Kurs_lib:GND #PWR0119
U 1 1 61DEE949
P 11950 2150
F 0 "#PWR0119" H 11950 1900 50  0001 C CNN
F 1 "GND" H 11950 2250 50  0000 C CNN
F 2 "" H 11950 2150 50  0001 C CNN
F 3 "" H 11950 2150 50  0001 C CNN
	1    11950 2150
	-1   0    0    1   
$EndComp
$Comp
L Kurs_lib:GND #PWR0120
U 1 1 61DEE173
P 14850 2100
F 0 "#PWR0120" H 14850 1850 50  0001 C CNN
F 1 "GND" H 14850 2200 50  0000 C CNN
F 2 "" H 14850 2100 50  0001 C CNN
F 3 "" H 14850 2100 50  0001 C CNN
	1    14850 2100
	-1   0    0    1   
$EndComp
Connection ~ 11950 700 
Wire Wire Line
	11950 630  11950 700 
$Comp
L power:+5V #PWR0121
U 1 1 61B95EB3
P 11950 630
F 0 "#PWR0121" H 11950 480 50  0001 C CNN
F 1 "+5V" H 11965 803 50  0000 C CNN
F 2 "" H 11950 630 50  0001 C CNN
F 3 "" H 11950 630 50  0001 C CNN
	1    11950 630 
	1    0    0    -1  
$EndComp
Connection ~ 14850 650 
Wire Wire Line
	14850 590  14850 650 
$Comp
L power:+5V #PWR0122
U 1 1 61B87A0C
P 14850 590
F 0 "#PWR0122" H 14850 440 50  0001 C CNN
F 1 "+5V" H 14865 763 50  0000 C CNN
F 2 "" H 14850 590 50  0001 C CNN
F 3 "" H 14850 590 50  0001 C CNN
	1    14850 590 
	1    0    0    -1  
$EndComp
Wire Wire Line
	14850 650  14850 700 
Wire Wire Line
	14350 650  14850 650 
Wire Wire Line
	14350 850  14350 650 
Wire Wire Line
	14850 1350 14850 1400
Connection ~ 14850 1350
Wire Wire Line
	14350 1350 14850 1350
Wire Wire Line
	14350 1150 14350 1350
$Comp
L Device:D D5
U 1 1 61BF1950
P 14350 1000
F 0 "D5" V 14396 920 50  0001 R CNN
F 1 "D12" V 14350 1080 50  0000 L CNN
F 2 "Diode_SMD:D_0201_0603Metric_Pad0.64x0.40mm_HandSolder" H 14350 1000 50  0001 C CNN
F 3 "~" H 14350 1000 50  0001 C CNN
F 4 "Диоды" H 14350 1000 60  0001 C CNN "Группа"
	1    14350 1000
	0    1    1    0   
$EndComp
Wire Wire Line
	15350 550  15350 700 
Wire Wire Line
	15900 550  15350 550 
Wire Wire Line
	15250 1425 15900 1425
Wire Wire Line
	15250 1300 15250 1425
Text GLabel 15900 1425 2    50   Input ~ 0
out2
Text GLabel 15900 550  2    50   Input ~ 0
out1
Wire Wire Line
	14850 1300 14850 1350
Wire Wire Line
	14250 1600 14550 1600
$Comp
L Device:R R11
U 1 1 61BF1939
P 14100 1600
F 0 "R11" V 14000 1550 50  0000 L CNN
F 1 "300" V 14190 1530 50  0000 L CNN
F 2 "Resistor_SMD:R_0201_0603Metric_Pad0.64x0.40mm_HandSolder" V 14030 1600 50  0001 C CNN
F 3 "~" H 14100 1600 50  0001 C CNN
F 4 "Резисторы" H 14100 1600 60  0001 C CNN "Группа"
	1    14100 1600
	0    1    1    0   
$EndComp
Wire Wire Line
	14850 1800 14850 2050
$Comp
L Transistor_BJT:2N2219 Q8
U 1 1 61BF192C
P 14750 1600
F 0 "Q8" H 14940 1646 50  0000 L CNN
F 1 "2N2219" H 14940 1555 50  0000 L CNN
F 2 "Package_TO_SOT_THT:TO-39-3" H 14950 1525 50  0001 L CIN
F 3 "http://www.onsemi.com/pub_link/Collateral/2N2219-D.PDF" H 14750 1600 50  0001 L CNN
F 4 "Транзисторы" H 14750 1600 60  0001 C CNN "Группа"
	1    14750 1600
	1    0    0    -1  
$EndComp
$Comp
L Relay:ADW11 K8
U 1 1 61BF1926
P 15050 1000
F 0 "K8" H 15480 1046 50  0000 L CNN
F 1 "ADW11" H 15480 955 50  0000 L CNN
F 2 "Relay_THT:Relay_1P1T_NO_10x24x18.8mm_Panasonic_ADW11xxxxW_THT" H 16375 950 50  0001 C CNN
F 3 "https://www.panasonic-electric-works.com/pew/es/downloads/ds_dw_hl_en.pdf" H 15050 1000 50  0001 C CNN
F 4 "Реле" H 15050 1000 60  0001 C CNN "Группа"
	1    15050 1000
	1    0    0    -1  
$EndComp
Wire Wire Line
	11950 700  11950 750 
Wire Wire Line
	11450 700  11950 700 
Wire Wire Line
	11450 900  11450 700 
Wire Wire Line
	11950 1400 11950 1450
Connection ~ 11950 1400
Wire Wire Line
	11450 1400 11950 1400
Wire Wire Line
	11450 1200 11450 1400
$Comp
L Device:D D1
U 1 1 61BE6C97
P 11450 1050
F 0 "D1" V 11496 970 50  0001 R CNN
F 1 "D11" V 11450 1130 50  0000 L CNN
F 2 "Diode_SMD:D_0201_0603Metric_Pad0.64x0.40mm_HandSolder" H 11450 1050 50  0001 C CNN
F 3 "~" H 11450 1050 50  0001 C CNN
F 4 "Диоды" H 11450 1050 60  0001 C CNN "Группа"
	1    11450 1050
	0    1    1    0   
$EndComp
Wire Wire Line
	12450 600  12450 750 
Wire Wire Line
	13000 600  12450 600 
Wire Wire Line
	12350 1475 13000 1475
Wire Wire Line
	12350 1350 12350 1475
Text GLabel 13000 1475 2    50   Input ~ 0
out2
Text GLabel 13000 600  2    50   Input ~ 0
out1
Wire Wire Line
	11950 1350 11950 1400
Wire Wire Line
	11350 1650 11650 1650
$Comp
L Device:R R10
U 1 1 61BE6C80
P 11200 1650
F 0 "R10" V 11100 1600 50  0000 L CNN
F 1 "300" V 11290 1580 50  0000 L CNN
F 2 "Resistor_SMD:R_0201_0603Metric_Pad0.64x0.40mm_HandSolder" V 11130 1650 50  0001 C CNN
F 3 "~" H 11200 1650 50  0001 C CNN
F 4 "Резисторы" H 11200 1650 60  0001 C CNN "Группа"
	1    11200 1650
	0    1    1    0   
$EndComp
Wire Wire Line
	11950 1850 11950 2100
$Comp
L Transistor_BJT:2N2219 Q7
U 1 1 61BE6C73
P 11850 1650
F 0 "Q7" H 12040 1696 50  0000 L CNN
F 1 "2N2219" H 12040 1605 50  0000 L CNN
F 2 "Package_TO_SOT_THT:TO-39-3" H 12050 1575 50  0001 L CIN
F 3 "http://www.onsemi.com/pub_link/Collateral/2N2219-D.PDF" H 11850 1650 50  0001 L CNN
F 4 "Транзисторы" H 11850 1650 60  0001 C CNN "Группа"
	1    11850 1650
	1    0    0    -1  
$EndComp
$Comp
L Relay:ADW11 K7
U 1 1 61BE6C6D
P 12150 1050
F 0 "K7" H 12580 1096 50  0000 L CNN
F 1 "ADW11" H 12580 1005 50  0000 L CNN
F 2 "Relay_THT:Relay_1P1T_NO_10x24x18.8mm_Panasonic_ADW11xxxxW_THT" H 13475 1000 50  0001 C CNN
F 3 "https://www.panasonic-electric-works.com/pew/es/downloads/ds_dw_hl_en.pdf" H 12150 1050 50  0001 C CNN
F 4 "Реле" H 12150 1050 60  0001 C CNN "Группа"
	1    12150 1050
	1    0    0    -1  
$EndComp
Wire Wire Line
	3300 10025 3375 10025
$Comp
L Kurs_lib:GND #PWR0123
U 1 1 61D2092A
P 3425 10025
F 0 "#PWR0123" H 3425 9775 50  0001 C CNN
F 1 "GND" V 3425 10250 50  0000 R CNN
F 2 "" H 3425 9975 50  0001 C CNN
F 3 "" H 3425 9975 50  0001 C CNN
	1    3425 10025
	0    1    1    0   
$EndComp
Wire Wire Line
	4375 10475 4375 10375
Wire Wire Line
	3300 9875 3725 9875
$Comp
L power:+12V #PWR0124
U 1 1 61BA1D37
P 3725 9775
F 0 "#PWR0124" H 3725 9625 50  0001 C CNN
F 1 "+12V" H 3740 9948 50  0000 C CNN
F 2 "" H 3725 9775 50  0001 C CNN
F 3 "" H 3725 9775 50  0001 C CNN
	1    3725 9775
	1    0    0    -1  
$EndComp
Wire Wire Line
	3725 9775 3725 9875
Connection ~ 3725 9875
Wire Wire Line
	4925 9775 4925 9875
$Comp
L power:+5V #PWR0125
U 1 1 61BA37D3
P 4925 9775
F 0 "#PWR0125" H 4925 9625 50  0001 C CNN
F 1 "+5V" H 4940 9948 50  0000 C CNN
F 2 "" H 4925 9775 50  0001 C CNN
F 3 "" H 4925 9775 50  0001 C CNN
	1    4925 9775
	1    0    0    -1  
$EndComp
Wire Wire Line
	4675 9875 4925 9875
Wire Wire Line
	3725 9875 4075 9875
Wire Wire Line
	4925 10375 4375 10375
Connection ~ 4375 10375
Wire Wire Line
	3725 10375 4375 10375
Wire Wire Line
	3725 10325 3725 10375
Wire Wire Line
	4375 10175 4375 10375
$Comp
L Kurs_lib:GND #PWR0126
U 1 1 61B945AC
P 4375 10525
F 0 "#PWR0126" H 4375 10275 50  0001 C CNN
F 1 "GND" H 4375 10625 50  0000 C CNN
F 2 "" H 4375 10525 50  0001 C CNN
F 3 "" H 4375 10525 50  0001 C CNN
	1    4375 10525
	-1   0    0    1   
$EndComp
$Comp
L Regulator_Linear:LM78L05_SO8 U3
U 1 1 61B8FC6A
P 4375 9875
F 0 "U3" H 4375 10117 50  0000 C CNN
F 1 "LM78L05_SO8" H 4375 10026 50  0000 C CNN
F 2 "Package_SO:SOIC-8_3.9x4.9mm_P1.27mm" H 4475 10075 50  0001 C CIN
F 3 "https://www.onsemi.com/pub/Collateral/MC78L06A-D.pdf" H 4575 9875 50  0001 C CNN
F 4 "Стабилизатор" H 4375 9875 60  0001 C CNN "Группа"
	1    4375 9875
	1    0    0    -1  
$EndComp
$Comp
L Kurs_lib:GND #PWR0127
U 1 1 61DF2E37
P 5300 7050
F 0 "#PWR0127" H 5300 6800 50  0001 C CNN
F 1 "GND" V 5300 7200 50  0000 C CNN
F 2 "" H 5300 7050 50  0001 C CNN
F 3 "" H 5300 7050 50  0001 C CNN
	1    5300 7050
	0    1    1    0   
$EndComp
$Comp
L Kurs_lib:GND #PWR0128
U 1 1 61DF2468
P 6800 3300
F 0 "#PWR0128" H 6800 3050 50  0001 C CNN
F 1 "GND" H 6800 3400 50  0000 C CNN
F 2 "" H 6800 3300 50  0001 C CNN
F 3 "" H 6800 3300 50  0001 C CNN
	1    6800 3300
	-1   0    0    1   
$EndComp
$Comp
L Kurs_lib:GND #PWR0129
U 1 1 61DF1C39
P 2300 6950
F 0 "#PWR0129" H 2300 6700 50  0001 C CNN
F 1 "GND" H 2300 7050 50  0000 C CNN
F 2 "" H 2300 6950 50  0001 C CNN
F 3 "" H 2300 6950 50  0001 C CNN
	1    2300 6950
	-1   0    0    1   
$EndComp
Wire Wire Line
	4400 6700 4400 7050
Wire Wire Line
	4600 6700 4400 6700
Text GLabel 4600 6700 2    50   Input ~ 0
Reset
Wire Wire Line
	2300 3550 2300 3400
Connection ~ 2300 3550
Wire Wire Line
	2300 3700 2300 3550
Wire Wire Line
	4400 7450 4400 7550
$Comp
L power:+5V #PWR0131
U 1 1 61BAE2DD
P 4400 7550
F 0 "#PWR0131" H 4400 7400 50  0001 C CNN
F 1 "+5V" H 4415 7723 50  0000 C CNN
F 2 "" H 4400 7550 50  0001 C CNN
F 3 "" H 4400 7550 50  0001 C CNN
	1    4400 7550
	-1   0    0    1   
$EndComp
Connection ~ 4400 7050
Wire Wire Line
	4400 7050 4400 7150
Wire Wire Line
	4550 7050 4400 7050
$Comp
L Device:R R1
U 1 1 61BA659C
P 4400 7300
F 0 "R1" H 4470 7346 50  0000 L CNN
F 1 "1k" H 4470 7255 50  0000 L CNN
F 2 "Resistor_SMD:R_0201_0603Metric_Pad0.64x0.40mm_HandSolder" V 4330 7300 50  0001 C CNN
F 3 "~" H 4400 7300 50  0001 C CNN
F 4 "Резисторы" H 4400 7300 60  0001 C CNN "Группа"
	1    4400 7300
	1    0    0    -1  
$EndComp
Wire Wire Line
	4950 7050 5250 7050
$Comp
L Switch:SW_Push SW1
U 1 1 61B56A37
P 4750 7050
F 0 "SW1" H 4750 7335 50  0001 C CNN
F 1 "Reset" H 4750 7243 50  0000 C CNN
F 2 "Button_Switch_SMD:SW_SPST_PTS645" H 4750 7250 50  0001 C CNN
F 3 "~" H 4750 7250 50  0001 C CNN
F 4 "Кнопка" H 4750 7050 60  0001 C CNN "Группа"
	1    4750 7050
	1    0    0    -1  
$EndComp
Wire Wire Line
	2300 6700 2300 6900
Wire Wire Line
	5700 3150 5700 3000
Wire Wire Line
	6150 3150 5700 3150
Wire Wire Line
	5700 2550 6150 2550
Wire Wire Line
	5700 2700 5700 2550
Wire Wire Line
	6800 3150 6800 3250
Connection ~ 6800 3150
Wire Wire Line
	6450 3150 6800 3150
Wire Wire Line
	6800 2550 6800 3150
Wire Wire Line
	6450 2550 6800 2550
$Comp
L Device:C C2
U 1 1 61B27539
P 6300 3150
F 0 "C2" V 6048 3150 50  0000 C CNN
F 1 "22pF" V 6139 3150 50  0000 C CNN
F 2 "Capacitor_SMD:C_0201_0603Metric_Pad0.64x0.40mm_HandSolder" H 6338 3000 50  0001 C CNN
F 3 "~" H 6300 3150 50  0001 C CNN
F 4 "Конденсаторы" H 6300 3150 60  0001 C CNN "Группа"
	1    6300 3150
	0    1    1    0   
$EndComp
$Comp
L Device:C C1
U 1 1 61B25C73
P 6300 2550
F 0 "C1" V 6048 2550 50  0000 C CNN
F 1 "22pF" V 6139 2550 50  0000 C CNN
F 2 "Capacitor_SMD:C_0201_0603Metric_Pad0.64x0.40mm_HandSolder" H 6338 2400 50  0001 C CNN
F 3 "~" H 6300 2550 50  0001 C CNN
F 4 "Конденсаторы" H 6300 2550 60  0001 C CNN "Группа"
	1    6300 2550
	0    1    1    0   
$EndComp
$Comp
L Device:Crystal X1
U 1 1 61B2326D
P 5700 2850
F 0 "X1" V 5746 2981 50  0000 L CNN
F 1 "16MHz" V 5655 2981 50  0000 L CNN
F 2 "Crystal:Crystal_AT310_D3.0mm_L10.0mm_Horizontal" H 5700 2850 50  0001 C CNN
F 3 "~" H 5700 2850 50  0001 C CNN
F 4 "Кристал" H 5700 2850 60  0001 C CNN "Группа"
	1    5700 2850
	0    1    -1   0   
$EndComp
$Comp
L MCU_Microchip_ATmega:ATmega328P-PU U1
U 1 1 61B202DB
P 2300 5200
F 0 "U1" H 1656 5246 50  0000 R CNN
F 1 "ATmega328P-PU" H 1656 5155 50  0000 R CNN
F 2 "Package_DIP:DIP-28_W7.62mm" H 2300 5200 50  0001 C CIN
F 3 "http://ww1.microchip.com/downloads/en/DeviceDoc/ATmega328_P%20AVR%20MCU%20with%20picoPower%20Technology%20Data%20Sheet%2040001984A.pdf" H 2300 5200 50  0001 C CNN
F 4 "Микроконтроллер" H 2300 5200 60  0001 C CNN "Группа"
	1    2300 5200
	1    0    0    -1  
$EndComp
Wire Wire Line
	3000 4000 3000 1650
Wire Wire Line
	3100 4100 3100 1750
Wire Wire Line
	3100 1750 6400 1750
Wire Wire Line
	10900 2350 13600 2350
Wire Wire Line
	13600 2350 13600 1600
Wire Wire Line
	13600 1600 13950 1600
Wire Wire Line
	10600 3700 11100 3700
Wire Wire Line
	10700 4450 13600 4450
Wire Wire Line
	13600 4450 13600 3650
Wire Wire Line
	13600 3650 13950 3650
Wire Wire Line
	10950 6550 13500 6550
Wire Wire Line
	13500 6550 13500 5800
Wire Wire Line
	13500 5800 13950 5800
Wire Wire Line
	2900 4000 3000 4000
Wire Wire Line
	2900 4100 3100 4100
Wire Wire Line
	13650 8000 13950 8000
Wire Wire Line
	13650 8850 13650 8000
Wire Wire Line
	2900 6400 3150 6400
Wire Wire Line
	3150 6400 3150 8850
Wire Wire Line
	3150 8850 13650 8850
Wire Wire Line
	2900 6300 3250 6300
Wire Wire Line
	10950 6550 10950 8650
Wire Wire Line
	10950 8650 3350 8650
Wire Wire Line
	3350 8650 3350 6200
Wire Wire Line
	3350 6200 2900 6200
Wire Wire Line
	11100 5900 10800 5900
Wire Wire Line
	10800 5900 10800 8550
Wire Wire Line
	10800 8550 3450 8550
Wire Wire Line
	3450 8550 3450 6100
Wire Wire Line
	3450 6100 2900 6100
Wire Wire Line
	10700 4450 10700 8450
Wire Wire Line
	10700 8450 3550 8450
Wire Wire Line
	3550 8450 3550 6000
Wire Wire Line
	3550 6000 2900 6000
Wire Wire Line
	10600 3700 10600 8350
Wire Wire Line
	10600 8350 3650 8350
Wire Wire Line
	3650 8350 3650 5900
Wire Wire Line
	3650 5900 2900 5900
Wire Wire Line
	4400 2550 4950 2550
Wire Wire Line
	2900 4400 4950 4400
Wire Wire Line
	4850 4300 2900 4300
Wire Wire Line
	4400 2650 4850 2650
Wire Wire Line
	4850 2650 4850 4300
Wire Wire Line
	4950 2550 4950 4400
Wire Wire Line
	11100 8000 11100 8750
Wire Wire Line
	11100 8750 3250 8750
Wire Wire Line
	3250 6300 3250 8750
$Comp
L Connector:USB_A J2
U 1 1 62B1DABF
P 7950 3350
F 0 "J2" H 8007 3817 50  0000 C CNN
F 1 "USB_A" H 8007 3726 50  0000 C CNN
F 2 "Connector_USB:USB_A_Molex_67643_Horizontal" H 8100 3300 50  0001 C CNN
F 3 " ~" H 8100 3300 50  0001 C CNN
F 4 "Коннектор" H 7950 3350 60  0001 C CNN "Группа"
	1    7950 3350
	1    0    0    -1  
$EndComp
Wire Wire Line
	8850 3350 8250 3350
Wire Wire Line
	8850 3450 8250 3450
Wire Wire Line
	2900 5800 3750 5800
Wire Wire Line
	3750 5800 3750 8250
Wire Wire Line
	3750 8250 10500 8250
Wire Wire Line
	10500 8250 10500 2750
Wire Wire Line
	10500 2750 10050 2750
Wire Wire Line
	2900 5500 3950 5500
Wire Wire Line
	2900 5700 3850 5700
Wire Wire Line
	3850 5700 3850 8150
Wire Wire Line
	3850 8150 10400 8150
Wire Wire Line
	10400 8150 10400 4250
Wire Wire Line
	10400 4250 7400 4250
Wire Wire Line
	7400 4250 7400 1500
Wire Wire Line
	7400 1500 10500 1500
Wire Wire Line
	10500 1500 10500 2650
Wire Wire Line
	10500 2650 10050 2650
Wire Wire Line
	3950 7050 4400 7050
Wire Wire Line
	3950 5500 3950 7050
Wire Wire Line
	2900 4500 5050 4500
Wire Wire Line
	5050 4500 5050 1850
Wire Wire Line
	5050 1850 3200 1850
Wire Wire Line
	3200 1850 3200 3500
Wire Wire Line
	4750 2750 4750 3500
Wire Wire Line
	4400 2750 4750 2750
Wire Wire Line
	3200 3500 4750 3500
Wire Wire Line
	2900 4600 5150 4600
Wire Wire Line
	5150 4600 5150 2550
Wire Wire Line
	5150 2550 5700 2550
Connection ~ 5700 2550
Wire Wire Line
	2900 4700 5250 4700
Wire Wire Line
	5250 4700 5250 3150
Wire Wire Line
	5250 3150 5700 3150
Connection ~ 5700 3150
Wire Wire Line
	2900 5300 5950 5300
Text GLabel 3000 5400 2    50   Input ~ 0
SCL
Wire Wire Line
	2900 5400 3000 5400
Wire Wire Line
	8250 3150 8300 3150
Wire Wire Line
	8300 3150 8300 3250
Wire Wire Line
	8300 3250 8750 3250
$Comp
L power:+5V #PWR0132
U 1 1 62E19E65
P 8300 2800
F 0 "#PWR0132" H 8300 2650 50  0001 C CNN
F 1 "+5V" H 8315 2973 50  0000 C CNN
F 2 "" H 8300 2800 50  0001 C CNN
F 3 "" H 8300 2800 50  0001 C CNN
	1    8300 2800
	1    0    0    -1  
$EndComp
Wire Wire Line
	8300 2800 8300 3150
Connection ~ 8300 3150
Wire Wire Line
	8850 2950 8750 2950
Wire Wire Line
	8750 2950 8750 3250
Connection ~ 8750 3250
Wire Wire Line
	8750 3250 8850 3250
$Comp
L Kurs_lib:GND #PWR0133
U 1 1 62E44FBF
P 9450 4100
F 0 "#PWR0133" H 9450 3850 50  0001 C CNN
F 1 "GND" H 9450 4200 50  0000 C CNN
F 2 "" H 9450 4100 50  0001 C CNN
F 3 "" H 9450 4100 50  0001 C CNN
	1    9450 4100
	-1   0    0    1   
$EndComp
Wire Wire Line
	9450 3850 9450 3900
Wire Wire Line
	9550 3850 9550 3900
Wire Wire Line
	9550 3900 9450 3900
Connection ~ 9450 3900
$Comp
L power:+5V #PWR0134
U 1 1 62E7091C
P 9350 1765
F 0 "#PWR0134" H 9350 1615 50  0001 C CNN
F 1 "+5V" H 9365 1938 50  0000 C CNN
F 2 "" H 9350 1765 50  0001 C CNN
F 3 "" H 9350 1765 50  0001 C CNN
	1    9350 1765
	1    0    0    -1  
$EndComp
Wire Wire Line
	3000 1650 6300 1650
Wire Wire Line
	11000 750  11000 1650
Wire Wire Line
	11000 1650 11050 1650
Wire Wire Line
	11000 750  6300 750 
Wire Wire Line
	6300 750  6300 1650
Wire Wire Line
	6400 850  6400 1750
Wire Wire Line
	6400 850  10900 850 
Wire Wire Line
	10900 850  10900 2350
NoConn ~ 8850 2350
NoConn ~ 8850 2650
NoConn ~ 8850 2750
NoConn ~ 10050 3550
NoConn ~ 10050 3450
NoConn ~ 10050 3350
NoConn ~ 10050 3250
NoConn ~ 10050 3050
NoConn ~ 10050 2950
NoConn ~ 10050 2850
NoConn ~ 10050 2550
NoConn ~ 10050 2450
NoConn ~ 10050 2350
Wire Wire Line
	9450 3900 9450 4050
$Comp
L Kurs_lib:GND #PWR0135
U 1 1 63106289
P 7950 4000
F 0 "#PWR0135" H 7950 3750 50  0001 C CNN
F 1 "GND" H 7950 4100 50  0000 C CNN
F 2 "" H 7950 4000 50  0001 C CNN
F 3 "" H 7950 4000 50  0001 C CNN
	1    7950 4000
	-1   0    0    1   
$EndComp
Wire Wire Line
	7950 3750 7950 3950
NoConn ~ 1700 4000
$Comp
L Kurs_lib:X1 X11
U 1 1 61BC3FA3
P 2850 10150
F 0 "X11" H 2908 10815 50  0001 C CNN
F 1 "X1" H 2850 10750 50  0000 C CNN
F 2 "Connector:Banana_Jack_2Pin" H 2850 10100 50  0001 C CNN
F 3 "" H 2850 10100 50  0001 C CNN
F 4 "Коннектор" H 2850 10150 60  0001 C CNN "Группа"
	1    2850 10150
	1    0    0    -1  
$EndComp
NoConn ~ 7850 3750
Wire Wire Line
	9450 2050 9450 2000
Wire Wire Line
	9450 2000 9350 2000
Connection ~ 9350 2000
Wire Wire Line
	9350 2000 9350 2050
Wire Wire Line
	3725 10025 3725 9875
Wire Wire Line
	4925 10325 4925 10375
$Comp
L Device:C C3
U 1 1 61D58E83
P 2005 3550
F 0 "C3" V 1753 3550 50  0000 C CNN
F 1 "100nF" V 1844 3550 50  0000 C CNN
F 2 "Capacitor_SMD:C_0201_0603Metric_Pad0.64x0.40mm_HandSolder" H 2043 3400 50  0001 C CNN
F 3 "~" H 2005 3550 50  0001 C CNN
F 4 "Конденсаторы" H 2005 3550 60  0001 C CNN "Группа"
	1    2005 3550
	0    1    1    0   
$EndComp
$Comp
L power:+5V #PWR0130
U 1 1 61B57038
P 2300 3400
F 0 "#PWR0130" H 2300 3250 50  0001 C CNN
F 1 "+5V" H 2315 3573 50  0000 C CNN
F 2 "" H 2300 3400 50  0001 C CNN
F 3 "" H 2300 3400 50  0001 C CNN
	1    2300 3400
	1    0    0    -1  
$EndComp
$Comp
L Kurs_lib:GND #PWR01
U 1 1 61D5CAD6
P 1565 3550
F 0 "#PWR01" H 1565 3300 50  0001 C CNN
F 1 "GND" V 1583 3472 50  0000 R CNN
F 2 "" H 1565 3500 50  0001 C CNN
F 3 "" H 1565 3500 50  0001 C CNN
	1    1565 3550
	0    -1   -1   0   
$EndComp
Wire Wire Line
	1855 3550 1615 3550
Wire Wire Line
	2155 3550 2300 3550
Wire Wire Line
	2300 3550 2300 3555
$Comp
L Device:C C6
U 1 1 61D8D8B7
P 4150 2200
F 0 "C6" V 3898 2200 50  0000 C CNN
F 1 "100nF" V 3989 2200 50  0000 C CNN
F 2 "Capacitor_SMD:C_0201_0603Metric_Pad0.64x0.40mm_HandSolder" H 4188 2050 50  0001 C CNN
F 3 "~" H 4150 2200 50  0001 C CNN
F 4 "Конденсаторы" H 4150 2200 60  0001 C CNN "Группа"
	1    4150 2200
	0    1    1    0   
$EndComp
$Comp
L Kurs_lib:GND #PWR03
U 1 1 61D8F14B
P 4585 2200
F 0 "#PWR03" H 4585 1950 50  0001 C CNN
F 1 "GND" V 4602 2121 50  0000 R CNN
F 2 "" H 4585 2150 50  0001 C CNN
F 3 "" H 4585 2150 50  0001 C CNN
	1    4585 2200
	0    1    1    0   
$EndComp
Wire Wire Line
	4300 2200 4535 2200
Wire Wire Line
	4000 2200 3900 2200
Connection ~ 3900 2200
Wire Wire Line
	3900 2200 3900 2250
$Comp
L Device:C C7
U 1 1 61DC360E
P 7290 4750
F 0 "C7" V 7038 4750 50  0000 C CNN
F 1 "100nF" V 7129 4750 50  0000 C CNN
F 2 "Capacitor_SMD:C_0201_0603Metric_Pad0.64x0.40mm_HandSolder" H 7328 4600 50  0001 C CNN
F 3 "~" H 7290 4750 50  0001 C CNN
F 4 "Конденсаторы" H 7290 4750 60  0001 C CNN "Группа"
	1    7290 4750
	0    1    1    0   
$EndComp
Wire Wire Line
	7140 4750 7000 4750
Connection ~ 7000 4750
$Comp
L Kurs_lib:GND #PWR04
U 1 1 61DDD75B
P 7760 4750
F 0 "#PWR04" H 7760 4500 50  0001 C CNN
F 1 "GND" V 7777 4671 50  0000 R CNN
F 2 "" H 7760 4700 50  0001 C CNN
F 3 "" H 7760 4700 50  0001 C CNN
	1    7760 4750
	0    1    1    0   
$EndComp
Wire Wire Line
	7710 4750 7440 4750
$Comp
L power:+5V #PWR02
U 1 1 61DF7CE7
P 2550 3400
F 0 "#PWR02" H 2550 3250 50  0001 C CNN
F 1 "+5V" H 2565 3573 50  0000 C CNN
F 2 "" H 2550 3400 50  0001 C CNN
F 3 "" H 2550 3400 50  0001 C CNN
	1    2550 3400
	1    0    0    -1  
$EndComp
Wire Wire Line
	2400 3690 2400 3550
Wire Wire Line
	2400 3550 2550 3550
Wire Wire Line
	2550 3550 2550 3400
Wire Wire Line
	9350 1765 9350 2000
$Comp
L Device:C C8
U 1 1 61E2E3DB
P 9115 2000
F 0 "C8" V 8863 2000 50  0000 C CNN
F 1 "100nF" V 8954 2000 50  0000 C CNN
F 2 "Capacitor_SMD:C_0201_0603Metric_Pad0.64x0.40mm_HandSolder" H 9153 1850 50  0001 C CNN
F 3 "~" H 9115 2000 50  0001 C CNN
F 4 "Конденсаторы" H 9115 2000 60  0001 C CNN "Группа"
	1    9115 2000
	0    1    1    0   
$EndComp
Wire Wire Line
	9265 2000 9350 2000
Wire Wire Line
	9350 2000 9350 1995
$Comp
L Kurs_lib:GND #PWR05
U 1 1 61E49DE5
P 8785 2000
F 0 "#PWR05" H 8785 1750 50  0001 C CNN
F 1 "GND" V 8803 1922 50  0000 R CNN
F 2 "" H 8785 1950 50  0001 C CNN
F 3 "" H 8785 1950 50  0001 C CNN
	1    8785 2000
	0    -1   -1   0   
$EndComp
Wire Wire Line
	8835 2000 8965 2000
$Comp
L Device:C C4
U 1 1 61C69F27
P 3725 10175
F 0 "C4" H 3960 10152 50  0000 C CNN
F 1 "0.33uF" H 3958 10234 50  0000 C CNN
F 2 "Capacitor_SMD:C_0201_0603Metric_Pad0.64x0.40mm_HandSolder" H 3763 10025 50  0001 C CNN
F 3 "~" H 3725 10175 50  0001 C CNN
F 4 "Конденсаторы" H 3725 10175 60  0001 C CNN "Группа"
	1    3725 10175
	-1   0    0    1   
$EndComp
$Comp
L Device:C C5
U 1 1 61C71A7F
P 4925 10175
F 0 "C5" H 5160 10152 50  0000 C CNN
F 1 "0.1uF" H 5158 10234 50  0000 C CNN
F 2 "Capacitor_SMD:C_0201_0603Metric_Pad0.64x0.40mm_HandSolder" H 4963 10025 50  0001 C CNN
F 3 "~" H 4925 10175 50  0001 C CNN
F 4 "Конденсаторы" H 4925 10175 60  0001 C CNN "Группа"
	1    4925 10175
	-1   0    0    1   
$EndComp
Wire Wire Line
	4925 10025 4925 9875
Connection ~ 4925 9875
$EndSCHEMATC
