EESchema Schematic File Version 4
EELAYER 30 0
EELAYER END
$Descr A4 11693 8268
encoding utf-8
Sheet 1 1
Title "Урок 1"
Date ""
Rev ""
Comp ""
Comment1 ""
Comment2 ""
Comment3 ""
Comment4 ""
$EndDescr
$Comp
L Device:R R2
U 1 1 616CB3FA
P 6500 2650
F 0 "R2" V 6707 2650 50  0000 C CNN
F 1 "1 k" V 6616 2650 50  0000 C CNN
F 2 "" V 6430 2650 50  0001 C CNN
F 3 "~" H 6500 2650 50  0001 C CNN
	1    6500 2650
	0    -1   -1   0   
$EndComp
$Comp
L Device:R R1
U 1 1 616CCD1C
P 6400 3900
F 0 "R1" V 6193 3900 50  0000 C CNN
F 1 "100" V 6284 3900 50  0000 C CNN
F 2 "" V 6330 3900 50  0001 C CNN
F 3 "~" H 6400 3900 50  0001 C CNN
	1    6400 3900
	0    1    1    0   
$EndComp
$Comp
L Device:LED D1
U 1 1 616CE0F6
P 6100 2650
F 0 "D1" H 6093 2867 50  0000 C CNN
F 1 "LED" H 6093 2776 50  0000 C CNN
F 2 "" H 6100 2650 50  0001 C CNN
F 3 "~" H 6100 2650 50  0001 C CNN
	1    6100 2650
	1    0    0    -1  
$EndComp
$Comp
L myLib:MYCONN3 J1
U 1 1 616D1377
P 5450 3700
F 0 "J1" H 5483 3825 50  0000 C CNN
F 1 "MYCONN3" H 5483 3734 50  0000 C CNN
F 2 "" H 5450 3700 50  0001 C CNN
F 3 "" H 5450 3700 50  0001 C CNN
	1    5450 3700
	1    0    0    -1  
$EndComp
$Comp
L power:VCC #PWR03
U 1 1 616D23C5
P 5800 3700
F 0 "#PWR03" H 5800 3550 50  0001 C CNN
F 1 "VCC" H 5815 3873 50  0000 C CNN
F 2 "" H 5800 3700 50  0001 C CNN
F 3 "" H 5800 3700 50  0001 C CNN
	1    5800 3700
	1    0    0    -1  
$EndComp
$Comp
L power:VCC #PWR01
U 1 1 616D2928
P 5000 2350
F 0 "#PWR01" H 5000 2200 50  0001 C CNN
F 1 "VCC" H 5015 2523 50  0000 C CNN
F 2 "" H 5000 2350 50  0001 C CNN
F 3 "" H 5000 2350 50  0001 C CNN
	1    5000 2350
	1    0    0    -1  
$EndComp
$Comp
L power:VCC #PWR05
U 1 1 616D30B0
P 6750 2550
F 0 "#PWR05" H 6750 2400 50  0001 C CNN
F 1 "VCC" H 6765 2723 50  0000 C CNN
F 2 "" H 6750 2550 50  0001 C CNN
F 3 "" H 6750 2550 50  0001 C CNN
	1    6750 2550
	1    0    0    -1  
$EndComp
$Comp
L power:GND #PWR02
U 1 1 616D375F
P 5000 3750
F 0 "#PWR02" H 5000 3500 50  0001 C CNN
F 1 "GND" H 5005 3577 50  0000 C CNN
F 2 "" H 5000 3750 50  0001 C CNN
F 3 "" H 5000 3750 50  0001 C CNN
	1    5000 3750
	1    0    0    -1  
$EndComp
$Comp
L power:GND #PWR04
U 1 1 616D3CBA
P 5800 4100
F 0 "#PWR04" H 5800 3850 50  0001 C CNN
F 1 "GND" H 5805 3927 50  0000 C CNN
F 2 "" H 5800 4100 50  0001 C CNN
F 3 "" H 5800 4100 50  0001 C CNN
	1    5800 4100
	1    0    0    -1  
$EndComp
$Comp
L microchip_pic12mcu:PIC12C508A-ISN U1
U 1 1 616CD9B4
P 5000 3050
F 0 "U1" H 5300 3550 50  0000 C CNN
F 1 "PIC12C508A-ISN" H 4550 3550 50  0000 C CNN
F 2 "Package_DIP:DIP-8_W7.62mm" H 5600 3700 50  0001 C CNN
F 3 "http://ww1.microchip.com/downloads/en/devicedoc/40139e.pdf" H 5000 3050 50  0001 C CNN
	1    5000 3050
	-1   0    0    -1  
$EndComp
Wire Wire Line
	5600 2950 5700 2950
Wire Wire Line
	5700 2950 5700 2650
Wire Wire Line
	5700 2650 5950 2650
Wire Wire Line
	6250 2650 6350 2650
Wire Wire Line
	6650 2650 6750 2650
Wire Wire Line
	6750 2650 6750 2550
Wire Wire Line
	5700 3800 5800 3800
Wire Wire Line
	5800 3800 5800 3700
Wire Wire Line
	5000 3750 5000 3650
Wire Wire Line
	5000 2450 5000 2350
Wire Wire Line
	5700 3900 6250 3900
Wire Wire Line
	5800 4100 5800 4000
Wire Wire Line
	5800 4000 5700 4000
Wire Wire Line
	6550 3900 6900 3900
Wire Wire Line
	5600 3050 6150 3050
Text Label 5800 3050 0    50   ~ 0
INPUT
Text Label 6600 3900 0    50   ~ 0
INPUT
Text Label 5700 2850 0    50   ~ 0
uCtoLED
Text Label 6300 2650 3    50   ~ 0
LEDtoR
Text Label 5850 3900 0    50   ~ 0
INPUTtoR
NoConn ~ 4400 2950
NoConn ~ 4400 3050
NoConn ~ 4400 3150
NoConn ~ 5600 3150
$Comp
L power:PWR_FLAG #FLG01
U 1 1 616DA293
P 6900 3150
F 0 "#FLG01" H 6900 3225 50  0001 C CNN
F 1 "PWR_FLAG" H 6900 3323 50  0000 C CNN
F 2 "" H 6900 3150 50  0001 C CNN
F 3 "~" H 6900 3150 50  0001 C CNN
	1    6900 3150
	1    0    0    -1  
$EndComp
$Comp
L power:PWR_FLAG #FLG02
U 1 1 616DAAF0
P 7300 3100
F 0 "#FLG02" H 7300 3175 50  0001 C CNN
F 1 "PWR_FLAG" H 7300 3273 50  0000 C CNN
F 2 "" H 7300 3100 50  0001 C CNN
F 3 "~" H 7300 3100 50  0001 C CNN
	1    7300 3100
	1    0    0    -1  
$EndComp
$Comp
L power:GND #PWR06
U 1 1 616DB116
P 6900 3250
F 0 "#PWR06" H 6900 3000 50  0001 C CNN
F 1 "GND" H 6905 3077 50  0000 C CNN
F 2 "" H 6900 3250 50  0001 C CNN
F 3 "" H 6900 3250 50  0001 C CNN
	1    6900 3250
	1    0    0    -1  
$EndComp
$Comp
L power:VCC #PWR07
U 1 1 616DB75F
P 7300 3250
F 0 "#PWR07" H 7300 3100 50  0001 C CNN
F 1 "VCC" H 7315 3423 50  0000 C CNN
F 2 "" H 7300 3250 50  0001 C CNN
F 3 "" H 7300 3250 50  0001 C CNN
	1    7300 3250
	-1   0    0    1   
$EndComp
Wire Wire Line
	6900 3150 6900 3250
Text Notes 4000 2550 0    50   ~ 0
Комментарий\nна\nчетыре\nстроки\n
Wire Wire Line
	7300 3250 7300 3100
$EndSCHEMATC
