EESchema Schematic File Version 4
EELAYER 30 0
EELAYER END
$Descr A3 16535 11693
encoding utf-8
Sheet 1 1
Title "Урок 1"
Date ""
Rev ""
Comp "ИУ6-72Б"
Comment1 ""
Comment2 "Аганова А.В."
Comment3 ""
Comment4 ""
$EndDescr
$Comp
L Device:R R1
U 1 1 617CEC2A
P 9950 3550
F 0 "R1" H 10020 3596 50  0000 L CNN
F 1 "1 k" H 10020 3505 50  0000 L CNN
F 2 "" V 9880 3550 50  0001 C CNN
F 3 "~" H 9950 3550 50  0001 C CNN
	1    9950 3550
	0    -1   -1   0   
$EndComp
$Comp
L Device:R R2
U 1 1 617CFBB1
P 10150 5100
F 0 "R2" V 9943 5100 50  0000 C CNN
F 1 "100" V 10034 5100 50  0000 C CNN
F 2 "" V 10080 5100 50  0001 C CNN
F 3 "~" H 10150 5100 50  0001 C CNN
	1    10150 5100
	0    1    1    0   
$EndComp
$Comp
L MCU_Microchip_PIC12:PIC12C508A-ISN U1
U 1 1 617D0CAE
P 8200 4100
F 0 "U1" H 8650 4750 50  0000 C CNN
F 1 "PIC12C508A-ISN" H 8650 4600 50  0000 C CNN
F 2 "Package_DIP:DIP-8_W7.62mm" H 8800 4750 50  0001 C CNN
F 3 "http://ww1.microchip.com/downloads/en/devicedoc/40139e.pdf" H 8200 4100 50  0001 C CNN
	1    8200 4100
	-1   0    0    -1  
$EndComp
$Comp
L Device:LED D1
U 1 1 617D18B6
P 9550 3550
F 0 "D1" H 9543 3767 50  0000 C CNN
F 1 "LED" H 9543 3676 50  0000 C CNN
F 2 "" H 9550 3550 50  0001 C CNN
F 3 "~" H 9550 3550 50  0001 C CNN
	1    9550 3550
	1    0    0    -1  
$EndComp
$Comp
L New_Library:MYCONN3 J1
U 1 1 617D9C5A
P 9200 5100
F 0 "J1" H 9150 4900 50  0000 C CNN
F 1 "MYCONN3" H 9183 5334 50  0000 C CNN
F 2 "" H 9150 4900 50  0001 C CNN
F 3 "" H 9150 4900 50  0001 C CNN
	1    9200 5100
	1    0    0    -1  
$EndComp
$Comp
L power:VCC #PWR05
U 1 1 617DA65F
P 9400 5000
F 0 "#PWR05" H 9400 4850 50  0001 C CNN
F 1 "VCC" H 9415 5173 50  0000 C CNN
F 2 "" H 9400 5000 50  0001 C CNN
F 3 "" H 9400 5000 50  0001 C CNN
	1    9400 5000
	1    0    0    -1  
$EndComp
$Comp
L power:VCC #PWR01
U 1 1 617DB224
P 8200 3500
F 0 "#PWR01" H 8200 3350 50  0001 C CNN
F 1 "VCC" H 8215 3673 50  0000 C CNN
F 2 "" H 8200 3500 50  0001 C CNN
F 3 "" H 8200 3500 50  0001 C CNN
	1    8200 3500
	1    0    0    -1  
$EndComp
$Comp
L power:GND #PWR02
U 1 1 617DD916
P 8200 4700
F 0 "#PWR02" H 8200 4450 50  0001 C CNN
F 1 "GND" H 8205 4527 50  0000 C CNN
F 2 "" H 8200 4700 50  0001 C CNN
F 3 "" H 8200 4700 50  0001 C CNN
	1    8200 4700
	1    0    0    -1  
$EndComp
$Comp
L power:GND #PWR06
U 1 1 617DED8B
P 9400 5200
F 0 "#PWR06" H 9400 4950 50  0001 C CNN
F 1 "GND" H 9405 5027 50  0000 C CNN
F 2 "" H 9400 5200 50  0001 C CNN
F 3 "" H 9400 5200 50  0001 C CNN
	1    9400 5200
	1    0    0    -1  
$EndComp
$Comp
L power:VCC #PWR07
U 1 1 617DF553
P 10450 3300
F 0 "#PWR07" H 10450 3150 50  0001 C CNN
F 1 "VCC" H 10465 3473 50  0000 C CNN
F 2 "" H 10450 3300 50  0001 C CNN
F 3 "" H 10450 3300 50  0001 C CNN
	1    10450 3300
	1    0    0    -1  
$EndComp
Wire Wire Line
	8800 4000 9100 4000
Wire Wire Line
	9100 4000 9100 3550
Wire Wire Line
	9100 3550 9400 3550
Wire Wire Line
	9400 5100 10000 5100
Wire Wire Line
	9700 3550 9800 3550
Wire Wire Line
	10100 3550 10450 3550
Wire Wire Line
	10450 3550 10450 3300
Wire Wire Line
	8800 4100 9600 4100
Wire Wire Line
	10300 5100 10650 5100
Text Label 9600 4100 0    50   ~ 0
INPUT
Text Label 10650 5100 0    50   ~ 0
INPUT
Text Label 9100 3850 0    50   ~ 0
uCtoLED
Text Label 9750 3550 3    50   ~ 0
LEDtoR
Text Label 9600 5100 0    50   ~ 0
INPUTtoR
NoConn ~ 8800 4200
NoConn ~ 7600 4000
NoConn ~ 7600 4100
NoConn ~ 7600 4200
$Comp
L power:PWR_FLAG #FLG01
U 1 1 617E1E39
P 8250 5150
F 0 "#FLG01" H 8250 5225 50  0001 C CNN
F 1 "PWR_FLAG" H 8250 5323 50  0000 C CNN
F 2 "" H 8250 5150 50  0001 C CNN
F 3 "~" H 8250 5150 50  0001 C CNN
	1    8250 5150
	1    0    0    -1  
$EndComp
$Comp
L power:PWR_FLAG #FLG02
U 1 1 617E2749
P 8650 5150
F 0 "#FLG02" H 8650 5225 50  0001 C CNN
F 1 "PWR_FLAG" H 8650 5323 50  0000 C CNN
F 2 "" H 8650 5150 50  0001 C CNN
F 3 "~" H 8650 5150 50  0001 C CNN
	1    8650 5150
	1    0    0    -1  
$EndComp
$Comp
L power:VCC #PWR04
U 1 1 617E2EF4
P 8650 5300
F 0 "#PWR04" H 8650 5150 50  0001 C CNN
F 1 "VCC" H 8665 5473 50  0000 C CNN
F 2 "" H 8650 5300 50  0001 C CNN
F 3 "" H 8650 5300 50  0001 C CNN
	1    8650 5300
	-1   0    0    1   
$EndComp
$Comp
L power:GND #PWR03
U 1 1 617E386A
P 8250 5300
F 0 "#PWR03" H 8250 5050 50  0001 C CNN
F 1 "GND" H 8255 5127 50  0000 C CNN
F 2 "" H 8250 5300 50  0001 C CNN
F 3 "" H 8250 5300 50  0001 C CNN
	1    8250 5300
	1    0    0    -1  
$EndComp
Wire Wire Line
	8250 5150 8250 5300
Wire Wire Line
	8650 5150 8650 5300
Text Notes 10050 5600 0    50   ~ 0
Аганова ИУ6-72Б
$EndSCHEMATC
