EESchema Schematic File Version 4
EELAYER 30 0
EELAYER END
$Descr A4 11693 8268
encoding utf-8
Sheet 1 1
Title ""
Date ""
Rev ""
Comp ""
Comment1 ""
Comment2 ""
Comment3 ""
Comment4 ""
$EndDescr
$Comp
L MCU_Microchip_ATmega:ATmega8515-16AU DD1
U 1 1 61A9EE55
P 5000 3250
F 0 "DD1" H 4550 5250 50  0000 C CNN
F 1 "ATmega8515-16AU" H 5450 5250 50  0000 C CNN
F 2 "Package_QFP:TQFP-44_10x10mm_P0.8mm" H 5000 3250 50  0001 C CIN
F 3 "http://ww1.microchip.com/downloads/en/DeviceDoc/doc2512.pdf" H 5000 3250 50  0001 C CNN
	1    5000 3250
	1    0    0    -1  
$EndComp
$Comp
L lab4:MPW-2R XP3
U 1 1 61B2D7A8
P 4250 6500
F 0 "XP3" H 4050 6400 50  0000 C CNN
F 1 "MPW-2R" H 4400 6400 50  0000 C CNN
F 2 "Connector:Banana_Jack_2Pin" H 4250 6500 50  0001 C CNN
F 3 "" H 4250 6500 50  0001 C CNN
F 4 "12V" H 4400 6200 50  0000 C CNN "Power Value"
	1    4250 6500
	1    0    0    -1  
$EndComp
$Comp
L power:GND #PWR0112
U 1 1 61B32F19
P 5400 7250
F 0 "#PWR0112" H 5400 7000 50  0001 C CNN
F 1 "GND" H 5405 7077 50  0000 C CNN
F 2 "" H 5400 7250 50  0001 C CNN
F 3 "" H 5400 7250 50  0001 C CNN
	1    5400 7250
	1    0    0    -1  
$EndComp
Wire Wire Line
	4650 6900 4800 6900
Wire Bus Line
	3600 5450 6250 5450
Wire Bus Line
	6250 900  3900 900 
$Comp
L lab4:IDC-06MS XP1
U 1 1 61B3CE8F
P 2750 5200
F 0 "XP1" H 2500 5100 50  0000 C CNN
F 1 "IDC-06MS" H 2900 5100 50  0000 C CNN
F 2 "Connector_Dsub:DSUB-9_Female_Horizontal_P2.77x2.54mm_EdgePinOffset9.40mm" H 2750 5200 50  0001 C CNN
F 3 "" H 2750 5200 50  0001 C CNN
	1    2750 5200
	1    0    0    -1  
$EndComp
$Comp
L power:VCC #PWR0115
U 1 1 61B47518
P 3300 5500
F 0 "#PWR0115" H 3300 5350 50  0001 C CNN
F 1 "VCC" V 3315 5628 50  0000 L CNN
F 2 "" H 3300 5500 50  0001 C CNN
F 3 "" H 3300 5500 50  0001 C CNN
	1    3300 5500
	0    1    1    0   
$EndComp
Wire Wire Line
	3150 5500 3250 5500
$Comp
L power:GND #PWR0116
U 1 1 61B49064
P 3250 6100
F 0 "#PWR0116" H 3250 5850 50  0001 C CNN
F 1 "GND" H 3255 5927 50  0000 C CNN
F 2 "" H 3250 6100 50  0001 C CNN
F 3 "" H 3250 6100 50  0001 C CNN
	1    3250 6100
	1    0    0    -1  
$EndComp
Wire Wire Line
	3150 6000 3250 6000
Wire Wire Line
	3250 6000 3250 6100
Entry Wire Line
	3500 5600 3600 5700
Entry Wire Line
	3500 5700 3600 5800
Entry Wire Line
	3500 5800 3600 5900
Entry Wire Line
	3500 5900 3600 6000
Wire Wire Line
	3150 5600 3500 5600
Wire Wire Line
	3150 5700 3500 5700
Wire Wire Line
	3150 5800 3500 5800
Wire Wire Line
	3150 5900 3500 5900
Text Label 3200 5600 0    50   ~ 0
MISO
Text Label 3200 5700 0    50   ~ 0
SCK
Text Label 3200 5800 0    50   ~ 0
MOSI
Text Label 3200 5900 0    50   ~ 0
RESET
Entry Wire Line
	6150 1550 6250 1650
Entry Wire Line
	6150 1650 6250 1750
Entry Wire Line
	6150 1750 6250 1850
Entry Wire Line
	6150 1850 6250 1950
Wire Wire Line
	5600 1550 6150 1550
Wire Wire Line
	5600 1650 6150 1650
Wire Wire Line
	5600 1750 6150 1750
Wire Wire Line
	5600 1850 6150 1850
Text Label 5900 1550 0    50   ~ 0
M1
Text Label 5900 1650 0    50   ~ 0
M2
Text Label 5900 1750 0    50   ~ 0
M3
Text Label 5900 1850 0    50   ~ 0
M4
Entry Wire Line
	6150 2950 6250 3050
Entry Wire Line
	6150 3050 6250 3150
Entry Wire Line
	6150 3150 6250 3250
Wire Wire Line
	5600 2950 6150 2950
Wire Wire Line
	5600 3050 6150 3050
Wire Wire Line
	5600 3150 6150 3150
Text Label 5800 2950 0    50   ~ 0
MOSI
Text Label 5800 3050 0    50   ~ 0
MISO
Text Label 5800 3150 0    50   ~ 0
SCK
Entry Wire Line
	4000 1550 3900 1650
Wire Wire Line
	4000 1550 4400 1550
Text Label 4000 1550 0    50   ~ 0
RESET
$Comp
L Device:Resonator ZQ2
U 1 1 61B67CDB
P 4250 1950
F 0 "ZQ2" V 4050 1800 50  0000 L CNN
F 1 "Resonator" V 4450 1750 50  0000 L CNN
F 2 "Crystal:Crystal_HC49-U-3Pin_Vertical" H 4225 1950 50  0001 C CNN
F 3 "~" H 4225 1950 50  0001 C CNN
	1    4250 1950
	0    1    1    0   
$EndComp
Wire Wire Line
	4250 2100 4400 2100
$Comp
L power:GND #PWR0117
U 1 1 61B67CE3
P 4050 1950
F 0 "#PWR0117" H 4050 1700 50  0001 C CNN
F 1 "GND" V 3950 1950 50  0000 R CNN
F 2 "" H 4050 1950 50  0001 C CNN
F 3 "" H 4050 1950 50  0001 C CNN
	1    4050 1950
	0    1    1    0   
$EndComp
Wire Wire Line
	4250 1800 4250 1750
Wire Wire Line
	4250 1750 4400 1750
Wire Wire Line
	4400 2100 4400 1950
$Comp
L Transistor_Array:ULN2003 DD2
U 1 1 61B866C5
P 3250 2900
F 0 "DD2" H 3500 3450 50  0000 C CNN
F 1 "ULN2003" H 3100 3450 50  0000 C CNN
F 2 "Package_DIP:DIP-16_W7.62mm" H 3300 2350 50  0001 L CNN
F 3 "http://www.ti.com/lit/ds/symlink/uln2003a.pdf" H 3350 2700 50  0001 C CNN
	1    3250 2900
	-1   0    0    -1  
$EndComp
$Comp
L power:GND #PWR0118
U 1 1 61B8CF00
P 3250 3650
F 0 "#PWR0118" H 3250 3400 50  0001 C CNN
F 1 "GND" H 3255 3477 50  0000 C CNN
F 2 "" H 3250 3650 50  0001 C CNN
F 3 "" H 3250 3650 50  0001 C CNN
	1    3250 3650
	1    0    0    -1  
$EndComp
Wire Wire Line
	3250 3650 3250 3500
Entry Wire Line
	3800 2700 3900 2800
Entry Wire Line
	3800 2800 3900 2900
Entry Wire Line
	3800 2900 3900 3000
Entry Wire Line
	3800 3000 3900 3100
Wire Wire Line
	3650 2700 3800 2700
Wire Wire Line
	3650 2800 3800 2800
Wire Wire Line
	3650 2900 3800 2900
Wire Wire Line
	3650 3000 3800 3000
Text Label 3700 2700 0    50   ~ 0
M1
Text Label 3700 2800 0    50   ~ 0
M2
Text Label 3700 2900 0    50   ~ 0
M3
Text Label 3700 3000 0    50   ~ 0
M4
$Comp
L Motor:Stepper_Motor_bipolar M1
U 1 1 61B9B110
P 2800 4100
F 0 "M1" V 3050 4200 50  0000 R CNN
F 1 "28BYJ-48" V 2750 3900 50  0000 R CNN
F 2 "Connector_PinSocket_2.54mm:PinSocket_1x05_P2.54mm_Horizontal" H 2810 4090 50  0001 C CNN
F 3 "http://www.infineon.com/dgdl/Application-Note-TLE8110EE_driving_UniPolarStepperMotor_V1.1.pdf?fileId=db3a30431be39b97011be5d0aa0a00b0" H 2810 4090 50  0001 C CNN
	1    2800 4100
	0    -1   -1   0   
$EndComp
Wire Wire Line
	2850 2700 2500 2700
Wire Wire Line
	2500 2700 2500 4000
Wire Wire Line
	2850 2800 2400 2800
Wire Wire Line
	2400 2800 2400 4200
Wire Wire Line
	2400 4200 2500 4200
Wire Wire Line
	2850 2900 2300 2900
Wire Wire Line
	2300 2900 2300 4400
Wire Wire Line
	2300 4400 2700 4400
Wire Wire Line
	2850 3000 2200 3000
Wire Wire Line
	2200 3000 2200 4500
Wire Wire Line
	2200 4500 2900 4500
Wire Wire Line
	2900 4500 2900 4400
$Comp
L Interface_Optical:TSOP45xx VD1
U 1 1 61BB70F9
P 1950 1000
F 0 "VD1" H 1600 1300 50  0000 C CNN
F 1 "TSOP45xx" H 2050 1300 50  0000 C CNN
F 2 "OptoDevice:Vishay_MOLD-3Pin" H 1900 625 50  0001 C CNN
F 3 "http://www.vishay.com/docs/82460/tsop45.pdf" H 2600 1300 50  0001 C CNN
	1    1950 1000
	1    0    0    -1  
$EndComp
$Comp
L power:GND #PWR0119
U 1 1 61BC879A
P 2950 1000
F 0 "#PWR0119" H 2950 750 50  0001 C CNN
F 1 "GND" V 2955 872 50  0000 R CNN
F 2 "" H 2950 1000 50  0001 C CNN
F 3 "" H 2950 1000 50  0001 C CNN
	1    2950 1000
	0    -1   -1   0   
$EndComp
Wire Wire Line
	2650 1000 2950 1000
Wire Wire Line
	2350 1200 2650 1200
Wire Wire Line
	2650 1200 2650 1000
Wire Wire Line
	2350 1000 2500 1000
Wire Wire Line
	2500 1000 2500 1350
Wire Wire Line
	2500 1350 3800 1350
Entry Wire Line
	3800 1350 3900 1450
Text Label 3350 1350 0    50   ~ 0
RX
Entry Wire Line
	6150 4250 6250 4350
Wire Wire Line
	6150 4250 5600 4250
$Comp
L power:GND #PWR0121
U 1 1 61BF62C9
P 5000 5250
F 0 "#PWR0121" H 5000 5000 50  0001 C CNN
F 1 "GND" H 5005 5077 50  0000 C CNN
F 2 "" H 5000 5250 50  0001 C CNN
F 3 "" H 5000 5250 50  0001 C CNN
	1    5000 5250
	1    0    0    -1  
$EndComp
$Comp
L power:VCC #PWR0122
U 1 1 61BFB4C6
P 5000 1100
F 0 "#PWR0122" H 5000 950 50  0001 C CNN
F 1 "VCC" H 5015 1273 50  0000 C CNN
F 2 "" H 5000 1100 50  0001 C CNN
F 3 "" H 5000 1100 50  0001 C CNN
	1    5000 1100
	1    0    0    -1  
$EndComp
Text Label 5900 4250 0    50   ~ 0
RX
NoConn ~ 3650 3100
NoConn ~ 3650 3200
NoConn ~ 3650 3300
NoConn ~ 2850 3100
NoConn ~ 2850 3200
NoConn ~ 2850 3300
NoConn ~ 2850 2500
NoConn ~ 5600 1950
NoConn ~ 5600 2050
NoConn ~ 5600 2150
NoConn ~ 5600 2250
NoConn ~ 5600 2450
NoConn ~ 5600 2550
NoConn ~ 5600 2650
NoConn ~ 5600 2750
NoConn ~ 5600 2850
NoConn ~ 5600 3350
NoConn ~ 5600 3450
NoConn ~ 5600 3550
NoConn ~ 5600 3650
NoConn ~ 5600 3750
NoConn ~ 5600 3850
NoConn ~ 5600 3950
NoConn ~ 5600 4050
NoConn ~ 5600 4350
NoConn ~ 5600 4450
NoConn ~ 5600 4550
NoConn ~ 5600 4650
NoConn ~ 5600 4750
NoConn ~ 5600 4850
NoConn ~ 5600 4950
NoConn ~ 4400 4250
NoConn ~ 4400 4350
NoConn ~ 4400 4450
NoConn ~ 8200 2600
$Comp
L power:PWR_FLAG #FLG0102
U 1 1 61CFE4A2
P 7050 3600
F 0 "#FLG0102" H 7050 3675 50  0001 C CNN
F 1 "PWR_FLAG" H 7050 3773 50  0000 C CNN
F 2 "" H 7050 3600 50  0001 C CNN
F 3 "~" H 7050 3600 50  0001 C CNN
	1    7050 3600
	1    0    0    -1  
$EndComp
$Comp
L power:GND #PWR0124
U 1 1 61CFF109
P 7050 3900
F 0 "#PWR0124" H 7050 3650 50  0001 C CNN
F 1 "GND" H 7055 3727 50  0000 C CNN
F 2 "" H 7050 3900 50  0001 C CNN
F 3 "" H 7050 3900 50  0001 C CNN
	1    7050 3900
	1    0    0    -1  
$EndComp
Wire Wire Line
	7050 3600 7050 3900
Wire Wire Line
	2350 800  2500 800 
Wire Wire Line
	2500 800  2500 700 
$Comp
L power:VCC #PWR0120
U 1 1 61D26ABB
P 2500 700
F 0 "#PWR0120" H 2500 550 50  0001 C CNN
F 1 "VCC" H 2515 873 50  0000 C CNN
F 2 "" H 2500 700 50  0001 C CNN
F 3 "" H 2500 700 50  0001 C CNN
	1    2500 700 
	1    0    0    -1  
$EndComp
$Comp
L Device:C C1
U 1 1 61B51659
P 2750 800
F 0 "C1" V 2600 700 50  0000 C CNN
F 1 "0.1m" V 2650 950 50  0000 C CNN
F 2 "Capacitor_SMD:C_0805_2012Metric" H 2788 650 50  0001 C CNN
F 3 "~" H 2750 800 50  0001 C CNN
	1    2750 800 
	0    1    1    0   
$EndComp
$Comp
L power:GND #PWR0127
U 1 1 61B5264C
P 3050 800
F 0 "#PWR0127" H 3050 550 50  0001 C CNN
F 1 "GND" V 3055 672 50  0000 R CNN
F 2 "" H 3050 800 50  0001 C CNN
F 3 "" H 3050 800 50  0001 C CNN
	1    3050 800 
	0    -1   -1   0   
$EndComp
Wire Wire Line
	2600 800  2500 800 
Connection ~ 2500 800 
Wire Wire Line
	2900 800  3050 800 
$Comp
L power:GND #PWR0128
U 1 1 61B5CF1D
P 3250 5150
F 0 "#PWR0128" H 3250 4900 50  0001 C CNN
F 1 "GND" H 3255 4977 50  0000 C CNN
F 2 "" H 3250 5150 50  0001 C CNN
F 3 "" H 3250 5150 50  0001 C CNN
	1    3250 5150
	-1   0    0    1   
$EndComp
$Comp
L Device:C C3
U 1 1 61B5D566
P 3250 5300
F 0 "C3" H 3365 5346 50  0000 L CNN
F 1 "0.1m" H 3365 5255 50  0000 L CNN
F 2 "Capacitor_SMD:C_0805_2012Metric" H 3288 5150 50  0001 C CNN
F 3 "~" H 3250 5300 50  0001 C CNN
	1    3250 5300
	1    0    0    -1  
$EndComp
Wire Wire Line
	3250 5450 3250 5500
Connection ~ 3250 5500
Wire Wire Line
	3250 5500 3300 5500
Wire Wire Line
	5000 1100 5000 1150
$Comp
L power:GND #PWR0133
U 1 1 61B95C88
P 5750 1150
F 0 "#PWR0133" H 5750 900 50  0001 C CNN
F 1 "GND" V 5755 1022 50  0000 R CNN
F 2 "" H 5750 1150 50  0001 C CNN
F 3 "" H 5750 1150 50  0001 C CNN
	1    5750 1150
	0    -1   -1   0   
$EndComp
$Comp
L Device:C C2
U 1 1 61B9662F
P 5350 1150
F 0 "C2" V 5250 1000 50  0000 C CNN
F 1 "0.1m" V 5250 1300 50  0000 C CNN
F 2 "Capacitor_SMD:C_0805_2012Metric" H 5388 1000 50  0001 C CNN
F 3 "~" H 5350 1150 50  0001 C CNN
	1    5350 1150
	0    1    1    0   
$EndComp
Wire Wire Line
	5200 1150 5000 1150
Connection ~ 5000 1150
Wire Wire Line
	5000 1150 5000 1250
Wire Wire Line
	5500 1150 5750 1150
Wire Wire Line
	5400 7100 5400 7200
Wire Wire Line
	4800 7200 5000 7200
Wire Wire Line
	4800 6900 4800 7200
Connection ~ 5400 7200
Wire Wire Line
	5400 7200 5400 7250
Wire Wire Line
	5400 7200 5800 7200
Wire Wire Line
	5000 6850 5000 6800
Connection ~ 5000 6800
Wire Wire Line
	5000 6800 5100 6800
Wire Wire Line
	5000 7150 5000 7200
Connection ~ 5000 7200
Wire Wire Line
	5000 7200 5400 7200
Wire Wire Line
	5800 6850 5800 6800
Connection ~ 5800 6800
Wire Wire Line
	5800 6800 5700 6800
Wire Wire Line
	5800 7150 5800 7200
Wire Wire Line
	5800 6800 6250 6800
$Comp
L power:VCC #PWR0136
U 1 1 61D38D2F
P 6250 6800
F 0 "#PWR0136" H 6250 6650 50  0001 C CNN
F 1 "VCC" V 6265 6928 50  0000 L CNN
F 2 "" H 6250 6800 50  0001 C CNN
F 3 "" H 6250 6800 50  0001 C CNN
	1    6250 6800
	0    1    1    0   
$EndComp
$Comp
L Regulator_Linear:LM7812_TO220 U1
U 1 1 61CD6B92
P 5400 6800
F 0 "U1" H 5400 7042 50  0000 C CNN
F 1 "LM7812_TO220" H 5400 6951 50  0000 C CNN
F 2 "Package_TO_SOT_THT:TO-220-3_Vertical" H 5400 7025 50  0001 C CIN
F 3 "https://www.onsemi.cn/PowerSolutions/document/MC7800-D.PDF" H 5400 6750 50  0001 C CNN
	1    5400 6800
	1    0    0    -1  
$EndComp
$Comp
L Device:C C4
U 1 1 61C3A37D
P 5000 7000
F 0 "C4" H 5050 7100 50  0000 L CNN
F 1 "0.33uF" H 5050 6900 50  0000 L CNN
F 2 "Capacitor_SMD:C_0805_2012Metric" H 5038 6850 50  0001 C CNN
F 3 "~" H 5000 7000 50  0001 C CNN
	1    5000 7000
	1    0    0    -1  
$EndComp
$Comp
L Device:C C5
U 1 1 61C3A951
P 5800 7000
F 0 "C5" H 5915 7046 50  0000 L CNN
F 1 "0.1uF" H 5915 6955 50  0000 L CNN
F 2 "Capacitor_SMD:C_0805_2012Metric" H 5838 6850 50  0001 C CNN
F 3 "~" H 5800 7000 50  0001 C CNN
	1    5800 7000
	1    0    0    -1  
$EndComp
Wire Bus Line
	3600 5450 3600 6150
Wire Bus Line
	3900 900  3900 3700
Wire Bus Line
	6250 900  6250 5450
Wire Wire Line
	4650 6800 5000 6800
$EndSCHEMATC
