EESchema Schematic File Version 4
EELAYER 30 0
EELAYER END
$Descr A3 16535 11693
encoding utf-8
Sheet 1 1
Title "Простая принципиальная схема"
Date ""
Rev ""
Comp "МГТУ им. Н.Э.Баумана\\nГруппа ИУ6И-71Б"
Comment1 "Лабораторная работа 3"
Comment2 "Нгуен Ань Ту"
Comment3 "Хохлов С. А."
Comment4 ""
$EndDescr
Wire Wire Line
	6500 6000 6500 6150
$Comp
L power:GND #PWR01
U 1 1 616A9F0F
P 6500 6150
F 0 "#PWR01" H 6500 5900 50  0001 C CNN
F 1 "GND" H 6505 5977 50  0000 C CNN
F 2 "" H 6500 6150 50  0001 C CNN
F 3 "" H 6500 6150 50  0001 C CNN
	1    6500 6150
	1    0    0    -1  
$EndComp
$Comp
L power:VCC #PWR02
U 1 1 616A6F14
P 6850 6000
F 0 "#PWR02" H 6850 5850 50  0001 C CNN
F 1 "VCC" H 6865 6173 50  0000 C CNN
F 2 "" H 6850 6000 50  0001 C CNN
F 3 "" H 6850 6000 50  0001 C CNN
	1    6850 6000
	1    0    0    -1  
$EndComp
$Comp
L power:PWR_FLAG #FLG01
U 1 1 616A69D1
P 6500 6000
F 0 "#FLG01" H 6500 6075 50  0001 C CNN
F 1 "PWR_FLAG" H 6500 6173 50  0000 C CNN
F 2 "" H 6500 6000 50  0001 C CNN
F 3 "~" H 6500 6000 50  0001 C CNN
	1    6500 6000
	1    0    0    -1  
$EndComp
$Comp
L power:PWR_FLAG #FLG02
U 1 1 616A6577
P 6850 6150
F 0 "#FLG02" H 6850 6225 50  0001 C CNN
F 1 "PWR_FLAG" H 6850 6323 50  0000 C CNN
F 2 "" H 6850 6150 50  0001 C CNN
F 3 "~" H 6850 6150 50  0001 C CNN
	1    6850 6150
	-1   0    0    1   
$EndComp
Text Label 10450 5950 0    50   ~ 0
INPUTtoR
Text Label 9850 3900 1    50   ~ 0
LEDtoR
Text Label 9100 4050 0    50   ~ 0
uCtoLED
Text Label 9300 4200 0    50   ~ 0
INPUT
Text Label 11350 5950 0    50   ~ 0
INPUT
Wire Wire Line
	11100 5950 11650 5950
Wire Wire Line
	10300 5950 10800 5950
Wire Wire Line
	9100 3900 9100 4100
Wire Wire Line
	9450 3900 9100 3900
Wire Wire Line
	10400 6050 10300 6050
Wire Wire Line
	10400 6150 10400 6050
Wire Wire Line
	10400 5850 10300 5850
Wire Wire Line
	10400 5700 10400 5850
Wire Wire Line
	9950 3900 9750 3900
Wire Wire Line
	10400 3900 10250 3900
Wire Wire Line
	10400 3700 10400 3900
$Comp
L power:GND #PWR06
U 1 1 6169F398
P 10400 6150
F 0 "#PWR06" H 10400 5900 50  0001 C CNN
F 1 "GND" H 10405 5977 50  0000 C CNN
F 2 "" H 10400 6150 50  0001 C CNN
F 3 "" H 10400 6150 50  0001 C CNN
	1    10400 6150
	1    0    0    -1  
$EndComp
$Comp
L power:GND #PWR04
U 1 1 6169EC9F
P 7950 5900
F 0 "#PWR04" H 7950 5650 50  0001 C CNN
F 1 "GND" H 7955 5727 50  0000 C CNN
F 2 "" H 7950 5900 50  0001 C CNN
F 3 "" H 7950 5900 50  0001 C CNN
	1    7950 5900
	1    0    0    -1  
$EndComp
$Comp
L power:VCC #PWR05
U 1 1 6169E6E1
P 10400 5700
F 0 "#PWR05" H 10400 5550 50  0001 C CNN
F 1 "VCC" H 10415 5873 50  0000 C CNN
F 2 "" H 10400 5700 50  0001 C CNN
F 3 "" H 10400 5700 50  0001 C CNN
	1    10400 5700
	1    0    0    -1  
$EndComp
$Comp
L power:VCC #PWR07
U 1 1 6169CF6E
P 10400 3700
F 0 "#PWR07" H 10400 3550 50  0001 C CNN
F 1 "VCC" H 10415 3873 50  0000 C CNN
F 2 "" H 10400 3700 50  0001 C CNN
F 3 "" H 10400 3700 50  0001 C CNN
	1    10400 3700
	1    0    0    -1  
$EndComp
$Comp
L Device:LED D1
U 1 1 61697C57
P 9600 3900
F 0 "D1" H 9593 4117 50  0000 C CNN
F 1 "LED" H 9593 4026 50  0000 C CNN
F 2 "LED_THT:LED_D5.0mm" H 9600 3900 50  0001 C CNN
F 3 "~" H 9600 3900 50  0001 C CNN
F 4 "Диоды" H 9600 3900 60  0001 C CNN "Группа"
	1    9600 3900
	1    0    0    -1  
$EndComp
$Comp
L Device:R R1
U 1 1 61696A41
P 10950 5950
F 0 "R1" V 11157 5950 50  0000 C CNN
F 1 "100" V 11066 5950 50  0000 C CNN
F 2 "Resistor_THT:R_Axial_DIN0207_L6.3mm_D2.5mm_P2.54mm_Vertical" V 10880 5950 50  0001 C CNN
F 3 "~" H 10950 5950 50  0001 C CNN
F 4 "Резисторы" H 10950 5950 60  0001 C CNN "Группа"
	1    10950 5950
	0    -1   -1   0   
$EndComp
$Comp
L Device:R R2
U 1 1 616965FF
P 10100 3900
F 0 "R2" V 9893 3900 50  0000 C CNN
F 1 "1k" V 9984 3900 50  0000 C CNN
F 2 "Resistor_THT:R_Axial_DIN0207_L6.3mm_D2.5mm_P2.54mm_Vertical" V 10030 3900 50  0001 C CNN
F 3 "~" H 10100 3900 50  0001 C CNN
	1    10100 3900
	0    1    1    0   
$EndComp
Wire Wire Line
	6850 6000 6850 6150
$Comp
L myLib:ConnectorGOST X1
U 1 1 61731764
P 10050 5950
F 0 "X1" H 9950 6250 50  0000 C CNN
F 1 "ConnectorGOST" H 10600 6250 50  0000 C CNN
F 2 "Connector:Banana_Jack_3Pin" H 10050 5950 50  0001 C CNN
F 3 "" H 10050 5950 50  0001 C CNN
	1    10050 5950
	-1   0    0    -1  
$EndComp
Wire Wire Line
	8750 4100 9100 4100
Wire Wire Line
	8750 4200 9600 4200
Wire Wire Line
	7950 5900 7950 5800
$Comp
L power:VCC #PWR03
U 1 1 6169A55D
P 7950 3650
F 0 "#PWR03" H 7950 3500 50  0001 C CNN
F 1 "VCC" H 7965 3823 50  0000 C CNN
F 2 "" H 7950 3650 50  0001 C CNN
F 3 "" H 7950 3650 50  0001 C CNN
	1    7950 3650
	1    0    0    -1  
$EndComp
$Comp
L MCU_Microchip_PIC16:PIC16F73-IML U1
U 1 1 617B13E8
P 7950 4800
F 0 "U1" H 7750 5800 50  0000 C CNN
F 1 "PIC16F73-IML" H 8400 5700 50  0000 C CNN
F 2 "Package_DFN_QFN:QFN-28-1EP_6x6mm_P0.65mm_EP4.25x4.25mm" H 7950 4800 50  0001 C CIN
F 3 "http://ww1.microchip.com/downloads/en/DeviceDoc/30325b.pdf" H 7950 4800 50  0001 C CNN
	1    7950 4800
	1    0    0    -1  
$EndComp
Wire Wire Line
	7950 3800 7950 3650
NoConn ~ 8750 4300
NoConn ~ 8750 4400
NoConn ~ 8750 4500
NoConn ~ 8750 4600
NoConn ~ 8750 4800
NoConn ~ 8750 4900
NoConn ~ 8750 5000
NoConn ~ 8750 5100
NoConn ~ 8750 5200
NoConn ~ 8750 5300
NoConn ~ 8750 5400
NoConn ~ 8750 5500
NoConn ~ 7150 5500
NoConn ~ 7150 5400
NoConn ~ 7150 5300
NoConn ~ 7150 5200
NoConn ~ 7150 5100
NoConn ~ 7150 5000
NoConn ~ 7150 4900
NoConn ~ 7150 4800
NoConn ~ 7150 4500
NoConn ~ 7150 4300
NoConn ~ 7150 4100
Wire Wire Line
	8050 5800 8050 5900
Wire Wire Line
	8050 5900 7950 5900
Connection ~ 7950 5900
$EndSCHEMATC
