EESchema Schematic File Version 4
EELAYER 30 0
EELAYER END
$Descr A3 16535 11693
encoding utf-8
Sheet 1 1
Title "Принципиальная схема"
Date "2021-11-26"
Rev ""
Comp "МГТУ им. Н.Э. Баумана Группа ИУ6-71Б"
Comment1 "Лабораторная работа 4"
Comment2 "В.П. Подлевский"
Comment3 "С.А. Хохлов"
Comment4 ""
$EndDescr
$Comp
L MCU_Microchip_ATmega:ATmega328P-PU U6
U 1 1 61A0BDEC
P 9900 4950
F 0 "U6" H 9900 6517 50  0000 C CNN
F 1 "ATmega328P-PU" H 9900 6426 50  0000 C CNN
F 2 "Package_DIP:DIP-28_W7.62mm" H 9800 5350 50  0001 C CIN
F 3 "http://ww1.microchip.com/downloads/en/DeviceDoc/ATmega328_P%20AVR%20MCU%20with%20picoPower%20Technology%20Data%20Sheet%2040001984A.pdf" H 9900 4950 50  0001 C CNN
	1    9900 4950
	1    0    0    -1  
$EndComp
$Comp
L MCU_Microchip_ATmega:ATmega16U2-MU U4
U 1 1 61A0CBFD
P 5700 4800
F 0 "U4" H 5700 3311 50  0000 C CNN
F 1 "ATmega16U2-MU" H 5700 3220 50  0000 C CNN
F 2 "Package_DFN_QFN:QFN-32-1EP_5x5mm_P0.5mm_EP3.1x3.1mm" H 5700 4800 50  0001 C CIN
F 3 "http://ww1.microchip.com/downloads/en/DeviceDoc/doc7799.pdf" H 5700 4800 50  0001 C CNN
	1    5700 4800
	1    0    0    -1  
$EndComp
$Comp
L Device:C C9
U 1 1 61A0E761
P 8100 3700
F 0 "C9" V 8352 3700 50  0000 C CNN
F 1 "100нФ" V 8261 3700 50  0000 C CNN
F 2 "" H 8138 3550 50  0001 C CNN
F 3 "~" H 8100 3700 50  0001 C CNN
	1    8100 3700
	0    -1   -1   0   
$EndComp
Wire Wire Line
	8250 3700 8600 3700
$Comp
L Device:R R15
U 1 1 61A0F740
P 8600 3450
F 0 "R15" H 8670 3496 50  0000 L CNN
F 1 "10k" H 8670 3405 50  0000 L CNN
F 2 "" V 8530 3450 50  0001 C CNN
F 3 "~" H 8600 3450 50  0001 C CNN
	1    8600 3450
	1    0    0    -1  
$EndComp
$Comp
L Device:D D7
U 1 1 61A10315
P 9050 3450
F 0 "D7" V 9004 3530 50  0000 L CNN
F 1 "D" V 9095 3530 50  0000 L CNN
F 2 "" H 9050 3450 50  0001 C CNN
F 3 "~" H 9050 3450 50  0001 C CNN
	1    9050 3450
	0    1    1    0   
$EndComp
Wire Wire Line
	9050 3600 9050 3700
Connection ~ 9050 3700
Wire Wire Line
	9050 3700 9250 3700
Wire Wire Line
	8600 3600 8600 3700
Connection ~ 8600 3700
Wire Wire Line
	8600 3700 9050 3700
Wire Wire Line
	8600 2700 8600 2900
Wire Wire Line
	9050 3300 9050 2900
Wire Wire Line
	9050 2900 8600 2900
Connection ~ 8600 2900
Wire Wire Line
	8600 2900 8600 3300
Wire Wire Line
	7950 3700 7450 3700
Wire Wire Line
	7450 3700 7450 4750
Wire Wire Line
	7450 5900 6400 5900
Wire Wire Line
	7000 4750 7450 4750
Connection ~ 7450 4750
Wire Wire Line
	7450 4750 7450 5900
Wire Wire Line
	8600 4400 9300 4400
Text Label 8600 4400 0    50   ~ 0
AREF
Text Label 8600 2700 0    50   ~ 0
A
Text Label 7000 5550 0    50   ~ 0
Б
Wire Wire Line
	7000 4750 7000 5150
Wire Wire Line
	7000 5450 7000 5550
$Comp
L Device:R R10
U 1 1 61A11DDC
P 7000 5300
F 0 "R10" H 7070 5346 50  0000 L CNN
F 1 "1k" H 7070 5255 50  0000 L CNN
F 2 "" V 6930 5300 50  0001 C CNN
F 3 "~" H 7000 5300 50  0001 C CNN
	1    7000 5300
	1    0    0    -1  
$EndComp
$Comp
L Device:R R16
U 1 1 61A135E3
P 9000 4100
F 0 "R16" H 9070 4146 50  0000 L CNN
F 1 "1M" H 9070 4055 50  0000 L CNN
F 2 "" V 8930 4100 50  0001 C CNN
F 3 "~" H 9000 4100 50  0001 C CNN
	1    9000 4100
	1    0    0    -1  
$EndComp
Wire Wire Line
	9300 4150 9300 4250
Wire Wire Line
	9300 4250 9000 4250
Wire Wire Line
	9300 4000 9250 4000
Wire Wire Line
	9250 4000 9250 3950
Wire Wire Line
	9250 3950 9000 3950
$Comp
L lab4_Lib:CSTE16MOV53-R0 ZQ1
U 1 1 61A166D2
P 8450 3900
F 0 "ZQ1" H 8450 4025 50  0000 C CNN
F 1 "CSTE16MOV53-R0" H 8450 3934 50  0000 C CNN
F 2 "" H 8450 3900 50  0001 C CNN
F 3 "" H 8450 3900 50  0001 C CNN
	1    8450 3900
	1    0    0    -1  
$EndComp
Wire Wire Line
	9000 4250 8750 4250
Wire Wire Line
	8750 4250 8750 4200
Connection ~ 9000 4250
Wire Wire Line
	9000 3950 8750 3950
Wire Wire Line
	8750 3950 8750 4000
Connection ~ 9000 3950
Wire Wire Line
	8150 4050 7950 4050
Text Label 7950 4050 0    50   ~ 0
Б
$Comp
L Device:C C10
U 1 1 61A18706
P 8500 5200
F 0 "C10" H 8615 5246 50  0000 L CNN
F 1 "100нФ" H 8615 5155 50  0000 L CNN
F 2 "" H 8538 5050 50  0001 C CNN
F 3 "~" H 8500 5200 50  0001 C CNN
	1    8500 5200
	1    0    0    -1  
$EndComp
Wire Wire Line
	9300 4500 8500 4500
Wire Wire Line
	8500 4500 8500 4750
Wire Wire Line
	9300 4750 8500 4750
Connection ~ 8500 4750
Wire Wire Line
	8500 4750 8500 5050
Wire Wire Line
	8500 4750 8200 4750
Wire Wire Line
	8500 5350 9150 5350
Connection ~ 9150 5350
Wire Wire Line
	9150 5350 9150 5650
Text Label 8200 4750 0    50   ~ 0
A
$Comp
L Device:R R11
U 1 1 61A1D09E
P 7850 6600
F 0 "R11" V 7643 6600 50  0000 C CNN
F 1 "1k" V 7734 6600 50  0000 C CNN
F 2 "" V 7780 6600 50  0001 C CNN
F 3 "~" H 7850 6600 50  0001 C CNN
	1    7850 6600
	0    1    1    0   
$EndComp
$Comp
L Device:R R12
U 1 1 61A1EE20
P 7850 6950
F 0 "R12" V 7643 6950 50  0000 C CNN
F 1 "1k" V 7734 6950 50  0000 C CNN
F 2 "" V 7780 6950 50  0001 C CNN
F 3 "~" H 7850 6950 50  0001 C CNN
	1    7850 6950
	0    1    1    0   
$EndComp
Wire Wire Line
	10500 5450 10750 5450
Wire Wire Line
	10750 5450 10750 6550
Wire Wire Line
	10750 6550 8000 6550
Wire Wire Line
	8000 6550 8000 6600
Wire Wire Line
	7700 6600 6700 6600
Wire Wire Line
	6700 6600 6700 5500
Wire Wire Line
	6700 5500 6400 5500
Wire Wire Line
	10500 5550 10650 5550
Wire Wire Line
	10650 5550 10650 6900
Wire Wire Line
	10650 6900 8000 6900
Wire Wire Line
	8000 6900 8000 6950
Wire Wire Line
	7700 6950 6600 6950
Wire Wire Line
	6600 6950 6600 5400
Wire Wire Line
	6600 5400 6400 5400
$Comp
L Device:Buzzer BZ1
U 1 1 61A2416D
P 11650 5650
F 0 "BZ1" H 11802 5679 50  0000 L CNN
F 1 "Buzzer" H 11802 5588 50  0000 L CNN
F 2 "" V 11625 5750 50  0001 C CNN
F 3 "~" V 11625 5750 50  0001 C CNN
	1    11650 5650
	1    0    0    -1  
$EndComp
$Comp
L Switch:SW_Push SW1
U 1 1 61A25BA8
P 9700 3000
F 0 "SW1" V 9654 3148 50  0000 L CNN
F 1 "SW_Push" V 9745 3148 50  0000 L CNN
F 2 "" H 9700 3200 50  0001 C CNN
F 3 "~" H 9700 3200 50  0001 C CNN
	1    9700 3000
	0    1    1    0   
$EndComp
Wire Wire Line
	9250 3700 9250 3300
Wire Wire Line
	9250 3300 9700 3300
Wire Wire Line
	9700 3300 9700 3200
Connection ~ 9250 3700
Wire Wire Line
	9250 3700 9300 3700
Wire Wire Line
	9700 2800 9700 2650
Wire Wire Line
	9700 2650 9500 2650
Text Label 9500 2650 0    50   ~ 0
Б
Wire Wire Line
	6400 4000 6700 4000
Wire Wire Line
	6400 3900 6700 3900
Wire Wire Line
	6400 3800 6700 3800
Text Label 6700 3800 0    50   ~ 0
SCK2
Text Label 6700 3900 0    50   ~ 0
MOSI2
Text Label 6700 4000 0    50   ~ 0
MISO2
$Comp
L Device:LED D5
U 1 1 61A2E522
P 7800 5600
F 0 "D5" H 7793 5817 50  0000 C CNN
F 1 "LED" H 7793 5726 50  0000 C CNN
F 2 "" H 7800 5600 50  0001 C CNN
F 3 "~" H 7800 5600 50  0001 C CNN
	1    7800 5600
	1    0    0    -1  
$EndComp
$Comp
L Device:LED D6
U 1 1 61A30A54
P 7800 5950
F 0 "D6" H 7793 6167 50  0000 C CNN
F 1 "LED" H 7793 6076 50  0000 C CNN
F 2 "" H 7800 5950 50  0001 C CNN
F 3 "~" H 7800 5950 50  0001 C CNN
	1    7800 5950
	1    0    0    -1  
$EndComp
$Comp
L Device:R R14
U 1 1 61A31C3A
P 8350 5600
F 0 "R14" V 8143 5600 50  0000 C CNN
F 1 "1k" V 8234 5600 50  0000 C CNN
F 2 "" V 8280 5600 50  0001 C CNN
F 3 "~" H 8350 5600 50  0001 C CNN
	1    8350 5600
	0    1    1    0   
$EndComp
$Comp
L Device:R R13
U 1 1 61A33A89
P 8300 5950
F 0 "R13" V 8093 5950 50  0000 C CNN
F 1 "1k" V 8184 5950 50  0000 C CNN
F 2 "" V 8230 5950 50  0001 C CNN
F 3 "~" H 8300 5950 50  0001 C CNN
	1    8300 5950
	0    1    1    0   
$EndComp
Wire Wire Line
	7950 5600 8200 5600
Wire Wire Line
	8150 5950 7950 5950
Wire Wire Line
	8500 5600 8650 5600
Wire Wire Line
	8450 5950 8650 5950
Wire Wire Line
	8650 5950 8650 5600
Connection ~ 8650 5600
Wire Wire Line
	8650 5600 8850 5600
Wire Wire Line
	7650 5600 6400 5600
Wire Wire Line
	7650 5950 7550 5950
Wire Wire Line
	7550 5950 7550 5700
Wire Wire Line
	7550 5700 6400 5700
Text Label 8850 5600 0    50   ~ 0
A
Wire Wire Line
	9700 3300 11450 3300
Wire Wire Line
	11450 3300 11450 2900
Wire Wire Line
	11450 2900 11150 2900
Connection ~ 9700 3300
Text Label 11150 2500 0    50   ~ 0
MISO
Text Label 11150 2600 0    50   ~ 0
A
Text Label 11150 2700 0    50   ~ 0
SCK
Text Label 11150 2800 0    50   ~ 0
MOSI
Wire Wire Line
	11550 5550 11400 5550
Wire Wire Line
	11400 5550 11400 5750
Wire Wire Line
	11400 5750 10500 5750
Wire Wire Line
	11550 5750 11550 5950
Text Label 11550 5950 0    50   ~ 0
Б
$Comp
L Device:C C6
U 1 1 61A59CF2
P 5700 3050
F 0 "C6" H 5815 3096 50  0000 L CNN
F 1 "100нФ" H 5815 3005 50  0000 L CNN
F 2 "" H 5738 2900 50  0001 C CNN
F 3 "~" H 5700 3050 50  0001 C CNN
	1    5700 3050
	1    0    0    -1  
$EndComp
Wire Wire Line
	5800 3400 6000 3400
Wire Wire Line
	6000 3400 6000 3300
Wire Wire Line
	5700 2900 5700 2750
Wire Wire Line
	5700 3300 6000 3300
Wire Wire Line
	5700 3300 5700 3200
Connection ~ 6000 3300
Wire Wire Line
	6000 3300 6000 2750
$Comp
L Device:R R6
U 1 1 61A6628A
P 4600 4000
F 0 "R6" H 4670 4046 50  0000 L CNN
F 1 "1M" H 4670 3955 50  0000 L CNN
F 2 "" V 4530 4000 50  0001 C CNN
F 3 "~" H 4600 4000 50  0001 C CNN
	1    4600 4000
	1    0    0    -1  
$EndComp
Wire Wire Line
	5000 4100 4800 4100
Wire Wire Line
	4800 4100 4800 4150
Wire Wire Line
	4800 4150 4600 4150
Wire Wire Line
	5000 3900 4800 3900
Wire Wire Line
	4800 3900 4800 3850
Wire Wire Line
	4800 3850 4600 3850
$Comp
L Device:Crystal Y1
U 1 1 61A715F1
P 4250 4000
F 0 "Y1" V 4204 4131 50  0000 L CNN
F 1 "16МГц" V 4295 4131 50  0000 L CNN
F 2 "" H 4250 4000 50  0001 C CNN
F 3 "~" H 4250 4000 50  0001 C CNN
	1    4250 4000
	0    1    1    0   
$EndComp
Wire Wire Line
	4250 3850 4600 3850
Connection ~ 4600 3850
Wire Wire Line
	4250 4150 4600 4150
Connection ~ 4600 4150
$Comp
L Device:C C2
U 1 1 61A7AA4B
P 3800 3850
F 0 "C2" V 3548 3850 50  0000 C CNN
F 1 "22пФ" V 3639 3850 50  0000 C CNN
F 2 "" H 3838 3700 50  0001 C CNN
F 3 "~" H 3800 3850 50  0001 C CNN
	1    3800 3850
	0    1    1    0   
$EndComp
$Comp
L Device:C C3
U 1 1 61A811CE
P 3800 4150
F 0 "C3" V 3548 4150 50  0000 C CNN
F 1 "22пФ" V 3639 4150 50  0000 C CNN
F 2 "" H 3838 4000 50  0001 C CNN
F 3 "~" H 3800 4150 50  0001 C CNN
	1    3800 4150
	0    1    1    0   
$EndComp
Wire Wire Line
	4250 3850 3950 3850
Connection ~ 4250 3850
Wire Wire Line
	4250 4150 3950 4150
Connection ~ 4250 4150
Wire Wire Line
	3650 3850 3650 4000
Wire Wire Line
	3650 4000 3500 4000
Connection ~ 3650 4000
Wire Wire Line
	3650 4000 3650 4150
Text Label 3500 4000 0    50   ~ 0
Б
$Comp
L lab4_Lib:XP1 XP2
U 1 1 61A96751
P 2900 3500
F 0 "XP2" H 2958 3923 50  0000 C CNN
F 1 "XP1" H 2900 3100 50  0001 C CNN
F 2 "" H 2900 3900 50  0001 C CNN
F 3 "" H 2900 3900 50  0001 C CNN
	1    2900 3500
	1    0    0    -1  
$EndComp
Wire Wire Line
	5000 3700 4300 3700
Text Label 3350 3600 0    50   ~ 0
MOSI2
Text Label 3350 3500 0    50   ~ 0
SCK2
Text Label 3350 3300 0    50   ~ 0
MISO2
$Comp
L Device:R R3
U 1 1 61A9FE03
P 3950 3550
F 0 "R3" H 4020 3596 50  0000 L CNN
F 1 "10k" H 4020 3505 50  0000 L CNN
F 2 "" V 3880 3550 50  0001 C CNN
F 3 "~" H 3950 3550 50  0001 C CNN
	1    3950 3550
	1    0    0    -1  
$EndComp
Connection ~ 3950 3700
Wire Wire Line
	3950 3700 3350 3700
Wire Wire Line
	3350 3400 3950 3400
$Comp
L Device:D D2
U 1 1 61AA43BD
P 4300 3550
F 0 "D2" V 4254 3630 50  0000 L CNN
F 1 "D" V 4345 3630 50  0000 L CNN
F 2 "" H 4300 3550 50  0001 C CNN
F 3 "~" H 4300 3550 50  0001 C CNN
	1    4300 3550
	0    1    1    0   
$EndComp
Connection ~ 4300 3700
Wire Wire Line
	4300 3700 3950 3700
Wire Wire Line
	4300 3400 3950 3400
Connection ~ 3950 3400
$Comp
L lab4_Lib:XP2 XP3
U 1 1 61AB4FEB
P 2900 4350
F 0 "XP3" H 2958 4723 50  0000 C CNN
F 1 "XP2" H 2900 4100 50  0001 C CNN
F 2 "" H 2900 4700 50  0001 C CNN
F 3 "" H 2900 4700 50  0001 C CNN
	1    2900 4350
	1    0    0    -1  
$EndComp
$Comp
L Device:R R1
U 1 1 61ABBDE1
P 3500 4300
F 0 "R1" V 3293 4300 50  0000 C CNN
F 1 "22" V 3384 4300 50  0000 C CNN
F 2 "" V 3430 4300 50  0001 C CNN
F 3 "~" H 3500 4300 50  0001 C CNN
	1    3500 4300
	0    1    1    0   
$EndComp
$Comp
L Device:R R2
U 1 1 61AC3AE9
P 3500 4400
F 0 "R2" V 3293 4400 50  0000 C CNN
F 1 "22" V 3384 4400 50  0000 C CNN
F 2 "" V 3430 4400 50  0001 C CNN
F 3 "~" H 3500 4400 50  0001 C CNN
	1    3500 4400
	0    1    1    0   
$EndComp
Wire Wire Line
	4300 4300 4300 4400
Wire Wire Line
	5000 4300 4300 4300
Wire Wire Line
	5000 4400 4500 4400
Wire Wire Line
	4500 4400 4500 4450
Wire Wire Line
	4500 4450 4000 4450
Wire Wire Line
	4000 4450 4000 4300
Wire Wire Line
	4000 4300 3650 4300
Wire Wire Line
	4250 4500 3350 4500
$Comp
L Device:C C4
U 1 1 61AD6EF9
P 4850 4600
F 0 "C4" V 4598 4600 50  0000 C CNN
F 1 "1мкФ" V 4689 4600 50  0000 C CNN
F 2 "" H 4888 4450 50  0001 C CNN
F 3 "~" H 4850 4600 50  0001 C CNN
	1    4850 4600
	0    1    1    0   
$EndComp
Wire Wire Line
	4700 4600 4700 5350
Wire Wire Line
	4700 5350 4250 5350
Connection ~ 4250 5350
Wire Wire Line
	4250 5350 4250 6200
Wire Wire Line
	4250 4500 4250 5100
Wire Wire Line
	4300 4400 3900 4400
$Comp
L Device:Varistor RV1
U 1 1 61AF0328
P 3700 4750
F 0 "RV1" H 3803 4796 50  0000 L CNN
F 1 "Varistor" H 3803 4705 50  0000 L CNN
F 2 "" V 3630 4750 50  0001 C CNN
F 3 "~" H 3700 4750 50  0001 C CNN
	1    3700 4750
	1    0    0    -1  
$EndComp
$Comp
L Device:Varistor RV2
U 1 1 61AF0836
P 3900 4750
F 0 "RV2" H 4003 4796 50  0000 L CNN
F 1 "Varistor" H 4003 4705 50  0000 L CNN
F 2 "" V 3830 4750 50  0001 C CNN
F 3 "~" H 3900 4750 50  0001 C CNN
	1    3900 4750
	1    0    0    -1  
$EndComp
Wire Wire Line
	3700 4600 3700 4400
Connection ~ 3700 4400
Wire Wire Line
	3700 4400 3650 4400
Wire Wire Line
	3900 4600 3900 4400
Connection ~ 3900 4400
Wire Wire Line
	3900 4400 3700 4400
Wire Wire Line
	3700 4900 3700 5100
Wire Wire Line
	3700 5100 3900 5100
Connection ~ 4250 5100
Wire Wire Line
	4250 5100 4250 5350
Wire Wire Line
	3900 4900 3900 5100
Connection ~ 3900 5100
Wire Wire Line
	3900 5100 4250 5100
$Comp
L Device:Fuse F1
U 1 1 61B06050
P 2400 3800
F 0 "F1" H 2460 3846 50  0000 L CNN
F 1 "Fuse" H 2460 3755 50  0000 L CNN
F 2 "" V 2330 3800 50  0001 C CNN
F 3 "~" H 2400 3800 50  0001 C CNN
	1    2400 3800
	1    0    0    -1  
$EndComp
Wire Wire Line
	5600 3400 5600 3000
Wire Wire Line
	5600 3000 3850 3000
Wire Wire Line
	2400 3000 2400 3650
Wire Wire Line
	2400 3950 3350 3950
Wire Wire Line
	3350 3950 3350 4200
Connection ~ 3850 3000
Wire Wire Line
	3850 3000 2400 3000
Text Label 3850 2800 0    50   ~ 0
USBVCC
Text Label 3350 3800 0    50   ~ 0
Б
$Comp
L lab4_Lib:XP3 XP1
U 1 1 61B2704F
P 2850 7200
F 0 "XP1" H 2908 7223 50  0000 C CNN
F 1 "XP3" H 2850 6800 50  0001 C CNN
F 2 "" H 2850 7200 50  0001 C CNN
F 3 "" H 2850 7200 50  0001 C CNN
	1    2850 7200
	1    0    0    -1  
$EndComp
$Comp
L Device:D D1
U 1 1 61B28501
P 3450 7400
F 0 "D1" H 3450 7183 50  0000 C CNN
F 1 "D" H 3450 7274 50  0000 C CNN
F 2 "" H 3450 7400 50  0001 C CNN
F 3 "~" H 3450 7400 50  0001 C CNN
	1    3450 7400
	-1   0    0    1   
$EndComp
$Comp
L Device:C C1
U 1 1 61B28C15
P 3600 7550
F 0 "C1" H 3715 7596 50  0000 L CNN
F 1 "47мкФ" H 3715 7505 50  0000 L CNN
F 2 "" H 3638 7400 50  0001 C CNN
F 3 "~" H 3600 7550 50  0001 C CNN
	1    3600 7550
	1    0    0    -1  
$EndComp
$Comp
L lab4_Lib:NCP1117ST50T3G U1
U 1 1 61B308C1
P 4550 7550
F 0 "U1" H 4550 7965 50  0000 C CNN
F 1 "NCP1117ST50T3G" H 4550 7874 50  0000 C CNN
F 2 "" H 4550 7925 50  0001 C CNN
F 3 "" H 4550 7925 50  0001 C CNN
	1    4550 7550
	1    0    0    -1  
$EndComp
Wire Wire Line
	3300 7500 3300 7700
Wire Wire Line
	3300 7700 3600 7700
Wire Wire Line
	3600 7400 4025 7400
Connection ~ 3600 7400
Wire Wire Line
	4975 7400 5375 7400
Wire Wire Line
	4975 7600 5375 7600
Wire Wire Line
	5375 7600 5375 7400
Connection ~ 5375 7400
$Comp
L Device:C C7
U 1 1 61B7102E
P 5875 7550
F 0 "C7" H 5990 7596 50  0000 L CNN
F 1 "100нФ" H 5990 7505 50  0000 L CNN
F 2 "" H 5913 7400 50  0001 C CNN
F 3 "~" H 5875 7550 50  0001 C CNN
	1    5875 7550
	1    0    0    -1  
$EndComp
Wire Wire Line
	3600 7700 3600 8000
Wire Wire Line
	3600 8000 5400 8000
Wire Wire Line
	5400 8000 5400 7700
Connection ~ 3600 7700
Connection ~ 5875 7700
Wire Wire Line
	5875 7700 6075 7700
Text Label 6250 7700 0    50   ~ 0
Б
Text Label 6250 7400 0    50   ~ 0
A
Text Notes 6350 7700 0    50   ~ 0
(Корпус)
Text Notes 6350 7400 0    50   ~ 0
(+5V)
$Comp
L Device:R R4
U 1 1 61B808AE
P 4025 8250
F 0 "R4" H 4095 8296 50  0000 L CNN
F 1 "10k" H 4095 8205 50  0000 L CNN
F 2 "" V 3955 8250 50  0001 C CNN
F 3 "~" H 4025 8250 50  0001 C CNN
	1    4025 8250
	1    0    0    -1  
$EndComp
$Comp
L Device:R R5
U 1 1 61B891A4
P 4025 8700
F 0 "R5" H 4095 8746 50  0000 L CNN
F 1 "10k" H 4095 8655 50  0000 L CNN
F 2 "" V 3955 8700 50  0001 C CNN
F 3 "~" H 4025 8700 50  0001 C CNN
	1    4025 8700
	1    0    0    -1  
$EndComp
Wire Wire Line
	4025 7400 4025 8100
Connection ~ 4025 7400
Wire Wire Line
	4025 7400 4125 7400
Wire Wire Line
	4025 8400 4025 8500
Wire Wire Line
	4025 8850 4025 9150
Text Label 4025 9150 0    50   ~ 0
Б
$Comp
L Amplifier_Operational:LM358 U2
U 1 1 61BB0FA0
P 4750 8600
F 0 "U2" H 4750 8967 50  0000 C CNN
F 1 "LM358" H 4750 8876 50  0000 C CNN
F 2 "" H 4750 8600 50  0001 C CNN
F 3 "http://www.ti.com/lit/ds/symlink/lm2904-n.pdf" H 4750 8600 50  0001 C CNN
	1    4750 8600
	1    0    0    -1  
$EndComp
Wire Wire Line
	4450 8500 4025 8500
Connection ~ 4025 8500
Wire Wire Line
	4025 8500 4025 8550
$Comp
L Regulator_Linear:LP2985-3.3 U5
U 1 1 61BBAAD7
P 6325 8975
F 0 "U5" H 6325 9317 50  0000 C CNN
F 1 "LP2985-3.3" H 6325 9226 50  0000 C CNN
F 2 "Package_TO_SOT_SMD:SOT-23-5" H 6325 9300 50  0001 C CNN
F 3 "http://www.ti.com/lit/ds/symlink/lp2985.pdf" H 6325 8975 50  0001 C CNN
	1    6325 8975
	1    0    0    -1  
$EndComp
$Comp
L Transistor_FET:AO3401A Q1
U 1 1 61BC3621
P 5375 8900
F 0 "Q1" V 5624 8900 50  0000 C CNN
F 1 "AO3401A" V 5715 8900 50  0000 C CNN
F 2 "Package_TO_SOT_SMD:SOT-23" H 5575 8825 50  0001 L CIN
F 3 "http://www.aosmd.com/pdfs/datasheet/AO3401A.pdf" H 5375 8900 50  0001 L CNN
	1    5375 8900
	0    -1   1    0   
$EndComp
Wire Wire Line
	5050 8600 5375 8600
Wire Wire Line
	5375 8600 5375 8700
Wire Wire Line
	5575 9000 5675 9000
Wire Wire Line
	5175 9000 5050 9000
Text Label 5050 9000 1    50   ~ 0
USBVCC
Wire Wire Line
	6725 8875 6900 8875
Text Label 7100 8875 0    50   ~ 0
B
Text Notes 7200 8875 0    50   ~ 0
(+3.3V)
$Comp
L Device:C C8
U 1 1 61C172E7
P 6300 8150
F 0 "C8" H 6415 8196 50  0000 L CNN
F 1 "1мкФ" H 6415 8105 50  0000 L CNN
F 2 "" H 6338 8000 50  0001 C CNN
F 3 "~" H 6300 8150 50  0001 C CNN
	1    6300 8150
	1    0    0    -1  
$EndComp
Wire Wire Line
	6900 8875 6900 8300
Wire Wire Line
	6900 8300 6300 8300
Connection ~ 6900 8875
Wire Wire Line
	6900 8875 6975 8875
Wire Wire Line
	6300 8000 6075 8000
Wire Wire Line
	6075 8000 6075 7700
Connection ~ 6075 7700
Wire Wire Line
	6075 7700 6250 7700
Wire Wire Line
	4450 8700 4450 9650
Wire Wire Line
	4450 9650 6975 9650
Wire Wire Line
	6975 9650 6975 8875
Connection ~ 6975 8875
Wire Wire Line
	6975 8875 7100 8875
$Comp
L Amplifier_Operational:LM358 U3
U 1 1 61C35379
P 4800 1450
F 0 "U3" H 4800 1817 50  0000 C CNN
F 1 "LM358" H 4800 1726 50  0000 C CNN
F 2 "" H 4800 1450 50  0001 C CNN
F 3 "http://www.ti.com/lit/ds/symlink/lm2904-n.pdf" H 4800 1450 50  0001 C CNN
	1    4800 1450
	1    0    0    -1  
$EndComp
$Comp
L Device:R R7
U 1 1 61C36F0E
P 5400 1675
F 0 "R7" H 5470 1721 50  0000 L CNN
F 1 "1k" H 5470 1630 50  0000 L CNN
F 2 "" V 5330 1675 50  0001 C CNN
F 3 "~" H 5400 1675 50  0001 C CNN
	1    5400 1675
	1    0    0    -1  
$EndComp
$Comp
L Device:LED D3
U 1 1 61C61B74
P 5400 1975
F 0 "D3" V 5439 1857 50  0000 R CNN
F 1 "LED" V 5348 1857 50  0000 R CNN
F 2 "" H 5400 1975 50  0001 C CNN
F 3 "~" H 5400 1975 50  0001 C CNN
	1    5400 1975
	0    -1   -1   0   
$EndComp
Wire Wire Line
	5100 1450 5125 1450
Wire Wire Line
	5400 1450 5400 1525
Wire Wire Line
	5400 2125 5400 2350
Wire Wire Line
	4500 1350 4225 1350
Wire Wire Line
	4500 1550 4300 1550
Wire Wire Line
	4300 1550 4300 1800
Wire Wire Line
	4300 1800 5125 1800
Wire Wire Line
	5125 1800 5125 1450
Connection ~ 5125 1450
Wire Wire Line
	5125 1450 5400 1450
Text Label 4225 1350 0    50   ~ 0
SCK
Text Label 5400 2350 0    50   ~ 0
Б
$Comp
L Device:R R8
U 1 1 61C8DDA1
P 6975 1725
F 0 "R8" H 7045 1771 50  0000 L CNN
F 1 "1k" H 7045 1680 50  0000 L CNN
F 2 "" V 6905 1725 50  0001 C CNN
F 3 "~" H 6975 1725 50  0001 C CNN
	1    6975 1725
	0    -1   -1   0   
$EndComp
$Comp
L Device:R R9
U 1 1 61CA3678
P 6975 2075
F 0 "R9" V 6768 2075 50  0000 C CNN
F 1 "1k" V 6859 2075 50  0000 C CNN
F 2 "" V 6905 2075 50  0001 C CNN
F 3 "~" H 6975 2075 50  0001 C CNN
	1    6975 2075
	0    1    1    0   
$EndComp
$Comp
L Device:LED D4
U 1 1 61CB930C
P 7500 1725
F 0 "D4" H 7493 1470 50  0000 C CNN
F 1 "LED" H 7493 1561 50  0000 C CNN
F 2 "" H 7500 1725 50  0001 C CNN
F 3 "~" H 7500 1725 50  0001 C CNN
	1    7500 1725
	-1   0    0    1   
$EndComp
Wire Wire Line
	7125 1725 7275 1725
Wire Wire Line
	7275 1725 7275 2075
Wire Wire Line
	7275 2075 7125 2075
Connection ~ 7275 1725
Wire Wire Line
	7275 1725 7350 1725
Wire Wire Line
	6825 2075 6825 1725
Connection ~ 6825 1725
Wire Wire Line
	6825 1725 6825 1375
Wire Wire Line
	7650 1725 7800 1725
Text Label 6825 1375 0    50   ~ 0
A
Text Label 7800 1725 0    50   ~ 0
Б
Wire Wire Line
	10500 3850 11750 3850
Wire Wire Line
	11750 3850 11750 3825
Text Label 10500 4050 0    50   ~ 0
MOSI
Text Label 10500 4150 0    50   ~ 0
MISO
Text Label 10500 4250 0    50   ~ 0
SCK
Wire Wire Line
	11750 3700 11525 3700
Wire Wire Line
	11750 3550 11500 3550
Text Label 11500 3550 0    50   ~ 0
A
Text Label 11525 3700 0    50   ~ 0
Б
$Comp
L lab4_Lib:XP5 XP6
U 1 1 61D7190A
P 12250 2475
F 0 "XP6" H 12308 2503 50  0000 C CNN
F 1 "XP5" H 12250 2475 50  0001 C CNN
F 2 "" H 12250 2475 50  0001 C CNN
F 3 "" H 12250 2475 50  0001 C CNN
	1    12250 2475
	1    0    0    -1  
$EndComp
$Comp
L lab4_Lib:XP_6_el XP4
U 1 1 61D7627D
P 10700 2450
F 0 "XP4" H 10758 2623 50  0000 C CNN
F 1 "XP_6_el" H 10700 1800 50  0001 C CNN
F 2 "" H 10700 2600 50  0001 C CNN
F 3 "" H 10700 2600 50  0001 C CNN
	1    10700 2450
	1    0    0    -1  
$EndComp
$Comp
L lab4_Lib:XP6 XP7
U 1 1 61DF7D06
P 13920 3115
F 0 "XP7" H 13542 2845 50  0000 R CNN
F 1 "XP6" H 13920 3115 50  0001 C CNN
F 2 "" H 13920 3115 50  0001 C CNN
F 3 "" H 13920 3115 50  0001 C CNN
	1    13920 3115
	-1   0    0    -1  
$EndComp
Wire Wire Line
	13470 3335 13350 3335
Wire Wire Line
	13350 2670 13350 3335
Wire Wire Line
	13470 3435 12500 3435
Wire Wire Line
	12500 3435 12500 3550
Wire Wire Line
	13470 3535 12775 3535
Wire Wire Line
	12775 3535 12775 3825
Wire Wire Line
	12775 3825 12500 3825
Wire Wire Line
	12500 3700 12700 3700
Wire Wire Line
	12700 3700 12700 3050
$Comp
L lab4_Lib:XP7 XP5
U 1 1 61ED4C8E
P 11795 4430
F 0 "XP5" H 11417 4160 50  0000 R CNN
F 1 "XP7" H 11800 3905 50  0001 C CNN
F 2 "" H 11795 4430 50  0001 C CNN
F 3 "" H 11795 4430 50  0001 C CNN
	1    11795 4430
	-1   0    0    -1  
$EndComp
Text Label 11095 4750 0    50   ~ 0
A
NoConn ~ 10500 3750
NoConn ~ 10500 3950
NoConn ~ 10500 4750
NoConn ~ 10500 4850
NoConn ~ 10500 4950
NoConn ~ 10500 5050
NoConn ~ 10500 5150
NoConn ~ 10500 5650
NoConn ~ 10500 5850
NoConn ~ 10500 5950
NoConn ~ 10500 6050
NoConn ~ 10500 6150
NoConn ~ 6400 4100
NoConn ~ 6400 4200
NoConn ~ 6400 4300
NoConn ~ 6400 4400
NoConn ~ 6400 4600
NoConn ~ 6400 4700
NoConn ~ 6400 4800
NoConn ~ 6400 4900
NoConn ~ 6400 5000
NoConn ~ 6400 5200
NoConn ~ 6400 5300
NoConn ~ 6400 5800
NoConn ~ 5925 8975
Connection ~ 5875 7400
NoConn ~ 6400 3700
$Comp
L power:+5V #PWR0104
U 1 1 61AAC5AD
P 3350 2275
F 0 "#PWR0104" H 3350 2125 50  0001 C CNN
F 1 "+5V" H 3365 2448 50  0000 C CNN
F 2 "" H 3350 2275 50  0001 C CNN
F 3 "" H 3350 2275 50  0001 C CNN
	1    3350 2275
	1    0    0    -1  
$EndComp
Wire Wire Line
	5700 3300 5700 3400
Connection ~ 5700 3300
$Comp
L power:+5V #PWR0101
U 1 1 61AC89E2
P 7050 7375
F 0 "#PWR0101" H 7050 7225 50  0001 C CNN
F 1 "+5V" H 7065 7548 50  0000 C CNN
F 2 "" H 7050 7375 50  0001 C CNN
F 3 "" H 7050 7375 50  0001 C CNN
	1    7050 7375
	1    0    0    -1  
$EndComp
$Comp
L power:GND #PWR0102
U 1 1 61ACA262
P 7325 7350
F 0 "#PWR0102" H 7325 7100 50  0001 C CNN
F 1 "GND" H 7330 7177 50  0000 C CNN
F 2 "" H 7325 7350 50  0001 C CNN
F 3 "" H 7325 7350 50  0001 C CNN
	1    7325 7350
	1    0    0    -1  
$EndComp
NoConn ~ 6725 8975
Wire Wire Line
	9150 4975 9300 4975
Wire Wire Line
	9300 4975 9300 4900
Connection ~ 9150 4975
Wire Wire Line
	9150 4975 9150 5350
Text Label 5700 6500 0    50   ~ 0
C
Wire Wire Line
	9150 4600 9300 4600
Wire Wire Line
	9150 4600 9150 4975
Text Label 6325 9425 0    50   ~ 0
C
Text Label 9150 5650 0    50   ~ 0
C
Wire Wire Line
	11345 4750 11095 4750
Wire Wire Line
	11345 4650 10500 4650
Text Label 11345 4850 0    50   ~ 0
C
Wire Wire Line
	5700 6200 5700 6500
Wire Wire Line
	6325 9275 6325 9425
Text Label 5675 8525 0    50   ~ 0
A
Wire Wire Line
	5675 8525 5675 8690
Wire Wire Line
	5925 8875 5780 8875
Wire Wire Line
	5780 8875 5780 8690
Wire Wire Line
	5780 8690 5675 8690
Connection ~ 5675 8690
Wire Wire Line
	5675 8690 5675 9000
Text Label 11300 3150 0    50   ~ 0
C
Wire Wire Line
	11150 3000 11300 3000
Wire Wire Line
	11300 3000 11300 3150
Text Label 5700 2750 0    50   ~ 0
C
Wire Wire Line
	3850 3000 3850 2875
Wire Wire Line
	3350 2275 3350 2875
Wire Wire Line
	3350 2875 3850 2875
Connection ~ 3850 2875
Wire Wire Line
	3850 2875 3850 2800
Text Label 6000 2750 0    50   ~ 0
A
$Comp
L power:+12V #PWR0106
U 1 1 61C42749
P 12700 3050
F 0 "#PWR0106" H 12700 2900 50  0001 C CNN
F 1 "+12V" V 12715 3178 50  0000 L CNN
F 2 "" H 12700 3050 50  0001 C CNN
F 3 "" H 12700 3050 50  0001 C CNN
	1    12700 3050
	0    1    1    0   
$EndComp
Connection ~ 12700 3050
Wire Wire Line
	12700 3050 12700 2770
Wire Wire Line
	5875 7400 6250 7400
$Comp
L power:PWR_FLAG #FLG0101
U 1 1 61C69160
P 7050 7575
F 0 "#FLG0101" H 7050 7650 50  0001 C CNN
F 1 "PWR_FLAG" H 7050 7748 50  0000 C CNN
F 2 "" H 7050 7575 50  0001 C CNN
F 3 "~" H 7050 7575 50  0001 C CNN
	1    7050 7575
	-1   0    0    1   
$EndComp
Wire Wire Line
	7050 7375 7050 7575
Text Label 7050 7450 0    50   ~ 0
A
$Comp
L power:PWR_FLAG #FLG0103
U 1 1 61C8913E
P 7325 7225
F 0 "#FLG0103" H 7325 7300 50  0001 C CNN
F 1 "PWR_FLAG" H 7325 7398 50  0000 C CNN
F 2 "" H 7325 7225 50  0001 C CNN
F 3 "~" H 7325 7225 50  0001 C CNN
	1    7325 7225
	1    0    0    -1  
$EndComp
Wire Wire Line
	7325 7225 7325 7350
Text Label 7325 7300 0    50   ~ 0
C
NoConn ~ 8600 4400
Wire Wire Line
	12700 2670 13350 2670
Wire Wire Line
	4250 6200 5600 6200
$Comp
L Device:CP C5
U 1 1 61A80AD8
P 5575 7550
F 0 "C5" H 5693 7596 50  0000 L CNN
F 1 "47мкФ" H 5693 7505 50  0000 L CNN
F 2 "" H 5613 7400 50  0001 C CNN
F 3 "~" H 5575 7550 50  0001 C CNN
	1    5575 7550
	1    0    0    -1  
$EndComp
Wire Wire Line
	5375 7400 5575 7400
Wire Wire Line
	5400 7700 5575 7700
Connection ~ 5575 7400
Wire Wire Line
	5575 7400 5875 7400
Connection ~ 5575 7700
Wire Wire Line
	5575 7700 5875 7700
$Comp
L laba4-rescue:AMP-B066 U7
U 1 1 61AD24A6
P 12125 3350
F 0 "U7" H 12125 3390 50  0000 C CNN
F 1 "AMP-B066" H 12125 3299 50  0000 C CNN
F 2 "" H 12125 3350 50  0001 C CNN
F 3 "" H 12125 3350 50  0001 C CNN
	1    12125 3350
	1    0    0    -1  
$EndComp
$EndSCHEMATC
