EESchema Schematic File Version 4
EELAYER 30 0
EELAYER END
$Descr A3 16535 11693
encoding utf-8
Sheet 1 1
Title "Урок 1"
Date ""
Rev ""
Comp ""
Comment1 ""
Comment2 "Межанскас Д."
Comment3 ""
Comment4 ""
$EndDescr
$Comp
L Device:R R1
U 1 1 6175C9C2
P 7600 5300
F 0 "R1" V 7393 5300 50  0000 C CNN
F 1 "1k" V 7484 5300 50  0000 C CNN
F 2 "Resistor_THT:R_Axial_DIN0207_L6.3mm_D2.5mm_P2.54mm_Vertical" V 7530 5300 50  0001 C CNN
F 3 "~" H 7600 5300 50  0001 C CNN
	1    7600 5300
	0    1    1    0   
$EndComp
$Comp
L Device:R R2
U 1 1 6175D395
P 8100 7000
F 0 "R2" V 7893 7000 50  0000 C CNN
F 1 "100" V 7984 7000 50  0000 C CNN
F 2 "Resistor_THT:R_Axial_DIN0207_L6.3mm_D2.5mm_P2.54mm_Vertical" V 8030 7000 50  0001 C CNN
F 3 "~" H 8100 7000 50  0001 C CNN
	1    8100 7000
	0    1    1    0   
$EndComp
$Comp
L Device:LED D1
U 1 1 6175F2D1
P 7100 5300
F 0 "D1" H 7093 5517 50  0000 C CNN
F 1 "LED" H 7093 5426 50  0000 C CNN
F 2 "LED_THT:LED_D5.0mm" H 7100 5300 50  0001 C CNN
F 3 "~" H 7100 5300 50  0001 C CNN
	1    7100 5300
	1    0    0    -1  
$EndComp
$Comp
L power:VCC #PWR07
U 1 1 61760393
P 7950 5250
F 0 "#PWR07" H 7950 5100 50  0001 C CNN
F 1 "VCC" H 7965 5423 50  0000 C CNN
F 2 "" H 7950 5250 50  0001 C CNN
F 3 "" H 7950 5250 50  0001 C CNN
	1    7950 5250
	1    0    0    -1  
$EndComp
$Comp
L power:VCC #PWR05
U 1 1 61761712
P 7550 6800
F 0 "#PWR05" H 7550 6650 50  0001 C CNN
F 1 "VCC" H 7565 6973 50  0000 C CNN
F 2 "" H 7550 6800 50  0001 C CNN
F 3 "" H 7550 6800 50  0001 C CNN
	1    7550 6800
	1    0    0    -1  
$EndComp
$Comp
L power:GND #PWR06
U 1 1 61761DE4
P 7550 7250
F 0 "#PWR06" H 7550 7000 50  0001 C CNN
F 1 "GND" H 7555 7077 50  0000 C CNN
F 2 "" H 7550 7250 50  0001 C CNN
F 3 "" H 7550 7250 50  0001 C CNN
	1    7550 7250
	1    0    0    -1  
$EndComp
$Comp
L power:GND #PWR04
U 1 1 61762844
P 5750 6950
F 0 "#PWR04" H 5750 6700 50  0001 C CNN
F 1 "GND" H 5755 6777 50  0000 C CNN
F 2 "" H 5750 6950 50  0001 C CNN
F 3 "" H 5750 6950 50  0001 C CNN
	1    5750 6950
	1    0    0    -1  
$EndComp
$Comp
L power:VCC #PWR03
U 1 1 61762DCF
P 5750 5350
F 0 "#PWR03" H 5750 5200 50  0001 C CNN
F 1 "VCC" H 5765 5523 50  0000 C CNN
F 2 "" H 5750 5350 50  0001 C CNN
F 3 "" H 5750 5350 50  0001 C CNN
	1    5750 5350
	1    0    0    -1  
$EndComp
Wire Wire Line
	6950 5300 6650 5300
Wire Wire Line
	6650 5300 6650 5650
Wire Wire Line
	6650 5650 6550 5650
Wire Wire Line
	7250 5300 7450 5300
Wire Wire Line
	7750 5300 7950 5300
Wire Wire Line
	7950 5300 7950 5250
Wire Wire Line
	7450 6900 7550 6900
Wire Wire Line
	7550 6900 7550 6800
Wire Wire Line
	7450 7000 7950 7000
Wire Wire Line
	7550 7250 7550 7100
Wire Wire Line
	7550 7100 7450 7100
Wire Wire Line
	5750 6850 5750 6950
Wire Wire Line
	5750 5350 5750 5450
Text Label 8550 7000 2    50   ~ 0
INPUT
Wire Wire Line
	8250 7000 8550 7000
Text Label 6950 5750 2    50   ~ 0
INPUT
Wire Wire Line
	6550 5750 6950 5750
Text Label 6950 5300 2    50   ~ 0
uCtoLED
Text Label 7350 5300 3    50   ~ 0
LEDtoR
Text Label 7900 7000 2    50   ~ 0
INPUTtoR
$Comp
L power:PWR_FLAG #FLG01
U 1 1 61765F5F
P 4200 6950
F 0 "#FLG01" H 4200 7025 50  0001 C CNN
F 1 "PWR_FLAG" H 4200 7123 50  0000 C CNN
F 2 "" H 4200 6950 50  0001 C CNN
F 3 "~" H 4200 6950 50  0001 C CNN
	1    4200 6950
	1    0    0    -1  
$EndComp
$Comp
L power:PWR_FLAG #FLG02
U 1 1 61766397
P 4600 6950
F 0 "#FLG02" H 4600 7025 50  0001 C CNN
F 1 "PWR_FLAG" H 4600 7123 50  0000 C CNN
F 2 "" H 4600 6950 50  0001 C CNN
F 3 "~" H 4600 6950 50  0001 C CNN
	1    4600 6950
	1    0    0    -1  
$EndComp
$Comp
L power:GND #PWR01
U 1 1 617668F8
P 4200 7050
F 0 "#PWR01" H 4200 6800 50  0001 C CNN
F 1 "GND" H 4205 6877 50  0000 C CNN
F 2 "" H 4200 7050 50  0001 C CNN
F 3 "" H 4200 7050 50  0001 C CNN
	1    4200 7050
	1    0    0    -1  
$EndComp
$Comp
L power:VCC #PWR02
U 1 1 617671B7
P 4600 7050
F 0 "#PWR02" H 4600 6900 50  0001 C CNN
F 1 "VCC" H 4615 7223 50  0000 C CNN
F 2 "" H 4600 7050 50  0001 C CNN
F 3 "" H 4600 7050 50  0001 C CNN
	1    4600 7050
	-1   0    0    1   
$EndComp
Wire Wire Line
	4600 7050 4600 6950
Wire Wire Line
	4200 7050 4200 6950
$Comp
L MCU_Microchip_PIC16:PIC16F18346-SS_0 U1
U 1 1 617AE2FB
P 5750 6150
F 0 "U1" H 5350 6850 50  0000 C CNN
F 1 "PIC16F18346-SS_0" H 6150 6850 50  0000 C CNN
F 2 "Package_SO:SSOP-20_5.3x7.2mm_P0.65mm" H 5840 5390 50  0001 C CNN
F 3 "http://ww1.microchip.com/downloads/en/DeviceDoc/40001839B.pdf" H 5750 5450 50  0001 C CNN
	1    5750 6150
	1    0    0    -1  
$EndComp
NoConn ~ 6550 5850
NoConn ~ 6550 5950
NoConn ~ 6550 6050
NoConn ~ 6550 6150
NoConn ~ 6550 6250
NoConn ~ 6550 6350
NoConn ~ 4950 5650
NoConn ~ 4950 5750
NoConn ~ 4950 5850
NoConn ~ 4950 5950
NoConn ~ 4950 6050
NoConn ~ 4950 6150
NoConn ~ 4950 6350
NoConn ~ 4950 6450
NoConn ~ 4950 6550
NoConn ~ 4950 6650
$Comp
L myLib:GOST_MYCONN3 X1
U 1 1 617C7AA6
P 7050 6950
F 0 "X1" H 7050 7300 50  0000 C CNN
F 1 "GOST_MYCONN3" H 7050 7200 50  0000 C CNN
F 2 "Connector:Banana_Jack_3Pin" H 7050 6700 50  0001 C CNN
F 3 "" H 7050 6700 50  0001 C CNN
	1    7050 6950
	1    0    0    -1  
$EndComp
$EndSCHEMATC
