(export (version D)
  (design
    (source /Users/dominyk/Desktop/University/trsvt/Miezanskas/lab2/lab2.sch)
    (date "2021 November 02, Tuesday 15:38:26")
    (tool "Eeschema (5.1.10-1-10_14)")
    (sheet (number 1) (name /) (tstamps /)
      (title_block
        (title "Урок 1")
        (company)
        (rev)
        (date)
        (source lab2.sch)
        (comment (number 1) (value ""))
        (comment (number 2) (value "Межанскас Д."))
        (comment (number 3) (value ""))
        (comment (number 4) (value "")))))
  (components
    (comp (ref R1)
      (value 1k)
      (footprint Resistor_THT:R_Axial_DIN0207_L6.3mm_D2.5mm_P2.54mm_Vertical)
      (datasheet ~)
      (libsource (lib Device) (part R) (description Resistor))
      (sheetpath (names /) (tstamps /))
      (tstamp 6175C9C2))
    (comp (ref R2)
      (value 100)
      (footprint Resistor_THT:R_Axial_DIN0207_L6.3mm_D2.5mm_P2.54mm_Vertical)
      (datasheet ~)
      (libsource (lib Device) (part R) (description Resistor))
      (sheetpath (names /) (tstamps /))
      (tstamp 6175D395))
    (comp (ref D1)
      (value LED)
      (footprint LED_THT:LED_D5.0mm)
      (datasheet ~)
      (libsource (lib Device) (part LED) (description "Light emitting diode"))
      (sheetpath (names /) (tstamps /))
      (tstamp 6175F2D1))
    (comp (ref U1)
      (value PIC16F18346-SS_0)
      (footprint Package_SO:SSOP-20_5.3x7.2mm_P0.65mm)
      (datasheet http://ww1.microchip.com/downloads/en/DeviceDoc/40001839B.pdf)
      (libsource (lib MCU_Microchip_PIC16) (part PIC16F18346-SS_0) (description "16384W FLASH, 2048B RAM, 256B EEPROM, SSOP-20"))
      (sheetpath (names /) (tstamps /))
      (tstamp 617AE2FB))
    (comp (ref X1)
      (value GOST_MYCONN3)
      (footprint Connector:Banana_Jack_3Pin)
      (libsource (lib myLib) (part GOST_MYCONN3) (description ""))
      (sheetpath (names /) (tstamps /))
      (tstamp 617C7AA6)))
  (libparts
    (libpart (lib Device) (part LED)
      (description "Light emitting diode")
      (docs ~)
      (footprints
        (fp LED*)
        (fp LED_SMD:*)
        (fp LED_THT:*))
      (fields
        (field (name Reference) D)
        (field (name Value) LED))
      (pins
        (pin (num 1) (name K) (type passive))
        (pin (num 2) (name A) (type passive))))
    (libpart (lib Device) (part R)
      (description Resistor)
      (docs ~)
      (footprints
        (fp R_*))
      (fields
        (field (name Reference) R)
        (field (name Value) R))
      (pins
        (pin (num 1) (name ~) (type passive))
        (pin (num 2) (name ~) (type passive))))
    (libpart (lib MCU_Microchip_PIC16) (part PIC16F18346-SS_0)
      (description "16384W FLASH, 2048B RAM, 256B EEPROM, SSOP-20")
      (docs http://ww1.microchip.com/downloads/en/DeviceDoc/40001839B.pdf)
      (footprints
        (fp SSOP*5.3x7.2mm*P0.65mm*))
      (fields
        (field (name Reference) U)
        (field (name Value) PIC16F18346-SS_0)
        (field (name Footprint) Package_SO:SSOP-20_5.3x7.2mm_P0.65mm))
      (pins
        (pin (num 1) (name VDD) (type power_in))
        (pin (num 2) (name RA5) (type BiDi))
        (pin (num 3) (name RA4) (type BiDi))
        (pin (num 4) (name RA3/~MCLR~/VPP) (type BiDi))
        (pin (num 5) (name RC5) (type BiDi))
        (pin (num 6) (name RC4) (type BiDi))
        (pin (num 7) (name RC3) (type BiDi))
        (pin (num 8) (name RC6) (type BiDi))
        (pin (num 9) (name RC7) (type BiDi))
        (pin (num 10) (name RB7) (type BiDi))
        (pin (num 11) (name RB6) (type BiDi))
        (pin (num 12) (name RB5) (type BiDi))
        (pin (num 13) (name RB4) (type BiDi))
        (pin (num 14) (name RC2) (type BiDi))
        (pin (num 15) (name RC1) (type BiDi))
        (pin (num 16) (name RC0) (type BiDi))
        (pin (num 17) (name RA2) (type BiDi))
        (pin (num 18) (name RA1/ICSPCLK) (type BiDi))
        (pin (num 19) (name RA0/ICSPDAT) (type BiDi))
        (pin (num 20) (name VSS) (type power_in))))
    (libpart (lib myLib) (part GOST_MYCONN3)
      (fields
        (field (name Reference) J)
        (field (name Value) GOST_MYCONN3))
      (pins
        (pin (num 1) (name VCC) (type power_in))
        (pin (num 2) (name INPUT) (type passive))
        (pin (num 3) (name GND) (type passive)))))
  (libraries
    (library (logical Device)
      (uri "/Library/Application Support/kicad/library/Device.lib"))
    (library (logical MCU_Microchip_PIC16)
      (uri "/Library/Application Support/kicad/library/MCU_Microchip_PIC16.lib"))
    (library (logical myLib)
      (uri /Users/dominyk/Desktop/University/trsvt/Miezanskas/lab2/library/myLib.lib)))
  (nets
    (net (code 1) (name VCC)
      (node (ref R1) (pin 1))
      (node (ref X1) (pin 1))
      (node (ref U1) (pin 1)))
    (net (code 2) (name /uCtoLED)
      (node (ref U1) (pin 16))
      (node (ref D1) (pin 1)))
    (net (code 3) (name GND)
      (node (ref X1) (pin 3))
      (node (ref U1) (pin 20)))
    (net (code 4) (name /INPUT)
      (node (ref U1) (pin 15))
      (node (ref R2) (pin 1)))
    (net (code 5) (name /LEDtoR)
      (node (ref D1) (pin 2))
      (node (ref R1) (pin 2)))
    (net (code 6) (name /INPUTtoR)
      (node (ref R2) (pin 2))
      (node (ref X1) (pin 2)))
    (net (code 7) (name "Net-(U1-Pad10)")
      (node (ref U1) (pin 10)))
    (net (code 8) (name "Net-(U1-Pad11)")
      (node (ref U1) (pin 11)))
    (net (code 9) (name "Net-(U1-Pad12)")
      (node (ref U1) (pin 12)))
    (net (code 10) (name "Net-(U1-Pad13)")
      (node (ref U1) (pin 13)))
    (net (code 11) (name "Net-(U1-Pad14)")
      (node (ref U1) (pin 14)))
    (net (code 12) (name "Net-(U1-Pad17)")
      (node (ref U1) (pin 17)))
    (net (code 13) (name "Net-(U1-Pad18)")
      (node (ref U1) (pin 18)))
    (net (code 14) (name "Net-(U1-Pad19)")
      (node (ref U1) (pin 19)))
    (net (code 15) (name "Net-(U1-Pad2)")
      (node (ref U1) (pin 2)))
    (net (code 16) (name "Net-(U1-Pad3)")
      (node (ref U1) (pin 3)))
    (net (code 17) (name "Net-(U1-Pad4)")
      (node (ref U1) (pin 4)))
    (net (code 18) (name "Net-(U1-Pad5)")
      (node (ref U1) (pin 5)))
    (net (code 19) (name "Net-(U1-Pad6)")
      (node (ref U1) (pin 6)))
    (net (code 20) (name "Net-(U1-Pad7)")
      (node (ref U1) (pin 7)))
    (net (code 21) (name "Net-(U1-Pad8)")
      (node (ref U1) (pin 8)))
    (net (code 22) (name "Net-(U1-Pad9)")
      (node (ref U1) (pin 9)))))