EESchema Schematic File Version 4
EELAYER 30 0
EELAYER END
$Descr A3 16535 11693
encoding utf-8
Sheet 1 1
Title "Схема электрическая принципиальная"
Date "23.12.2021"
Rev ""
Comp "МГТУ им. Н.Э. Баумана"
Comment1 ""
Comment2 "Бояринов А.С."
Comment3 "Хохлов С.А."
Comment4 ""
$EndDescr
$Comp
L lab4-rescue:STM32F407VGTx-MCU_ST_STM32F4 U1
U 1 1 61C49D2F
P 8025 4675
F 0 "U1" H 8025 1786 50  0000 C CNN
F 1 "STM32F407VGTx" H 8025 1695 50  0000 C CNN
F 2 "Package_QFP:LQFP-100_14x14mm_P0.5mm" H 7325 2075 50  0001 R CNN
F 3 "http://www.st.com/st-web-ui/static/active/en/resource/technical/document/datasheet/DM00037051.pdf" H 8025 4675 50  0001 C CNN
	1    8025 4675
	1    0    0    -1  
$EndComp
$Comp
L Sensor_Audio:MP45DT02 MK1
U 1 1 61C4C23E
P 10550 3950
F 0 "MK1" H 10220 3996 50  0000 R CNN
F 1 "MP45DT02" H 10220 3905 50  0000 R CNN
F 2 "Sensor_Audio:ST_HLGA-6_3.76x4.72mm_P1.65mm" H 9650 3600 50  0001 L CIN
F 3 "http://www.st.com/st-web-ui/static/active/en/resource/technical/document/datasheet/DM00025467.pdf" H 10550 3950 50  0001 C CNN
	1    10550 3950
	-1   0    0    -1  
$EndComp
Wire Wire Line
	8925 2275 9500 2275
Wire Wire Line
	9500 3175 8925 3175
Wire Wire Line
	9500 3675 8925 3675
Wire Wire Line
	8925 3275 9500 3275
Wire Wire Line
	8925 3375 9500 3375
Wire Wire Line
	8925 3475 9500 3475
Wire Wire Line
	8925 3575 9500 3575
Wire Wire Line
	8925 4275 9500 4275
Wire Wire Line
	8925 4975 9500 4975
Entry Wire Line
	9500 2275 9600 2375
Entry Wire Line
	9500 3175 9600 3275
Entry Wire Line
	9500 3275 9600 3375
Entry Wire Line
	9500 3375 9600 3475
Entry Wire Line
	9500 3475 9600 3575
Entry Wire Line
	9500 3575 9600 3675
Entry Wire Line
	9500 3675 9600 3775
Wire Wire Line
	8925 5975 9500 5975
Wire Wire Line
	8925 6375 9500 6375
Wire Wire Line
	8925 6675 9500 6675
Wire Wire Line
	8925 6875 9500 6875
Entry Wire Line
	9500 4975 9600 5075
Entry Wire Line
	9500 5975 9600 6075
Entry Wire Line
	9500 6375 9600 6475
Entry Wire Line
	9500 6675 9600 6775
Entry Wire Line
	9500 6875 9600 6975
Wire Wire Line
	7125 3675 6675 3675
Wire Wire Line
	6675 3675 6675 1825
Wire Wire Line
	6675 1825 9500 1825
Wire Wire Line
	6650 3775 6650 1775
Wire Wire Line
	6650 1775 9500 1775
Wire Wire Line
	6650 3775 7125 3775
Wire Wire Line
	7125 2275 7125 1850
Wire Wire Line
	7125 1850 9500 1850
Entry Wire Line
	9500 1775 9600 1675
Entry Wire Line
	9500 1825 9600 1725
Entry Wire Line
	9500 1850 9600 1750
Text Label 6775 3675 0    50   ~ 0
OSC_IN
Text Label 6775 3775 0    50   ~ 0
OSC_OUT
Text Label 7125 2075 0    50   ~ 0
NRST
Text Label 9100 2275 0    50   ~ 0
PA0
Text Label 9075 3175 0    50   ~ 0
VBUS_FS
Text Label 9000 3275 0    50   ~ 0
OTG_FS_DM
Text Label 9000 3375 0    50   ~ 0
OTG_FS_DP
Text Label 9000 3475 0    50   ~ 0
OTG_FS_ID
Text Label 9025 3575 0    50   ~ 0
SWCLK
Text Label 9075 3675 0    50   ~ 0
SWDIO
Text Label 9125 4275 0    50   ~ 0
T_SWO
Text Label 9050 4975 0    50   ~ 0
CLK_IN
Text Label 9075 5975 0    50   ~ 0
PDM_OUT
Text Label 9075 6375 0    50   ~ 0
I2S3_SCK
Text Label 9075 6675 0    50   ~ 0
I2S3_SD
Text Label 9100 6875 0    50   ~ 0
I2S3_WS
Entry Wire Line
	9600 4025 9700 3925
Entry Wire Line
	9600 4150 9700 4050
Wire Wire Line
	10150 4050 9700 4050
Wire Wire Line
	10150 3950 9700 3950
Wire Wire Line
	9700 3950 9700 3925
$Comp
L power:Earth #PWR0101
U 1 1 61C5A37D
P 10550 4375
F 0 "#PWR0101" H 10550 4125 50  0001 C CNN
F 1 "Earth" H 10550 4225 50  0001 C CNN
F 2 "" H 10550 4375 50  0001 C CNN
F 3 "~" H 10550 4375 50  0001 C CNN
	1    10550 4375
	1    0    0    -1  
$EndComp
$Comp
L power:+3V0 #PWR0102
U 1 1 61C5AD93
P 10550 3300
F 0 "#PWR0102" H 10550 3150 50  0001 C CNN
F 1 "+3V0" H 10565 3473 50  0000 C CNN
F 2 "" H 10550 3300 50  0001 C CNN
F 3 "" H 10550 3300 50  0001 C CNN
	1    10550 3300
	1    0    0    -1  
$EndComp
Wire Wire Line
	10550 3300 10550 3350
$Comp
L Device:C C4
U 1 1 61C5C485
P 11325 3525
F 0 "C4" H 11210 3571 50  0000 R CNN
F 1 "100 nF" H 11210 3480 50  0000 R CNN
F 2 "" H 11363 3375 50  0001 C CNN
F 3 "~" H 11325 3525 50  0001 C CNN
	1    11325 3525
	-1   0    0    -1  
$EndComp
$Comp
L Device:C C6
U 1 1 61C5CBEF
P 11750 3525
F 0 "C6" H 11865 3571 50  0000 L CNN
F 1 "100 nF" H 11865 3480 50  0000 L CNN
F 2 "" H 11788 3375 50  0001 C CNN
F 3 "~" H 11750 3525 50  0001 C CNN
	1    11750 3525
	1    0    0    -1  
$EndComp
Wire Wire Line
	10550 4250 10550 4275
Wire Wire Line
	11325 3375 10550 3375
Connection ~ 10550 3375
Wire Wire Line
	10550 3375 10550 3650
Wire Wire Line
	10550 3350 11750 3350
Wire Wire Line
	11750 3350 11750 3375
Connection ~ 10550 3350
Wire Wire Line
	10550 3350 10550 3375
Wire Wire Line
	11325 3675 11325 4275
Wire Wire Line
	11325 4275 10550 4275
Connection ~ 10550 4275
Wire Wire Line
	10550 4275 10550 4325
Wire Wire Line
	11750 3675 11750 4325
Wire Wire Line
	11750 4325 10550 4325
Connection ~ 10550 4325
Wire Wire Line
	10550 4325 10550 4350
Wire Wire Line
	10150 3850 9925 3850
Wire Wire Line
	9925 3850 9925 4350
Wire Wire Line
	9925 4350 10550 4350
Connection ~ 10550 4350
Wire Wire Line
	10550 4350 10550 4375
Wire Wire Line
	9925 3350 9925 3850
Connection ~ 9925 3850
$Comp
L power:+3V0 #PWR0103
U 1 1 61C63DD2
P 9925 3350
F 0 "#PWR0103" H 9925 3200 50  0001 C CNN
F 1 "+3V0" H 9940 3523 50  0000 C CNN
F 2 "" H 9925 3350 50  0001 C CNN
F 3 "" H 9925 3350 50  0001 C CNN
	1    9925 3350
	1    0    0    -1  
$EndComp
$Comp
L Device:R R3
U 1 1 61C64003
P 9950 1950
F 0 "R3" V 10157 1950 50  0000 C CNN
F 1 "220" V 10066 1950 50  0000 C CNN
F 2 "" V 9880 1950 50  0001 C CNN
F 3 "~" H 9950 1950 50  0001 C CNN
	1    9950 1950
	0    -1   -1   0   
$EndComp
$Comp
L Device:R R4
U 1 1 61C65CBF
P 9950 2225
F 0 "R4" V 9743 2225 50  0000 C CNN
F 1 "220" V 9834 2225 50  0000 C CNN
F 2 "" V 9880 2225 50  0001 C CNN
F 3 "~" H 9950 2225 50  0001 C CNN
	1    9950 2225
	0    1    1    0   
$EndComp
Entry Wire Line
	9600 2050 9700 1950
Entry Wire Line
	9600 2325 9700 2225
Wire Wire Line
	9800 1950 9700 1950
Wire Wire Line
	9800 2225 9700 2225
Text Label 9725 1950 0    50   ~ 0
OSC_IN
Text Label 9700 2225 0    50   ~ 0
OSC_OUT
$Comp
L Device:Crystal Y1
U 1 1 61C6AAA1
P 10375 2100
F 0 "Y1" V 10329 2231 50  0000 L CNN
F 1 "8 MHz" V 10420 2231 50  0000 L CNN
F 2 "" H 10375 2100 50  0001 C CNN
F 3 "~" H 10375 2100 50  0001 C CNN
	1    10375 2100
	0    1    1    0   
$EndComp
Wire Wire Line
	10100 1950 10375 1950
Wire Wire Line
	10100 2225 10325 2225
Wire Wire Line
	10325 2225 10325 2250
Wire Wire Line
	10325 2250 10375 2250
$Comp
L Device:C C2
U 1 1 61C6CCCD
P 10850 1950
F 0 "C2" V 10598 1950 50  0000 C CNN
F 1 "20 pF" V 10689 1950 50  0000 C CNN
F 2 "" H 10888 1800 50  0001 C CNN
F 3 "~" H 10850 1950 50  0001 C CNN
	1    10850 1950
	0    1    1    0   
$EndComp
$Comp
L Device:C C3
U 1 1 61C6D828
P 10875 2250
F 0 "C3" V 10623 2250 50  0000 C CNN
F 1 "20 pF" V 10714 2250 50  0000 C CNN
F 2 "" H 10913 2100 50  0001 C CNN
F 3 "~" H 10875 2250 50  0001 C CNN
	1    10875 2250
	0    1    1    0   
$EndComp
Wire Wire Line
	10700 1950 10375 1950
Connection ~ 10375 1950
Wire Wire Line
	10725 2250 10375 2250
Connection ~ 10375 2250
$Comp
L power:Earth #PWR0104
U 1 1 61C703B3
P 11250 2300
F 0 "#PWR0104" H 11250 2050 50  0001 C CNN
F 1 "Earth" H 11250 2150 50  0001 C CNN
F 2 "" H 11250 2300 50  0001 C CNN
F 3 "~" H 11250 2300 50  0001 C CNN
	1    11250 2300
	1    0    0    -1  
$EndComp
$Comp
L power:Earth #PWR0105
U 1 1 61C712A1
P 11275 2000
F 0 "#PWR0105" H 11275 1750 50  0001 C CNN
F 1 "Earth" H 11275 1850 50  0001 C CNN
F 2 "" H 11275 2000 50  0001 C CNN
F 3 "~" H 11275 2000 50  0001 C CNN
	1    11275 2000
	1    0    0    -1  
$EndComp
Wire Wire Line
	11025 2250 11250 2250
Wire Wire Line
	11250 2250 11250 2300
Wire Wire Line
	11000 1950 11275 1950
Wire Wire Line
	11275 1950 11275 2000
$Comp
L Device:C C1
U 1 1 61C73A19
P 10200 3100
F 0 "C1" H 10315 3146 50  0000 L CNN
F 1 "100 nF" H 10315 3055 50  0000 L CNN
F 2 "" H 10238 2950 50  0001 C CNN
F 3 "~" H 10200 3100 50  0001 C CNN
	1    10200 3100
	1    0    0    -1  
$EndComp
$Comp
L power:Earth #PWR0106
U 1 1 61C742B1
P 10200 3250
F 0 "#PWR0106" H 10200 3000 50  0001 C CNN
F 1 "Earth" H 10200 3100 50  0001 C CNN
F 2 "" H 10200 3250 50  0001 C CNN
F 3 "~" H 10200 3250 50  0001 C CNN
	1    10200 3250
	1    0    0    -1  
$EndComp
$Comp
L Device:R R5
U 1 1 61C743E9
P 10200 2725
F 0 "R5" H 10270 2771 50  0000 L CNN
F 1 "100k" H 10270 2680 50  0000 L CNN
F 2 "" V 10130 2725 50  0001 C CNN
F 3 "~" H 10200 2725 50  0001 C CNN
	1    10200 2725
	1    0    0    -1  
$EndComp
Wire Wire Line
	10200 2875 10200 2925
Entry Wire Line
	9600 2975 9700 2875
Wire Wire Line
	9700 2875 10125 2875
Wire Wire Line
	10125 2875 10125 2925
Wire Wire Line
	10125 2925 10200 2925
Connection ~ 10200 2925
Wire Wire Line
	10200 2925 10200 2950
$Comp
L power:+3V0 #PWR0107
U 1 1 61C78E86
P 10200 2575
F 0 "#PWR0107" H 10200 2425 50  0001 C CNN
F 1 "+3V0" H 10215 2748 50  0000 C CNN
F 2 "" H 10200 2575 50  0001 C CNN
F 3 "" H 10200 2575 50  0001 C CNN
	1    10200 2575
	1    0    0    -1  
$EndComp
$Comp
L power:Earth #PWR0108
U 1 1 61C7B75A
P 11175 3000
F 0 "#PWR0108" H 11175 2750 50  0001 C CNN
F 1 "Earth" H 11175 2850 50  0001 C CNN
F 2 "" H 11175 3000 50  0001 C CNN
F 3 "~" H 11175 3000 50  0001 C CNN
	1    11175 3000
	1    0    0    -1  
$EndComp
$Comp
L Switch:SW_DPST_x2 SW1
U 1 1 61C7D573
P 10575 2925
F 0 "SW1" H 10575 3160 50  0000 C CNN
F 1 "SW_DPST_x2" H 10575 3069 50  0000 C CNN
F 2 "" H 10575 2925 50  0001 C CNN
F 3 "~" H 10575 2925 50  0001 C CNN
	1    10575 2925
	1    0    0    -1  
$EndComp
Wire Wire Line
	10375 2925 10200 2925
Wire Wire Line
	10775 2925 11175 2925
Wire Wire Line
	11175 2925 11175 3000
Text Label 9800 3950 0    50   ~ 0
CLK_IN
Text Label 9800 4050 0    50   ~ 0
PDM_OUT
Text Label 9775 2875 0    50   ~ 0
NRST
$Comp
L lab4-rescue:CS43L21-Audio U2
U 1 1 61C80FCB
P 10675 5575
F 0 "U2" H 10675 4586 50  0000 C CNN
F 1 "CS43L21" H 10675 4495 50  0000 C CNN
F 2 "Package_DFN_QFN:QFN-32-1EP_5x5mm_P0.5mm_EP3.45x3.45mm" H 10675 5575 50  0001 C CNN
F 3 "https://d3uzseaevmutz1.cloudfront.net/pubs/proDatasheet/CS43L21_F1.pdf" H 10675 5575 50  0001 C CNN
	1    10675 5575
	1    0    0    -1  
$EndComp
Entry Wire Line
	9600 5350 9700 5250
Entry Wire Line
	9600 5450 9700 5350
Entry Wire Line
	9600 5575 9700 5475
Entry Wire Line
	9600 5650 9700 5550
Wire Wire Line
	9825 5275 9825 5250
Wire Wire Line
	9825 5250 9700 5250
Wire Wire Line
	9975 5375 9775 5375
Wire Wire Line
	9775 5375 9775 5350
Wire Wire Line
	9775 5350 9700 5350
Wire Wire Line
	9975 5475 9700 5475
Wire Wire Line
	9975 5575 9700 5575
Wire Wire Line
	9700 5575 9700 5550
Text Label 9725 5250 0    50   ~ 0
I2S3_MCK
Text Label 9725 5350 0    50   ~ 0
I2S3_SCK
Text Label 9750 5575 0    50   ~ 0
I2S3_SD
Text Label 9725 5475 0    50   ~ 0
I2S3_WS
$Comp
L power:Earth #PWR0109
U 1 1 61C8CB47
P 11075 6475
F 0 "#PWR0109" H 11075 6225 50  0001 C CNN
F 1 "Earth" H 11075 6325 50  0001 C CNN
F 2 "" H 11075 6475 50  0001 C CNN
F 3 "~" H 11075 6475 50  0001 C CNN
	1    11075 6475
	1    0    0    -1  
$EndComp
$Comp
L power:Earth #PWR0110
U 1 1 61C8D0C1
P 10875 6475
F 0 "#PWR0110" H 10875 6225 50  0001 C CNN
F 1 "Earth" H 10875 6325 50  0001 C CNN
F 2 "" H 10875 6475 50  0001 C CNN
F 3 "~" H 10875 6475 50  0001 C CNN
	1    10875 6475
	1    0    0    -1  
$EndComp
Wire Wire Line
	10975 4675 10975 4600
Wire Wire Line
	10975 4475 11475 4475
Wire Wire Line
	10775 4675 10775 4600
Wire Wire Line
	10775 4600 10975 4600
Connection ~ 10975 4600
$Comp
L power:+2V5 #PWR0111
U 1 1 61C928C5
P 12400 4475
F 0 "#PWR0111" H 12400 4325 50  0001 C CNN
F 1 "+2V5" H 12415 4648 50  0000 C CNN
F 2 "" H 12400 4475 50  0001 C CNN
F 3 "" H 12400 4475 50  0001 C CNN
	1    12400 4475
	1    0    0    -1  
$EndComp
$Comp
L Device:C C5
U 1 1 61C93363
P 11475 4625
F 0 "C5" H 11590 4671 50  0000 L CNN
F 1 "0.1uF" H 11590 4580 50  0000 L CNN
F 2 "" H 11513 4475 50  0001 C CNN
F 3 "~" H 11475 4625 50  0001 C CNN
	1    11475 4625
	1    0    0    -1  
$EndComp
Connection ~ 11475 4475
Wire Wire Line
	11475 4475 11825 4475
$Comp
L Device:C C7
U 1 1 61C9BB7E
P 11825 4675
F 0 "C7" H 11940 4721 50  0000 L CNN
F 1 "0.1uF" H 11940 4630 50  0000 L CNN
F 2 "" H 11863 4525 50  0001 C CNN
F 3 "~" H 11825 4675 50  0001 C CNN
	1    11825 4675
	1    0    0    -1  
$EndComp
$Comp
L Device:C C8
U 1 1 61C9D8A8
P 12125 4675
F 0 "C8" H 12240 4721 50  0000 L CNN
F 1 "0.1uF" H 12240 4630 50  0000 L CNN
F 2 "" H 12163 4525 50  0001 C CNN
F 3 "~" H 12125 4675 50  0001 C CNN
	1    12125 4675
	1    0    0    -1  
$EndComp
$Comp
L Device:C C9
U 1 1 61C9F6FB
P 12400 4675
F 0 "C9" H 12515 4721 50  0000 L CNN
F 1 "0.1uF" H 12515 4630 50  0000 L CNN
F 2 "" H 12438 4525 50  0001 C CNN
F 3 "~" H 12400 4675 50  0001 C CNN
	1    12400 4675
	1    0    0    -1  
$EndComp
Wire Wire Line
	12400 4525 12400 4475
Wire Wire Line
	12125 4525 12125 4475
Connection ~ 12125 4475
Wire Wire Line
	12125 4475 12400 4475
Wire Wire Line
	11825 4525 11825 4475
Connection ~ 11825 4475
Wire Wire Line
	11825 4475 12125 4475
Wire Wire Line
	11475 4775 11700 4775
Wire Wire Line
	11700 4775 11700 4825
Wire Wire Line
	11700 4825 11825 4825
Wire Wire Line
	11825 4825 12125 4825
Connection ~ 11825 4825
Connection ~ 12125 4825
Wire Wire Line
	12125 4825 12400 4825
Connection ~ 12400 4475
$Comp
L power:Earth #PWR0112
U 1 1 61CADEBA
P 12400 4825
F 0 "#PWR0112" H 12400 4575 50  0001 C CNN
F 1 "Earth" H 12400 4675 50  0001 C CNN
F 2 "" H 12400 4825 50  0001 C CNN
F 3 "~" H 12400 4825 50  0001 C CNN
	1    12400 4825
	1    0    0    -1  
$EndComp
$Comp
L power:Earth #PWR0113
U 1 1 61CB2044
P 12975 2375
F 0 "#PWR0113" H 12975 2125 50  0001 C CNN
F 1 "Earth" H 12975 2225 50  0001 C CNN
F 2 "" H 12975 2375 50  0001 C CNN
F 3 "~" H 12975 2375 50  0001 C CNN
	1    12975 2375
	1    0    0    -1  
$EndComp
$Comp
L Switch:SW_DPST_x2 SW1
U 2 1 61CB204A
P 12375 2300
F 0 "SW1" H 12375 2535 50  0000 C CNN
F 1 "SW_DPST_x2" H 12375 2444 50  0000 C CNN
F 2 "" H 12375 2300 50  0001 C CNN
F 3 "~" H 12375 2300 50  0001 C CNN
	2    12375 2300
	1    0    0    -1  
$EndComp
Wire Wire Line
	12575 2300 12975 2300
Wire Wire Line
	12975 2300 12975 2375
$Comp
L Device:R R6
U 1 1 61CB7ABB
P 12000 1950
F 0 "R6" H 12070 1996 50  0000 L CNN
F 1 "220k" H 12070 1905 50  0000 L CNN
F 2 "" V 11930 1950 50  0001 C CNN
F 3 "~" H 12000 1950 50  0001 C CNN
	1    12000 1950
	1    0    0    -1  
$EndComp
$Comp
L power:+3V0 #PWR0114
U 1 1 61CB7AC1
P 12000 1800
F 0 "#PWR0114" H 12000 1650 50  0001 C CNN
F 1 "+3V0" H 12015 1973 50  0000 C CNN
F 2 "" H 12000 1800 50  0001 C CNN
F 3 "" H 12000 1800 50  0001 C CNN
	1    12000 1800
	1    0    0    -1  
$EndComp
Wire Wire Line
	12175 2300 12000 2300
Wire Wire Line
	12000 2300 12000 2100
Wire Wire Line
	12000 2300 11400 2300
Wire Wire Line
	11400 2300 11400 1675
Wire Wire Line
	11400 1675 9750 1675
Connection ~ 12000 2300
Entry Wire Line
	9600 1700 9700 1600
Wire Wire Line
	9700 1600 9750 1600
Wire Wire Line
	9750 1600 9750 1675
Text Label 9775 1675 0    50   ~ 0
PA0
Wire Bus Line
	9600 7400 8650 7400
Wire Bus Line
	8650 7400 8650 7875
Wire Bus Line
	8650 7875 5800 7875
Entry Wire Line
	5700 4500 5800 4400
Entry Wire Line
	5700 4625 5800 4525
Entry Wire Line
	5700 4725 5800 4625
Entry Wire Line
	5700 4825 5800 4725
Wire Wire Line
	5235 4775 5700 4775
Wire Wire Line
	5700 4775 5700 4825
Wire Wire Line
	5235 4685 5700 4685
Wire Wire Line
	5700 4685 5700 4725
Wire Wire Line
	5230 4595 5700 4595
Wire Wire Line
	5700 4595 5700 4625
$Comp
L lab4-rescue:XS1-my_lib XS3
U 1 1 61CCB3CF
P 4875 4325
F 0 "XS3" H 5157 4055 50  0000 L CNN
F 1 "XS1" H 4875 4325 50  0001 C CNN
F 2 "" H 4875 4325 50  0001 C CNN
F 3 "" H 4875 4325 50  0001 C CNN
	1    4875 4325
	1    0    0    -1  
$EndComp
Wire Wire Line
	5235 4500 5700 4500
Text Label 5355 4500 0    50   ~ 0
SWCLK
Text Label 5355 4595 0    50   ~ 0
SWDIO
Text Label 5365 4685 0    50   ~ 0
NRST
Text Label 5370 4775 0    50   ~ 0
T_SWO
$Comp
L lab4-rescue:XS2-my_lib XS1
U 1 1 61CF270C
P 3500 4700
F 0 "XS1" H 3563 4699 50  0000 C CNN
F 1 "XS2" H 3500 4700 50  0001 C CNN
F 2 "" H 3500 4700 50  0001 C CNN
F 3 "" H 3500 4700 50  0001 C CNN
	1    3500 4700
	1    0    0    -1  
$EndComp
$Comp
L power:+5V #PWR0115
U 1 1 61D230A3
P 4050 4900
F 0 "#PWR0115" H 4050 4750 50  0001 C CNN
F 1 "+5V" H 4065 5073 50  0000 C CNN
F 2 "" H 4050 4900 50  0001 C CNN
F 3 "" H 4050 4900 50  0001 C CNN
	1    4050 4900
	1    0    0    -1  
$EndComp
$Comp
L Device:R R1
U 1 1 61D235AA
P 4100 5325
F 0 "R1" V 3893 5325 50  0000 C CNN
F 1 "100k" V 3984 5325 50  0000 C CNN
F 2 "" V 4030 5325 50  0001 C CNN
F 3 "~" H 4100 5325 50  0001 C CNN
	1    4100 5325
	0    1    1    0   
$EndComp
Wire Wire Line
	4250 5325 4350 5325
Wire Wire Line
	4350 5325 4350 5600
Wire Wire Line
	4350 5600 4125 5600
Wire Wire Line
	3950 5450 4125 5450
Wire Wire Line
	4125 5450 4125 5600
Connection ~ 4125 5600
Wire Wire Line
	4125 5600 3950 5600
Wire Wire Line
	4125 5600 4125 5750
$Comp
L power:Earth #PWR0116
U 1 1 61D2F612
P 4125 5750
F 0 "#PWR0116" H 4125 5500 50  0001 C CNN
F 1 "Earth" H 4125 5600 50  0001 C CNN
F 2 "" H 4125 5750 50  0001 C CNN
F 3 "~" H 4125 5750 50  0001 C CNN
	1    4125 5750
	1    0    0    -1  
$EndComp
Entry Wire Line
	5700 4950 5800 4850
Entry Wire Line
	5700 5050 5800 4950
Wire Wire Line
	3950 5100 5525 5100
Wire Wire Line
	5525 5100 5525 4950
Wire Wire Line
	5525 4950 5700 4950
Wire Wire Line
	3950 5200 4500 5200
Wire Wire Line
	5700 5200 5700 5050
Text Label 4250 5100 0    50   ~ 0
USB_DM
Text Label 4275 5200 0    50   ~ 0
USB_DP
$Comp
L lab4-rescue:XS3-my_lib XS2
U 1 1 61D3F3C6
P 3575 6200
F 0 "XS2" H 3633 6198 50  0000 C CNN
F 1 "XS3" H 3575 6200 50  0001 C CNN
F 2 "" H 3575 6200 50  0001 C CNN
F 3 "" H 3575 6200 50  0001 C CNN
	1    3575 6200
	1    0    0    -1  
$EndComp
Entry Wire Line
	5700 6150 5800 6050
Entry Wire Line
	5700 6275 5800 6175
Entry Wire Line
	5700 6400 5800 6300
Entry Wire Line
	5700 6525 5800 6425
$Comp
L power:Earth #PWR0117
U 1 1 61D4162D
P 4025 6950
F 0 "#PWR0117" H 4025 6700 50  0001 C CNN
F 1 "Earth" H 4025 6800 50  0001 C CNN
F 2 "" H 4025 6950 50  0001 C CNN
F 3 "~" H 4025 6950 50  0001 C CNN
	1    4025 6950
	1    0    0    -1  
$EndComp
Wire Wire Line
	4025 6450 5225 6450
Wire Wire Line
	5225 6450 5225 6150
Wire Wire Line
	5225 6150 5700 6150
Wire Wire Line
	4025 6600 5300 6600
Wire Wire Line
	5300 6600 5300 6275
Wire Wire Line
	5300 6275 5700 6275
Wire Wire Line
	4025 6700 5375 6700
Wire Wire Line
	5375 6700 5375 6400
Wire Wire Line
	5375 6400 5700 6400
Wire Wire Line
	4025 6825 5475 6825
Wire Wire Line
	5475 6825 5475 6525
Wire Wire Line
	5475 6525 5700 6525
Text Label 4275 6450 0    50   ~ 0
VBUS_FS
Text Label 4275 6600 0    50   ~ 0
OTG_FS_DM
Text Label 4325 6700 0    50   ~ 0
OTG_FS_DP
Text Label 4400 6825 0    50   ~ 0
OTG_FS_ID
$Comp
L Device:R R2
U 1 1 61D58B71
P 4875 5550
F 0 "R2" V 4668 5550 50  0000 C CNN
F 1 "1k5" V 4759 5550 50  0000 C CNN
F 2 "" V 4805 5550 50  0001 C CNN
F 3 "~" H 4875 5550 50  0001 C CNN
	1    4875 5550
	0    1    1    0   
$EndComp
$Comp
L power:+3V0 #PWR0118
U 1 1 61D59573
P 5025 5550
F 0 "#PWR0118" H 5025 5400 50  0001 C CNN
F 1 "+3V0" H 5040 5723 50  0000 C CNN
F 2 "" H 5025 5550 50  0001 C CNN
F 3 "" H 5025 5550 50  0001 C CNN
	1    5025 5550
	1    0    0    -1  
$EndComp
Wire Wire Line
	4725 5550 4500 5550
Wire Wire Line
	4500 5550 4500 5200
Connection ~ 4500 5200
Wire Wire Line
	4500 5200 5700 5200
$Comp
L lab4-rescue:XS4-my_lib-lab4-rescue XS4
U 1 1 61D65FE8
P 12425 5175
F 0 "XS4" H 12047 4875 50  0000 R CNN
F 1 "XS4" H 12425 5175 50  0001 C CNN
F 2 "" H 12425 5175 50  0001 C CNN
F 3 "" H 12425 5175 50  0001 C CNN
	1    12425 5175
	-1   0    0    -1  
$EndComp
Wire Wire Line
	11375 5075 11850 5075
Wire Wire Line
	11850 5075 11850 5400
Wire Wire Line
	11850 5400 11975 5400
Wire Wire Line
	11375 5275 11775 5275
Wire Wire Line
	11775 5275 11775 5550
Wire Wire Line
	11775 5550 11975 5550
Wire Wire Line
	11375 5675 11975 5675
Wire Wire Line
	11975 5675 11975 5650
Connection ~ 12400 4825
Entry Wire Line
	9500 4275 9600 4375
NoConn ~ 8925 2375
NoConn ~ 8925 2475
NoConn ~ 8925 2575
NoConn ~ 8925 2775
NoConn ~ 8925 2875
NoConn ~ 8925 2975
NoConn ~ 8925 3075
NoConn ~ 8925 3775
NoConn ~ 8925 3975
NoConn ~ 8925 4075
NoConn ~ 8925 4175
NoConn ~ 8925 4375
NoConn ~ 8925 4475
NoConn ~ 8925 4575
NoConn ~ 8925 4675
NoConn ~ 8925 4775
NoConn ~ 8925 4875
NoConn ~ 8925 5175
NoConn ~ 8925 5275
NoConn ~ 8925 5375
NoConn ~ 8925 5475
NoConn ~ 8925 5675
NoConn ~ 8925 5775
NoConn ~ 8925 5875
NoConn ~ 8925 6075
NoConn ~ 8925 6175
NoConn ~ 8925 6275
NoConn ~ 8925 6475
NoConn ~ 8925 6575
NoConn ~ 8925 6775
NoConn ~ 8925 6975
NoConn ~ 8925 7075
NoConn ~ 8925 7175
NoConn ~ 7125 7175
NoConn ~ 7125 7075
NoConn ~ 7125 6975
NoConn ~ 7125 6875
NoConn ~ 7125 6775
NoConn ~ 7125 6675
NoConn ~ 7125 6575
NoConn ~ 7125 6475
NoConn ~ 7125 6375
NoConn ~ 7125 6275
NoConn ~ 7125 6175
NoConn ~ 7125 6075
NoConn ~ 7125 5675
NoConn ~ 7125 5775
NoConn ~ 7125 5875
NoConn ~ 7125 5975
NoConn ~ 7125 5475
NoConn ~ 7125 5375
NoConn ~ 7125 5275
NoConn ~ 7125 5175
NoConn ~ 7125 5075
NoConn ~ 7125 4975
NoConn ~ 7125 3975
NoConn ~ 7125 4075
NoConn ~ 7125 4175
NoConn ~ 7125 4275
NoConn ~ 7125 4375
NoConn ~ 7125 4475
NoConn ~ 7125 4575
NoConn ~ 7125 4675
NoConn ~ 7125 4775
NoConn ~ 7125 4875
NoConn ~ 7125 2475
NoConn ~ 7125 2675
NoConn ~ 7125 2775
NoConn ~ 7125 2875
NoConn ~ 11375 5875
NoConn ~ 11375 6075
NoConn ~ 9975 4875
NoConn ~ 9975 5075
NoConn ~ 9975 6275
NoConn ~ 9975 6175
NoConn ~ 9975 6075
NoConn ~ 9975 5975
NoConn ~ 9975 5775
NoConn ~ 11375 5475
NoConn ~ 10375 4675
Wire Wire Line
	9825 5275 9975 5275
Entry Wire Line
	9500 2675 9600 2775
Wire Wire Line
	8925 2675 9500 2675
Text Label 9225 2675 0    50   ~ 0
I2S3_MCK
Entry Wire Line
	9500 5075 9600 5175
Wire Wire Line
	8925 5075 9500 5075
Text Label 9125 5075 0    50   ~ 0
USB_DM
Wire Wire Line
	10975 4475 10975 4600
Wire Wire Line
	10575 4675 10700 4675
Wire Wire Line
	10700 4675 10700 4475
Connection ~ 10975 4475
Wire Wire Line
	10700 4475 10975 4475
$Comp
L power:PWR_FLAG #FLG0101
U 1 1 61C9A7C6
P 13175 4075
F 0 "#FLG0101" H 13175 4150 50  0001 C CNN
F 1 "PWR_FLAG" H 13175 4248 50  0000 C CNN
F 2 "" H 13175 4075 50  0001 C CNN
F 3 "~" H 13175 4075 50  0001 C CNN
	1    13175 4075
	1    0    0    -1  
$EndComp
$Comp
L power:PWR_FLAG #FLG0102
U 1 1 61C9B47D
P 13450 4100
F 0 "#FLG0102" H 13450 4175 50  0001 C CNN
F 1 "PWR_FLAG" H 13450 4273 50  0000 C CNN
F 2 "" H 13450 4100 50  0001 C CNN
F 3 "~" H 13450 4100 50  0001 C CNN
	1    13450 4100
	1    0    0    -1  
$EndComp
$Comp
L power:VCC #PWR0119
U 1 1 61C9C0A1
P 13450 4350
F 0 "#PWR0119" H 13450 4200 50  0001 C CNN
F 1 "VCC" H 13465 4523 50  0000 C CNN
F 2 "" H 13450 4350 50  0001 C CNN
F 3 "" H 13450 4350 50  0001 C CNN
	1    13450 4350
	-1   0    0    1   
$EndComp
Wire Wire Line
	13450 4350 13450 4100
$Comp
L power:GND #PWR0120
U 1 1 61CAFE90
P 13175 4375
F 0 "#PWR0120" H 13175 4125 50  0001 C CNN
F 1 "GND" H 13180 4202 50  0000 C CNN
F 2 "" H 13175 4375 50  0001 C CNN
F 3 "" H 13175 4375 50  0001 C CNN
	1    13175 4375
	1    0    0    -1  
$EndComp
Wire Wire Line
	13175 4075 13175 4375
$Comp
L Regulator_Linear:LD3985M25R_SOT23 U3
U 1 1 61CC5D30
P 3950 8600
F 0 "U3" H 3950 8942 50  0000 C CNN
F 1 "LD3985M25R_SOT23" H 3950 8851 50  0000 C CNN
F 2 "Package_TO_SOT_SMD:SOT-23-5" H 3950 8925 50  0001 C CIN
F 3 "http://www.st.com/internet/com/TECHNICAL_RESOURCES/TECHNICAL_LITERATURE/DATASHEET/CD00003395.pdf" H 3950 8600 50  0001 C CNN
	1    3950 8600
	1    0    0    -1  
$EndComp
$Comp
L power:+2V5 #PWR0122
U 1 1 61CC7AD5
P 4800 8275
F 0 "#PWR0122" H 4800 8125 50  0001 C CNN
F 1 "+2V5" H 4815 8448 50  0000 C CNN
F 2 "" H 4800 8275 50  0001 C CNN
F 3 "" H 4800 8275 50  0001 C CNN
	1    4800 8275
	1    0    0    -1  
$EndComp
Wire Wire Line
	4800 8275 4800 8500
Wire Wire Line
	4800 8500 4250 8500
$Comp
L power:GNDREF #PWR0123
U 1 1 61CD6922
P 3950 9125
F 0 "#PWR0123" H 3950 8875 50  0001 C CNN
F 1 "GNDREF" H 3955 8952 50  0000 C CNN
F 2 "" H 3950 9125 50  0001 C CNN
F 3 "" H 3950 9125 50  0001 C CNN
	1    3950 9125
	1    0    0    -1  
$EndComp
Wire Wire Line
	3950 9125 3950 8975
Wire Wire Line
	3650 8600 3650 8975
Wire Wire Line
	3650 8975 3950 8975
Connection ~ 3950 8975
Wire Wire Line
	3950 8975 3950 8900
Wire Wire Line
	4250 8600 4250 8975
Wire Wire Line
	4250 8975 3950 8975
Wire Wire Line
	3950 4950 4050 4950
Wire Wire Line
	4050 4950 4050 4900
$Comp
L power:+5V #PWR0121
U 1 1 61D2B2FA
P 3325 8450
F 0 "#PWR0121" H 3325 8300 50  0001 C CNN
F 1 "+5V" H 3340 8623 50  0000 C CNN
F 2 "" H 3325 8450 50  0001 C CNN
F 3 "" H 3325 8450 50  0001 C CNN
	1    3325 8450
	1    0    0    -1  
$EndComp
Wire Wire Line
	3325 8450 3650 8450
Wire Wire Line
	3650 8450 3650 8500
$Comp
L Regulator_Linear:LD3985M33R_SOT23 U4
U 1 1 61D700D9
P 5950 8975
F 0 "U4" H 5950 9317 50  0000 C CNN
F 1 "LD3985M33R_SOT23" H 5950 9226 50  0000 C CNN
F 2 "Package_TO_SOT_SMD:SOT-23-5" H 5950 9300 50  0001 C CIN
F 3 "http://www.st.com/internet/com/TECHNICAL_RESOURCES/TECHNICAL_LITERATURE/DATASHEET/CD00003395.pdf" H 5950 8975 50  0001 C CNN
	1    5950 8975
	1    0    0    -1  
$EndComp
$Comp
L power:+5V #PWR0124
U 1 1 61D70F29
P 5325 8850
F 0 "#PWR0124" H 5325 8700 50  0001 C CNN
F 1 "+5V" H 5340 9023 50  0000 C CNN
F 2 "" H 5325 8850 50  0001 C CNN
F 3 "" H 5325 8850 50  0001 C CNN
	1    5325 8850
	1    0    0    -1  
$EndComp
$Comp
L power:+3.3V #PWR0125
U 1 1 61D71BED
P 6475 8825
F 0 "#PWR0125" H 6475 8675 50  0001 C CNN
F 1 "+3.3V" H 6490 8998 50  0000 C CNN
F 2 "" H 6475 8825 50  0001 C CNN
F 3 "" H 6475 8825 50  0001 C CNN
	1    6475 8825
	1    0    0    -1  
$EndComp
Wire Wire Line
	5325 8850 5325 8875
Wire Wire Line
	5325 8875 5650 8875
Wire Wire Line
	6250 8875 6475 8875
Wire Wire Line
	6475 8875 6475 8825
$Comp
L power:GNDREF #PWR0126
U 1 1 61D82DD3
P 5950 9425
F 0 "#PWR0126" H 5950 9175 50  0001 C CNN
F 1 "GNDREF" H 5955 9252 50  0000 C CNN
F 2 "" H 5950 9425 50  0001 C CNN
F 3 "" H 5950 9425 50  0001 C CNN
	1    5950 9425
	1    0    0    -1  
$EndComp
Wire Wire Line
	5950 9425 5950 9325
Wire Wire Line
	5650 8975 5650 9325
Wire Wire Line
	5650 9325 5950 9325
Connection ~ 5950 9325
Wire Wire Line
	5950 9325 5950 9275
Wire Wire Line
	6250 8975 6250 9325
Wire Wire Line
	6250 9325 5950 9325
$Comp
L power:+3.3V #PWR0127
U 1 1 61DA7B7D
P 8050 1700
F 0 "#PWR0127" H 8050 1550 50  0001 C CNN
F 1 "+3.3V" H 8065 1873 50  0000 C CNN
F 2 "" H 8050 1700 50  0001 C CNN
F 3 "" H 8050 1700 50  0001 C CNN
	1    8050 1700
	1    0    0    -1  
$EndComp
Wire Wire Line
	8050 1700 8050 1975
Wire Wire Line
	8050 1975 8025 1975
Wire Wire Line
	8125 1975 8050 1975
Connection ~ 8050 1975
Wire Wire Line
	8225 1975 8125 1975
Connection ~ 8125 1975
Wire Wire Line
	8325 1975 8225 1975
Connection ~ 8225 1975
Wire Wire Line
	8425 1975 8325 1975
Connection ~ 8325 1975
Wire Wire Line
	7925 1975 8025 1975
Connection ~ 8025 1975
Wire Wire Line
	7825 1975 7925 1975
Connection ~ 7925 1975
Wire Wire Line
	7725 1975 7825 1975
Connection ~ 7825 1975
$Comp
L power:GNDREF #PWR0128
U 1 1 61DF5450
P 8025 7700
F 0 "#PWR0128" H 8025 7450 50  0001 C CNN
F 1 "GNDREF" H 8030 7527 50  0000 C CNN
F 2 "" H 8025 7700 50  0001 C CNN
F 3 "" H 8025 7700 50  0001 C CNN
	1    8025 7700
	1    0    0    -1  
$EndComp
Wire Wire Line
	8025 7700 8025 7525
Wire Wire Line
	8125 7475 8125 7525
Wire Wire Line
	8125 7525 8025 7525
Connection ~ 8025 7525
Wire Wire Line
	8025 7525 8025 7475
Wire Wire Line
	8225 7475 8225 7525
Wire Wire Line
	8225 7525 8125 7525
Connection ~ 8125 7525
Wire Wire Line
	7925 7475 7925 7525
Wire Wire Line
	7925 7525 8025 7525
Wire Wire Line
	7825 7475 7825 7525
Wire Wire Line
	7825 7525 7925 7525
Connection ~ 7925 7525
Wire Bus Line
	5800 4325 5800 7875
Wire Bus Line
	9600 1625 9600 7400
$EndSCHEMATC
