EESchema Schematic File Version 4
EELAYER 30 0
EELAYER END
$Descr A3 16535 11693
encoding utf-8
Sheet 1 1
Title "Лабораторная работа #1"
Date ""
Rev ""
Comp "МГТУ им. Н. Э. Баумана \\nгруппа ИУ6-73Б"
Comment1 ""
Comment2 "Кравцов И. К."
Comment3 "Хохлов С. А."
Comment4 ""
$EndDescr
$Comp
L Device:R R2
U 1 1 6176C69F
P 9000 7300
F 0 "R2" V 8793 7300 50  0000 C CNN
F 1 "100" V 8884 7300 50  0000 C CNN
F 2 "Resistor_THT:R_Axial_DIN0207_L6.3mm_D2.5mm_P2.54mm_Vertical" V 8930 7300 50  0001 C CNN
F 3 "~" H 9000 7300 50  0001 C CNN
F 4 "Резисторы" H 9000 7300 60  0001 C CNN "Группа"
	1    9000 7300
	0    1    1    0   
$EndComp
$Comp
L Device:R R1
U 1 1 6176D777
P 8650 5200
F 0 "R1" V 8443 5200 50  0000 C CNN
F 1 "1k" V 8534 5200 50  0000 C CNN
F 2 "Resistor_THT:R_Axial_DIN0207_L6.3mm_D2.5mm_P2.54mm_Vertical" V 8580 5200 50  0001 C CNN
F 3 "~" H 8650 5200 50  0001 C CNN
F 4 "Резисторы" H 8650 5200 60  0001 C CNN "Группа"
	1    8650 5200
	0    1    1    0   
$EndComp
$Comp
L Device:LED D1
U 1 1 61775129
P 8150 5200
F 0 "D1" H 8143 5417 50  0000 C CNN
F 1 "LED" H 8143 5326 50  0000 C CNN
F 2 "LED_THT:LED_D5.0mm" H 8150 5200 50  0001 C CNN
F 3 "~" H 8150 5200 50  0001 C CNN
F 4 "Диоды" H 8150 5200 60  0001 C CNN "Группа"
	1    8150 5200
	1    0    0    -1  
$EndComp
$Comp
L power:VCC #PWR01
U 1 1 61784EB2
P 6800 4850
F 0 "#PWR01" H 6800 4700 50  0001 C CNN
F 1 "VCC" H 6815 5023 50  0000 C CNN
F 2 "" H 6800 4850 50  0001 C CNN
F 3 "" H 6800 4850 50  0001 C CNN
	1    6800 4850
	1    0    0    -1  
$EndComp
$Comp
L power:VCC #PWR06
U 1 1 61787C5B
P 8950 5150
F 0 "#PWR06" H 8950 5000 50  0001 C CNN
F 1 "VCC" H 8965 5323 50  0000 C CNN
F 2 "" H 8950 5150 50  0001 C CNN
F 3 "" H 8950 5150 50  0001 C CNN
	1    8950 5150
	1    0    0    -1  
$EndComp
$Comp
L power:VCC #PWR03
U 1 1 617881CF
P 8500 7100
F 0 "#PWR03" H 8500 6950 50  0001 C CNN
F 1 "VCC" H 8515 7273 50  0000 C CNN
F 2 "" H 8500 7100 50  0001 C CNN
F 3 "" H 8500 7100 50  0001 C CNN
	1    8500 7100
	1    0    0    -1  
$EndComp
$Comp
L power:GND #PWR02
U 1 1 61788817
P 6800 6550
F 0 "#PWR02" H 6800 6300 50  0001 C CNN
F 1 "GND" H 6805 6377 50  0000 C CNN
F 2 "" H 6800 6550 50  0001 C CNN
F 3 "" H 6800 6550 50  0001 C CNN
	1    6800 6550
	1    0    0    -1  
$EndComp
$Comp
L power:GND #PWR04
U 1 1 61788E1E
P 8500 7500
F 0 "#PWR04" H 8500 7250 50  0001 C CNN
F 1 "GND" H 8505 7327 50  0000 C CNN
F 2 "" H 8500 7500 50  0001 C CNN
F 3 "" H 8500 7500 50  0001 C CNN
	1    8500 7500
	1    0    0    -1  
$EndComp
Wire Wire Line
	8950 5150 8950 5200
Wire Wire Line
	8950 5200 8800 5200
Wire Wire Line
	8500 5200 8300 5200
Wire Wire Line
	8000 5200 7800 5200
Wire Wire Line
	7800 5200 7800 5500
Wire Wire Line
	7800 5500 7600 5500
Wire Wire Line
	6800 4850 6800 5000
Wire Wire Line
	6800 6400 6800 6550
Wire Wire Line
	8400 7200 8500 7200
Wire Wire Line
	8500 7200 8500 7100
Wire Wire Line
	8400 7400 8500 7400
Wire Wire Line
	8500 7400 8500 7500
Wire Wire Line
	8400 7300 8850 7300
Wire Wire Line
	9150 7300 9450 7300
Wire Wire Line
	7600 5600 8400 5600
Text Label 8150 5600 0    50   ~ 0
INPUT
Text Label 9350 7300 0    50   ~ 0
INPUT
Text Label 7800 5400 0    50   ~ 0
uCtoLED
Text Label 8350 5200 3    50   ~ 0
LEDtoR
Text Label 8450 7300 0    50   ~ 0
INPUTtoR
NoConn ~ 7600 5700
$Comp
L power:PWR_FLAG #FLG02
U 1 1 6178CEB8
P 9350 5800
F 0 "#FLG02" H 9350 5875 50  0001 C CNN
F 1 "PWR_FLAG" H 9350 5973 50  0000 C CNN
F 2 "" H 9350 5800 50  0001 C CNN
F 3 "~" H 9350 5800 50  0001 C CNN
	1    9350 5800
	1    0    0    -1  
$EndComp
$Comp
L power:GND #PWR05
U 1 1 6178D6C5
P 8850 5950
F 0 "#PWR05" H 8850 5700 50  0001 C CNN
F 1 "GND" H 8855 5777 50  0000 C CNN
F 2 "" H 8850 5950 50  0001 C CNN
F 3 "" H 8850 5950 50  0001 C CNN
	1    8850 5950
	1    0    0    -1  
$EndComp
$Comp
L power:VCC #PWR07
U 1 1 6178E277
P 9350 5950
F 0 "#PWR07" H 9350 5800 50  0001 C CNN
F 1 "VCC" H 9365 6123 50  0000 C CNN
F 2 "" H 9350 5950 50  0001 C CNN
F 3 "" H 9350 5950 50  0001 C CNN
	1    9350 5950
	1    0    0    1   
$EndComp
$Comp
L power:PWR_FLAG #FLG01
U 1 1 6178C91A
P 8850 5800
F 0 "#FLG01" H 8850 5875 50  0001 C CNN
F 1 "PWR_FLAG" H 8850 5973 50  0000 C CNN
F 2 "" H 8850 5800 50  0001 C CNN
F 3 "~" H 8850 5800 50  0001 C CNN
	1    8850 5800
	1    0    0    -1  
$EndComp
Wire Wire Line
	8850 5800 8850 5950
Wire Wire Line
	9350 5800 9350 5950
Text Notes 6600 6900 0    50   ~ 0
#Комментарий
$Comp
L MCU_Microchip_PIC16:PIC16F18346-SO U1
U 1 1 61798B1A
P 6800 5700
F 0 "U1" H 6200 6400 50  0000 C CNN
F 1 "PIC16F18346-SO" H 7300 6400 50  0000 C CNN
F 2 "Package_SO:SOIC-20W_7.5x12.8mm_P1.27mm" H 6790 4910 50  0001 C CNN
F 3 "http://ww1.microchip.com/downloads/en/DeviceDoc/40001839B.pdf" H 6800 5000 50  0001 C CNN
F 4 "Микросхемы" H 6800 5700 60  0001 C CNN "Группа"
	1    6800 5700
	1    0    0    -1  
$EndComp
$Comp
L Mylib:Разъём XP1
U 1 1 617A3E6C
P 7950 7250
F 0 "XP1" H 7950 7500 50  0000 C CNN
F 1 "Разъём" H 7950 7000 50  0000 C CNN
F 2 "Connector:Banana_Jack_3Pin" H 7950 7500 50  0001 C CNN
F 3 "" H 7950 7500 50  0001 C CNN
F 4 "Разъёмы" H 7950 7250 60  0001 C CNN "Группа"
	1    7950 7250
	1    0    0    -1  
$EndComp
NoConn ~ 7600 5800
NoConn ~ 7600 5900
NoConn ~ 6000 5200
NoConn ~ 6000 5300
NoConn ~ 6000 5400
NoConn ~ 6000 5500
NoConn ~ 6000 5600
NoConn ~ 6000 5700
NoConn ~ 6000 5900
NoConn ~ 6000 6000
NoConn ~ 6000 6100
NoConn ~ 6000 6200
NoConn ~ 7600 5200
NoConn ~ 7600 5300
NoConn ~ 7600 5400
NoConn ~ 6450 4550
$EndSCHEMATC
