EESchema Schematic File Version 4
EELAYER 30 0
EELAYER END
$Descr A3 16535 11693
encoding utf-8
Sheet 1 1
Title "Лабораторная работа 4"
Date "2021-12-22"
Rev ""
Comp "МГТУ. им. Баумана"
Comment1 " Таймерное устройство для регистра"
Comment2 "Хоанг С.Ч."
Comment3 "Хартов В.Я."
Comment4 ""
$EndDescr
$Comp
L Device:R R1
U 1 1 6178D821
P 2800 2250
F 0 "R1" V 2700 2250 50  0000 C CNN
F 1 "1k" V 2875 2250 50  0000 C CNN
F 2 "Resistor_SMD:R_0805_2012Metric" V 2730 2250 50  0001 C CNN
F 3 "~" H 2800 2250 50  0001 C CNN
	1    2800 2250
	0    1    1    0   
$EndComp
$Comp
L Switch:SW_DIP_x01 SW1
U 1 1 6178E44A
P 2050 2750
F 0 "SW1" H 2050 2900 50  0000 C CNN
F 1 "SW_DIP_x01" H 2050 2926 50  0001 C CNN
F 2 "Button_Switch_THT:SW_PUSH_6mm" H 2050 2750 50  0001 C CNN
F 3 "~" H 2050 2750 50  0001 C CNN
	1    2050 2750
	1    0    0    -1  
$EndComp
$Comp
L Device:C C1
U 1 1 6179A6D2
P 2400 2950
F 0 "C1" V 2325 3075 50  0000 C CNN
F 1 "20p" V 2500 3075 50  0000 C CNN
F 2 "Capacitor_SMD:C_0805_2012Metric" H 2438 2800 50  0001 C CNN
F 3 "~" H 2400 2950 50  0001 C CNN
F 4 "Конденсаторы" H 2400 2950 60  0001 C CNN "Группа"
	1    2400 2950
	0    1    1    0   
$EndComp
$Comp
L Device:C C2
U 1 1 6179BA14
P 2400 3450
F 0 "C2" V 2325 3575 50  0000 C CNN
F 1 "20p" V 2550 3475 50  0000 C CNN
F 2 "Capacitor_SMD:C_0805_2012Metric" H 2438 3300 50  0001 C CNN
F 3 "~" H 2400 3450 50  0001 C CNN
	1    2400 3450
	0    1    1    0   
$EndComp
Wire Wire Line
	2800 3050 2800 2950
Wire Wire Line
	2800 2950 2550 2950
Wire Wire Line
	2800 3450 2800 3350
Wire Wire Line
	2550 3450 2800 3450
Entry Wire Line
	9050 6150 9150 6250
Wire Wire Line
	9150 6250 10100 6250
Entry Wire Line
	9050 2100 9150 2200
$Comp
L Driver_LED:MAX7221xNG DD3
U 1 1 61C0020E
P 10500 5650
F 0 "DD3" H 10700 6650 50  0000 C CNN
F 1 "TM1637" H 10725 4675 50  0000 C CNN
F 2 "Package_DIP:DIP-24_W7.62mm" H 10450 5700 50  0001 C CNN
F 3 "https://datasheets.maximintegrated.com/en/ds/MAX7219-MAX7221.pdf" H 10550 5500 50  0001 C CNN
	1    10500 5650
	1    0    0    -1  
$EndComp
$Comp
L Display_Character:CA56-12CGKWA HG1
U 1 1 61C43477
P 12600 5150
F 0 "HG1" H 12600 5817 50  0000 C CNN
F 1 "CA56-12CGKWA" H 12600 5726 50  0000 C CNN
F 2 "Display_7Segment:CA56-12CGKWA" H 12600 4550 50  0001 C CNN
F 3 "http://www.kingbright.com/attachments/file/psearch/000/00/00/CA56-12CGKWA(Ver.9A).pdf" H 12170 5180 50  0001 C CNN
F 4 "Прочие элементы" H 12600 5150 60  0001 C CNN "Группа"
	1    12600 5150
	1    0    0    -1  
$EndComp
Wire Wire Line
	10900 4850 11500 4850
Wire Wire Line
	10900 4950 11500 4950
Wire Wire Line
	10900 5150 11500 5150
Wire Wire Line
	10900 5050 11500 5050
Wire Wire Line
	10900 5250 11500 5250
Wire Wire Line
	10900 5350 11500 5350
Wire Wire Line
	10900 5450 11500 5450
Wire Wire Line
	10900 5550 11500 5550
Wire Wire Line
	14075 5250 14075 5950
Wire Wire Line
	10900 5950 14075 5950
Wire Wire Line
	14000 5350 14000 5850
Wire Wire Line
	14000 5850 10900 5850
Wire Wire Line
	13900 5750 13900 5450
Wire Wire Line
	10900 5750 13900 5750
Wire Wire Line
	11550 5650 11550 5700
Wire Wire Line
	11550 5700 13750 5700
Wire Wire Line
	13750 5700 13750 5550
Wire Wire Line
	10900 5650 11550 5650
Wire Wire Line
	3500 2950 2800 2950
Connection ~ 2800 2950
$Comp
L lab4-rescue:AT90S8515-MCU_Microchip_ATmega-E3-rescue DD1
U 1 1 6178C485
P 4100 4450
F 0 "DD1" H 4275 6450 50  0000 C CNN
F 1 "AT90S8515" H 4100 6540 50  0001 C CNN
F 2 "Package_QFP:TQFP-44_10x10mm_P0.8mm" H 4100 4450 50  0001 C CIN
F 3 "http://ww1.microchip.com/downloads/en/DeviceDoc/doc2466.pdf" H 4100 4450 50  0001 C CNN
F 4 "Микроконтроллеры" H 4100 4450 60  0001 C CNN "Группа"
	1    4100 4450
	1    0    0    -1  
$EndComp
Wire Wire Line
	2800 3450 3500 3450
Wire Wire Line
	3500 3450 3500 3150
Connection ~ 2800 3450
NoConn ~ 4700 2750
NoConn ~ 4700 2850
NoConn ~ 4700 2950
NoConn ~ 4700 3050
NoConn ~ 4700 3150
NoConn ~ 4700 3250
NoConn ~ 4700 3350
NoConn ~ 4700 3450
NoConn ~ 4700 3850
NoConn ~ 4700 4250
NoConn ~ 4700 4350
NoConn ~ 4700 4950
NoConn ~ 4700 5050
NoConn ~ 4700 5150
NoConn ~ 4700 5250
NoConn ~ 4700 6150
Wire Bus Line
	9050 1000 5750 1000
Wire Wire Line
	1700 3450 2250 3450
Wire Wire Line
	2250 2950 1700 2950
Connection ~ 1700 2950
Wire Wire Line
	1700 2950 1700 3450
Wire Wire Line
	1750 2750 1700 2750
Wire Wire Line
	1700 2750 1700 2950
Entry Wire Line
	5650 4850 5750 4950
Entry Wire Line
	5650 3950 5750 4050
Entry Wire Line
	5650 4050 5750 4150
Entry Wire Line
	5650 4150 5750 4250
Wire Wire Line
	4700 4850 5650 4850
Wire Wire Line
	4700 3950 5650 3950
Wire Wire Line
	4700 4050 5650 4050
Wire Wire Line
	4700 4150 5650 4150
NoConn ~ 10200 2750
Entry Wire Line
	9050 2850 9150 2950
Entry Wire Line
	9050 2950 9150 3050
Wire Wire Line
	9150 2950 9700 2950
Wire Wire Line
	9150 3050 9700 3050
Wire Wire Line
	13700 5250 14075 5250
Wire Wire Line
	13700 5350 14000 5350
Wire Wire Line
	13700 5450 13900 5450
Wire Wire Line
	13700 5550 13750 5550
NoConn ~ 10100 6450
NoConn ~ 10900 6450
NoConn ~ 10900 6350
NoConn ~ 10900 6250
NoConn ~ 10900 6150
NoConn ~ 10900 6050
NoConn ~ 10100 4850
Wire Wire Line
	9150 6350 10100 6350
Entry Wire Line
	9050 6250 9150 6350
Entry Wire Line
	5650 4750 5750 4850
Wire Wire Line
	4700 4750 5650 4750
Text Label 5300 4750 0    50   ~ 0
LED_CLK
Text Label 9200 6350 0    50   ~ 0
LED_CLK
Text Label 9200 6250 0    50   ~ 0
LED_DIO
Text Label 5300 4850 0    50   ~ 0
LED_DIO
Text Label 5400 3950 0    50   ~ 0
SCLK
Text Label 5400 4050 0    50   ~ 0
IO
Text Label 5400 4150 0    50   ~ 0
RST
Text Notes 3250 3425 0    50   ~ 0
XTAL2
Text Notes 3225 2925 0    50   ~ 0
XTAL1
Text Notes 3250 2725 0    50   ~ 0
Reset
Text Label 9200 3050 0    50   ~ 0
RST
Text Label 9200 2950 0    50   ~ 0
SCLK
Text Label 9200 2200 0    50   ~ 0
IO
Wire Wire Line
	6700 8150 6700 8250
Wire Wire Line
	6700 8150 6700 8050
Connection ~ 6700 8150
Wire Wire Line
	6100 8150 6700 8150
Wire Wire Line
	6400 7750 6100 7750
$Comp
L Device:C C3
U 1 1 61E94B49
P 6100 7950
F 0 "C3" H 6025 8075 50  0000 C CNN
F 1 "0.33u" H 6000 7850 50  0000 C CNN
F 2 "Capacitor_SMD:C_0805_2012Metric" H 6138 7800 50  0001 C CNN
F 3 "~" H 6100 7950 50  0001 C CNN
	1    6100 7950
	1    0    0    -1  
$EndComp
$Comp
L Device:C C4
U 1 1 61E9F931
P 7300 7950
F 0 "C4" H 7375 8075 50  0000 C CNN
F 1 "0.1u" H 7475 7875 50  0000 C CNN
F 2 "Capacitor_SMD:C_0805_2012Metric" H 7338 7800 50  0001 C CNN
F 3 "~" H 7300 7950 50  0001 C CNN
	1    7300 7950
	1    0    0    -1  
$EndComp
$Comp
L power:GND #PWR0101
U 1 1 61D234D0
P 6700 8250
F 0 "#PWR0101" H 6700 8000 50  0001 C CNN
F 1 "GND" H 6705 8077 50  0000 C CNN
F 2 "" H 6700 8250 50  0001 C CNN
F 3 "" H 6700 8250 50  0001 C CNN
	1    6700 8250
	1    0    0    -1  
$EndComp
Wire Wire Line
	4100 6450 4100 6550
$Comp
L power:GND #PWR0102
U 1 1 61D77A79
P 4100 6550
F 0 "#PWR0102" H 4100 6300 50  0001 C CNN
F 1 "GND" H 4105 6377 50  0000 C CNN
F 2 "" H 4100 6550 50  0001 C CNN
F 3 "" H 4100 6550 50  0001 C CNN
	1    4100 6550
	1    0    0    -1  
$EndComp
$Comp
L power:GND #PWR0103
U 1 1 61D8670F
P 10200 3650
F 0 "#PWR0103" H 10200 3400 50  0001 C CNN
F 1 "GND" H 10205 3477 50  0000 C CNN
F 2 "" H 10200 3650 50  0001 C CNN
F 3 "" H 10200 3650 50  0001 C CNN
	1    10200 3650
	1    0    0    -1  
$EndComp
Wire Wire Line
	10200 3650 10200 3550
Wire Wire Line
	1700 2750 1700 2650
$Comp
L power:GND #PWR0105
U 1 1 61DC1D35
P 1700 2650
F 0 "#PWR0105" H 1700 2400 50  0001 C CNN
F 1 "GND" H 1705 2477 50  0000 C CNN
F 2 "" H 1700 2650 50  0001 C CNN
F 3 "" H 1700 2650 50  0001 C CNN
	1    1700 2650
	1    0    0    1   
$EndComp
Connection ~ 1700 2750
$Comp
L power:GND #PWR0106
U 1 1 61DD7C48
P 10500 6750
F 0 "#PWR0106" H 10500 6500 50  0001 C CNN
F 1 "GND" H 10505 6577 50  0000 C CNN
F 2 "" H 10500 6750 50  0001 C CNN
F 3 "" H 10500 6750 50  0001 C CNN
	1    10500 6750
	1    0    0    -1  
$EndComp
Wire Wire Line
	10500 6750 10500 6650
$Comp
L lab4-rescue:ConnectorGOST-Valve XP1
U 1 1 61E0403E
P 4850 7650
F 0 "XP1" H 5378 7596 50  0000 L CNN
F 1 "Разъём питания" H 5378 7505 50  0000 L CNN
F 2 "Connector:Banana_Jack_2Pin" H 4850 8050 50  0001 C CNN
F 3 "" H 4850 8050 50  0001 C CNN
	1    4850 7650
	-1   0    0    -1  
$EndComp
Wire Wire Line
	7300 7800 7300 7750
Wire Wire Line
	7300 8100 7300 8150
Wire Wire Line
	6100 8150 6100 8100
Wire Wire Line
	6100 7800 6100 7750
Wire Wire Line
	6100 7750 5350 7750
Connection ~ 6100 7750
Wire Wire Line
	5350 7950 5600 7950
Wire Wire Line
	5600 7950 5600 8150
Wire Wire Line
	5600 8150 6100 8150
Connection ~ 6100 8150
$Comp
L power:VCC #PWR0107
U 1 1 61E8DB73
P 7850 7550
F 0 "#PWR0107" H 7850 7400 50  0001 C CNN
F 1 "VCC" H 7865 7723 50  0000 C CNN
F 2 "" H 7850 7550 50  0001 C CNN
F 3 "" H 7850 7550 50  0001 C CNN
	1    7850 7550
	1    0    0    -1  
$EndComp
Wire Wire Line
	7850 7750 7850 7550
$Comp
L power:VCC #PWR0111
U 1 1 61EE8081
P 4050 2150
F 0 "#PWR0111" H 4050 2000 50  0001 C CNN
F 1 "VCC" H 4065 2323 50  0000 C CNN
F 2 "" H 4050 2150 50  0001 C CNN
F 3 "" H 4050 2150 50  0001 C CNN
	1    4050 2150
	1    0    0    -1  
$EndComp
$Comp
L Device:C C5
U 1 1 61CAA4A0
P 4350 2350
F 0 "C5" V 4098 2350 50  0000 C CNN
F 1 "0.1u" V 4189 2350 50  0000 C CNN
F 2 "Capacitor_SMD:C_0805_2012Metric" H 4388 2200 50  0001 C CNN
F 3 "~" H 4350 2350 50  0001 C CNN
	1    4350 2350
	0    1    1    0   
$EndComp
$Comp
L power:GND #PWR0108
U 1 1 61CB18C3
P 4600 2350
F 0 "#PWR0108" H 4600 2100 50  0001 C CNN
F 1 "GND" H 4605 2177 50  0000 C CNN
F 2 "" H 4600 2350 50  0001 C CNN
F 3 "" H 4600 2350 50  0001 C CNN
	1    4600 2350
	0    -1   -1   0   
$EndComp
$Comp
L power:VCC #PWR0114
U 1 1 61D68E4D
P 10500 4400
F 0 "#PWR0114" H 10500 4250 50  0001 C CNN
F 1 "VCC" H 10515 4573 50  0000 C CNN
F 2 "" H 10500 4400 50  0001 C CNN
F 3 "" H 10500 4400 50  0001 C CNN
	1    10500 4400
	1    0    0    -1  
$EndComp
$Comp
L Device:C C7
U 1 1 61D68E53
P 10800 4450
F 0 "C7" V 10548 4450 50  0000 C CNN
F 1 "0.1u" V 10639 4450 50  0000 C CNN
F 2 "Capacitor_SMD:C_0805_2012Metric" H 10838 4300 50  0001 C CNN
F 3 "~" H 10800 4450 50  0001 C CNN
	1    10800 4450
	0    1    1    0   
$EndComp
$Comp
L power:GND #PWR0115
U 1 1 61D68E59
P 11050 4450
F 0 "#PWR0115" H 11050 4200 50  0001 C CNN
F 1 "GND" H 11055 4277 50  0000 C CNN
F 2 "" H 11050 4450 50  0001 C CNN
F 3 "" H 11050 4450 50  0001 C CNN
	1    11050 4450
	0    -1   -1   0   
$EndComp
$Comp
L power:VCC #PWR0116
U 1 1 61DAD70F
P 10100 2500
F 0 "#PWR0116" H 10100 2350 50  0001 C CNN
F 1 "VCC" H 10115 2673 50  0000 C CNN
F 2 "" H 10100 2500 50  0001 C CNN
F 3 "" H 10100 2500 50  0001 C CNN
	1    10100 2500
	1    0    0    -1  
$EndComp
$Comp
L Device:C C6
U 1 1 61DAD715
P 10350 2600
F 0 "C6" V 10098 2600 50  0000 C CNN
F 1 "0.1u" V 10189 2600 50  0000 C CNN
F 2 "Capacitor_SMD:C_0805_2012Metric" H 10388 2450 50  0001 C CNN
F 3 "~" H 10350 2600 50  0001 C CNN
	1    10350 2600
	0    1    1    0   
$EndComp
$Comp
L power:GND #PWR0117
U 1 1 61DAD71B
P 10600 2600
F 0 "#PWR0117" H 10600 2350 50  0001 C CNN
F 1 "GND" H 10605 2427 50  0000 C CNN
F 2 "" H 10600 2600 50  0001 C CNN
F 3 "" H 10600 2600 50  0001 C CNN
	1    10600 2600
	0    -1   -1   0   
$EndComp
Wire Wire Line
	10100 2500 10100 2600
Wire Wire Line
	10600 2600 10500 2600
Wire Wire Line
	10200 2600 10100 2600
Wire Wire Line
	10100 2750 10100 2600
Connection ~ 10100 2600
Wire Wire Line
	9150 2200 11000 2200
Wire Wire Line
	11000 2950 10700 2950
Wire Wire Line
	10500 4400 10500 4450
Wire Wire Line
	11050 4450 10950 4450
Wire Wire Line
	10650 4450 10500 4450
Connection ~ 10500 4450
Wire Wire Line
	10500 4450 10500 4650
Wire Wire Line
	4600 2350 4500 2350
Wire Wire Line
	4200 2350 4050 2350
Connection ~ 7300 7750
Wire Wire Line
	7300 7750 7850 7750
Wire Wire Line
	7000 7750 7300 7750
Wire Wire Line
	6700 8150 7300 8150
Wire Wire Line
	11000 2200 11000 2950
$Comp
L Device:Crystal ZQ1
U 1 1 61D0EDCC
P 2800 3200
F 0 "ZQ1" V 2846 3069 50  0000 R CNN
F 1 "Crystal" V 2755 3069 50  0000 R CNN
F 2 "Crystal:Crystal_AT310_D3.0mm_L10.0mm_Horizontal" H 2800 3200 50  0001 C CNN
F 3 "~" H 2800 3200 50  0001 C CNN
	1    2800 3200
	0    -1   -1   0   
$EndComp
$Comp
L Device:Crystal ZQ2
U 1 1 61D32AAA
P 9350 3350
F 0 "ZQ2" V 9396 3219 50  0000 R CNN
F 1 "Crystal" V 9305 3219 50  0000 R CNN
F 2 "Crystal:Crystal_AT310_D3.0mm_L10.0mm_Horizontal" H 9350 3350 50  0001 C CNN
F 3 "~" H 9350 3350 50  0001 C CNN
	1    9350 3350
	0    -1   -1   0   
$EndComp
$Comp
L Timer_RTC:DS1302+ DD2
U 1 1 61C04991
P 10200 3150
F 0 "DD2" H 10744 3196 50  0000 L CNN
F 1 "DS1302+" H 10744 3105 50  0000 L CNN
F 2 "Package_DIP:DIP-8_W7.62mm" H 10200 2650 50  0001 C CNN
F 3 "https://datasheets.maximintegrated.com/en/ds/DS1302.pdf" H 10200 2950 50  0001 C CNN
	1    10200 3150
	1    0    0    -1  
$EndComp
Wire Wire Line
	9700 3250 9700 3200
Wire Wire Line
	9700 3200 9350 3200
Wire Wire Line
	9700 3350 9700 3500
Wire Wire Line
	9700 3500 9350 3500
NoConn ~ 4700 6050
$Comp
L Regulator_Linear:L7805 U1
U 1 1 61D8DC52
P 6700 7750
F 0 "U1" H 6700 7992 50  0000 C CNN
F 1 "L7805" H 6700 7901 50  0000 C CNN
F 2 "Package_TO_SOT_THT:TO-218-3_Vertical" H 6725 7600 50  0001 L CIN
F 3 "http://www.st.com/content/ccc/resource/technical/document/datasheet/41/4f/b3/b0/12/d4/47/88/CD00000444.pdf/files/CD00000444.pdf/jcr:content/translations/en.CD00000444.pdf" H 6700 7700 50  0001 C CNN
	1    6700 7750
	1    0    0    -1  
$EndComp
Connection ~ 4050 2350
Wire Wire Line
	4050 2350 4050 2450
$Comp
L Connector:AVR-ISP-6 XP2
U 1 1 61CECD73
P 7350 4650
F 0 "XP2" H 7021 4746 50  0000 R CNN
F 1 "Разъём программатора AVR-ISP-6" H 7021 4655 50  0000 R CNN
F 2 "Package_DIP:DIP-6_W7.62mm" V 7100 4700 50  0001 C CNN
F 3 " ~" H 6075 4100 50  0001 C CNN
	1    7350 4650
	1    0    0    -1  
$EndComp
Wire Wire Line
	7750 4450 8950 4450
Wire Wire Line
	7750 4550 8950 4550
Wire Wire Line
	7750 4650 8950 4650
Entry Wire Line
	8950 4450 9050 4550
Entry Wire Line
	8950 4550 9050 4650
Wire Wire Line
	7250 5050 7250 5200
$Comp
L power:GND #PWR0104
U 1 1 61D2D6C6
P 7250 5200
F 0 "#PWR0104" H 7250 4950 50  0001 C CNN
F 1 "GND" H 7255 5027 50  0000 C CNN
F 2 "" H 7250 5200 50  0001 C CNN
F 3 "" H 7250 5200 50  0001 C CNN
	1    7250 5200
	1    0    0    -1  
$EndComp
$Comp
L power:VCC #PWR0109
U 1 1 61D358D8
P 7250 3950
F 0 "#PWR0109" H 7250 3800 50  0001 C CNN
F 1 "VCC" H 7265 4123 50  0000 C CNN
F 2 "" H 7250 3950 50  0001 C CNN
F 3 "" H 7250 3950 50  0001 C CNN
	1    7250 3950
	1    0    0    -1  
$EndComp
Wire Wire Line
	7250 3950 7250 4150
Entry Wire Line
	8950 4650 9050 4750
Text Label 8700 4450 0    50   ~ 0
MISO
Text Label 8700 4550 0    50   ~ 0
MOSI
Text Label 8700 4650 0    50   ~ 0
SCK
Wire Wire Line
	4050 2150 4050 2250
Wire Wire Line
	2350 2750 2650 2750
Wire Wire Line
	7750 4750 7850 4750
Wire Wire Line
	7850 4750 7850 1750
Wire Wire Line
	7850 1750 3200 1750
Wire Wire Line
	3200 1750 3200 2750
Connection ~ 3200 2750
Wire Wire Line
	3200 2750 3500 2750
Wire Wire Line
	2950 2250 4050 2250
Connection ~ 4050 2250
Wire Wire Line
	4050 2250 4050 2350
Wire Wire Line
	2650 2250 2650 2750
Connection ~ 2650 2750
Wire Wire Line
	2650 2750 3200 2750
NoConn ~ 4700 5950
NoConn ~ 4700 5850
NoConn ~ 4700 5750
NoConn ~ 4700 4550
NoConn ~ 4700 4650
Wire Wire Line
	4700 5450 5650 5450
Wire Wire Line
	4700 5550 5650 5550
Wire Wire Line
	4700 5650 5650 5650
Entry Wire Line
	5650 5450 5750 5550
Entry Wire Line
	5650 5550 5750 5650
Entry Wire Line
	5650 5650 5750 5750
Text Label 5450 5450 0    50   ~ 0
SCK
Text Label 5450 5550 0    50   ~ 0
MOSI
Text Label 5450 5650 0    50   ~ 0
MISO
NoConn ~ 4700 3650
NoConn ~ 4700 3750
Wire Bus Line
	5750 1000 5750 6350
Wire Bus Line
	9050 1000 9050 8900
$EndSCHEMATC
