EESchema Schematic File Version 4
EELAYER 30 0
EELAYER END
$Descr A3 16535 11693
encoding utf-8
Sheet 1 1
Title "3"
Date "1"
Rev "2"
Comp "4"
Comment1 "5"
Comment2 "Грицай С.В."
Comment3 "6"
Comment4 "7"
$EndDescr
$Comp
L Device:R R2
U 1 1 61730EDF
P 7500 4050
F 0 "R2" V 7293 4050 50  0000 C CNN
F 1 "1 k" V 7384 4050 50  0000 C CNN
F 2 "Resistor_THT:R_Axial_DIN0207_L6.3mm_D2.5mm_P2.54mm_Vertical" V 7430 4050 50  0001 C CNN
F 3 "~" H 7500 4050 50  0001 C CNN
	1    7500 4050
	0    1    1    0   
$EndComp
$Comp
L Device:LED D1
U 1 1 61732F86
P 7000 4050
F 0 "D1" H 6993 4267 50  0000 C CNN
F 1 "LED" H 6993 4176 50  0000 C CNN
F 2 "LED_THT:LED_D5.0mm" H 7000 4050 50  0001 C CNN
F 3 "~" H 7000 4050 50  0001 C CNN
	1    7000 4050
	1    0    0    -1  
$EndComp
$Comp
L power:GND #PWR02
U 1 1 6173609E
P 5400 5600
F 0 "#PWR02" H 5400 5350 50  0001 C CNN
F 1 "GND" H 5405 5427 50  0000 C CNN
F 2 "" H 5400 5600 50  0001 C CNN
F 3 "" H 5400 5600 50  0001 C CNN
	1    5400 5600
	1    0    0    -1  
$EndComp
$Comp
L power:GND #PWR04
U 1 1 61736AB1
P 7150 5250
F 0 "#PWR04" H 7150 5000 50  0001 C CNN
F 1 "GND" H 7155 5077 50  0000 C CNN
F 2 "" H 7150 5250 50  0001 C CNN
F 3 "" H 7150 5250 50  0001 C CNN
	1    7150 5250
	1    0    0    1   
$EndComp
$Comp
L power:VCC #PWR03
U 1 1 61737534
P 7400 5250
F 0 "#PWR03" H 7400 5100 50  0001 C CNN
F 1 "VCC" H 7415 5423 50  0000 C CNN
F 2 "" H 7400 5250 50  0001 C CNN
F 3 "" H 7400 5250 50  0001 C CNN
	1    7400 5250
	1    0    0    -1  
$EndComp
$Comp
L power:VCC #PWR05
U 1 1 6173818B
P 7850 3850
F 0 "#PWR05" H 7850 3700 50  0001 C CNN
F 1 "VCC" H 7865 4023 50  0000 C CNN
F 2 "" H 7850 3850 50  0001 C CNN
F 3 "" H 7850 3850 50  0001 C CNN
	1    7850 3850
	1    0    0    -1  
$EndComp
$Comp
L power:VCC #PWR01
U 1 1 61738F06
P 5400 3050
F 0 "#PWR01" H 5400 2900 50  0001 C CNN
F 1 "VCC" H 5415 3223 50  0000 C CNN
F 2 "" H 5400 3050 50  0001 C CNN
F 3 "" H 5400 3050 50  0001 C CNN
	1    5400 3050
	1    0    0    -1  
$EndComp
Wire Wire Line
	6850 4050 6650 4050
Wire Wire Line
	6650 4050 6650 4350
Wire Wire Line
	7150 4050 7350 4050
Wire Wire Line
	7650 4050 7850 4050
Wire Wire Line
	7850 4050 7850 3850
Text Label 8100 5850 0    50   ~ 0
INPUT
$Comp
L Device:R R1
U 1 1 61732993
P 7600 5850
F 0 "R1" V 7393 5850 50  0000 C CNN
F 1 "100" V 7484 5850 50  0000 C CNN
F 2 "Resistor_THT:R_Axial_DIN0207_L6.3mm_D2.5mm_P2.54mm_Vertical" V 7530 5850 50  0001 C CNN
F 3 "~" H 7600 5850 50  0001 C CNN
	1    7600 5850
	0    1    1    0   
$EndComp
Text Label 6650 4250 0    50   ~ 0
uCtoLED
Text Label 7250 4050 3    50   ~ 0
LEDtoR
$Comp
L power:VCC #PWR07
U 1 1 6174339F
P 8550 4050
F 0 "#PWR07" H 8550 3900 50  0001 C CNN
F 1 "VCC" H 8565 4223 50  0000 C CNN
F 2 "" H 8550 4050 50  0001 C CNN
F 3 "" H 8550 4050 50  0001 C CNN
	1    8550 4050
	1    0    0    1   
$EndComp
$Comp
L power:GND #PWR06
U 1 1 61746BDC
P 8950 4050
F 0 "#PWR06" H 8950 3800 50  0001 C CNN
F 1 "GND" H 8955 3877 50  0000 C CNN
F 2 "" H 8950 4050 50  0001 C CNN
F 3 "" H 8950 4050 50  0001 C CNN
	1    8950 4050
	1    0    0    -1  
$EndComp
$Comp
L power:PWR_FLAG #FLG01
U 1 1 61749C95
P 8950 3800
F 0 "#FLG01" H 8950 3875 50  0001 C CNN
F 1 "PWR_FLAG" H 8950 3973 50  0000 C CNN
F 2 "" H 8950 3800 50  0001 C CNN
F 3 "~" H 8950 3800 50  0001 C CNN
	1    8950 3800
	1    0    0    -1  
$EndComp
$Comp
L power:PWR_FLAG #FLG02
U 1 1 6174A81E
P 8550 3800
F 0 "#FLG02" H 8550 3875 50  0001 C CNN
F 1 "PWR_FLAG" H 8550 3973 50  0000 C CNN
F 2 "" H 8550 3800 50  0001 C CNN
F 3 "~" H 8550 3800 50  0001 C CNN
	1    8550 3800
	1    0    0    -1  
$EndComp
Wire Wire Line
	8550 4050 8550 3800
Wire Wire Line
	8950 4050 8950 3800
Wire Wire Line
	6200 4350 6650 4350
NoConn ~ 6200 3650
NoConn ~ 6200 3750
NoConn ~ 6200 3850
NoConn ~ 6200 3950
NoConn ~ 6200 4050
NoConn ~ 6200 4150
NoConn ~ 6200 4550
NoConn ~ 6200 4650
NoConn ~ 6200 4750
NoConn ~ 6200 4850
NoConn ~ 6200 4950
NoConn ~ 6200 5050
NoConn ~ 4600 5050
NoConn ~ 4600 4950
NoConn ~ 4600 4850
NoConn ~ 4600 4750
NoConn ~ 4600 4650
NoConn ~ 4600 4550
NoConn ~ 4600 4450
NoConn ~ 4600 4350
NoConn ~ 4600 4050
NoConn ~ 4600 3850
NoConn ~ 4600 3650
Wire Wire Line
	5400 3050 5400 3350
Wire Wire Line
	5400 5350 5400 5500
Wire Wire Line
	5500 5350 5500 5500
Wire Wire Line
	5500 5500 5400 5500
Connection ~ 5400 5500
Wire Wire Line
	5400 5500 5400 5600
Wire Wire Line
	7150 5250 7150 5650
Wire Wire Line
	7400 5250 7400 5750
Wire Wire Line
	6200 4450 6900 4450
Text Label 6700 4450 0    50   ~ 0
INPUT
Wire Wire Line
	7750 5850 8200 5850
Text Label 6850 5850 0    50   ~ 0
INPUTtoR
$Comp
L MCU_Microchip_PIC16:PIC16F73-ISS U1
U 1 1 617859B8
P 5400 4350
F 0 "U1" H 5400 5531 50  0000 C CNN
F 1 "PIC16F73-ISS" H 5400 5440 50  0000 C CNN
F 2 "Package_SO:SSOP-28_3.9x9.9mm_P0.635mm" H 5400 4350 50  0001 C CIN
F 3 "http://ww1.microchip.com/downloads/en/DeviceDoc/30325b.pdf" H 5400 4350 50  0001 C CNN
	1    5400 4350
	1    0    0    -1  
$EndComp
Wire Wire Line
	7450 5850 6800 5850
Wire Wire Line
	7400 5750 6800 5750
Wire Wire Line
	7150 5650 6800 5650
$Comp
L myLib:XP XP1
U 1 1 617D9086
P 6400 5450
F 0 "XP1" H 6458 5565 50  0000 C CNN
F 1 "XP" H 6458 5474 50  0000 C CNN
F 2 "Connector:Banana_Jack_3Pin" H 6400 5450 50  0001 C CNN
F 3 "" H 6400 5450 50  0001 C CNN
	1    6400 5450
	1    0    0    -1  
$EndComp
$EndSCHEMATC
