EESchema Schematic File Version 4
LIBS:tutorial1-cache
EELAYER 26 0
EELAYER END
$Descr A3 16535 11693
encoding utf-8
Sheet 1 1
Title "Урок 1"
Date "2021-10-21"
Rev ""
Comp ""
Comment1 ""
Comment2 ""
Comment3 ""
Comment4 ""
$EndDescr
$Comp
L Device:R R2
U 1 1 6171EB07
P 9000 4650
F 0 "R2" V 8793 4650 50  0000 C CNN
F 1 "1k" V 8884 4650 50  0000 C CNN
F 2 "" V 8930 4650 50  0001 C CNN
F 3 "~" H 9000 4650 50  0001 C CNN
	1    9000 4650
	0    1    1    0   
$EndComp
$Comp
L Device:R R1
U 1 1 6171EDD3
P 8700 5950
F 0 "R1" V 8907 5950 50  0000 C CNN
F 1 "100" V 8816 5950 50  0000 C CNN
F 2 "" V 8630 5950 50  0001 C CNN
F 3 "~" H 8700 5950 50  0001 C CNN
	1    8700 5950
	0    -1   -1   0   
$EndComp
$Comp
L MCU_Microchip_PIC12:PIC12C508A-ISN U1
U 1 1 6171F134
P 7450 5100
F 0 "U1" H 7750 5600 50  0000 C CNN
F 1 "PIC12C508A-ISN" H 7000 5600 50  0000 C CNN
F 2 "Package_DIP:DIP-8_W7.62mm" H 8050 5750 50  0001 C CNN
F 3 "http://ww1.microchip.com/downloads/en/devicedoc/40139e.pdf" H 7450 5100 50  0001 C CNN
	1    7450 5100
	-1   0    0    -1  
$EndComp
$Comp
L Device:LED D1
U 1 1 6171F2FD
P 8550 4650
F 0 "D1" H 8541 4866 50  0000 C CNN
F 1 "LED" H 8541 4775 50  0000 C CNN
F 2 "" H 8550 4650 50  0001 C CNN
F 3 "~" H 8550 4650 50  0001 C CNN
	1    8550 4650
	1    0    0    -1  
$EndComp
$Comp
L MyLib:MYCONN3 J1
U 1 1 6171F729
P 7950 5750
F 0 "J1" H 7931 5875 50  0000 C CNN
F 1 "MYCONN3" H 7931 5784 50  0000 C CNN
F 2 "" H 7950 5750 50  0001 C CNN
F 3 "" H 7950 5750 50  0001 C CNN
	1    7950 5750
	1    0    0    -1  
$EndComp
$Comp
L power:VCC #PWR01
U 1 1 6171F898
P 7450 4400
F 0 "#PWR01" H 7450 4250 50  0001 C CNN
F 1 "VCC" H 7467 4573 50  0000 C CNN
F 2 "" H 7450 4400 50  0001 C CNN
F 3 "" H 7450 4400 50  0001 C CNN
	1    7450 4400
	1    0    0    -1  
$EndComp
$Comp
L power:VCC #PWR07
U 1 1 6171F8C9
P 9350 4550
F 0 "#PWR07" H 9350 4400 50  0001 C CNN
F 1 "VCC" H 9367 4723 50  0000 C CNN
F 2 "" H 9350 4550 50  0001 C CNN
F 3 "" H 9350 4550 50  0001 C CNN
	1    9350 4550
	1    0    0    -1  
$EndComp
$Comp
L power:GND #PWR02
U 1 1 6171FA3A
P 7450 5800
F 0 "#PWR02" H 7450 5550 50  0001 C CNN
F 1 "GND" H 7455 5627 50  0000 C CNN
F 2 "" H 7450 5800 50  0001 C CNN
F 3 "" H 7450 5800 50  0001 C CNN
	1    7450 5800
	1    0    0    -1  
$EndComp
$Comp
L power:GND #PWR04
U 1 1 6171FA6B
P 8350 6100
F 0 "#PWR04" H 8350 5850 50  0001 C CNN
F 1 "GND" H 8355 5927 50  0000 C CNN
F 2 "" H 8350 6100 50  0001 C CNN
F 3 "" H 8350 6100 50  0001 C CNN
	1    8350 6100
	1    0    0    -1  
$EndComp
$Comp
L power:VCC #PWR03
U 1 1 6171FADB
P 8350 5800
F 0 "#PWR03" H 8350 5650 50  0001 C CNN
F 1 "VCC" H 8367 5973 50  0000 C CNN
F 2 "" H 8350 5800 50  0001 C CNN
F 3 "" H 8350 5800 50  0001 C CNN
	1    8350 5800
	1    0    0    -1  
$EndComp
Wire Wire Line
	8400 4650 8250 4650
Wire Wire Line
	8250 4650 8250 5000
Wire Wire Line
	8250 5000 8050 5000
Wire Wire Line
	8150 5850 8350 5850
Wire Wire Line
	8350 5850 8350 5800
Wire Wire Line
	8150 5950 8550 5950
Wire Wire Line
	8350 6100 8350 6050
Wire Wire Line
	8350 6050 8150 6050
Wire Wire Line
	7450 5800 7450 5700
Wire Wire Line
	8050 5100 8650 5100
Wire Wire Line
	8850 5950 9350 5950
Wire Wire Line
	8850 4650 8700 4650
Wire Wire Line
	9150 4650 9350 4650
Wire Wire Line
	9350 4650 9350 4550
Text Label 9100 5950 0    50   ~ 0
INPUT
Text Label 8400 5100 0    50   ~ 0
INPUT
Text Label 8250 4900 0    50   ~ 0
uCtoLED
Text Label 8750 4650 3    50   ~ 0
LEDtoR
Text Label 8200 5950 0    50   ~ 0
INPUTtoR
NoConn ~ 6850 5200
NoConn ~ 6850 5100
NoConn ~ 6850 5000
NoConn ~ 8050 5200
$Comp
L power:PWR_FLAG #FLG01
U 1 1 6172031D
P 9000 5350
F 0 "#FLG01" H 9000 5425 50  0001 C CNN
F 1 "PWR_FLAG" H 9000 5524 50  0000 C CNN
F 2 "" H 9000 5350 50  0001 C CNN
F 3 "~" H 9000 5350 50  0001 C CNN
	1    9000 5350
	1    0    0    -1  
$EndComp
Wire Wire Line
	7450 4500 7450 4400
$Comp
L power:GND #PWR05
U 1 1 61720477
P 9000 5450
F 0 "#PWR05" H 9000 5200 50  0001 C CNN
F 1 "GND" H 9005 5277 50  0000 C CNN
F 2 "" H 9000 5450 50  0001 C CNN
F 3 "" H 9000 5450 50  0001 C CNN
	1    9000 5450
	1    0    0    -1  
$EndComp
$Comp
L power:VCC #PWR06
U 1 1 6172056C
P 9250 5450
F 0 "#PWR06" H 9250 5300 50  0001 C CNN
F 1 "VCC" H 9268 5623 50  0000 C CNN
F 2 "" H 9250 5450 50  0001 C CNN
F 3 "" H 9250 5450 50  0001 C CNN
	1    9250 5450
	-1   0    0    1   
$EndComp
$Comp
L power:PWR_FLAG #FLG02
U 1 1 617205CC
P 9250 5350
F 0 "#FLG02" H 9250 5425 50  0001 C CNN
F 1 "PWR_FLAG" H 9250 5524 50  0000 C CNN
F 2 "" H 9250 5350 50  0001 C CNN
F 3 "~" H 9250 5350 50  0001 C CNN
	1    9250 5350
	1    0    0    -1  
$EndComp
Wire Wire Line
	9000 5350 9000 5450
Wire Wire Line
	9250 5450 9250 5350
Text Notes 8900 5000 0    50   ~ 0
Комментарий
$EndSCHEMATC
