M48
; DRILL file {KiCad (5.1.10)-1} date 11/22/21 01:58:01
; FORMAT={-:-/ absolute / inch / decimal}
; #@! TF.CreationDate,2021-11-22T01:58:01+03:00
; #@! TF.GenerationSoftware,Kicad,Pcbnew,(5.1.10)-1
; #@! TF.FileFunction,NonPlated,1,4,NPTH
FMAT,2
INCH
%
G90
G05
T0
M30
