EESchema Schematic File Version 4
EELAYER 30 0
EELAYER END
$Descr A 11000 8500
encoding utf-8
Sheet 1 1
Title ""
Date "2021-10-21"
Rev ""
Comp "МГТУ им. Н.Э. Баумана"
Comment1 ""
Comment2 "Хотин Д.Ю."
Comment3 "Хохлов С.А."
Comment4 ""
$EndDescr
$Comp
L Device:R R1
U 1 1 617299FE
P 6300 3125
F 0 "R1" V 6093 3125 50  0000 C CNN
F 1 "1 k" V 6184 3125 50  0000 C CNN
F 2 "" V 6230 3125 50  0001 C CNN
F 3 "~" H 6300 3125 50  0001 C CNN
	1    6300 3125
	0    1    1    0   
$EndComp
$Comp
L Device:R R2
U 1 1 6172BC68
P 6400 4700
F 0 "R2" V 6193 4700 50  0000 C CNN
F 1 "100" V 6284 4700 50  0000 C CNN
F 2 "" V 6330 4700 50  0001 C CNN
F 3 "~" H 6400 4700 50  0001 C CNN
	1    6400 4700
	0    1    1    0   
$EndComp
$Comp
L microchip_pic12mcu:PIC12C508A-ISN U1
U 1 1 6172D1D6
P 4800 3200
F 0 "U1" H 4800 3981 50  0000 C CNN
F 1 "PIC12C508A-ISN" H 4800 3890 50  0000 C CNN
F 2 "Package_DIP:DIP-8_W7.62mm" H 5400 3850 50  0001 C CNN
F 3 "http://ww1.microchip.com/downloads/en/devicedoc/40139e.pdf" H 4800 3200 50  0001 C CNN
	1    4800 3200
	-1   0    0    -1  
$EndComp
$Comp
L Device:LED D1
U 1 1 6172F26C
P 5875 3125
F 0 "D1" H 5868 3342 50  0000 C CNN
F 1 "LED" H 5868 3251 50  0000 C CNN
F 2 "" H 5875 3125 50  0001 C CNN
F 3 "~" H 5875 3125 50  0001 C CNN
	1    5875 3125
	1    0    0    -1  
$EndComp
$Comp
L myLib:MYCONN3 J1
U 1 1 6186D2E5
P 5050 4400
F 0 "J1" H 4900 3750 50  0000 C CNN
F 1 "MYCONN3" H 4908 4424 50  0000 C CNN
F 2 "" H 5050 4400 50  0001 C CNN
F 3 "" H 5050 4400 50  0001 C CNN
	1    5050 4400
	1    0    0    -1  
$EndComp
$Comp
L power:VCC #PWR05
U 1 1 618761BA
P 6650 2875
F 0 "#PWR05" H 6650 2725 50  0001 C CNN
F 1 "VCC" H 6665 3048 50  0000 C CNN
F 2 "" H 6650 2875 50  0001 C CNN
F 3 "" H 6650 2875 50  0001 C CNN
	1    6650 2875
	1    0    0    -1  
$EndComp
$Comp
L power:VCC #PWR01
U 1 1 61876D08
P 4800 2275
F 0 "#PWR01" H 4800 2125 50  0001 C CNN
F 1 "VCC" H 4815 2448 50  0000 C CNN
F 2 "" H 4800 2275 50  0001 C CNN
F 3 "" H 4800 2275 50  0001 C CNN
	1    4800 2275
	1    0    0    -1  
$EndComp
$Comp
L power:VCC #PWR04
U 1 1 618772B4
P 5375 4400
F 0 "#PWR04" H 5375 4250 50  0001 C CNN
F 1 "VCC" H 5390 4573 50  0000 C CNN
F 2 "" H 5375 4400 50  0001 C CNN
F 3 "" H 5375 4400 50  0001 C CNN
	1    5375 4400
	1    0    0    -1  
$EndComp
$Comp
L power:GND #PWR03
U 1 1 61877818
P 5350 5025
F 0 "#PWR03" H 5350 4775 50  0001 C CNN
F 1 "GND" H 5355 4852 50  0000 C CNN
F 2 "" H 5350 5025 50  0001 C CNN
F 3 "" H 5350 5025 50  0001 C CNN
	1    5350 5025
	1    0    0    -1  
$EndComp
$Comp
L power:GND #PWR02
U 1 1 618780CA
P 4800 3950
F 0 "#PWR02" H 4800 3700 50  0001 C CNN
F 1 "GND" H 4805 3777 50  0000 C CNN
F 2 "" H 4800 3950 50  0001 C CNN
F 3 "" H 4800 3950 50  0001 C CNN
	1    4800 3950
	1    0    0    -1  
$EndComp
Wire Wire Line
	5150 4550 5375 4550
Wire Wire Line
	5375 4550 5375 4400
Wire Wire Line
	6450 3125 6650 3125
Wire Wire Line
	6650 3125 6650 2875
Wire Wire Line
	4800 3950 4800 3800
Wire Wire Line
	5400 3100 5725 3100
Wire Wire Line
	5725 3100 5725 3125
Wire Wire Line
	6025 3125 6150 3125
Wire Wire Line
	5400 3200 6100 3200
Wire Wire Line
	5400 3300 6100 3300
Wire Wire Line
	5150 4700 6250 4700
Wire Wire Line
	6550 4700 6750 4700
Text Label 5450 3200 0    50   ~ 0
INPUT
Text Label 6600 4700 0    50   ~ 0
INPUT
Text Label 5450 3100 0    50   ~ 0
uCtoLED
Text Label 6075 3125 1    50   ~ 0
LEDtoR
Text Label 5500 4700 0    50   ~ 0
INPUTtoR
NoConn ~ 6100 3300
NoConn ~ 4200 3300
NoConn ~ 4200 3200
NoConn ~ 4200 3100
$Comp
L power:PWR_FLAG #FLG01
U 1 1 6187D3C8
P 5325 2375
F 0 "#FLG01" H 5325 2450 50  0001 C CNN
F 1 "PWR_FLAG" H 5325 2548 50  0000 C CNN
F 2 "" H 5325 2375 50  0001 C CNN
F 3 "~" H 5325 2375 50  0001 C CNN
	1    5325 2375
	1    0    0    -1  
$EndComp
Text Notes 6000 2250 0    50   ~ 0
Comment
$Comp
L power:PWR_FLAG #FLG0101
U 1 1 6186C6D0
P 5700 5000
F 0 "#FLG0101" H 5700 5075 50  0001 C CNN
F 1 "PWR_FLAG" H 5700 5173 50  0000 C CNN
F 2 "" H 5700 5000 50  0001 C CNN
F 3 "~" H 5700 5000 50  0001 C CNN
	1    5700 5000
	1    0    0    -1  
$EndComp
Wire Wire Line
	5700 5000 5475 5000
Wire Wire Line
	5350 5000 5350 5025
Wire Wire Line
	5150 4850 5475 4850
Wire Wire Line
	5475 4850 5475 5000
Connection ~ 5475 5000
Wire Wire Line
	5475 5000 5350 5000
Wire Wire Line
	4800 2275 4800 2425
Wire Wire Line
	4800 2425 5325 2425
Wire Wire Line
	5325 2425 5325 2375
Wire Wire Line
	4800 2425 4800 2600
Connection ~ 4800 2425
$EndSCHEMATC
