EESchema Schematic File Version 4
EELAYER 30 0
EELAYER END
$Descr A3 16535 11693
encoding utf-8
Sheet 1 1
Title " Схема электрическая принципиальная"
Date ""
Rev ""
Comp "МГТУ им. Н.Э. Баумана \\n Группа ИУ6-72Б"
Comment1 "Многофункциональный светильник \\n с функцией будильника \"рассвет\""
Comment2 "Зеленский А.Д."
Comment3 "Хохлов С.А."
Comment4 ""
$EndDescr
$Comp
L Device:C C4
U 1 1 61B37E1E
P 2800 3050
F 0 "C4" H 2915 3096 50  0000 L CNN
F 1 "100nf" H 2915 3005 50  0000 L CNN
F 2 "" H 2838 2900 50  0001 C CNN
F 3 "~" H 2800 3050 50  0001 C CNN
	1    2800 3050
	1    0    0    -1  
$EndComp
Entry Wire Line
	3250 2800 3350 2900
Entry Wire Line
	3250 2900 3350 3000
Entry Wire Line
	3250 3000 3350 3100
Entry Wire Line
	3250 3300 3350 3400
Entry Wire Line
	2300 2550 2400 2650
Entry Wire Line
	2700 2550 2800 2650
Wire Wire Line
	3350 2800 3500 2800
Wire Wire Line
	3350 2900 3500 2900
Wire Wire Line
	3500 3000 3350 3000
Wire Wire Line
	3500 3100 3350 3100
Wire Wire Line
	3500 3400 3350 3400
Wire Wire Line
	3250 2400 3250 2550
Wire Wire Line
	2800 2900 2800 2650
Wire Wire Line
	2800 3200 2800 3350
$Comp
L Device:R R1
U 1 1 61B4126E
P 3450 5050
F 0 "R1" H 3520 5096 50  0000 L CNN
F 1 "12k" H 3520 5005 50  0000 L CNN
F 2 "" V 3380 5050 50  0001 C CNN
F 3 "~" H 3450 5050 50  0001 C CNN
	1    3450 5050
	1    0    0    -1  
$EndComp
Wire Wire Line
	2400 3200 2400 3350
$Comp
L Device:C C2
U 1 1 61B53ED1
P 2550 3950
F 0 "C2" H 2435 3904 50  0000 R CNN
F 1 "10pf" H 2435 3995 50  0000 R CNN
F 2 "" H 2588 3800 50  0001 C CNN
F 3 "~" H 2550 3950 50  0001 C CNN
	1    2550 3950
	0    1    1    0   
$EndComp
$Comp
L Device:C C3
U 1 1 61B5484E
P 2550 4550
F 0 "C3" H 2665 4596 50  0000 L CNN
F 1 "10pf" H 2665 4505 50  0000 L CNN
F 2 "" H 2588 4400 50  0001 C CNN
F 3 "~" H 2550 4550 50  0001 C CNN
	1    2550 4550
	0    -1   -1   0   
$EndComp
Wire Wire Line
	3500 4350 3200 4350
Wire Wire Line
	3200 4350 3200 4550
Wire Wire Line
	3200 4550 2950 4550
Wire Wire Line
	2400 4550 2300 4550
Wire Wire Line
	2300 4550 2300 4250
Wire Wire Line
	2300 4250 1950 4250
Wire Wire Line
	2400 3950 2300 3950
Wire Wire Line
	2300 3950 2300 4250
Connection ~ 2300 4250
Wire Wire Line
	2700 3950 2950 3950
Wire Wire Line
	3200 3950 3200 4150
Wire Wire Line
	3200 4150 3500 4150
Connection ~ 2950 3950
Wire Wire Line
	2950 3950 3200 3950
Connection ~ 2950 4550
Wire Wire Line
	2950 4550 2700 4550
$Comp
L Device:Crystal_GND3_Small Y1
U 1 1 61B589D9
P 2950 4250
F 0 "Y1" H 2950 4383 50  0000 C CNN
F 1 "26MHz" H 2950 4474 50  0000 C CNN
F 2 "" H 2950 4250 50  0001 C CNN
F 3 "~" H 2950 4250 50  0001 C CNN
	1    2950 4250
	0    1    1    0   
$EndComp
Wire Wire Line
	2950 4150 2950 3950
Wire Wire Line
	2950 4550 2950 4350
Wire Wire Line
	2850 4250 2300 4250
$Comp
L Lab4_zel-rescue:ESP8266EX-ESP8266-Lab4_zel-rescue U2
U 1 1 61B8767E
P 4450 3800
F 0 "U2" H 3900 4950 60  0000 C CNN
F 1 "ESP8266" H 4900 1950 60  0000 C CNN
F 2 "" H 3850 5000 60  0000 C CNN
F 3 "" H 3850 5000 60  0000 C CNN
	1    4450 3800
	1    0    0    -1  
$EndComp
Wire Wire Line
	5350 3100 6250 3100
Wire Wire Line
	2400 2900 2400 2650
$Comp
L Device:C C1
U 1 1 61B52413
P 2400 3050
F 0 "C1" H 2515 3096 50  0000 L CNN
F 1 "10uf" H 2515 3005 50  0000 L CNN
F 2 "" H 2438 2900 50  0001 C CNN
F 3 "~" H 2400 3050 50  0001 C CNN
	1    2400 3050
	1    0    0    -1  
$EndComp
$Comp
L Device:C C8
U 1 1 61BA4FB8
P 6400 3100
F 0 "C8" H 6515 3146 50  0000 L CNN
F 1 "5.6pF" H 6515 3055 50  0000 L CNN
F 2 "" H 6438 2950 50  0001 C CNN
F 3 "~" H 6400 3100 50  0001 C CNN
	1    6400 3100
	0    -1   -1   0   
$EndComp
$Comp
L Device:Antenna AE1
U 1 1 61B4E1F7
P 6900 2850
F 0 "AE1" H 6980 2839 50  0000 L CNN
F 1 "Ant_PCB_2.4G_15.2MM_F" H 7000 2750 50  0000 L CNN
F 2 "" H 6900 2850 50  0001 C CNN
F 3 "~" H 6900 2850 50  0001 C CNN
	1    6900 2850
	1    0    0    -1  
$EndComp
Wire Wire Line
	6900 3050 6900 3100
Wire Wire Line
	6900 3100 6550 3100
Wire Wire Line
	6900 3050 7050 3050
Wire Wire Line
	7050 3050 7050 3150
Connection ~ 6900 3050
Entry Wire Line
	3250 3100 3350 3200
Wire Wire Line
	3350 3200 3500 3200
Entry Wire Line
	3250 3200 3350 3300
Wire Wire Line
	3350 3300 3500 3300
Entry Wire Line
	3250 2700 3350 2800
Wire Wire Line
	3500 4750 3450 4750
Wire Wire Line
	3450 4750 3450 4900
Wire Wire Line
	3450 5200 3450 5250
Wire Wire Line
	3500 5250 3450 5250
Connection ~ 3450 5250
Wire Wire Line
	3450 5250 3450 5450
NoConn ~ 3500 3800
$Comp
L Device:R R2
U 1 1 61BD8B6B
P 5450 2600
F 0 "R2" H 5520 2646 50  0000 L CNN
F 1 "12k" H 5520 2555 50  0000 L CNN
F 2 "" V 5380 2600 50  0001 C CNN
F 3 "~" H 5450 2600 50  0001 C CNN
	1    5450 2600
	1    0    0    -1  
$EndComp
$Comp
L Device:R R4
U 1 1 61BD9640
P 5750 2600
F 0 "R4" H 5820 2646 50  0000 L CNN
F 1 "12k" H 5820 2555 50  0000 L CNN
F 2 "" V 5680 2600 50  0001 C CNN
F 3 "~" H 5750 2600 50  0001 C CNN
	1    5750 2600
	1    0    0    -1  
$EndComp
Wire Wire Line
	5450 2300 5450 2450
Wire Wire Line
	5750 2300 5750 2450
Wire Wire Line
	5450 2750 5450 2800
Wire Wire Line
	5450 2800 5350 2800
Wire Wire Line
	5350 2900 5750 2900
Wire Wire Line
	5750 2900 5750 2750
$Comp
L Interface_USB:CH340C U1
U 1 1 61BE72D7
P 2050 7400
F 0 "U1" H 1800 7950 50  0000 C CNN
F 1 "CH340C" H 2250 6850 50  0000 C CNN
F 2 "Package_SO:SOIC-16_3.9x9.9mm_P1.27mm" H 2100 6850 50  0001 L CNN
F 3 "https://datasheet.lcsc.com/szlcsc/Jiangsu-Qin-Heng-CH340C_C84681.pdf" H 1700 8200 50  0001 C CNN
	1    2050 7400
	1    0    0    -1  
$EndComp
$Comp
L Device:C C5
U 1 1 61BEC2F6
P 3100 6850
F 0 "C5" H 3215 6896 50  0000 L CNN
F 1 "100nf" H 3215 6805 50  0000 L CNN
F 2 "" H 3138 6700 50  0001 C CNN
F 3 "~" H 3100 6850 50  0001 C CNN
	1    3100 6850
	1    0    0    -1  
$EndComp
$Comp
L Device:C C6
U 1 1 61BEFDDF
P 3500 6850
F 0 "C6" H 3615 6896 50  0000 L CNN
F 1 "10uf" H 3615 6805 50  0000 L CNN
F 2 "" H 3538 6700 50  0001 C CNN
F 3 "~" H 3500 6850 50  0001 C CNN
	1    3500 6850
	1    0    0    -1  
$EndComp
Wire Wire Line
	3500 6450 3500 6600
Wire Wire Line
	3500 6600 3100 6600
Wire Wire Line
	3100 6700 3100 6600
Connection ~ 3100 6600
Wire Wire Line
	3500 6700 3500 6600
Connection ~ 3500 6600
Wire Wire Line
	2050 6600 2050 6800
Wire Wire Line
	2050 6600 3100 6600
Wire Wire Line
	1950 6700 1950 6800
NoConn ~ 2450 7300
NoConn ~ 2450 7600
NoConn ~ 2450 7500
NoConn ~ 2450 7400
NoConn ~ 1650 7100
Text Label 2550 7700 0    50   ~ 0
DTR
Text Label 2550 7800 0    50   ~ 0
RTS
Wire Wire Line
	1450 7300 1650 7300
Wire Wire Line
	1650 7400 1450 7400
Text Label 1450 7300 0    50   ~ 0
D+
Text Label 1450 7400 0    50   ~ 0
D-
Text Label 2650 7000 0    50   ~ 0
RX
Text Label 2650 7100 0    50   ~ 0
TX
$Comp
L Lab4_zel-rescue:ME6211 U3
U 1 1 61C23700
P 6250 7500
F 0 "U3" H 6375 8015 50  0000 C CNN
F 1 "ME6211C33" H 6375 7924 50  0000 C CNN
F 2 "" H 6250 7500 50  0001 C CNN
F 3 "" H 6250 7500 50  0001 C CNN
	1    6250 7500
	1    0    0    -1  
$EndComp
$Comp
L Device:C C7
U 1 1 61C2704B
P 5750 7800
F 0 "C7" H 5865 7846 50  0000 L CNN
F 1 "1uf" H 5865 7755 50  0000 L CNN
F 2 "" H 5788 7650 50  0001 C CNN
F 3 "~" H 5750 7800 50  0001 C CNN
	1    5750 7800
	1    0    0    -1  
$EndComp
Wire Wire Line
	5750 7650 5750 7350
Wire Wire Line
	5750 7250 5850 7250
Wire Wire Line
	5850 7350 5750 7350
Connection ~ 5750 7350
Wire Wire Line
	5750 7350 5750 7250
Wire Wire Line
	5750 7950 5750 8050
Wire Wire Line
	6900 7250 7050 7250
Wire Wire Line
	7050 7250 7050 7000
$Comp
L Device:C C10
U 1 1 61C30C48
P 7050 7650
F 0 "C10" H 7165 7696 50  0000 L CNN
F 1 "1uf" H 7165 7605 50  0000 L CNN
F 2 "" H 7088 7500 50  0001 C CNN
F 3 "~" H 7050 7650 50  0001 C CNN
	1    7050 7650
	1    0    0    -1  
$EndComp
Wire Wire Line
	7050 7500 7050 7250
Wire Wire Line
	7050 7800 7050 7900
Connection ~ 7050 7250
Wire Wire Line
	5750 7050 5750 7250
Connection ~ 5750 7250
$Comp
L Lab4_zel-rescue:USB-MINI-B_SMT J1
U 1 1 61C48C7D
P 10250 7400
F 0 "J1" H 10250 7865 50  0000 C CNN
F 1 "USB-MINI-B_SMT" H 10250 7774 50  0000 C CNN
F 2 "" H 10350 7300 50  0001 C CNN
F 3 "" H 10350 7300 50  0001 C CNN
	1    10250 7400
	1    0    0    -1  
$EndComp
Wire Wire Line
	10850 7200 10950 7200
Wire Wire Line
	10950 7200 10950 7300
Wire Wire Line
	10850 7700 10950 7700
Connection ~ 10950 7700
Wire Wire Line
	10950 7700 10950 7750
Wire Wire Line
	10850 7600 10950 7600
Connection ~ 10950 7600
Wire Wire Line
	10950 7600 10950 7700
Wire Wire Line
	10850 7500 10950 7500
Connection ~ 10950 7500
Wire Wire Line
	10950 7500 10950 7600
Wire Wire Line
	10850 7400 10950 7400
Connection ~ 10950 7400
Wire Wire Line
	10950 7400 10950 7500
Wire Wire Line
	10850 7300 10950 7300
Connection ~ 10950 7300
Wire Wire Line
	10950 7300 10950 7400
Wire Wire Line
	9650 7600 9600 7600
Wire Wire Line
	9600 7600 9600 7750
NoConn ~ 9650 7500
Text Label 9450 7400 0    50   ~ 0
D+
Text Label 9450 7300 0    50   ~ 0
D-
Text Label 9450 7200 0    50   ~ 0
VBUS
Wire Wire Line
	9650 7300 9450 7300
Wire Wire Line
	9650 7400 9450 7400
$Comp
L Device:R F1
U 1 1 61C5FFD9
P 9550 6750
F 0 "F1" V 9343 6750 50  0000 C CNN
F 1 "0.5A" V 9434 6750 50  0000 C CNN
F 2 "" V 9480 6750 50  0001 C CNN
F 3 "~" H 9550 6750 50  0001 C CNN
	1    9550 6750
	0    1    1    0   
$EndComp
Wire Wire Line
	9850 6550 9850 6750
Wire Wire Line
	9850 6750 9700 6750
Wire Wire Line
	9400 6750 9350 6750
Wire Wire Line
	9350 6750 9350 6850
Wire Wire Line
	9350 7150 9350 7200
Wire Wire Line
	9350 7200 9650 7200
$Comp
L Transistor_BJT:UMH3N Q1
U 1 1 61C784CD
P 3050 9950
F 0 "Q1" H 3341 9996 50  0000 L CNN
F 1 "UMH3N" H 3341 9905 50  0000 L CNN
F 2 "Package_TO_SOT_SMD:SOT-363_SC-70-6" H 3055 9510 50  0001 C CNN
F 3 "http://rohmfs.rohm.com/en/products/databook/datasheet/discrete/transistor/digital/emh3t2r-e.pdf" H 3200 9950 50  0001 C CNN
	1    3050 9950
	-1   0    0    -1  
$EndComp
$Comp
L Transistor_BJT:UMH3N Q1
U 2 1 61C78EC8
P 3450 9800
F 0 "Q1" H 3740 9754 50  0000 L CNN
F 1 "UMH3N" H 3740 9845 50  0000 L CNN
F 2 "Package_TO_SOT_SMD:SOT-363_SC-70-6" H 3455 9360 50  0001 C CNN
F 3 "http://rohmfs.rohm.com/en/products/databook/datasheet/discrete/transistor/digital/emh3t2r-e.pdf" H 3600 9800 50  0001 C CNN
	2    3450 9800
	1    0    0    1   
$EndComp
Text Label 3650 9350 1    50   ~ 0
DTR
Text Label 3250 9350 1    50   ~ 0
RTS
Text Label 2850 9350 1    50   ~ 0
RST
Text Label 2850 10450 1    50   ~ 0
RTS
Text Label 3250 10450 1    50   ~ 0
DTR
Text Label 3650 10450 1    50   ~ 0
GPIO0
Wire Wire Line
	3250 9950 3250 10450
Wire Wire Line
	3650 10000 3650 10450
Wire Wire Line
	2850 10150 2850 10450
$Comp
L Lab4_zel-rescue:W25Q32FVSS U4
U 1 1 61CF8498
P 13500 7250
F 0 "U4" H 13150 7500 50  0000 C CNN
F 1 "W25Q32FVSS" H 13800 6850 50  0000 C CNN
F 2 "" H 13500 7250 50  0001 C CNN
F 3 "" H 13500 7250 50  0001 C CNN
	1    13500 7250
	1    0    0    -1  
$EndComp
Wire Wire Line
	14300 7150 14400 7150
Wire Wire Line
	14400 7150 14400 6950
Wire Wire Line
	12750 7450 12700 7450
Wire Wire Line
	12700 7450 12700 7650
Text Label 14500 7450 0    50   ~ 0
SD_SI
Text Label 14500 7350 0    50   ~ 0
SD_CLK
Text Label 14500 7250 0    50   ~ 0
SD_~HD
Wire Wire Line
	2450 7700 2700 7700
Wire Wire Line
	2450 7800 2700 7800
Wire Wire Line
	2450 7100 2750 7100
Wire Wire Line
	2450 7000 2750 7000
Wire Wire Line
	14300 7250 14750 7250
Wire Wire Line
	14300 7350 14750 7350
Wire Wire Line
	14300 7450 14800 7450
Wire Wire Line
	3650 9200 3650 9600
Wire Wire Line
	3250 9200 3250 9800
Wire Wire Line
	2850 9200 2850 9750
Wire Wire Line
	12750 7350 12550 7350
Wire Wire Line
	12750 7250 12550 7250
Wire Wire Line
	12750 7150 12550 7150
Text Label 12550 7150 0    50   ~ 0
SD_CS0
Text Label 12550 7250 0    50   ~ 0
SD_S0
Text Label 12550 7350 0    50   ~ 0
SD_~WP
$Comp
L Device:R R6
U 1 1 61D6537B
P 7250 4250
F 0 "R6" V 7043 4250 50  0000 C CNN
F 1 "1K" V 7134 4250 50  0000 C CNN
F 2 "" V 7180 4250 50  0001 C CNN
F 3 "~" H 7250 4250 50  0001 C CNN
	1    7250 4250
	0    1    1    0   
$EndComp
Wire Wire Line
	7700 4200 7700 4250
Wire Wire Line
	7700 4250 7400 4250
Wire Wire Line
	7100 4250 6850 4250
Text Label 3350 4150 0    50   ~ 0
X_OUT
Text Label 3350 4350 0    50   ~ 0
X_IN
Text Label 3450 4850 0    50   ~ 0
RES12K
Wire Wire Line
	5750 2900 6000 2900
Connection ~ 5750 2900
Text Label 5850 2900 0    50   ~ 0
RST
Text Label 5400 3100 0    50   ~ 0
LNA
Text Label 5800 3250 0    50   ~ 0
SD_CS0
Text Label 5800 3350 0    50   ~ 0
SD_CLK
Text Label 5800 3450 0    50   ~ 0
SD_SO
Text Label 5800 3550 0    50   ~ 0
SD_SI
Text Label 5800 3650 0    50   ~ 0
SD_~HD
Text Label 5800 3750 0    50   ~ 0
SD_~WP
Text Label 5500 3900 0    50   ~ 0
RX
Text Label 5500 4000 0    50   ~ 0
TX
Text Label 5500 4150 0    50   ~ 0
GPIO0
Text Label 5500 4250 0    50   ~ 0
GPIO2
Text Label 5500 4350 0    50   ~ 0
GPIO4
Text Label 5500 4450 0    50   ~ 0
GPIO5
Text Label 5500 4600 0    50   ~ 0
GPIO12
Text Label 5500 4700 0    50   ~ 0
GPIO13
Text Label 5500 4800 0    50   ~ 0
GPIO14
Text Label 5500 4900 0    50   ~ 0
GPIO15
Text Label 5500 5100 0    50   ~ 0
GPIO16
Text Label 5500 5250 0    50   ~ 0
ADC
Wire Wire Line
	5350 5250 5700 5250
Wire Wire Line
	5350 5100 5800 5100
Wire Wire Line
	5350 4900 5800 4900
Wire Wire Line
	5350 4700 5800 4700
Wire Wire Line
	5800 4600 5350 4600
Wire Wire Line
	5350 4450 5750 4450
Wire Wire Line
	5350 3900 5650 3900
Wire Wire Line
	5350 4000 5650 4000
Wire Wire Line
	6100 3750 5350 3750
Wire Wire Line
	5350 3650 6100 3650
Wire Wire Line
	5350 3550 6050 3550
Wire Wire Line
	5350 3450 6050 3450
$Comp
L Device:R R3
U 1 1 61DC123E
P 5500 3350
F 0 "R3" V 5450 3150 50  0000 L CNN
F 1 "200" V 5550 3450 50  0000 L CNN
F 2 "" V 5430 3350 50  0001 C CNN
F 3 "~" H 5500 3350 50  0001 C CNN
	1    5500 3350
	0    1    1    0   
$EndComp
Wire Wire Line
	5650 3350 6100 3350
Wire Wire Line
	5350 3250 6100 3250
$Comp
L Device:R R5
U 1 1 61DD4A84
P 6450 10100
F 0 "R5" V 6350 10000 50  0000 C CNN
F 1 "12K" V 6350 10250 50  0000 C CNN
F 2 "" V 6380 10100 50  0001 C CNN
F 3 "~" H 6450 10100 50  0001 C CNN
	1    6450 10100
	0    1    1    0   
$EndComp
$Comp
L Device:C C9
U 1 1 61DD5627
P 6450 9550
F 0 "C9" V 6600 9600 50  0000 L CNN
F 1 "100nf" V 6600 9300 50  0000 L CNN
F 2 "" H 6488 9400 50  0001 C CNN
F 3 "~" H 6450 9550 50  0001 C CNN
	1    6450 9550
	0    -1   -1   0   
$EndComp
Wire Wire Line
	6600 10100 7100 10100
Wire Wire Line
	6300 9550 6100 9550
Wire Wire Line
	6100 9550 6100 9850
Wire Wire Line
	6300 10100 6100 10100
Connection ~ 6100 10100
Wire Wire Line
	6100 10100 6100 10250
Connection ~ 6100 9850
Wire Wire Line
	6100 9850 6100 10100
Text Label 6900 9550 0    50   ~ 0
RST
Text Label 6800 10100 0    50   ~ 0
GPIO15
$Comp
L Device:R R7
U 1 1 61E0A77D
P 8150 3650
F 0 "R7" V 8050 3550 50  0000 C CNN
F 1 "12K" V 8050 3800 50  0000 C CNN
F 2 "" V 8080 3650 50  0001 C CNN
F 3 "~" H 8150 3650 50  0001 C CNN
	1    8150 3650
	0    -1   1    0   
$EndComp
$Comp
L Device:R R8
U 1 1 61E0C09E
P 8150 3950
F 0 "R8" V 8050 3850 50  0000 C CNN
F 1 "12K" V 8050 4100 50  0000 C CNN
F 2 "" V 8080 3950 50  0001 C CNN
F 3 "~" H 8150 3950 50  0001 C CNN
	1    8150 3950
	0    -1   1    0   
$EndComp
Wire Wire Line
	8300 3950 8500 3950
Wire Wire Line
	8500 3950 8500 3650
Wire Wire Line
	8300 3650 8500 3650
Connection ~ 8500 3650
Wire Wire Line
	8500 3650 8500 3550
Wire Wire Line
	9150 4900 9150 5050
Wire Wire Line
	9300 4900 9150 4900
Wire Wire Line
	9150 4700 9150 4550
Wire Wire Line
	9300 4700 9150 4700
$Comp
L Lab4_zel-rescue:HW-763 SW1
U 1 1 61E53D2A
P 9750 4800
F 0 "SW1" H 9600 5000 50  0000 L CNN
F 1 "HW-763" H 9900 4600 50  0000 L CNN
F 2 "" H 9750 4800 50  0001 C CNN
F 3 "" H 9750 4800 50  0001 C CNN
	1    9750 4800
	1    0    0    -1  
$EndComp
$Comp
L Lab4_zel-rescue:WS2812B_MATRIX D3
U 1 1 61BAD403
P 13400 2350
F 0 "D3" H 12150 3700 50  0000 L CNN
F 1 "WS2812B_MATRIX" H 14050 750 50  0000 L CNN
F 2 "" H 13900 -450 50  0001 C CNN
F 3 "" H 13900 -450 50  0001 C CNN
	1    13400 2350
	1    0    0    -1  
$EndComp
Wire Wire Line
	13600 4000 13600 4300
Wire Wire Line
	13200 4000 13200 4250
$Comp
L Lab4_zel-rescue:Power_Source XP1
U 1 1 61BFA84A
P 9500 1850
F 0 "XP1" H 9200 2000 50  0000 L CNN
F 1 "Power_Source" H 9300 1600 50  0000 L CNN
F 2 "" H 9500 1850 50  0001 C CNN
F 3 "" H 9500 1850 50  0001 C CNN
	1    9500 1850
	1    0    0    -1  
$EndComp
Wire Wire Line
	9200 1900 9000 1900
Wire Wire Line
	9000 1900 9000 1750
Wire Wire Line
	9200 2000 9050 2000
Wire Wire Line
	9050 2000 9050 2100
$Comp
L Lab4_zel-rescue:GND ~31
U 1 1 61C94942
P 13600 4400
F 0 "~31" H 13678 4483 50  0001 L CNN
F 1 "GND" H 13600 4300 50  0001 C CNN
F 2 "" H 13600 4400 50  0001 C CNN
F 3 "" H 13600 4400 50  0001 C CNN
	1    13600 4400
	1    0    0    -1  
$EndComp
$Comp
L Lab4_zel-rescue:GND ~24
U 1 1 61C951CB
P 9150 4450
F 0 "~24" H 9228 4533 50  0001 L CNN
F 1 "GND" H 9150 4350 50  0001 C CNN
F 2 "" H 9150 4450 50  0001 C CNN
F 3 "" H 9150 4450 50  0001 C CNN
	1    9150 4450
	-1   0    0    1   
$EndComp
$Comp
L Lab4_zel-rescue:GND ~23
U 1 1 61CA3377
P 9050 2200
F 0 "~23" H 9128 2283 50  0001 L CNN
F 1 "GND" H 9050 2100 50  0001 C CNN
F 2 "" H 9050 2200 50  0001 C CNN
F 3 "" H 9050 2200 50  0001 C CNN
	1    9050 2200
	1    0    0    -1  
$EndComp
$Comp
L Lab4_zel-rescue:GND ~17
U 1 1 61CB0F93
P 7050 3250
F 0 "~17" H 7128 3333 50  0001 L CNN
F 1 "GND" H 7050 3150 50  0001 C CNN
F 2 "" H 7050 3250 50  0001 C CNN
F 3 "" H 7050 3250 50  0001 C CNN
	1    7050 3250
	1    0    0    -1  
$EndComp
$Comp
L Lab4_zel-rescue:GND ~8
U 1 1 61CB7CE4
P 3450 5550
F 0 "~8" H 3528 5633 50  0001 L CNN
F 1 "GND" H 3450 5450 50  0001 C CNN
F 2 "" H 3450 5550 50  0001 C CNN
F 3 "" H 3450 5550 50  0001 C CNN
	1    3450 5550
	1    0    0    -1  
$EndComp
$Comp
L Lab4_zel-rescue:GND ~4
U 1 1 61CBEB7B
P 2400 3450
F 0 "~4" H 2478 3533 50  0001 L CNN
F 1 "GND" H 2400 3350 50  0001 C CNN
F 2 "" H 2400 3450 50  0001 C CNN
F 3 "" H 2400 3450 50  0001 C CNN
	1    2400 3450
	1    0    0    -1  
$EndComp
$Comp
L Lab4_zel-rescue:GND ~5
U 1 1 61CC5A08
P 2800 3450
F 0 "~5" H 2878 3533 50  0001 L CNN
F 1 "GND" H 2800 3350 50  0001 C CNN
F 2 "" H 2800 3450 50  0001 C CNN
F 3 "" H 2800 3450 50  0001 C CNN
	1    2800 3450
	1    0    0    -1  
$EndComp
$Comp
L Lab4_zel-rescue:GND ~1
U 1 1 61CCC759
P 1950 4350
F 0 "~1" H 2028 4433 50  0001 L CNN
F 1 "GND" H 1950 4250 50  0001 C CNN
F 2 "" H 1950 4350 50  0001 C CNN
F 3 "" H 1950 4350 50  0001 C CNN
	1    1950 4350
	1    0    0    -1  
$EndComp
$Comp
L Lab4_zel-rescue:GND ~3
U 1 1 61CD3577
P 2050 8100
F 0 "~3" H 2128 8183 50  0001 L CNN
F 1 "GND" H 2050 8000 50  0001 C CNN
F 2 "" H 2050 8100 50  0001 C CNN
F 3 "" H 2050 8100 50  0001 C CNN
	1    2050 8100
	1    0    0    -1  
$EndComp
$Comp
L Lab4_zel-rescue:GND ~10
U 1 1 61CDA420
P 3500 7100
F 0 "~10" H 3578 7183 50  0001 L CNN
F 1 "GND" H 3500 7000 50  0001 C CNN
F 2 "" H 3500 7100 50  0001 C CNN
F 3 "" H 3500 7100 50  0001 C CNN
	1    3500 7100
	1    0    0    -1  
$EndComp
$Comp
L Lab4_zel-rescue:GND ~6
U 1 1 61CE117F
P 3100 7100
F 0 "~6" H 3178 7183 50  0001 L CNN
F 1 "GND" H 3100 7000 50  0001 C CNN
F 2 "" H 3100 7100 50  0001 C CNN
F 3 "" H 3100 7100 50  0001 C CNN
	1    3100 7100
	1    0    0    -1  
$EndComp
$Comp
L Lab4_zel-rescue:GND ~15
U 1 1 61CE7FCB
P 5850 7550
F 0 "~15" H 5928 7633 50  0001 L CNN
F 1 "GND" H 5850 7450 50  0001 C CNN
F 2 "" H 5850 7550 50  0001 C CNN
F 3 "" H 5850 7550 50  0001 C CNN
	1    5850 7550
	1    0    0    -1  
$EndComp
$Comp
L Lab4_zel-rescue:GND ~14
U 1 1 61CEEF05
P 5750 8150
F 0 "~14" H 5828 8233 50  0001 L CNN
F 1 "GND" H 5750 8050 50  0001 C CNN
F 2 "" H 5750 8150 50  0001 C CNN
F 3 "" H 5750 8150 50  0001 C CNN
	1    5750 8150
	1    0    0    -1  
$EndComp
$Comp
L Lab4_zel-rescue:GND ~19
U 1 1 61CF6501
P 7050 8000
F 0 "~19" H 7128 8083 50  0001 L CNN
F 1 "GND" H 7050 7900 50  0001 C CNN
F 2 "" H 7050 8000 50  0001 C CNN
F 3 "" H 7050 8000 50  0001 C CNN
	1    7050 8000
	1    0    0    -1  
$EndComp
$Comp
L Lab4_zel-rescue:GND ~16
U 1 1 61CFD252
P 6100 10350
F 0 "~16" H 6178 10433 50  0001 L CNN
F 1 "GND" H 6100 10250 50  0001 C CNN
F 2 "" H 6100 10350 50  0001 C CNN
F 3 "" H 6100 10350 50  0001 C CNN
	1    6100 10350
	1    0    0    -1  
$EndComp
$Comp
L Lab4_zel-rescue:GND ~29
U 1 1 61D03FA3
P 12700 7750
F 0 "~29" H 12778 7833 50  0001 L CNN
F 1 "GND" H 12700 7650 50  0001 C CNN
F 2 "" H 12700 7750 50  0001 C CNN
F 3 "" H 12700 7750 50  0001 C CNN
	1    12700 7750
	1    0    0    -1  
$EndComp
$Comp
L Lab4_zel-rescue:GND ~28
U 1 1 61D0ADE9
P 10950 7850
F 0 "~28" H 11028 7933 50  0001 L CNN
F 1 "GND" H 10950 7750 50  0001 C CNN
F 2 "" H 10950 7850 50  0001 C CNN
F 3 "" H 10950 7850 50  0001 C CNN
	1    10950 7850
	1    0    0    -1  
$EndComp
$Comp
L Lab4_zel-rescue:GND ~26
U 1 1 61D1211D
P 9600 7850
F 0 "~26" H 9678 7933 50  0001 L CNN
F 1 "GND" H 9600 7750 50  0001 C CNN
F 2 "" H 9600 7850 50  0001 C CNN
F 3 "" H 9600 7850 50  0001 C CNN
	1    9600 7850
	1    0    0    -1  
$EndComp
$Comp
L Lab4_zel-rescue:+3V3 ~018
U 1 1 61D32CCC
P 7050 7000
F 0 "~018" H 7100 7050 50  0001 C CNN
F 1 "+3V3" H 6950 7150 50  0000 L CNN
F 2 "" H 7050 7000 50  0001 C CNN
F 3 "" H 7050 7000 50  0001 C CNN
	1    7050 7000
	1    0    0    -1  
$EndComp
$Comp
L Lab4_zel-rescue:+3V3 ~025
U 1 1 61D341A7
P 9150 5050
F 0 "~025" H 9200 5100 50  0001 C CNN
F 1 "+3V3" H 9050 5200 50  0000 L CNN
F 2 "" H 9150 5050 50  0001 C CNN
F 3 "" H 9150 5050 50  0001 C CNN
	1    9150 5050
	-1   0    0    1   
$EndComp
$Comp
L Lab4_zel-rescue:+3V3 ~07
U 1 1 61D3B151
P 3250 2400
F 0 "~07" H 3300 2450 50  0001 C CNN
F 1 "+3V3" H 3150 2550 50  0000 L CNN
F 2 "" H 3250 2400 50  0001 C CNN
F 3 "" H 3250 2400 50  0001 C CNN
	1    3250 2400
	1    0    0    -1  
$EndComp
$Comp
L Lab4_zel-rescue:+3V3 ~011
U 1 1 61D423D0
P 5450 2300
F 0 "~011" H 5500 2350 50  0001 C CNN
F 1 "+3V3" H 5350 2450 50  0000 L CNN
F 2 "" H 5450 2300 50  0001 C CNN
F 3 "" H 5450 2300 50  0001 C CNN
	1    5450 2300
	1    0    0    -1  
$EndComp
$Comp
L Lab4_zel-rescue:+3V3 ~012
U 1 1 61D49205
P 5750 2300
F 0 "~012" H 5800 2350 50  0001 C CNN
F 1 "+3V3" H 5650 2450 50  0000 L CNN
F 2 "" H 5750 2300 50  0001 C CNN
F 3 "" H 5750 2300 50  0001 C CNN
	1    5750 2300
	1    0    0    -1  
$EndComp
$Comp
L Lab4_zel-rescue:+3V3 ~020
U 1 1 61D5002F
P 7700 4200
F 0 "~020" H 7750 4250 50  0001 C CNN
F 1 "+3V3" H 7600 4350 50  0000 L CNN
F 2 "" H 7700 4200 50  0001 C CNN
F 3 "" H 7700 4200 50  0001 C CNN
	1    7700 4200
	1    0    0    -1  
$EndComp
$Comp
L Lab4_zel-rescue:+3V3 ~02
U 1 1 61D56E45
P 1950 6700
F 0 "~02" H 2000 6750 50  0001 C CNN
F 1 "+3V3" H 1850 6850 50  0000 L CNN
F 2 "" H 1950 6700 50  0001 C CNN
F 3 "" H 1950 6700 50  0001 C CNN
	1    1950 6700
	1    0    0    -1  
$EndComp
$Comp
L Lab4_zel-rescue:+3V3 ~09
U 1 1 61D5DE3B
P 3500 6450
F 0 "~09" H 3550 6500 50  0001 C CNN
F 1 "+3V3" H 3400 6600 50  0000 L CNN
F 2 "" H 3500 6450 50  0001 C CNN
F 3 "" H 3500 6450 50  0001 C CNN
	1    3500 6450
	1    0    0    -1  
$EndComp
$Comp
L Lab4_zel-rescue:+5V ~30
U 1 1 61D6DDC9
P 13200 4250
F 0 "~30" H 13278 4333 50  0001 L CNN
F 1 "+5V" H 13100 4400 50  0000 L CNN
F 2 "" H 13200 4400 50  0001 C CNN
F 3 "" H 13200 4400 50  0001 C CNN
	1    13200 4250
	-1   0    0    1   
$EndComp
$Comp
L Lab4_zel-rescue:+5V ~32
U 1 1 61D7B8E4
P 14400 6950
F 0 "~32" H 14478 7033 50  0001 L CNN
F 1 "+5V" H 14300 7100 50  0000 L CNN
F 2 "" H 14400 7100 50  0001 C CNN
F 3 "" H 14400 7100 50  0001 C CNN
	1    14400 6950
	1    0    0    -1  
$EndComp
$Comp
L Lab4_zel-rescue:+5V ~21
U 1 1 61D8262D
P 8500 3550
F 0 "~21" H 8578 3633 50  0001 L CNN
F 1 "+5V" H 8400 3700 50  0000 L CNN
F 2 "" H 8500 3700 50  0001 C CNN
F 3 "" H 8500 3700 50  0001 C CNN
	1    8500 3550
	-1   0    0    -1  
$EndComp
$Comp
L Lab4_zel-rescue:+5V ~27
U 1 1 61D89571
P 9850 6550
F 0 "~27" H 9928 6633 50  0001 L CNN
F 1 "+5V" H 9750 6700 50  0000 L CNN
F 2 "" H 9850 6700 50  0001 C CNN
F 3 "" H 9850 6700 50  0001 C CNN
	1    9850 6550
	1    0    0    -1  
$EndComp
$Comp
L Lab4_zel-rescue:+5V ~22
U 1 1 61D902BA
P 9000 1750
F 0 "~22" H 9078 1833 50  0001 L CNN
F 1 "+5V" H 8900 1900 50  0000 L CNN
F 2 "" H 9000 1900 50  0001 C CNN
F 3 "" H 9000 1900 50  0001 C CNN
	1    9000 1750
	1    0    0    -1  
$EndComp
$Comp
L Lab4_zel-rescue:+5V ~13
U 1 1 61D9DEAE
P 5750 7050
F 0 "~13" H 5828 7133 50  0001 L CNN
F 1 "+5V" H 5650 7200 50  0000 L CNN
F 2 "" H 5750 7200 50  0001 C CNN
F 3 "" H 5750 7200 50  0001 C CNN
	1    5750 7050
	1    0    0    -1  
$EndComp
Wire Wire Line
	5350 4250 6450 4250
Connection ~ 6450 4250
Wire Wire Line
	6450 4250 6550 4250
Wire Wire Line
	6350 3650 6350 4150
Wire Wire Line
	5350 4150 6350 4150
Wire Wire Line
	6450 3950 6450 4250
Wire Wire Line
	6450 3950 8000 3950
$Comp
L Lab4_zel-rescue:_0 SB1
U 1 1 61EE0709
P 6500 9850
F 0 "SB1" H 6350 10000 50  0000 L CNN
F 1 "_0" H 6644 9858 50  0001 L CNN
F 2 "" H 6300 9900 50  0001 C CNN
F 3 "" H 6300 9900 50  0001 C CNN
	1    6500 9850
	1    0    0    -1  
$EndComp
Wire Wire Line
	6100 9850 6300 9850
Wire Wire Line
	6600 9550 6700 9550
Wire Wire Line
	6700 9850 6700 9550
Connection ~ 6700 9550
Wire Wire Line
	6700 9550 7100 9550
$Comp
L Device:LED D1
U 1 1 61BBE822
P 6700 4250
F 0 "D1" H 6700 4350 50  0000 C CNN
F 1 "LED" H 6750 4150 50  0000 C CNN
F 2 "" H 6700 4250 50  0001 C CNN
F 3 "~" H 6700 4250 50  0001 C CNN
	1    6700 4250
	1    0    0    -1  
$EndComp
$Comp
L Device:D_Schottky D2
U 1 1 61BBF864
P 9350 7000
F 0 "D2" V 9304 7080 50  0000 L CNN
F 1 "B5819W" V 9395 7080 50  0000 L CNN
F 2 "" H 9350 7000 50  0001 C CNN
F 3 "~" H 9350 7000 50  0001 C CNN
	1    9350 7000
	0    1    1    0   
$EndComp
Wire Wire Line
	6350 3650 8000 3650
Wire Wire Line
	6300 4350 6300 4800
Wire Wire Line
	5350 4350 6300 4350
Wire Wire Line
	6300 4800 9300 4800
Wire Wire Line
	5350 4800 6050 4800
Wire Wire Line
	6050 4800 6050 5350
Wire Wire Line
	6050 5350 13400 5350
Wire Wire Line
	13400 4000 13400 5350
Wire Bus Line
	2200 2550 3250 2550
Wire Bus Line
	3250 2550 3250 3350
$EndSCHEMATC
