%TF.GenerationSoftware,KiCad,Pcbnew,(5.1.10)-1*%
%TF.CreationDate,2021-11-12T15:17:56+03:00*%
%TF.ProjectId,lab3,6c616233-2e6b-4696-9361-645f70636258,rev?*%
%TF.SameCoordinates,Original*%
%TF.FileFunction,Copper,L1,Top*%
%TF.FilePolarity,Positive*%
%FSLAX46Y46*%
G04 Gerber Fmt 4.6, Leading zero omitted, Abs format (unit mm)*
G04 Created by KiCad (PCBNEW (5.1.10)-1) date 2021-11-12 15:17:56*
%MOMM*%
%LPD*%
G01*
G04 APERTURE LIST*
%TA.AperFunction,ComponentPad*%
%ADD10R,1.800000X1.800000*%
%TD*%
%TA.AperFunction,ComponentPad*%
%ADD11C,1.800000*%
%TD*%
%TA.AperFunction,ComponentPad*%
%ADD12C,1.600000*%
%TD*%
%TA.AperFunction,ComponentPad*%
%ADD13O,1.600000X1.600000*%
%TD*%
%TA.AperFunction,ComponentPad*%
%ADD14R,1.600000X1.600000*%
%TD*%
%TA.AperFunction,ComponentPad*%
%ADD15C,10.160000*%
%TD*%
%TA.AperFunction,Conductor*%
%ADD16C,0.250000*%
%TD*%
%TA.AperFunction,Conductor*%
%ADD17C,0.500000*%
%TD*%
G04 APERTURE END LIST*
D10*
%TO.P,D1,1*%
%TO.N,/uCtoLED*%
X199390000Y-158750000D03*
D11*
%TO.P,D1,2*%
%TO.N,/LEDtoR*%
X199390000Y-161290000D03*
%TD*%
D12*
%TO.P,R1,1*%
%TO.N,/INPUTtoR*%
X198120000Y-153670000D03*
D13*
%TO.P,R1,2*%
%TO.N,/INPUT*%
X200660000Y-153670000D03*
%TD*%
%TO.P,R2,2*%
%TO.N,/LEDtoR*%
X199390000Y-166370000D03*
D12*
%TO.P,R2,1*%
%TO.N,VCC*%
X199390000Y-168910000D03*
%TD*%
D14*
%TO.P,U1,1*%
%TO.N,VCC*%
X215900000Y-168910000D03*
D13*
%TO.P,U1,11*%
%TO.N,Net-(U1-Pad11)*%
X208280000Y-146050000D03*
%TO.P,U1,2*%
%TO.N,Net-(U1-Pad2)*%
X215900000Y-166370000D03*
%TO.P,U1,12*%
%TO.N,Net-(U1-Pad12)*%
X208280000Y-148590000D03*
%TO.P,U1,3*%
%TO.N,Net-(U1-Pad3)*%
X215900000Y-163830000D03*
%TO.P,U1,13*%
%TO.N,Net-(U1-Pad13)*%
X208280000Y-151130000D03*
%TO.P,U1,4*%
%TO.N,Net-(U1-Pad4)*%
X215900000Y-161290000D03*
%TO.P,U1,14*%
%TO.N,Net-(U1-Pad14)*%
X208280000Y-153670000D03*
%TO.P,U1,5*%
%TO.N,Net-(U1-Pad5)*%
X215900000Y-158750000D03*
%TO.P,U1,15*%
%TO.N,/INPUT*%
X208280000Y-156210000D03*
%TO.P,U1,6*%
%TO.N,Net-(U1-Pad6)*%
X215900000Y-156210000D03*
%TO.P,U1,16*%
%TO.N,/uCtoLED*%
X208280000Y-158750000D03*
%TO.P,U1,7*%
%TO.N,Net-(U1-Pad7)*%
X215900000Y-153670000D03*
%TO.P,U1,17*%
%TO.N,Net-(U1-Pad17)*%
X208280000Y-161290000D03*
%TO.P,U1,8*%
%TO.N,Net-(U1-Pad8)*%
X215900000Y-151130000D03*
%TO.P,U1,18*%
%TO.N,Net-(U1-Pad18)*%
X208280000Y-163830000D03*
%TO.P,U1,9*%
%TO.N,Net-(U1-Pad9)*%
X215900000Y-148590000D03*
%TO.P,U1,19*%
%TO.N,Net-(U1-Pad19)*%
X208280000Y-166370000D03*
%TO.P,U1,10*%
%TO.N,Net-(U1-Pad10)*%
X215900000Y-146050000D03*
%TO.P,U1,20*%
%TO.N,GND*%
X208280000Y-168910000D03*
%TD*%
D15*
%TO.P,X1,1*%
%TO.N,VCC*%
X185420000Y-168660000D03*
%TO.P,X1,3*%
%TO.N,GND*%
X185420000Y-138690000D03*
%TO.P,X1,2*%
%TO.N,/INPUTtoR*%
X185420000Y-153670000D03*
%TD*%
D16*
%TO.N,/uCtoLED*%
X199390000Y-158750000D02*
X208280000Y-158750000D01*
%TO.N,/LEDtoR*%
X199390000Y-166370000D02*
X199390000Y-161290000D01*
%TO.N,/INPUTtoR*%
X187960000Y-151130000D02*
X185420000Y-153670000D01*
X198120000Y-153670000D02*
X185420000Y-153670000D01*
%TO.N,/INPUT*%
X205740000Y-153670000D02*
X208280000Y-156210000D01*
X200660000Y-153670000D02*
X205740000Y-153670000D01*
%TO.N,VCC*%
X199140000Y-168660000D02*
X199390000Y-168910000D01*
D17*
X185420000Y-168910000D02*
X199140000Y-168910000D01*
X199390000Y-168910000D02*
X204470000Y-168910000D01*
X204470000Y-168910000D02*
X207010000Y-171450000D01*
X213360000Y-171450000D02*
X215900000Y-168910000D01*
X207010000Y-171450000D02*
X213360000Y-171450000D01*
%TD*%
M02*
