EESchema Schematic File Version 4
EELAYER 30 0
EELAYER END
$Descr A3 16535 11693
encoding utf-8
Sheet 1 1
Title "Схема электрическая принципиальная"
Date ""
Rev ""
Comp "МГТУ им. Н.Э. Баумана"
Comment1 "Курсовая работа по дисциплине \"Микропроцессорные системы\""
Comment2 "Грицай С.В."
Comment3 "Хохлов С.А."
Comment4 ""
$EndDescr
Wire Wire Line
	1850 4350 1450 4350
Wire Wire Line
	2150 4650 2150 4900
$Comp
L Device:C C1
U 1 1 61B5B63D
P 1450 4600
F 0 "C1" H 1565 4646 50  0000 L CNN
F 1 "10uF" H 1565 4555 50  0000 L CNN
F 2 "" H 1488 4450 50  0001 C CNN
F 3 "~" H 1450 4600 50  0001 C CNN
	1    1450 4600
	1    0    0    -1  
$EndComp
$Comp
L Device:C C2
U 1 1 61B5C88E
P 2800 4650
F 0 "C2" H 2915 4696 50  0000 L CNN
F 1 "10uF" H 2800 4800 50  0000 L CNN
F 2 "" H 2838 4500 50  0001 C CNN
F 3 "~" H 2800 4650 50  0001 C CNN
	1    2800 4650
	-1   0    0    1   
$EndComp
$Comp
L Device:C C3
U 1 1 61B5D42F
P 3050 4650
F 0 "C3" H 3165 4696 50  0000 L CNN
F 1 "100nF" H 3165 4605 50  0000 L CNN
F 2 "" H 3088 4500 50  0001 C CNN
F 3 "~" H 3050 4650 50  0001 C CNN
	1    3050 4650
	1    0    0    -1  
$EndComp
Wire Wire Line
	2800 4800 2800 4950
Wire Wire Line
	3050 4500 3050 4350
Connection ~ 3050 4350
Wire Wire Line
	3050 4350 3200 4350
Wire Wire Line
	3050 5000 3050 4950
Wire Wire Line
	1450 4750 1450 4900
Wire Wire Line
	1450 4450 1450 4350
Connection ~ 1450 4350
Text Label 3200 4350 0    50   ~ 0
VDD3V3
$Comp
L power:Earth #PWR0103
U 1 1 61B63C02
P 2150 4950
F 0 "#PWR0103" H 2150 4700 50  0001 C CNN
F 1 "Earth" H 2150 4800 50  0001 C CNN
F 2 "" H 2150 4950 50  0001 C CNN
F 3 "~" H 2150 4950 50  0001 C CNN
	1    2150 4950
	1    0    0    -1  
$EndComp
$Comp
L power:Earth #PWR0104
U 1 1 61B643F6
P 3050 5000
F 0 "#PWR0104" H 3050 4750 50  0001 C CNN
F 1 "Earth" H 3050 4850 50  0001 C CNN
F 2 "" H 3050 5000 50  0001 C CNN
F 3 "~" H 3050 5000 50  0001 C CNN
	1    3050 5000
	1    0    0    -1  
$EndComp
$Comp
L power:VCC #PWR0106
U 1 1 61B6698E
P 15250 700
F 0 "#PWR0106" H 15250 550 50  0001 C CNN
F 1 "VCC" H 15265 873 50  0000 C CNN
F 2 "" H 15250 700 50  0001 C CNN
F 3 "" H 15250 700 50  0001 C CNN
	1    15250 700 
	1    0    0    -1  
$EndComp
$Comp
L power:Earth #PWR0107
U 1 1 61B675BD
P 15550 1150
F 0 "#PWR0107" H 15550 900 50  0001 C CNN
F 1 "Earth" H 15550 1000 50  0001 C CNN
F 2 "" H 15550 1150 50  0001 C CNN
F 3 "~" H 15550 1150 50  0001 C CNN
	1    15550 1150
	1    0    0    -1  
$EndComp
$Comp
L power:PWR_FLAG #FLG0101
U 1 1 61B6834B
P 15250 1050
F 0 "#FLG0101" H 15250 1125 50  0001 C CNN
F 1 "PWR_FLAG" H 15250 1223 50  0000 C CNN
F 2 "" H 15250 1050 50  0001 C CNN
F 3 "~" H 15250 1050 50  0001 C CNN
	1    15250 1050
	1    0    0    1   
$EndComp
Wire Wire Line
	15250 1050 15250 700 
$Comp
L power:PWR_FLAG #FLG0102
U 1 1 61B69640
P 15550 700
F 0 "#FLG0102" H 15550 775 50  0001 C CNN
F 1 "PWR_FLAG" H 15550 873 50  0000 C CNN
F 2 "" H 15550 700 50  0001 C CNN
F 3 "~" H 15550 700 50  0001 C CNN
	1    15550 700 
	1    0    0    -1  
$EndComp
Wire Wire Line
	15550 1150 15550 700 
$Comp
L Regulator_Linear:AMS1117-3.3 U1
U 1 1 61B55B19
P 2150 4350
F 0 "U1" H 2150 4592 50  0000 C CNN
F 1 "AMS1117-3.3" H 2150 4501 50  0000 C CNN
F 2 "Package_TO_SOT_SMD:SOT-223-3_TabPin2" H 2150 4550 50  0001 C CNN
F 3 "http://www.advanced-monolithic.com/pdf/ds1117.pdf" H 2250 4100 50  0001 C CNN
	1    2150 4350
	1    0    0    -1  
$EndComp
$Comp
L My_Conn:CP2102 U2
U 1 1 61B3D23D
P 4550 2700
F 0 "U2" H 4200 2750 50  0000 C CNN
F 1 "CP2102" H 4800 2750 50  0000 C CNN
F 2 "" H 4550 2750 50  0001 C CNN
F 3 "" H 4550 2750 50  0001 C CNN
	1    4550 2700
	1    0    0    -1  
$EndComp
NoConn ~ 4050 3250
NoConn ~ 4050 3350
NoConn ~ 4050 3450
NoConn ~ 4050 3550
NoConn ~ 4050 3650
NoConn ~ 4050 3750
NoConn ~ 4050 3850
NoConn ~ 4050 3950
NoConn ~ 4050 4050
NoConn ~ 4050 4150
NoConn ~ 5050 4050
NoConn ~ 5050 3950
NoConn ~ 5050 3850
NoConn ~ 5050 3750
NoConn ~ 5050 3650
NoConn ~ 5050 3550
NoConn ~ 5050 2850
NoConn ~ 5050 2950
NoConn ~ 5050 3050
$Comp
L power:Earth #PWR0109
U 1 1 61B47DA7
P 5250 4300
F 0 "#PWR0109" H 5250 4050 50  0001 C CNN
F 1 "Earth" H 5250 4150 50  0001 C CNN
F 2 "" H 5250 4300 50  0001 C CNN
F 3 "~" H 5250 4300 50  0001 C CNN
	1    5250 4300
	1    0    0    -1  
$EndComp
Wire Wire Line
	5250 4300 5250 4150
Wire Wire Line
	5250 4150 5050 4150
Wire Wire Line
	3500 2750 3900 2750
Wire Wire Line
	3900 2750 3900 2850
Wire Wire Line
	3900 2850 4050 2850
Connection ~ 3900 2750
Wire Wire Line
	3900 2750 4050 2750
Text Label 3500 2750 0    50   ~ 0
VDD3V3
$Comp
L Device:R R1
U 1 1 61B519A9
P 5600 2750
F 0 "R1" V 5550 2600 50  0000 C CNN
F 1 "4,7K" V 5550 2950 50  0000 C CNN
F 2 "" V 5530 2750 50  0001 C CNN
F 3 "~" H 5600 2750 50  0001 C CNN
	1    5600 2750
	0    1    1    0   
$EndComp
$Comp
L Device:R R2
U 1 1 61B5287E
P 5600 3350
F 0 "R2" V 5550 3200 50  0000 C CNN
F 1 "1K" V 5550 3500 50  0000 C CNN
F 2 "" V 5530 3350 50  0001 C CNN
F 3 "~" H 5600 3350 50  0001 C CNN
	1    5600 3350
	0    1    1    0   
$EndComp
$Comp
L Device:R R3
U 1 1 61B52E08
P 5600 3450
F 0 "R3" V 5550 3300 50  0000 C CNN
F 1 "1K" V 5550 3600 50  0000 C CNN
F 2 "" V 5530 3450 50  0001 C CNN
F 3 "~" H 5600 3450 50  0001 C CNN
	1    5600 3450
	0    1    1    0   
$EndComp
Wire Wire Line
	5450 3450 5050 3450
Wire Wire Line
	5450 3350 5050 3350
Wire Wire Line
	5450 2750 5050 2750
Wire Wire Line
	6050 2750 5750 2750
Text Label 6050 2750 0    50   ~ 0
VDD3V3
Wire Wire Line
	5750 3350 6050 3350
Wire Wire Line
	5750 3450 6050 3450
Text Label 6050 3350 0    50   ~ 0
TX0
Text Label 6050 3450 0    50   ~ 0
RX0
Wire Wire Line
	5050 3250 6050 3250
Wire Wire Line
	5050 3150 6050 3150
Text Label 6050 3150 0    50   ~ 0
DTR
Text Label 6050 3250 0    50   ~ 0
RTS
$Comp
L My_Conn:USB_Micro USB1
U 1 1 61B4DD46
P 2350 2550
F 0 "USB1" H 2100 2600 50  0000 C CNN
F 1 "USB_Micro" H 2350 2000 50  0000 C CNN
F 2 "" H 2350 2600 50  0001 C CNN
F 3 "" H 2350 2600 50  0001 C CNN
	1    2350 2550
	1    0    0    -1  
$EndComp
$Comp
L power:Earth #PWR01
U 1 1 61B4EAED
P 1700 2350
F 0 "#PWR01" H 1700 2100 50  0001 C CNN
F 1 "Earth" H 1700 2200 50  0001 C CNN
F 2 "" H 1700 2350 50  0001 C CNN
F 3 "~" H 1700 2350 50  0001 C CNN
	1    1700 2350
	1    0    0    1   
$EndComp
$Comp
L power:Earth #PWR02
U 1 1 61B4F3F3
P 3050 2400
F 0 "#PWR02" H 3050 2150 50  0001 C CNN
F 1 "Earth" H 3050 2250 50  0001 C CNN
F 2 "" H 3050 2400 50  0001 C CNN
F 3 "~" H 3050 2400 50  0001 C CNN
	1    3050 2400
	1    0    0    1   
$EndComp
Wire Wire Line
	2800 3000 3400 3000
Wire Wire Line
	3400 3000 3400 2950
Wire Wire Line
	3400 2950 4050 2950
Wire Wire Line
	2800 2800 3850 2800
Wire Wire Line
	3850 2800 3850 3050
Wire Wire Line
	3850 3050 4050 3050
Wire Wire Line
	2800 2600 3050 2600
Wire Wire Line
	3050 2600 3050 2400
Wire Wire Line
	1900 2700 1700 2700
Wire Wire Line
	1700 2700 1700 2600
Wire Wire Line
	1900 2600 1700 2600
Connection ~ 1700 2600
Wire Wire Line
	1700 2600 1700 2350
NoConn ~ 1900 2900
NoConn ~ 1900 3000
$Comp
L My_Conn:ESP32 U3
U 1 1 61B5C7E0
P 8250 4150
F 0 "U3" H 8250 4325 50  0000 C CNN
F 1 "ESP-WROOM-32" H 8250 4234 50  0000 C CNN
F 2 "" H 8250 4250 50  0001 C CNN
F 3 "" H 8250 4250 50  0001 C CNN
	1    8250 4150
	1    0    0    -1  
$EndComp
$Comp
L power:Earth #PWR04
U 1 1 61B5E7AA
P 7200 4050
F 0 "#PWR04" H 7200 3800 50  0001 C CNN
F 1 "Earth" H 7200 3900 50  0001 C CNN
F 2 "" H 7200 4050 50  0001 C CNN
F 3 "~" H 7200 4050 50  0001 C CNN
	1    7200 4050
	1    0    0    1   
$EndComp
Wire Wire Line
	7350 4200 7200 4200
Wire Wire Line
	7200 4200 7200 4050
Wire Wire Line
	7350 4300 6800 4300
Text Label 6800 4300 0    50   ~ 0
VDD3V3
Wire Wire Line
	6800 4400 7350 4400
Text Label 6800 4400 0    50   ~ 0
EN
Wire Wire Line
	7350 4500 6800 4500
Wire Wire Line
	7350 4600 6800 4600
Wire Wire Line
	7350 4700 6800 4700
Wire Wire Line
	7350 4800 6800 4800
Wire Wire Line
	7350 4900 6800 4900
Wire Wire Line
	7350 5000 6800 5000
Wire Wire Line
	7350 5100 6800 5100
Wire Wire Line
	7350 5200 6800 5200
Wire Wire Line
	6800 5300 7350 5300
Wire Wire Line
	7350 5400 6800 5400
Wire Wire Line
	7350 5500 6800 5500
$Comp
L power:Earth #PWR05
U 1 1 61B6F753
P 7800 6050
F 0 "#PWR05" H 7800 5800 50  0001 C CNN
F 1 "Earth" H 7800 5900 50  0001 C CNN
F 2 "" H 7800 6050 50  0001 C CNN
F 3 "~" H 7800 6050 50  0001 C CNN
	1    7800 6050
	1    0    0    -1  
$EndComp
Wire Wire Line
	7800 6050 7800 5650
Wire Wire Line
	7900 5650 7900 6050
Wire Wire Line
	8000 5650 8000 6050
Wire Wire Line
	8100 5650 8100 6050
Wire Wire Line
	8200 5650 8200 6050
Wire Wire Line
	8300 5650 8300 6050
Wire Wire Line
	8400 5650 8400 6050
Wire Wire Line
	8500 5650 8500 6050
Wire Wire Line
	8600 5650 8600 6050
Wire Wire Line
	8700 5650 8700 6050
Wire Wire Line
	9150 5500 9600 5500
Wire Wire Line
	9150 5400 9600 5400
Wire Wire Line
	9150 5300 9600 5300
Wire Wire Line
	9150 5200 9600 5200
Wire Wire Line
	9150 5100 9600 5100
Wire Wire Line
	9150 5000 9600 5000
Wire Wire Line
	9150 4900 9600 4900
Wire Wire Line
	9150 4700 9600 4700
Wire Wire Line
	9150 4600 9600 4600
Wire Wire Line
	9150 4400 9600 4400
Wire Wire Line
	9150 4500 9600 4500
Wire Wire Line
	9150 4300 9600 4300
$Comp
L power:Earth #PWR06
U 1 1 61B921BC
P 9350 4050
F 0 "#PWR06" H 9350 3800 50  0001 C CNN
F 1 "Earth" H 9350 3900 50  0001 C CNN
F 2 "" H 9350 4050 50  0001 C CNN
F 3 "~" H 9350 4050 50  0001 C CNN
	1    9350 4050
	1    0    0    1   
$EndComp
Wire Wire Line
	9150 4200 9350 4200
Wire Wire Line
	9350 4200 9350 4050
NoConn ~ 9150 4800
Text Label 6800 4500 0    50   ~ 0
VP
Text Label 6800 4600 0    50   ~ 0
VN
Text Label 6800 4700 0    50   ~ 0
D34
Text Label 6800 4800 0    50   ~ 0
D35
Text Label 6800 4900 0    50   ~ 0
D32
Text Label 6800 5000 0    50   ~ 0
D33
Text Label 6800 5100 0    50   ~ 0
D25
Text Label 6800 5200 0    50   ~ 0
D26
Text Label 6800 5300 0    50   ~ 0
D27
Text Label 6800 5400 0    50   ~ 0
D14
Text Label 6800 5500 0    50   ~ 0
D12
Text Label 7900 6050 1    50   ~ 0
D13
Text Label 8600 6050 1    50   ~ 0
D15
Text Label 8700 6050 1    50   ~ 0
IO2
Text Label 9600 5500 0    50   ~ 0
IO0
Text Label 9600 5400 0    50   ~ 0
D4
Text Label 9600 5300 0    50   ~ 0
D16
Text Label 9600 5200 0    50   ~ 0
D17
Text Label 9600 5100 0    50   ~ 0
D5
Text Label 9600 5000 0    50   ~ 0
D18
Text Label 9600 4900 0    50   ~ 0
D19
Text Label 9600 4700 0    50   ~ 0
D21
Text Label 9600 4600 0    50   ~ 0
RX0
Text Label 9600 4500 0    50   ~ 0
TX0
Text Label 9600 4400 0    50   ~ 0
D22
Text Label 9600 4300 0    50   ~ 0
D23
Text Label 8000 6050 1    50   ~ 0
D12
NoConn ~ 8200 6050
Text Label 8300 6050 1    50   ~ 0
D14
Text Label 8400 6050 1    50   ~ 0
IO2
Text Label 8500 6050 1    50   ~ 0
D4
$Comp
L Switch:SW_Push SW2
U 1 1 61BA3A0E
P 4700 6250
F 0 "SW2" H 4700 6535 50  0000 C CNN
F 1 "BOOT" H 4700 6444 50  0000 C CNN
F 2 "" H 4700 6450 50  0001 C CNN
F 3 "~" H 4700 6450 50  0001 C CNN
	1    4700 6250
	1    0    0    -1  
$EndComp
$Comp
L power:Earth #PWR03
U 1 1 61BA71C8
P 5300 6800
F 0 "#PWR03" H 5300 6550 50  0001 C CNN
F 1 "Earth" H 5300 6650 50  0001 C CNN
F 2 "" H 5300 6800 50  0001 C CNN
F 3 "~" H 5300 6800 50  0001 C CNN
	1    5300 6800
	1    0    0    -1  
$EndComp
Wire Wire Line
	3400 6250 2800 6250
Text Label 2800 6250 0    50   ~ 0
VDD3V3
$Comp
L Device:R R4
U 1 1 61BAD5C5
P 3550 6250
F 0 "R4" V 3450 6250 50  0000 C CNN
F 1 "10K" V 3650 6250 50  0000 C CNN
F 2 "" V 3480 6250 50  0001 C CNN
F 3 "~" H 3550 6250 50  0001 C CNN
	1    3550 6250
	0    1    1    0   
$EndComp
$Comp
L Device:R R6
U 1 1 61BAD8AF
P 4050 6250
F 0 "R6" V 3950 6250 50  0000 C CNN
F 1 "470" V 4150 6250 50  0000 C CNN
F 2 "" V 3980 6250 50  0001 C CNN
F 3 "~" H 4050 6250 50  0001 C CNN
	1    4050 6250
	0    1    1    0   
$EndComp
Wire Wire Line
	3700 6250 3800 6250
Wire Wire Line
	3800 5950 3800 6250
Connection ~ 3800 6250
Wire Wire Line
	3800 6250 3900 6250
Wire Wire Line
	4200 6250 4350 6250
$Comp
L Device:C C4
U 1 1 61BBAD66
P 4700 6600
F 0 "C4" H 4815 6646 50  0000 L CNN
F 1 "1nF" H 4815 6555 50  0000 L CNN
F 2 "" H 4738 6450 50  0001 C CNN
F 3 "~" H 4700 6600 50  0001 C CNN
	1    4700 6600
	0    1    1    0   
$EndComp
Wire Wire Line
	4900 6250 5300 6250
Wire Wire Line
	5300 6250 5300 6600
Wire Wire Line
	4850 6600 5300 6600
Connection ~ 5300 6600
Wire Wire Line
	5300 6600 5300 6800
Wire Wire Line
	4550 6600 4350 6600
Wire Wire Line
	4350 6600 4350 6250
Connection ~ 4350 6250
Wire Wire Line
	4350 6250 4500 6250
Text Label 3800 5950 0    50   ~ 0
IO0
$Comp
L Switch:SW_Push SW3
U 1 1 61BDD25B
P 4700 7500
F 0 "SW3" H 4700 7785 50  0000 C CNN
F 1 "EN" H 4700 7694 50  0000 C CNN
F 2 "" H 4700 7700 50  0001 C CNN
F 3 "~" H 4700 7700 50  0001 C CNN
	1    4700 7500
	1    0    0    -1  
$EndComp
$Comp
L power:Earth #PWR07
U 1 1 61BDD261
P 5300 8050
F 0 "#PWR07" H 5300 7800 50  0001 C CNN
F 1 "Earth" H 5300 7900 50  0001 C CNN
F 2 "" H 5300 8050 50  0001 C CNN
F 3 "~" H 5300 8050 50  0001 C CNN
	1    5300 8050
	1    0    0    -1  
$EndComp
Wire Wire Line
	3400 7500 2800 7500
Text Label 2800 7500 0    50   ~ 0
VDD3V3
$Comp
L Device:R R7
U 1 1 61BDD269
P 3550 7500
F 0 "R7" V 3450 7500 50  0000 C CNN
F 1 "10K" V 3650 7500 50  0000 C CNN
F 2 "" V 3480 7500 50  0001 C CNN
F 3 "~" H 3550 7500 50  0001 C CNN
	1    3550 7500
	0    1    1    0   
$EndComp
$Comp
L Device:R R8
U 1 1 61BDD26F
P 4050 7500
F 0 "R8" V 3950 7500 50  0000 C CNN
F 1 "470" V 4150 7500 50  0000 C CNN
F 2 "" V 3980 7500 50  0001 C CNN
F 3 "~" H 4050 7500 50  0001 C CNN
	1    4050 7500
	0    1    1    0   
$EndComp
Wire Wire Line
	3700 7500 3800 7500
Wire Wire Line
	3800 7200 3800 7500
Connection ~ 3800 7500
Wire Wire Line
	3800 7500 3900 7500
Wire Wire Line
	4200 7500 4350 7500
$Comp
L Device:C C5
U 1 1 61BDD27A
P 4700 7850
F 0 "C5" H 4815 7896 50  0000 L CNN
F 1 "1nF" H 4815 7805 50  0000 L CNN
F 2 "" H 4738 7700 50  0001 C CNN
F 3 "~" H 4700 7850 50  0001 C CNN
	1    4700 7850
	0    1    1    0   
$EndComp
Wire Wire Line
	4900 7500 5300 7500
Wire Wire Line
	5300 7500 5300 7850
Wire Wire Line
	4850 7850 5300 7850
Connection ~ 5300 7850
Wire Wire Line
	5300 7850 5300 8050
Wire Wire Line
	4550 7850 4350 7850
Wire Wire Line
	4350 7850 4350 7500
Connection ~ 4350 7500
Wire Wire Line
	4350 7500 4500 7500
Text Label 3800 7200 0    50   ~ 0
EN
$Comp
L Device:LED D1
U 1 1 61BE3DDE
P 7250 6650
F 0 "D1" H 7243 6867 50  0000 C CNN
F 1 "LED" H 7243 6776 50  0000 C CNN
F 2 "" H 7250 6650 50  0001 C CNN
F 3 "~" H 7250 6650 50  0001 C CNN
	1    7250 6650
	-1   0    0    -1  
$EndComp
$Comp
L Device:LED D2
U 1 1 61BE7B61
P 7250 7250
F 0 "D2" H 7243 7467 50  0000 C CNN
F 1 "LED" H 7243 7376 50  0000 C CNN
F 2 "" H 7250 7250 50  0001 C CNN
F 3 "~" H 7250 7250 50  0001 C CNN
	1    7250 7250
	-1   0    0    -1  
$EndComp
$Comp
L Device:R R5
U 1 1 61BE8549
P 6600 6650
F 0 "R5" V 6550 6500 50  0000 C CNN
F 1 "1K" V 6550 6800 50  0000 C CNN
F 2 "" V 6530 6650 50  0001 C CNN
F 3 "~" H 6600 6650 50  0001 C CNN
	1    6600 6650
	0    1    1    0   
$EndComp
$Comp
L Device:R R9
U 1 1 61BE9FAD
P 6650 7250
F 0 "R9" V 6600 7100 50  0000 C CNN
F 1 "1K" V 6600 7400 50  0000 C CNN
F 2 "" V 6580 7250 50  0001 C CNN
F 3 "~" H 6650 7250 50  0001 C CNN
	1    6650 7250
	0    1    1    0   
$EndComp
Wire Wire Line
	6750 6650 7100 6650
Wire Wire Line
	6800 7250 7100 7250
Wire Wire Line
	6000 6650 6450 6650
Wire Wire Line
	6000 7250 6500 7250
Text Label 6000 6650 0    50   ~ 0
IO2
Text Label 6000 7250 0    50   ~ 0
VDD3V3
$Comp
L power:Earth #PWR08
U 1 1 61C035EE
P 8300 6650
F 0 "#PWR08" H 8300 6400 50  0001 C CNN
F 1 "Earth" H 8300 6500 50  0001 C CNN
F 2 "" H 8300 6650 50  0001 C CNN
F 3 "~" H 8300 6650 50  0001 C CNN
	1    8300 6650
	0    -1   -1   0   
$EndComp
$Comp
L power:Earth #PWR09
U 1 1 61C0403A
P 8300 7250
F 0 "#PWR09" H 8300 7000 50  0001 C CNN
F 1 "Earth" H 8300 7100 50  0001 C CNN
F 2 "" H 8300 7250 50  0001 C CNN
F 3 "~" H 8300 7250 50  0001 C CNN
	1    8300 7250
	0    -1   -1   0   
$EndComp
Wire Wire Line
	7400 6650 8300 6650
Wire Wire Line
	7400 7250 8300 7250
$Comp
L Transistor_BJT:S8050 Q1
U 1 1 61C164BA
P 9050 2500
F 0 "Q1" H 9240 2546 50  0000 L CNN
F 1 "S8050" H 9240 2455 50  0000 L CNN
F 2 "Package_TO_SOT_THT:TO-92_Inline" H 9250 2425 50  0001 L CIN
F 3 "http://www.unisonic.com.tw/datasheet/S8050.pdf" H 9050 2500 50  0001 L CNN
	1    9050 2500
	1    0    0    -1  
$EndComp
$Comp
L Transistor_BJT:S8050 Q2
U 1 1 61C176D1
P 9050 3400
F 0 "Q2" H 9240 3354 50  0000 L CNN
F 1 "S8050" H 9240 3445 50  0000 L CNN
F 2 "Package_TO_SOT_THT:TO-92_Inline" H 9250 3325 50  0001 L CIN
F 3 "http://www.unisonic.com.tw/datasheet/S8050.pdf" H 9050 3400 50  0001 L CNN
	1    9050 3400
	1    0    0    1   
$EndComp
$Comp
L Device:R R11
U 1 1 61C180BC
P 8350 3400
F 0 "R11" V 8250 3400 50  0000 C CNN
F 1 "10K" V 8450 3400 50  0000 C CNN
F 2 "" V 8280 3400 50  0001 C CNN
F 3 "~" H 8350 3400 50  0001 C CNN
	1    8350 3400
	0    1    1    0   
$EndComp
$Comp
L Device:R R10
U 1 1 61C18D39
P 8350 2500
F 0 "R10" V 8250 2500 50  0000 C CNN
F 1 "10K" V 8450 2500 50  0000 C CNN
F 2 "" V 8280 2500 50  0001 C CNN
F 3 "~" H 8350 2500 50  0001 C CNN
	1    8350 2500
	0    1    1    0   
$EndComp
Wire Wire Line
	8500 2500 8850 2500
Wire Wire Line
	8850 3400 8500 3400
Wire Wire Line
	9150 3600 9150 3750
Wire Wire Line
	9150 3750 9550 3750
Wire Wire Line
	9150 2300 9150 2050
Wire Wire Line
	9150 2050 9550 2050
Wire Wire Line
	8200 3400 7950 3400
Wire Wire Line
	8200 2500 8000 2500
Wire Wire Line
	9150 2700 7950 2700
Wire Wire Line
	7950 2700 7950 3400
Connection ~ 7950 3400
Wire Wire Line
	7950 3400 7600 3400
Wire Wire Line
	9150 3200 8000 3200
Wire Wire Line
	8000 3200 8000 2500
Connection ~ 8000 2500
Wire Wire Line
	8000 2500 7600 2500
Text Label 7600 3400 0    50   ~ 0
RTS
Text Label 7600 2500 0    50   ~ 0
DTR
Text Label 9550 2050 0    50   ~ 0
EN
Text Label 9550 3750 0    50   ~ 0
IO0
$Comp
L My_Conn:THT_MALE_P_1x15 P1
U 1 1 61C55280
P 11150 4200
F 0 "P1" H 11200 4300 50  0000 L CNN
F 1 "THT_MALE_P_1x15" H 11200 2600 50  0000 L CNN
F 2 "" H 11200 4300 50  0001 C CNN
F 3 "" H 11200 4300 50  0001 C CNN
	1    11150 4200
	1    0    0    -1  
$EndComp
$Comp
L My_Conn:THT_MALE_P_1x15 P2
U 1 1 61C560B0
P 12500 4200
F 0 "P2" H 12550 4300 50  0000 L CNN
F 1 "THT_MALE_P_1x15" H 12550 2600 50  0000 L CNN
F 2 "" H 12550 4300 50  0001 C CNN
F 3 "" H 12550 4300 50  0001 C CNN
	1    12500 4200
	1    0    0    -1  
$EndComp
Wire Wire Line
	12400 4250 12050 4250
Wire Wire Line
	12400 4350 12050 4350
Wire Wire Line
	12400 4450 12050 4450
Wire Wire Line
	12400 4550 12050 4550
Wire Wire Line
	12400 4650 12050 4650
Wire Wire Line
	12400 4750 12050 4750
Wire Wire Line
	12050 4850 12400 4850
Wire Wire Line
	12400 4950 12050 4950
Wire Wire Line
	12050 5050 12400 5050
Wire Wire Line
	12400 5150 12050 5150
Wire Wire Line
	12400 5250 12050 5250
Wire Wire Line
	12400 5350 12050 5350
Wire Wire Line
	12400 5450 12050 5450
Wire Wire Line
	12400 5550 12050 5550
Wire Wire Line
	12050 5650 12400 5650
Wire Wire Line
	11050 4250 10700 4250
Wire Wire Line
	11050 4350 10700 4350
Wire Wire Line
	11050 4450 10700 4450
Wire Wire Line
	11050 4550 10700 4550
Wire Wire Line
	11050 4650 10700 4650
Wire Wire Line
	11050 4750 10700 4750
Wire Wire Line
	10700 4850 11050 4850
Wire Wire Line
	11050 4950 10700 4950
Wire Wire Line
	10700 5050 11050 5050
Wire Wire Line
	11050 5150 10700 5150
Wire Wire Line
	11050 5250 10700 5250
Wire Wire Line
	11050 5350 10700 5350
Wire Wire Line
	11050 5450 10700 5450
Wire Wire Line
	11050 5550 10700 5550
Wire Wire Line
	10700 5650 11050 5650
Text Label 10700 4250 0    50   ~ 0
EN
Text Label 10700 4350 0    50   ~ 0
VP
Text Label 10700 4450 0    50   ~ 0
VN
Text Label 10700 4550 0    50   ~ 0
D34
Text Label 10700 4650 0    50   ~ 0
D35
Text Label 10700 4750 0    50   ~ 0
D32
Text Label 10700 4850 0    50   ~ 0
D33
Text Label 10700 4950 0    50   ~ 0
D25
Text Label 10700 5050 0    50   ~ 0
D26
Text Label 10700 5150 0    50   ~ 0
D27
Text Label 10700 5250 0    50   ~ 0
D14
Text Label 10700 5350 0    50   ~ 0
D12
Text Label 10700 5450 0    50   ~ 0
D13
Text Label 10700 5550 0    50   ~ 0
VIN
Text Label 10700 5650 0    50   ~ 0
GND
Text Label 12050 4250 0    50   ~ 0
D23
Text Label 12050 4350 0    50   ~ 0
D22
Text Label 12050 4450 0    50   ~ 0
TX0
Text Label 12050 4550 0    50   ~ 0
RX0
Text Label 12050 4650 0    50   ~ 0
D21
Text Label 12050 4750 0    50   ~ 0
D19
Text Label 12050 4850 0    50   ~ 0
D18
Text Label 12050 4950 0    50   ~ 0
D5
Text Label 12050 5050 0    50   ~ 0
D17
Text Label 12050 5150 0    50   ~ 0
D16
Text Label 12050 5250 0    50   ~ 0
D4
Text Label 12050 5350 0    50   ~ 0
IO2
Text Label 12050 5450 0    50   ~ 0
D15
Text Label 12050 5550 0    50   ~ 0
GND
Text Label 12050 5650 0    50   ~ 0
VDD3V3
NoConn ~ 8100 6050
Text Label 3050 3000 0    50   ~ 0
VIN
Wire Wire Line
	3750 2900 3750 3150
Wire Wire Line
	3750 3150 4050 3150
Wire Wire Line
	2800 2900 3750 2900
Wire Wire Line
	2800 2700 3050 2700
Wire Wire Line
	3050 2700 3050 2600
Connection ~ 3050 2600
Wire Wire Line
	2800 4350 2800 4500
Connection ~ 2800 4350
Wire Wire Line
	2800 4350 3050 4350
Wire Wire Line
	2800 4950 3050 4950
Connection ~ 3050 4950
Wire Wire Line
	3050 4950 3050 4800
Wire Wire Line
	1450 4900 2150 4900
Connection ~ 2150 4900
Wire Wire Line
	2150 4900 2150 4950
Wire Wire Line
	2450 4350 2800 4350
Wire Wire Line
	1450 4000 1450 4350
Text Label 1450 4000 0    50   ~ 0
VIN
$EndSCHEMATC
