%TF.GenerationSoftware,KiCad,Pcbnew,(5.1.10)-1*%
%TF.CreationDate,2021-11-25T16:22:13+03:00*%
%TF.ProjectId,lrr,6c72722e-6b69-4636-9164-5f7063625858,rev?*%
%TF.SameCoordinates,Original*%
%TF.FileFunction,Paste,Top*%
%TF.FilePolarity,Positive*%
%FSLAX46Y46*%
G04 Gerber Fmt 4.6, Leading zero omitted, Abs format (unit mm)*
G04 Created by KiCad (PCBNEW (5.1.10)-1) date 2021-11-25 16:22:13*
%MOMM*%
%LPD*%
G01*
G04 APERTURE LIST*
%ADD10R,1.750000X0.450000*%
G04 APERTURE END LIST*
D10*
%TO.C,U1*%
X196000000Y-168200000D03*
X196000000Y-168850000D03*
X196000000Y-169500000D03*
X196000000Y-170150000D03*
X196000000Y-170800000D03*
X196000000Y-171450000D03*
X196000000Y-172100000D03*
X196000000Y-172750000D03*
X196000000Y-173400000D03*
X196000000Y-174050000D03*
X196000000Y-174700000D03*
X196000000Y-175350000D03*
X196000000Y-176000000D03*
X196000000Y-176650000D03*
X203200000Y-176650000D03*
X203200000Y-176000000D03*
X203200000Y-175350000D03*
X203200000Y-174700000D03*
X203200000Y-174050000D03*
X203200000Y-173400000D03*
X203200000Y-172750000D03*
X203200000Y-172100000D03*
X203200000Y-171450000D03*
X203200000Y-170800000D03*
X203200000Y-170150000D03*
X203200000Y-169500000D03*
X203200000Y-168850000D03*
X203200000Y-168200000D03*
%TD*%
M02*
