%TF.GenerationSoftware,KiCad,Pcbnew,(5.1.10)-1*%
%TF.CreationDate,2021-11-25T16:22:13+03:00*%
%TF.ProjectId,lrr,6c72722e-6b69-4636-9164-5f7063625858,rev?*%
%TF.SameCoordinates,Original*%
%TF.FileFunction,Copper,L2,Bot*%
%TF.FilePolarity,Positive*%
%FSLAX46Y46*%
G04 Gerber Fmt 4.6, Leading zero omitted, Abs format (unit mm)*
G04 Created by KiCad (PCBNEW (5.1.10)-1) date 2021-11-25 16:22:13*
%MOMM*%
%LPD*%
G01*
G04 APERTURE LIST*
%TA.AperFunction,ComponentPad*%
%ADD10C,10.160000*%
%TD*%
%TA.AperFunction,ComponentPad*%
%ADD11R,1.800000X1.800000*%
%TD*%
%TA.AperFunction,ComponentPad*%
%ADD12C,1.800000*%
%TD*%
%TA.AperFunction,ComponentPad*%
%ADD13C,1.600000*%
%TD*%
%TA.AperFunction,ComponentPad*%
%ADD14O,1.600000X1.600000*%
%TD*%
%TA.AperFunction,ViaPad*%
%ADD15C,0.800000*%
%TD*%
%TA.AperFunction,Conductor*%
%ADD16C,0.500000*%
%TD*%
%TA.AperFunction,NonConductor*%
%ADD17C,0.254000*%
%TD*%
%TA.AperFunction,NonConductor*%
%ADD18C,0.100000*%
%TD*%
G04 APERTURE END LIST*
D10*
%TO.P,XP1,1*%
%TO.N,VCC*%
X185670000Y-187960000D03*
%TO.P,XP1,3*%
%TO.N,Net-(R2-Pad1)*%
X215640000Y-187960000D03*
%TO.P,XP1,2*%
%TO.N,GND*%
X200660000Y-187960000D03*
%TD*%
D11*
%TO.P,D1,1*%
%TO.N,Net-(D1-Pad1)*%
X185420000Y-165100000D03*
D12*
%TO.P,D1,2*%
%TO.N,Net-(D1-Pad2)*%
X187960000Y-165100000D03*
%TD*%
D13*
%TO.P,R1,1*%
%TO.N,Net-(D1-Pad2)*%
X185420000Y-173990000D03*
D14*
%TO.P,R1,2*%
%TO.N,VCC*%
X187960000Y-173990000D03*
%TD*%
%TO.P,R2,2*%
%TO.N,/INPUT*%
X218440000Y-176530000D03*
D13*
%TO.P,R2,1*%
%TO.N,Net-(R2-Pad1)*%
X215900000Y-176530000D03*
%TD*%
D15*
%TO.N,GND*%
X200660000Y-175260000D03*
%TD*%
D16*
%TO.N,GND*%
X200660000Y-187960000D02*
X200660000Y-175260000D01*
%TD*%
D17*
X222123000Y-195453000D02*
X179197000Y-195453000D01*
X179197000Y-187397122D01*
X179955000Y-187397122D01*
X179955000Y-188522878D01*
X180174625Y-189627004D01*
X180605433Y-190667067D01*
X181230870Y-191603100D01*
X182026900Y-192399130D01*
X182962933Y-193024567D01*
X184002996Y-193455375D01*
X185107122Y-193675000D01*
X186232878Y-193675000D01*
X187337004Y-193455375D01*
X188377067Y-193024567D01*
X189313100Y-192399130D01*
X190109130Y-191603100D01*
X190734567Y-190667067D01*
X191165375Y-189627004D01*
X191385000Y-188522878D01*
X191385000Y-187397122D01*
X194945000Y-187397122D01*
X194945000Y-188522878D01*
X195164625Y-189627004D01*
X195595433Y-190667067D01*
X196220870Y-191603100D01*
X197016900Y-192399130D01*
X197952933Y-193024567D01*
X198992996Y-193455375D01*
X200097122Y-193675000D01*
X201222878Y-193675000D01*
X202327004Y-193455375D01*
X203367067Y-193024567D01*
X204303100Y-192399130D01*
X205099130Y-191603100D01*
X205724567Y-190667067D01*
X206155375Y-189627004D01*
X206375000Y-188522878D01*
X206375000Y-187397122D01*
X209925000Y-187397122D01*
X209925000Y-188522878D01*
X210144625Y-189627004D01*
X210575433Y-190667067D01*
X211200870Y-191603100D01*
X211996900Y-192399130D01*
X212932933Y-193024567D01*
X213972996Y-193455375D01*
X215077122Y-193675000D01*
X216202878Y-193675000D01*
X217307004Y-193455375D01*
X218347067Y-193024567D01*
X219283100Y-192399130D01*
X220079130Y-191603100D01*
X220704567Y-190667067D01*
X221135375Y-189627004D01*
X221355000Y-188522878D01*
X221355000Y-187397122D01*
X221135375Y-186292996D01*
X220704567Y-185252933D01*
X220079130Y-184316900D01*
X219283100Y-183520870D01*
X218347067Y-182895433D01*
X217307004Y-182464625D01*
X216202878Y-182245000D01*
X215077122Y-182245000D01*
X213972996Y-182464625D01*
X212932933Y-182895433D01*
X211996900Y-183520870D01*
X211200870Y-184316900D01*
X210575433Y-185252933D01*
X210144625Y-186292996D01*
X209925000Y-187397122D01*
X206375000Y-187397122D01*
X206155375Y-186292996D01*
X205724567Y-185252933D01*
X205099130Y-184316900D01*
X204303100Y-183520870D01*
X203367067Y-182895433D01*
X202327004Y-182464625D01*
X201545000Y-182309074D01*
X201545000Y-176388665D01*
X214465000Y-176388665D01*
X214465000Y-176671335D01*
X214520147Y-176948574D01*
X214628320Y-177209727D01*
X214785363Y-177444759D01*
X214985241Y-177644637D01*
X215220273Y-177801680D01*
X215481426Y-177909853D01*
X215758665Y-177965000D01*
X216041335Y-177965000D01*
X216318574Y-177909853D01*
X216579727Y-177801680D01*
X216814759Y-177644637D01*
X217014637Y-177444759D01*
X217170000Y-177212241D01*
X217325363Y-177444759D01*
X217525241Y-177644637D01*
X217760273Y-177801680D01*
X218021426Y-177909853D01*
X218298665Y-177965000D01*
X218581335Y-177965000D01*
X218858574Y-177909853D01*
X219119727Y-177801680D01*
X219354759Y-177644637D01*
X219554637Y-177444759D01*
X219711680Y-177209727D01*
X219819853Y-176948574D01*
X219875000Y-176671335D01*
X219875000Y-176388665D01*
X219819853Y-176111426D01*
X219711680Y-175850273D01*
X219554637Y-175615241D01*
X219354759Y-175415363D01*
X219119727Y-175258320D01*
X218858574Y-175150147D01*
X218581335Y-175095000D01*
X218298665Y-175095000D01*
X218021426Y-175150147D01*
X217760273Y-175258320D01*
X217525241Y-175415363D01*
X217325363Y-175615241D01*
X217170000Y-175847759D01*
X217014637Y-175615241D01*
X216814759Y-175415363D01*
X216579727Y-175258320D01*
X216318574Y-175150147D01*
X216041335Y-175095000D01*
X215758665Y-175095000D01*
X215481426Y-175150147D01*
X215220273Y-175258320D01*
X214985241Y-175415363D01*
X214785363Y-175615241D01*
X214628320Y-175850273D01*
X214520147Y-176111426D01*
X214465000Y-176388665D01*
X201545000Y-176388665D01*
X201545000Y-175798454D01*
X201577205Y-175750256D01*
X201655226Y-175561898D01*
X201695000Y-175361939D01*
X201695000Y-175158061D01*
X201655226Y-174958102D01*
X201577205Y-174769744D01*
X201463937Y-174600226D01*
X201319774Y-174456063D01*
X201150256Y-174342795D01*
X200961898Y-174264774D01*
X200761939Y-174225000D01*
X200558061Y-174225000D01*
X200358102Y-174264774D01*
X200169744Y-174342795D01*
X200000226Y-174456063D01*
X199856063Y-174600226D01*
X199742795Y-174769744D01*
X199664774Y-174958102D01*
X199625000Y-175158061D01*
X199625000Y-175361939D01*
X199664774Y-175561898D01*
X199742795Y-175750256D01*
X199775001Y-175798456D01*
X199775000Y-182309074D01*
X198992996Y-182464625D01*
X197952933Y-182895433D01*
X197016900Y-183520870D01*
X196220870Y-184316900D01*
X195595433Y-185252933D01*
X195164625Y-186292996D01*
X194945000Y-187397122D01*
X191385000Y-187397122D01*
X191165375Y-186292996D01*
X190734567Y-185252933D01*
X190109130Y-184316900D01*
X189313100Y-183520870D01*
X188377067Y-182895433D01*
X187337004Y-182464625D01*
X186232878Y-182245000D01*
X185107122Y-182245000D01*
X184002996Y-182464625D01*
X182962933Y-182895433D01*
X182026900Y-183520870D01*
X181230870Y-184316900D01*
X180605433Y-185252933D01*
X180174625Y-186292996D01*
X179955000Y-187397122D01*
X179197000Y-187397122D01*
X179197000Y-173848665D01*
X183985000Y-173848665D01*
X183985000Y-174131335D01*
X184040147Y-174408574D01*
X184148320Y-174669727D01*
X184305363Y-174904759D01*
X184505241Y-175104637D01*
X184740273Y-175261680D01*
X185001426Y-175369853D01*
X185278665Y-175425000D01*
X185561335Y-175425000D01*
X185838574Y-175369853D01*
X186099727Y-175261680D01*
X186334759Y-175104637D01*
X186534637Y-174904759D01*
X186690000Y-174672241D01*
X186845363Y-174904759D01*
X187045241Y-175104637D01*
X187280273Y-175261680D01*
X187541426Y-175369853D01*
X187818665Y-175425000D01*
X188101335Y-175425000D01*
X188378574Y-175369853D01*
X188639727Y-175261680D01*
X188874759Y-175104637D01*
X189074637Y-174904759D01*
X189231680Y-174669727D01*
X189339853Y-174408574D01*
X189395000Y-174131335D01*
X189395000Y-173848665D01*
X189339853Y-173571426D01*
X189231680Y-173310273D01*
X189074637Y-173075241D01*
X188874759Y-172875363D01*
X188639727Y-172718320D01*
X188378574Y-172610147D01*
X188101335Y-172555000D01*
X187818665Y-172555000D01*
X187541426Y-172610147D01*
X187280273Y-172718320D01*
X187045241Y-172875363D01*
X186845363Y-173075241D01*
X186690000Y-173307759D01*
X186534637Y-173075241D01*
X186334759Y-172875363D01*
X186099727Y-172718320D01*
X185838574Y-172610147D01*
X185561335Y-172555000D01*
X185278665Y-172555000D01*
X185001426Y-172610147D01*
X184740273Y-172718320D01*
X184505241Y-172875363D01*
X184305363Y-173075241D01*
X184148320Y-173310273D01*
X184040147Y-173571426D01*
X183985000Y-173848665D01*
X179197000Y-173848665D01*
X179197000Y-164200000D01*
X183881928Y-164200000D01*
X183881928Y-166000000D01*
X183894188Y-166124482D01*
X183930498Y-166244180D01*
X183989463Y-166354494D01*
X184068815Y-166451185D01*
X184165506Y-166530537D01*
X184275820Y-166589502D01*
X184395518Y-166625812D01*
X184520000Y-166638072D01*
X186320000Y-166638072D01*
X186444482Y-166625812D01*
X186564180Y-166589502D01*
X186674494Y-166530537D01*
X186771185Y-166451185D01*
X186850537Y-166354494D01*
X186909502Y-166244180D01*
X186915056Y-166225873D01*
X186981495Y-166292312D01*
X187232905Y-166460299D01*
X187512257Y-166576011D01*
X187808816Y-166635000D01*
X188111184Y-166635000D01*
X188407743Y-166576011D01*
X188687095Y-166460299D01*
X188938505Y-166292312D01*
X189152312Y-166078505D01*
X189320299Y-165827095D01*
X189436011Y-165547743D01*
X189495000Y-165251184D01*
X189495000Y-164948816D01*
X189436011Y-164652257D01*
X189320299Y-164372905D01*
X189152312Y-164121495D01*
X188938505Y-163907688D01*
X188687095Y-163739701D01*
X188407743Y-163623989D01*
X188111184Y-163565000D01*
X187808816Y-163565000D01*
X187512257Y-163623989D01*
X187232905Y-163739701D01*
X186981495Y-163907688D01*
X186915056Y-163974127D01*
X186909502Y-163955820D01*
X186850537Y-163845506D01*
X186771185Y-163748815D01*
X186674494Y-163669463D01*
X186564180Y-163610498D01*
X186444482Y-163574188D01*
X186320000Y-163561928D01*
X184520000Y-163561928D01*
X184395518Y-163574188D01*
X184275820Y-163610498D01*
X184165506Y-163669463D01*
X184068815Y-163748815D01*
X183989463Y-163845506D01*
X183930498Y-163955820D01*
X183894188Y-164075518D01*
X183881928Y-164200000D01*
X179197000Y-164200000D01*
X179197000Y-160147000D01*
X222123000Y-160147000D01*
X222123000Y-195453000D01*
%TA.AperFunction,NonConductor*%
D18*
G36*
X222123000Y-195453000D02*
G01*
X179197000Y-195453000D01*
X179197000Y-187397122D01*
X179955000Y-187397122D01*
X179955000Y-188522878D01*
X180174625Y-189627004D01*
X180605433Y-190667067D01*
X181230870Y-191603100D01*
X182026900Y-192399130D01*
X182962933Y-193024567D01*
X184002996Y-193455375D01*
X185107122Y-193675000D01*
X186232878Y-193675000D01*
X187337004Y-193455375D01*
X188377067Y-193024567D01*
X189313100Y-192399130D01*
X190109130Y-191603100D01*
X190734567Y-190667067D01*
X191165375Y-189627004D01*
X191385000Y-188522878D01*
X191385000Y-187397122D01*
X194945000Y-187397122D01*
X194945000Y-188522878D01*
X195164625Y-189627004D01*
X195595433Y-190667067D01*
X196220870Y-191603100D01*
X197016900Y-192399130D01*
X197952933Y-193024567D01*
X198992996Y-193455375D01*
X200097122Y-193675000D01*
X201222878Y-193675000D01*
X202327004Y-193455375D01*
X203367067Y-193024567D01*
X204303100Y-192399130D01*
X205099130Y-191603100D01*
X205724567Y-190667067D01*
X206155375Y-189627004D01*
X206375000Y-188522878D01*
X206375000Y-187397122D01*
X209925000Y-187397122D01*
X209925000Y-188522878D01*
X210144625Y-189627004D01*
X210575433Y-190667067D01*
X211200870Y-191603100D01*
X211996900Y-192399130D01*
X212932933Y-193024567D01*
X213972996Y-193455375D01*
X215077122Y-193675000D01*
X216202878Y-193675000D01*
X217307004Y-193455375D01*
X218347067Y-193024567D01*
X219283100Y-192399130D01*
X220079130Y-191603100D01*
X220704567Y-190667067D01*
X221135375Y-189627004D01*
X221355000Y-188522878D01*
X221355000Y-187397122D01*
X221135375Y-186292996D01*
X220704567Y-185252933D01*
X220079130Y-184316900D01*
X219283100Y-183520870D01*
X218347067Y-182895433D01*
X217307004Y-182464625D01*
X216202878Y-182245000D01*
X215077122Y-182245000D01*
X213972996Y-182464625D01*
X212932933Y-182895433D01*
X211996900Y-183520870D01*
X211200870Y-184316900D01*
X210575433Y-185252933D01*
X210144625Y-186292996D01*
X209925000Y-187397122D01*
X206375000Y-187397122D01*
X206155375Y-186292996D01*
X205724567Y-185252933D01*
X205099130Y-184316900D01*
X204303100Y-183520870D01*
X203367067Y-182895433D01*
X202327004Y-182464625D01*
X201545000Y-182309074D01*
X201545000Y-176388665D01*
X214465000Y-176388665D01*
X214465000Y-176671335D01*
X214520147Y-176948574D01*
X214628320Y-177209727D01*
X214785363Y-177444759D01*
X214985241Y-177644637D01*
X215220273Y-177801680D01*
X215481426Y-177909853D01*
X215758665Y-177965000D01*
X216041335Y-177965000D01*
X216318574Y-177909853D01*
X216579727Y-177801680D01*
X216814759Y-177644637D01*
X217014637Y-177444759D01*
X217170000Y-177212241D01*
X217325363Y-177444759D01*
X217525241Y-177644637D01*
X217760273Y-177801680D01*
X218021426Y-177909853D01*
X218298665Y-177965000D01*
X218581335Y-177965000D01*
X218858574Y-177909853D01*
X219119727Y-177801680D01*
X219354759Y-177644637D01*
X219554637Y-177444759D01*
X219711680Y-177209727D01*
X219819853Y-176948574D01*
X219875000Y-176671335D01*
X219875000Y-176388665D01*
X219819853Y-176111426D01*
X219711680Y-175850273D01*
X219554637Y-175615241D01*
X219354759Y-175415363D01*
X219119727Y-175258320D01*
X218858574Y-175150147D01*
X218581335Y-175095000D01*
X218298665Y-175095000D01*
X218021426Y-175150147D01*
X217760273Y-175258320D01*
X217525241Y-175415363D01*
X217325363Y-175615241D01*
X217170000Y-175847759D01*
X217014637Y-175615241D01*
X216814759Y-175415363D01*
X216579727Y-175258320D01*
X216318574Y-175150147D01*
X216041335Y-175095000D01*
X215758665Y-175095000D01*
X215481426Y-175150147D01*
X215220273Y-175258320D01*
X214985241Y-175415363D01*
X214785363Y-175615241D01*
X214628320Y-175850273D01*
X214520147Y-176111426D01*
X214465000Y-176388665D01*
X201545000Y-176388665D01*
X201545000Y-175798454D01*
X201577205Y-175750256D01*
X201655226Y-175561898D01*
X201695000Y-175361939D01*
X201695000Y-175158061D01*
X201655226Y-174958102D01*
X201577205Y-174769744D01*
X201463937Y-174600226D01*
X201319774Y-174456063D01*
X201150256Y-174342795D01*
X200961898Y-174264774D01*
X200761939Y-174225000D01*
X200558061Y-174225000D01*
X200358102Y-174264774D01*
X200169744Y-174342795D01*
X200000226Y-174456063D01*
X199856063Y-174600226D01*
X199742795Y-174769744D01*
X199664774Y-174958102D01*
X199625000Y-175158061D01*
X199625000Y-175361939D01*
X199664774Y-175561898D01*
X199742795Y-175750256D01*
X199775001Y-175798456D01*
X199775000Y-182309074D01*
X198992996Y-182464625D01*
X197952933Y-182895433D01*
X197016900Y-183520870D01*
X196220870Y-184316900D01*
X195595433Y-185252933D01*
X195164625Y-186292996D01*
X194945000Y-187397122D01*
X191385000Y-187397122D01*
X191165375Y-186292996D01*
X190734567Y-185252933D01*
X190109130Y-184316900D01*
X189313100Y-183520870D01*
X188377067Y-182895433D01*
X187337004Y-182464625D01*
X186232878Y-182245000D01*
X185107122Y-182245000D01*
X184002996Y-182464625D01*
X182962933Y-182895433D01*
X182026900Y-183520870D01*
X181230870Y-184316900D01*
X180605433Y-185252933D01*
X180174625Y-186292996D01*
X179955000Y-187397122D01*
X179197000Y-187397122D01*
X179197000Y-173848665D01*
X183985000Y-173848665D01*
X183985000Y-174131335D01*
X184040147Y-174408574D01*
X184148320Y-174669727D01*
X184305363Y-174904759D01*
X184505241Y-175104637D01*
X184740273Y-175261680D01*
X185001426Y-175369853D01*
X185278665Y-175425000D01*
X185561335Y-175425000D01*
X185838574Y-175369853D01*
X186099727Y-175261680D01*
X186334759Y-175104637D01*
X186534637Y-174904759D01*
X186690000Y-174672241D01*
X186845363Y-174904759D01*
X187045241Y-175104637D01*
X187280273Y-175261680D01*
X187541426Y-175369853D01*
X187818665Y-175425000D01*
X188101335Y-175425000D01*
X188378574Y-175369853D01*
X188639727Y-175261680D01*
X188874759Y-175104637D01*
X189074637Y-174904759D01*
X189231680Y-174669727D01*
X189339853Y-174408574D01*
X189395000Y-174131335D01*
X189395000Y-173848665D01*
X189339853Y-173571426D01*
X189231680Y-173310273D01*
X189074637Y-173075241D01*
X188874759Y-172875363D01*
X188639727Y-172718320D01*
X188378574Y-172610147D01*
X188101335Y-172555000D01*
X187818665Y-172555000D01*
X187541426Y-172610147D01*
X187280273Y-172718320D01*
X187045241Y-172875363D01*
X186845363Y-173075241D01*
X186690000Y-173307759D01*
X186534637Y-173075241D01*
X186334759Y-172875363D01*
X186099727Y-172718320D01*
X185838574Y-172610147D01*
X185561335Y-172555000D01*
X185278665Y-172555000D01*
X185001426Y-172610147D01*
X184740273Y-172718320D01*
X184505241Y-172875363D01*
X184305363Y-173075241D01*
X184148320Y-173310273D01*
X184040147Y-173571426D01*
X183985000Y-173848665D01*
X179197000Y-173848665D01*
X179197000Y-164200000D01*
X183881928Y-164200000D01*
X183881928Y-166000000D01*
X183894188Y-166124482D01*
X183930498Y-166244180D01*
X183989463Y-166354494D01*
X184068815Y-166451185D01*
X184165506Y-166530537D01*
X184275820Y-166589502D01*
X184395518Y-166625812D01*
X184520000Y-166638072D01*
X186320000Y-166638072D01*
X186444482Y-166625812D01*
X186564180Y-166589502D01*
X186674494Y-166530537D01*
X186771185Y-166451185D01*
X186850537Y-166354494D01*
X186909502Y-166244180D01*
X186915056Y-166225873D01*
X186981495Y-166292312D01*
X187232905Y-166460299D01*
X187512257Y-166576011D01*
X187808816Y-166635000D01*
X188111184Y-166635000D01*
X188407743Y-166576011D01*
X188687095Y-166460299D01*
X188938505Y-166292312D01*
X189152312Y-166078505D01*
X189320299Y-165827095D01*
X189436011Y-165547743D01*
X189495000Y-165251184D01*
X189495000Y-164948816D01*
X189436011Y-164652257D01*
X189320299Y-164372905D01*
X189152312Y-164121495D01*
X188938505Y-163907688D01*
X188687095Y-163739701D01*
X188407743Y-163623989D01*
X188111184Y-163565000D01*
X187808816Y-163565000D01*
X187512257Y-163623989D01*
X187232905Y-163739701D01*
X186981495Y-163907688D01*
X186915056Y-163974127D01*
X186909502Y-163955820D01*
X186850537Y-163845506D01*
X186771185Y-163748815D01*
X186674494Y-163669463D01*
X186564180Y-163610498D01*
X186444482Y-163574188D01*
X186320000Y-163561928D01*
X184520000Y-163561928D01*
X184395518Y-163574188D01*
X184275820Y-163610498D01*
X184165506Y-163669463D01*
X184068815Y-163748815D01*
X183989463Y-163845506D01*
X183930498Y-163955820D01*
X183894188Y-164075518D01*
X183881928Y-164200000D01*
X179197000Y-164200000D01*
X179197000Y-160147000D01*
X222123000Y-160147000D01*
X222123000Y-195453000D01*
G37*
%TD.AperFunction*%
M02*
