EESchema Schematic File Version 4
EELAYER 30 0
EELAYER END
$Descr A4 11693 8268
encoding utf-8
Sheet 1 1
Title ""
Date "2021-12-14"
Rev "Урок 1"
Comp ""
Comment1 ""
Comment2 "Нестеров"
Comment3 ""
Comment4 ""
$EndDescr
$Comp
L Device:R R1
U 1 1 61B844AE
P 6800 3100
F 0 "R1" V 6593 3100 50  0000 C CNN
F 1 "1k" V 6684 3100 50  0000 C CNN
F 2 "Resistor_THT:R_Axial_DIN0207_L6.3mm_D2.5mm_P2.54mm_Vertical" V 6730 3100 50  0001 C CNN
F 3 "~" H 6800 3100 50  0001 C CNN
	1    6800 3100
	0    1    1    0   
$EndComp
$Comp
L Device:R R2
U 1 1 61B88DE8
P 7200 4650
F 0 "R2" V 6993 4650 50  0000 C CNN
F 1 "100" V 7084 4650 50  0000 C CNN
F 2 "Resistor_THT:R_Axial_DIN0207_L6.3mm_D2.5mm_P2.54mm_Vertical" V 7130 4650 50  0001 C CNN
F 3 "~" H 7200 4650 50  0001 C CNN
	1    7200 4650
	0    1    1    0   
$EndComp
$Comp
L Device:LED D1
U 1 1 61B8E1D3
P 6100 3100
F 0 "D1" H 6093 3317 50  0000 C CNN
F 1 "LED" H 6093 3226 50  0000 C CNN
F 2 "LED_THT:LED_D5.0mm" H 6100 3100 50  0001 C CNN
F 3 "~" H 6100 3100 50  0001 C CNN
	1    6100 3100
	1    0    0    -1  
$EndComp
$Comp
L lab1-rescue:MYCONN3-myLib J1
U 1 1 61B8FB27
P 6550 4850
F 0 "J1" H 7528 4646 50  0000 L CNN
F 1 "MYCONN3" H 7528 4555 50  0000 L CNN
F 2 "Connector:Banana_Jack_3Pin" H 6550 4850 50  0001 C CNN
F 3 "" H 6550 4850 50  0001 C CNN
	1    6550 4850
	-1   0    0    1   
$EndComp
$Comp
L power:VCC #PWR03
U 1 1 61B91BA9
P 6500 4100
F 0 "#PWR03" H 6500 3950 50  0001 C CNN
F 1 "VCC" H 6515 4273 50  0000 C CNN
F 2 "" H 6500 4100 50  0001 C CNN
F 3 "" H 6500 4100 50  0001 C CNN
	1    6500 4100
	1    0    0    -1  
$EndComp
$Comp
L power:VCC #PWR05
U 1 1 61B9380E
P 7250 2950
F 0 "#PWR05" H 7250 2800 50  0001 C CNN
F 1 "VCC" H 7265 3123 50  0000 C CNN
F 2 "" H 7250 2950 50  0001 C CNN
F 3 "" H 7250 2950 50  0001 C CNN
	1    7250 2950
	1    0    0    -1  
$EndComp
$Comp
L power:VCC #PWR01
U 1 1 61B964CF
P 2900 2350
F 0 "#PWR01" H 2900 2200 50  0001 C CNN
F 1 "VCC" H 2915 2523 50  0000 C CNN
F 2 "" H 2900 2350 50  0001 C CNN
F 3 "" H 2900 2350 50  0001 C CNN
	1    2900 2350
	1    0    0    -1  
$EndComp
$Comp
L power:GND #PWR02
U 1 1 61B96F81
P 4300 2350
F 0 "#PWR02" H 4300 2100 50  0001 C CNN
F 1 "GND" H 4305 2177 50  0000 C CNN
F 2 "" H 4300 2350 50  0001 C CNN
F 3 "" H 4300 2350 50  0001 C CNN
	1    4300 2350
	-1   0    0    1   
$EndComp
$Comp
L power:GND #PWR04
U 1 1 61B97CD8
P 6500 4950
F 0 "#PWR04" H 6500 4700 50  0001 C CNN
F 1 "GND" H 6505 4777 50  0000 C CNN
F 2 "" H 6500 4950 50  0001 C CNN
F 3 "" H 6500 4950 50  0001 C CNN
	1    6500 4950
	1    0    0    -1  
$EndComp
Wire Wire Line
	5950 3100 5450 3100
Wire Wire Line
	4300 2350 4300 2700
Wire Wire Line
	6250 4550 6500 4550
Wire Wire Line
	6500 4550 6500 4100
Wire Wire Line
	6250 4750 6500 4750
Wire Wire Line
	6500 4750 6500 4950
Wire Wire Line
	6650 3100 6250 3100
Wire Wire Line
	7250 2950 7250 3100
Wire Wire Line
	7250 3100 6950 3100
Wire Wire Line
	7050 4650 6250 4650
Wire Wire Line
	7350 4650 7800 4650
NoConn ~ 3300 5100
$Comp
L power:PWR_FLAG #FLG01
U 1 1 61BA32FC
P 8300 2750
F 0 "#FLG01" H 8300 2825 50  0001 C CNN
F 1 "PWR_FLAG" H 8300 2923 50  0000 C CNN
F 2 "" H 8300 2750 50  0001 C CNN
F 3 "~" H 8300 2750 50  0001 C CNN
	1    8300 2750
	1    0    0    -1  
$EndComp
Wire Wire Line
	2900 2350 2900 2700
$Comp
L power:VCC #PWR0101
U 1 1 61BA9800
P 8300 3050
F 0 "#PWR0101" H 8300 2900 50  0001 C CNN
F 1 "VCC" H 8315 3223 50  0000 C CNN
F 2 "" H 8300 3050 50  0001 C CNN
F 3 "" H 8300 3050 50  0001 C CNN
	1    8300 3050
	-1   0    0    1   
$EndComp
Wire Wire Line
	8300 2750 8300 3050
$Comp
L power:PWR_FLAG #FLG0101
U 1 1 61BAA199
P 9000 2750
F 0 "#FLG0101" H 9000 2825 50  0001 C CNN
F 1 "PWR_FLAG" H 9000 2923 50  0000 C CNN
F 2 "" H 9000 2750 50  0001 C CNN
F 3 "~" H 9000 2750 50  0001 C CNN
	1    9000 2750
	1    0    0    -1  
$EndComp
Wire Wire Line
	9000 2750 9000 3050
$Comp
L power:GND #PWR0102
U 1 1 61BAB2FD
P 9000 3050
F 0 "#PWR0102" H 9000 2800 50  0001 C CNN
F 1 "GND" H 9005 2877 50  0000 C CNN
F 2 "" H 9000 3050 50  0001 C CNN
F 3 "" H 9000 3050 50  0001 C CNN
	1    9000 3050
	1    0    0    -1  
$EndComp
Text Label 6800 3500 0    50   ~ 0
INPUT
Text Label 7800 4650 0    50   ~ 0
INPUT
NoConn ~ 4400 5100
NoConn ~ 3900 5100
Text Label 6450 4650 0    50   ~ 0
INPUTtoR
Text Label 5450 3300 0    50   ~ 0
uCtoLED
Text Label 6350 3100 0    50   ~ 0
LEDtoR
NoConn ~ 2300 3200
NoConn ~ 5000 4600
NoConn ~ 5000 4200
NoConn ~ 2300 4200
NoConn ~ 2300 3600
Wire Wire Line
	5450 3100 5450 3400
NoConn ~ 2900 5100
$Comp
L lab1-rescue:PIC16F18325-xJQ-myLib U1
U 1 1 61E1E0D7
P 3600 3900
F 0 "U1" H 5044 3988 50  0000 L CNN
F 1 "PIC16F18325-xJQ" H 5044 3897 50  0000 L CNN
F 2 "Package_DFN_QFN:QFN-16-1EP_4x4mm_P0.65mm_EP2.7x2.7mm" H 3750 4000 50  0001 C CNN
F 3 "" H 3750 4000 50  0001 C CNN
	1    3600 3900
	1    0    0    -1  
$EndComp
NoConn ~ 2300 4600
Wire Wire Line
	5000 3500 5000 3600
Wire Wire Line
	5000 3500 6800 3500
Wire Wire Line
	5450 3400 5000 3400
Wire Wire Line
	5000 3400 5000 3200
$EndSCHEMATC
