Reference, Value, Footprint, Datasheet
"R1","1k","Resistor_THT:R_Axial_DIN0207_L6.3mm_D2.5mm_P2.54mm_Vertical","~"
"R2","100","Resistor_THT:R_Axial_DIN0207_L6.3mm_D2.5mm_P2.54mm_Vertical","~"
"D1","LED","LED_THT:LED_D5.0mm","~"
"J1","MYCONN3","Connector:Banana_Jack_3Pin",""
"U1","PIC16F18325-xJQ","Package_DIP:DIP-8_W7.62mm",""
