EESchema Schematic File Version 4
EELAYER 30 0
EELAYER END
$Descr A 11000 8500
encoding utf-8
Sheet 1 1
Title "Урок1"
Date ""
Rev ""
Comp ""
Comment1 ""
Comment2 "Калинин И.Г."
Comment3 "Хохлов С.А."
Comment4 ""
$EndDescr
$Comp
L Device:R R1
U 1 1 616D904A
P 8150 2300
F 0 "R1" V 7943 2300 50  0000 C CNN
F 1 "100" V 8034 2300 50  0000 C CNN
F 2 "Resistor_THT:R_Axial_DIN0207_L6.3mm_D2.5mm_P2.54mm_Vertical" V 8080 2300 50  0001 C CNN
F 3 "~" H 8150 2300 50  0001 C CNN
F 4 "Резисторы" H 8150 2300 60  0001 C CNN "Группа"
	1    8150 2300
	0    1    1    0   
$EndComp
$Comp
L Device:LED D1
U 1 1 616DA95F
P 5750 2900
F 0 "D1" H 5743 3117 50  0000 C CNN
F 1 "LED" H 5743 3026 50  0000 C CNN
F 2 "LED_THT:LED_D5.0mm" H 5750 2900 50  0001 C CNN
F 3 "~" H 5750 2900 50  0001 C CNN
F 4 "Диоды" H 5750 2900 60  0001 C CNN "Группа"
	1    5750 2900
	1    0    0    -1  
$EndComp
$Comp
L Device:R R2
U 1 1 616D8183
P 6200 2900
F 0 "R2" V 6407 2900 50  0000 C CNN
F 1 "1 k" V 6316 2900 50  0000 C CNN
F 2 "Resistor_THT:R_Axial_DIN0207_L6.3mm_D2.5mm_P2.54mm_Vertical" V 6130 2900 50  0001 C CNN
F 3 "~" H 6200 2900 50  0001 C CNN
F 4 "Резисторы" H 6200 2900 60  0001 C CNN "Группа"
	1    6200 2900
	0    -1   -1   0   
$EndComp
$Comp
L power:VCC #PWR03
U 1 1 616DA80B
P 7750 2000
F 0 "#PWR03" H 7750 1850 50  0001 C CNN
F 1 "VCC" H 7765 2173 50  0000 C CNN
F 2 "" H 7750 2000 50  0001 C CNN
F 3 "" H 7750 2000 50  0001 C CNN
	1    7750 2000
	1    0    0    -1  
$EndComp
$Comp
L power:VCC #PWR01
U 1 1 616DADB3
P 4450 3000
F 0 "#PWR01" H 4450 2850 50  0001 C CNN
F 1 "VCC" H 4465 3173 50  0000 C CNN
F 2 "" H 4450 3000 50  0001 C CNN
F 3 "" H 4450 3000 50  0001 C CNN
	1    4450 3000
	1    0    0    -1  
$EndComp
$Comp
L power:VCC #PWR05
U 1 1 616DB43E
P 6450 2800
F 0 "#PWR05" H 6450 2650 50  0001 C CNN
F 1 "VCC" H 6465 2973 50  0000 C CNN
F 2 "" H 6450 2800 50  0001 C CNN
F 3 "" H 6450 2800 50  0001 C CNN
	1    6450 2800
	1    0    0    -1  
$EndComp
$Comp
L power:GND #PWR04
U 1 1 616DD161
P 8950 2200
F 0 "#PWR04" H 8950 1950 50  0001 C CNN
F 1 "GND" H 8955 2027 50  0000 C CNN
F 2 "" H 8950 2200 50  0001 C CNN
F 3 "" H 8950 2200 50  0001 C CNN
	1    8950 2200
	1    0    0    -1  
$EndComp
Wire Wire Line
	5050 3300 5350 3300
Wire Wire Line
	5350 3300 5350 2900
Wire Wire Line
	5350 2900 5600 2900
Wire Wire Line
	5900 2900 6050 2900
Wire Wire Line
	6350 2900 6450 2900
Wire Wire Line
	6450 2900 6450 2800
Wire Wire Line
	7650 2100 7750 2100
Wire Wire Line
	7750 2100 7750 2000
Wire Wire Line
	7650 2300 8000 2300
Wire Wire Line
	8600 2300 8300 2300
Wire Wire Line
	4450 5300 4450 5450
Wire Wire Line
	4450 3100 4450 3000
Text Label 5350 3400 0    50   ~ 0
INPUT
Wire Wire Line
	5050 3400 5700 3400
Text Label 8300 2300 0    50   ~ 0
INPUT
Text Label 7650 2300 0    50   ~ 0
INPUTtoR
Text Label 5350 3150 0    50   ~ 0
uCtoLED
Text Label 6000 3200 1    50   ~ 0
LEDtoR
$Comp
L power:PWR_FLAG #FLG01
U 1 1 616E17D1
P 6600 3450
F 0 "#FLG01" H 6600 3525 50  0001 C CNN
F 1 "PWR_FLAG" H 6600 3623 50  0000 C CNN
F 2 "" H 6600 3450 50  0001 C CNN
F 3 "~" H 6600 3450 50  0001 C CNN
	1    6600 3450
	1    0    0    -1  
$EndComp
$Comp
L power:PWR_FLAG #FLG02
U 1 1 616E1BC2
P 7050 3450
F 0 "#FLG02" H 7050 3525 50  0001 C CNN
F 1 "PWR_FLAG" H 7050 3623 50  0000 C CNN
F 2 "" H 7050 3450 50  0001 C CNN
F 3 "~" H 7050 3450 50  0001 C CNN
	1    7050 3450
	1    0    0    -1  
$EndComp
$Comp
L power:GND #PWR06
U 1 1 616E3010
P 6600 3550
F 0 "#PWR06" H 6600 3300 50  0001 C CNN
F 1 "GND" H 6605 3377 50  0000 C CNN
F 2 "" H 6600 3550 50  0001 C CNN
F 3 "" H 6600 3550 50  0001 C CNN
	1    6600 3550
	1    0    0    -1  
$EndComp
$Comp
L power:VCC #PWR07
U 1 1 616E35DA
P 7050 3750
F 0 "#PWR07" H 7050 3600 50  0001 C CNN
F 1 "VCC" H 7065 3923 50  0000 C CNN
F 2 "" H 7050 3750 50  0001 C CNN
F 3 "" H 7050 3750 50  0001 C CNN
	1    7050 3750
	-1   0    0    1   
$EndComp
Wire Wire Line
	6600 3450 6600 3550
Wire Wire Line
	7050 3450 7050 3750
$Comp
L myLib:Разъём XP1
U 1 1 6172CBA0
P 7300 2150
F 0 "XP1" H 7100 2400 50  0000 C CNN
F 1 "Разъём" H 7500 2400 50  0000 C CNN
F 2 "Connector:Banana_Jack_3Pin" H 7300 2150 50  0001 C CNN
F 3 "" H 7300 2150 50  0001 C CNN
F 4 "Разъёмы" H 7300 2150 60  0001 C CNN "Группа"
	1    7300 2150
	1    0    0    -1  
$EndComp
Wire Wire Line
	7650 2200 8950 2200
$Comp
L MCU_Microchip_PIC18:PIC18F25K83-xSP U1
U 1 1 617712A9
P 4450 4200
F 0 "U1" H 4050 5300 50  0000 C CNN
F 1 "PIC18F25K83-xSP" H 4900 5300 50  0000 C CNN
F 2 "Package_DIP:DIP-28_W7.62mm" H 4450 4300 50  0001 C CNN
F 3 "http://ww1.microchip.com/downloads/en/DeviceDoc/40001943A.pdf" H 4650 4100 50  0001 C CNN
F 4 "Микроконтроллеры" H 4450 4200 60  0001 C CNN "Группа"
	1    4450 4200
	1    0    0    -1  
$EndComp
$Comp
L power:GND #PWR02
U 1 1 616DD7B1
P 4450 5450
F 0 "#PWR02" H 4450 5200 50  0001 C CNN
F 1 "GND" H 4455 5277 50  0000 C CNN
F 2 "" H 4450 5450 50  0001 C CNN
F 3 "" H 4450 5450 50  0001 C CNN
	1    4450 5450
	1    0    0    -1  
$EndComp
NoConn ~ 5050 3500
NoConn ~ 5050 3600
NoConn ~ 5050 3700
NoConn ~ 5050 3800
NoConn ~ 5050 3900
NoConn ~ 5050 4000
NoConn ~ 3850 3500
NoConn ~ 5050 4200
NoConn ~ 5050 4300
NoConn ~ 5050 4400
NoConn ~ 5050 4500
NoConn ~ 5050 4600
NoConn ~ 5050 4700
NoConn ~ 5050 4800
NoConn ~ 5050 4900
NoConn ~ 3850 4900
NoConn ~ 3850 4800
NoConn ~ 3850 4700
NoConn ~ 3850 4600
NoConn ~ 3850 4500
NoConn ~ 3850 4400
NoConn ~ 3850 4300
NoConn ~ 3850 4200
NoConn ~ 5700 3400
$EndSCHEMATC
