EESchema Schematic File Version 4
EELAYER 30 0
EELAYER END
$Descr A4 8268 11693 portrait
encoding utf-8
Sheet 1 1
Title "Урок"
Date ""
Rev ""
Comp ""
Comment1 ""
Comment2 ""
Comment3 ""
Comment4 ""
$EndDescr
$Comp
L Device:R R2
U 1 1 615A0B29
P 5150 4350
F 0 "R2" V 4943 4350 50  0000 C CNN
F 1 "1 k" V 5034 4350 50  0000 C CNN
F 2 "" V 5080 4350 50  0001 C CNN
F 3 "~" H 5150 4350 50  0001 C CNN
	1    5150 4350
	0    1    1    0   
$EndComp
$Comp
L Device:R R1
U 1 1 615A1C9D
P 4550 5550
F 0 "R1" V 4343 5550 50  0000 C CNN
F 1 "100" V 4434 5550 50  0000 C CNN
F 2 "" V 4480 5550 50  0001 C CNN
F 3 "~" H 4550 5550 50  0001 C CNN
	1    4550 5550
	0    1    1    0   
$EndComp
$Comp
L MCU_Microchip_PIC12:PIC12C508A-ISN U1
U 1 1 615A3531
P 3300 4750
F 0 "U1" H 3000 5300 50  0000 C CNN
F 1 "PIC12C508A-ISN" H 3650 5300 50  0000 C CNN
F 2 "Package_DIP:DIP-8_W7.62mm" H 3900 5400 50  0001 C CNN
F 3 "http://ww1.microchip.com/downloads/en/devicedoc/40139e.pdf" H 3300 4750 50  0001 C CNN
	1    3300 4750
	1    0    0    -1  
$EndComp
$Comp
L Device:LED D1
U 1 1 615A4F2B
P 4550 4350
F 0 "D1" H 4543 4567 50  0000 C CNN
F 1 "LED" H 4543 4476 50  0000 C CNN
F 2 "" H 4550 4350 50  0001 C CNN
F 3 "~" H 4550 4350 50  0001 C CNN
	1    4550 4350
	1    0    0    -1  
$EndComp
$Comp
L tutotial1-rescue:MYCONN3-myLib J1
U 1 1 615C9A27
P 3800 5350
F 0 "J1" H 3800 4850 50  0000 C CNN
F 1 "MYCONN3" H 3833 5374 50  0000 C CNN
F 2 "" H 3800 5350 50  0001 C CNN
F 3 "" H 3800 5350 50  0001 C CNN
	1    3800 5350
	1    0    0    -1  
$EndComp
$Comp
L power:VCC #PWR07
U 1 1 615CCC57
P 5450 4250
F 0 "#PWR07" H 5450 4100 50  0001 C CNN
F 1 "VCC" H 5465 4423 50  0000 C CNN
F 2 "" H 5450 4250 50  0001 C CNN
F 3 "" H 5450 4250 50  0001 C CNN
	1    5450 4250
	1    0    0    -1  
$EndComp
$Comp
L power:VCC #PWR01
U 1 1 615CEEBB
P 3300 3900
F 0 "#PWR01" H 3300 3750 50  0001 C CNN
F 1 "VCC" H 3315 4073 50  0000 C CNN
F 2 "" H 3300 3900 50  0001 C CNN
F 3 "" H 3300 3900 50  0001 C CNN
	1    3300 3900
	1    0    0    -1  
$EndComp
$Comp
L power:VCC #PWR03
U 1 1 615D6B19
P 4200 5350
F 0 "#PWR03" H 4200 5200 50  0001 C CNN
F 1 "VCC" H 4215 5523 50  0000 C CNN
F 2 "" H 4200 5350 50  0001 C CNN
F 3 "" H 4200 5350 50  0001 C CNN
	1    4200 5350
	1    0    0    -1  
$EndComp
$Comp
L power:GND #PWR04
U 1 1 615D827C
P 4200 5900
F 0 "#PWR04" H 4200 5650 50  0001 C CNN
F 1 "GND" H 4205 5727 50  0000 C CNN
F 2 "" H 4200 5900 50  0001 C CNN
F 3 "" H 4200 5900 50  0001 C CNN
	1    4200 5900
	1    0    0    -1  
$EndComp
$Comp
L power:GND #PWR02
U 1 1 615D9937
P 3300 5550
F 0 "#PWR02" H 3300 5300 50  0001 C CNN
F 1 "GND" H 3305 5377 50  0000 C CNN
F 2 "" H 3300 5550 50  0001 C CNN
F 3 "" H 3300 5550 50  0001 C CNN
	1    3300 5550
	1    0    0    -1  
$EndComp
Wire Wire Line
	5300 4350 5450 4350
Wire Wire Line
	5450 4350 5450 4250
Wire Wire Line
	3300 3900 3300 4150
Wire Wire Line
	3300 5350 3300 5550
Wire Wire Line
	4400 4350 4400 4650
Wire Wire Line
	4400 4650 3900 4650
Wire Wire Line
	5000 4350 4700 4350
Wire Wire Line
	3900 4750 4400 4750
Text Label 4400 4750 2    50   ~ 0
INPUT
Text Label 4950 5550 2    50   ~ 0
INPUT
Text Label 4050 4650 0    50   ~ 0
uCtoLED
Text Label 4800 4350 1    50   ~ 0
LEDtoR
NoConn ~ 3900 4850
NoConn ~ 2700 4850
NoConn ~ 2700 4750
NoConn ~ 2700 4650
$Comp
L power:PWR_FLAG #FLG01
U 1 1 615DDD5D
P 5000 4800
F 0 "#FLG01" H 5000 4875 50  0001 C CNN
F 1 "PWR_FLAG" H 4950 4950 50  0000 C CNN
F 2 "" H 5000 4800 50  0001 C CNN
F 3 "~" H 5000 4800 50  0001 C CNN
	1    5000 4800
	1    0    0    -1  
$EndComp
$Comp
L power:PWR_FLAG #FLG02
U 1 1 615DE26C
P 5200 4800
F 0 "#FLG02" H 5200 4875 50  0001 C CNN
F 1 "PWR_FLAG" H 5350 4950 50  0000 C CNN
F 2 "" H 5200 4800 50  0001 C CNN
F 3 "~" H 5200 4800 50  0001 C CNN
	1    5200 4800
	1    0    0    -1  
$EndComp
$Comp
L power:GND #PWR05
U 1 1 615DF2DE
P 5000 5000
F 0 "#PWR05" H 5000 4750 50  0001 C CNN
F 1 "GND" H 5005 4827 50  0000 C CNN
F 2 "" H 5000 5000 50  0001 C CNN
F 3 "" H 5000 5000 50  0001 C CNN
	1    5000 5000
	1    0    0    -1  
$EndComp
$Comp
L power:VCC #PWR06
U 1 1 615DFDB5
P 5200 5000
F 0 "#PWR06" H 5200 4850 50  0001 C CNN
F 1 "VCC" H 5215 5173 50  0000 C CNN
F 2 "" H 5200 5000 50  0001 C CNN
F 3 "" H 5200 5000 50  0001 C CNN
	1    5200 5000
	-1   0    0    1   
$EndComp
Wire Wire Line
	5200 5000 5200 4800
Wire Wire Line
	5000 5000 5000 4800
Text Label 4400 5550 2    50   ~ 0
INPUTtoR
Wire Wire Line
	4000 5650 4200 5650
Wire Wire Line
	4200 5650 4200 5900
Wire Wire Line
	4000 5450 4200 5450
Wire Wire Line
	4200 5450 4200 5350
Wire Wire Line
	4700 5550 4950 5550
Wire Wire Line
	4000 5550 4400 5550
$EndSCHEMATC
